SGDRegressor,0,1,338.904969,26.801757,346.194081,327.572100,304.660320,762.956435,709.100222, 1084.919535
SVR,0,1,259.552019,13.394520,265.134421,296.622149,237.189571,501.558499,207.481055, 268.641761
Linear Regression,0,1,337.988086,27.505028,345.257479,324.028428,295.144701,769.779145,717.428293, 1088.558796
Ridge,0,1,337.988086,27.505028,345.257479,324.028428,295.144701,769.779145,717.428293, 1088.558796
Lasso,0,1,799.346788,39.769548,816.539008,838.922262,1011.434927,452.886652,247.789602, 521.141876
ElasticNet,0,1,641.786109,31.237262,655.589540,677.828310,815.987772,328.733532,62.252020, 129.514115
RandomForest,0,1,390.618913,26.510665,399.020281,425.344479,331.149891,641.240771,165.129768, 307.192143
GradientBoosting,0,1,347.043260,21.692658,354.507410,386.092898,313.906043,648.607084,182.855511, 258.618272
AdaBoost,0,1,326.682889,16.982915,333.709131,373.487828,282.733419,663.673061,237.511851, 292.757009
XGBRegressor,0,1,338.187413,20.317516,345.461092,377.897949,284.684325,625.874097,185.362655, 270.297241
SGDRegressor,0,12,295.443807,19.012492,301.798164,306.487898,303.013186,516.806842,384.879115, 564.110638
SVR,0,12,174.883372,10.875162,178.644735,196.034607,190.845713,246.307555,51.114184, 96.674302
Linear Regression,0,12,318.525623,20.882600,325.376420,332.253235,324.024248,505.893196,452.534114, 608.151868
Ridge,0,12,318.525623,20.882600,325.376420,332.253235,324.024248,505.893196,452.534114, 608.151868
Lasso,0,12,797.560179,39.614331,814.713973,835.122426,1006.778458,454.074230,250.695566, 526.330986
ElasticNet,0,12,619.530541,30.182348,632.855303,656.827353,790.048539,345.171461,69.879460, 169.498166
RandomForest,0,12,207.936246,12.646669,212.408505,220.682880,191.816510,351.000325,238.099997, 501.700000
GradientBoosting,0,12,200.875920,12.904718,205.196327,218.645578,176.400226,322.628209,168.423780, 268.833098
AdaBoost,0,12,266.605586,17.959414,272.339695,272.166394,225.651057,445.666342,335.959794, 527.057778
XGBRegressor,0,12,209.582732,13.294130,214.090404,226.782922,186.909225,332.905340,174.890463, 428.345459
SGDRegressor,0,24,259.819703,15.687460,265.407863,277.962319,278.003448,415.484811,310.594969, 398.078709
SVR,0,24,199.403343,12.895529,203.692078,220.856446,210.181248,292.779675,173.359364, 327.475690
Linear Regression,0,24,284.941882,17.281427,291.070366,306.718137,310.118168,417.662419,356.303721, 438.627029
Ridge,0,24,284.941882,17.281427,291.070366,306.718137,310.118168,417.662419,356.303721, 438.627029
Lasso,0,24,811.075075,40.752881,828.519545,862.861176,1040.485938,446.262769,229.782062, 488.893720
ElasticNet,0,24,646.660971,31.665325,660.569250,695.758923,837.757969,336.879173,77.625341, 188.444219
RandomForest,0,24,170.949099,10.641923,174.625844,192.374689,163.020848,277.138929,249.453379, 47.300000
GradientBoosting,0,24,166.264154,10.611389,169.840136,188.443945,159.466525,270.436889,178.379074, 223.805315
AdaBoost,0,24,252.328248,17.554131,257.755283,272.694903,258.681529,368.372576,418.918832, 917.710227
XGBRegressor,0,24,172.563754,10.825723,176.275227,194.935891,165.684616,277.561477,112.664927, 171.125977
SGDRegressor,0,168,230.355327,14.748871,235.309772,241.770285,222.491962,302.765659,260.287928, 150.545424
SVR,0,168,245.401272,13.856950,250.679322,277.867361,296.739079,247.208557,156.992686, 164.208039
Linear Regression,0,168,269.568592,17.355905,275.366429,293.718175,281.468504,291.675333,311.323156, 443.868851
Ridge,0,168,269.568592,17.355905,275.366429,293.718175,281.468504,291.675333,311.323156, 443.868851
Lasso,0,168,796.942496,39.560279,814.083005,833.798013,1005.152373,454.497063,251.711621, 528.144444
ElasticNet,0,168,559.907153,27.293334,571.949545,596.631801,717.382724,310.017861,102.879673, 251.646498
RandomForest,0,168,195.106548,11.540708,199.302868,220.009494,205.861675,282.264584,168.818522, 134.600000
GradientBoosting,0,168,184.220222,11.294532,188.182401,205.689174,197.103552,311.595259,162.414773, 163.074438
AdaBoost,0,168,186.296504,10.760089,190.303339,212.620229,205.724229,310.555762,180.700804, 152.492537
XGBRegressor,0,168,175.274517,10.830712,179.044292,194.363669,187.287619,288.389875,192.958274, 172.487793
SGDRegressor,1,1,345.789260,25.114962,353.226439,343.877659,275.176025,782.266801,641.857076, 1046.327594
SVR,1,1,212.848065,11.250474,217.425967,237.432405,205.688120,357.164041,20.733144, 49.832155
Linear Regression,1,1,347.071757,25.335280,354.536520,344.806735,275.938188,785.133231,641.707452, 1034.752076
Ridge,1,1,347.071757,25.335280,354.536520,344.806735,275.938188,785.133231,641.707452, 1034.752076
Lasso,1,1,374.371568,904.349494,382.423491,338.244801,270.499657,967.510490,890.339469, 1433.534404
ElasticNet,1,1,374.371568,904.349494,382.423491,338.244801,270.499657,967.510490,890.339469, 1433.534404
RandomForest,1,1,279.360697,13.964671,285.369141,308.723560,333.952751,127.295987,85.997374, 105.200000
GradientBoosting,1,1,254.300611,12.976711,259.770067,284.891472,283.776384,218.412997,113.143199, 152.484025
AdaBoost,1,1,308.306918,16.169696,314.937933,350.834080,326.045072,327.204463,122.209138, 109.000000
XGBRegressor,1,1,248.547062,12.635690,253.892771,280.072549,277.918395,219.926931,120.660700, 152.782104
SGDRegressor,1,12,298.300903,22.514675,304.716710,279.837556,266.724080,677.987638,640.913998, 1073.103721
SVR,1,12,134.661261,8.874396,137.557534,139.023726,135.683813,192.630762,125.004110, 271.811797
Linear Regression,1,12,296.461522,20.088601,302.837768,288.147836,286.426117,597.239202,560.186563, 924.117851
Ridge,1,12,296.461522,20.088601,302.837768,288.147836,286.426117,597.239202,560.186563, 924.117851
Lasso,1,12,375.362142,16.901079,383.435370,339.032644,271.600725,972.817467,894.063756, 1440.000000
ElasticNet,1,12,375.362142,16.901079,383.435370,339.032644,271.600725,972.817467,894.063756, 1440.000000
RandomForest,1,12,192.611005,12.101198,196.753651,210.226323,204.132083,148.791681,110.809634, 87.900000
GradientBoosting,1,12,199.612121,13.738610,203.905346,215.854790,210.629598,204.501415,193.091733, 138.517356
AdaBoost,1,12,194.203276,12.690884,198.380169,219.480233,212.126648,250.772843,165.019671, 192.888889
XGBRegressor,1,12,199.181942,14.570845,203.465915,214.357040,209.664730,219.618348,231.753056, 230.669678
SGDRegressor,1,24,303.034306,19.570793,309.551919,300.987013,291.484424,619.335850,577.706543, 992.330450
SVR,1,24,138.609081,9.193906,141.590263,146.318692,138.492525,234.429421,170.225503, 348.784844
Linear Regression,1,24,273.247273,15.793661,279.124231,287.776321,292.139284,318.432644,253.231524, 126.687526
Ridge,1,24,273.247273,15.793661,279.124231,287.776321,292.139284,318.432644,253.231524, 126.687526
Lasso,1,24,375.009651,2675.197451,383.075297,338.701489,271.107610,970.796941,892.812692, 1437.828087
ElasticNet,1,24,375.009651,2675.197451,383.075297,338.701489,271.107610,970.796941,892.812692, 1437.828087
RandomForest,1,24,132.566799,8.682684,135.418024,137.645140,132.620333,167.660220,113.592620, 22.900000
GradientBoosting,1,24,136.981638,8.857523,139.927816,146.217046,134.566110,214.975083,193.897305, 226.875215
AdaBoost,1,24,169.687016,10.457234,173.336616,180.033602,177.246993,228.406277,173.732553, 177.000000
XGBRegressor,1,24,133.086594,8.729389,135.948998,142.562009,134.129071,216.090514,248.204780, 315.106445
SGDRegressor,1,168,166.103448,9.717062,169.675974,168.455930,168.075649,198.755694,168.476008, 139.338918
SVR,1,168,137.357289,8.890510,140.311547,136.026336,132.223024,196.285403,206.233825, 284.031416
Linear Regression,1,168,183.781441,11.590071,187.734182,193.021640,183.416224,190.313742,195.120523, 168.946662
Ridge,1,168,183.781441,11.590071,187.734182,193.021640,183.416224,190.313742,195.120523, 168.946662
Lasso,1,168,375.370730,16.900976,383.444142,339.074805,271.683167,972.993253,894.063756, 1440.000000
ElasticNet,1,168,273.990934,19.446055,279.883886,256.841819,206.770494,687.579206,634.753198, 960.410612
RandomForest,1,168,150.342240,9.337769,153.575777,158.743531,145.346493,202.555856,156.770283, 199.200000
GradientBoosting,1,168,150.287665,9.555169,153.520028,158.505269,145.328989,200.755690,163.412683, 252.195310
AdaBoost,1,168,170.929391,10.393618,174.605712,182.232975,178.157687,266.058454,210.182752, 308.333333
XGBRegressor,1,168,153.801541,9.694735,157.109479,164.712778,147.177892,210.678155,169.644685, 251.709229
SGDRegressor,24,1,469.363714,147.377602,479.458712,462.547678,327.285661,352.721037,377.220223, 266.612423
SVR,24,1,401.952007,37.195774,410.597126,384.819841,243.971483,388.922485,348.394800, 56.167579
Linear Regression,24,1,506.249879,41.274128,517.138219,509.196557,394.991310,343.005775,349.100381, 128.861920
Ridge,24,1,506.249879,41.274128,517.138219,509.196557,394.991310,343.005775,349.100381, 128.861920
Lasso,24,1,530.050560,23.320317,541.450801,540.504860,420.358689,210.905198,188.442357, 20.147700
ElasticNet,24,1,530.050560,23.320317,541.450801,540.504860,420.358689,210.905198,188.442357, 20.147700
RandomForest,24,1,449.704251,58.808488,459.376416,441.480256,372.159301,257.349199,210.932351, 49.500000
GradientBoosting,24,1,405.643684,34.560447,414.368202,378.425339,299.195090,429.963988,391.477733, 43.708584
AdaBoost,24,1,435.352593,25.035756,444.716086,398.212518,320.351405,380.465601,352.804942, 138.343750
XGBRegressor,24,1,399.371964,38.629990,407.961591,374.434185,276.958043,438.368985,479.792157, 109.520386
SGDRegressor,24,12,405.553402,55.279782,414.275979,398.816109,271.502226,249.124233,249.916754, 488.590191
SVR,24,12,318.880122,24.746732,325.738544,316.727681,220.093919,123.255261,86.693683, 110.786449
Linear Regression,24,12,433.542115,50.613683,442.866668,437.829098,319.138091,308.246641,306.537228, 695.546726
Ridge,24,12,433.542115,50.613683,442.866668,437.829098,319.138091,308.246641,306.537228, 695.546726
Lasso,24,12,529.158856,23.078953,540.539918,538.838773,416.989863,210.434693,183.561106, 8.549751
ElasticNet,24,12,529.158856,23.078953,540.539918,538.838773,416.989863,210.434693,183.561106, 8.549751
RandomForest,24,12,366.368495,23.941650,374.248289,351.382814,286.600294,186.989830,13.798853, 27.100000
GradientBoosting,24,12,330.663404,47.595270,337.775259,319.457489,253.710790,173.068788,120.664821, 176.457746
AdaBoost,24,12,392.615887,44.658629,401.060205,376.269941,280.626230,183.681234,228.211691, 481.218750
XGBRegressor,24,12,325.604242,44.062935,332.607285,309.076978,244.635711,161.845124,90.243039, 54.010010
SGDRegressor,24,24,379.783921,23.272123,387.952251,388.347168,290.824680,140.913537,143.612721, 292.433953
SVR,24,24,237.449697,13.916094,242.556726,251.586772,227.758270,132.554292,114.180082, 113.126866
Linear Regression,24,24,424.536002,25.387060,433.666853,448.898252,344.366210,215.360607,160.634192, 390.392022
Ridge,24,24,424.536002,25.387060,433.666853,448.898252,344.366210,215.360607,160.634192, 390.392022
Lasso,24,24,528.133027,22.706763,539.492026,536.420601,411.638259,210.577995,175.004746, 12.510256
ElasticNet,24,24,528.133027,22.706763,539.492026,536.420601,411.638259,210.577995,175.004746, 12.510256
RandomForest,24,24,279.552986,14.852060,285.565566,278.659271,268.644189,191.455119,154.378258, 118.200000
GradientBoosting,24,24,221.963421,13.139015,226.737374,221.877674,217.658232,148.652802,129.105960, 62.272662
AdaBoost,24,24,286.538044,23.322689,292.700858,293.778828,258.018431,174.581497,114.453624, 0.142857
XGBRegressor,24,24,226.899650,13.356750,231.779771,223.382794,216.270642,129.132361,114.298652, 42.350708
SGDRegressor,24,168,222.046910,12.804937,226.822659,240.056074,245.226229,241.149122,95.890511, 184.790445
SVR,24,168,241.199368,13.577502,246.387045,256.269309,253.024046,177.291187,73.003808, 67.613441
Linear Regression,24,168,293.498498,17.573033,299.811015,315.017392,314.852744,269.965607,252.070477, 545.437563
Ridge,24,168,293.498498,17.573033,299.811015,315.017392,314.852744,269.965607,252.070477, 545.437563
Lasso,24,168,530.047266,23.319505,541.447436,540.499026,420.347190,210.903025,188.426205, 20.109756
ElasticNet,24,168,527.665303,23.173740,539.014242,538.321378,418.719442,207.198214,189.890521, 16.415782
RandomForest,24,168,251.718699,13.141467,257.132623,268.223895,255.592071,180.318364,120.000785, 142.300000
GradientBoosting,24,168,250.982964,13.682941,256.381064,266.479491,273.163916,210.876802,159.988277, 162.241099
AdaBoost,24,168,232.766072,13.431024,237.772366,238.758831,239.605197,147.879527,111.999077, 116.625000
XGBRegressor,24,168,253.193478,13.917027,258.639122,265.101846,272.854929,163.304796,117.397920, 85.698608
SGDRegressor,168,1,561.311407,28.500162,573.384001,607.248113,714.757349,504.066500,555.126106, 317.375991
SVR,168,1,503.008595,29.124042,513.827221,546.206489,616.526277,627.240302,637.103559, 552.119172
Linear Regression,168,1,548.815885,28.065506,560.619728,598.812553,699.634854,543.846578,584.993906, 402.634347
Ridge,168,1,548.815885,28.065506,560.619728,598.812553,699.634854,543.846578,584.993906, 402.634347
Lasso,168,1,1264.984987,62.971562,1292.192078,1255.748956,1390.285007,654.662693,441.746119, 967.542751
ElasticNet,168,1,1039.406029,79.707558,1061.761405,1036.410281,1169.325087,472.643657,391.810188, 656.730478
RandomForest,168,1,543.266170,30.992830,554.950650,574.736545,590.308441,570.436163,642.130305, 393.400000
GradientBoosting,168,1,564.076645,28.482970,576.208714,611.172344,654.859223,607.557382,618.297075, 551.132262
AdaBoost,168,1,542.697454,29.598022,554.369703,597.773503,634.121397,585.214718,618.743952, 505.913043
XGBRegressor,168,1,545.411624,27.562204,557.142248,587.687043,627.259062,587.680040,620.446769, 548.325928
SGDRegressor,168,12,458.508966,24.098212,468.370502,519.064848,580.198449,462.785009,390.551912, 256.393677
SVR,168,12,389.885988,20.620993,398.271592,435.032266,486.219165,304.627472,218.144102, 35.229569
Linear Regression,168,12,445.766373,25.456788,455.353843,485.691611,538.153321,450.734547,339.349521, 139.149979
Ridge,168,12,445.766373,25.456788,455.353843,485.691611,538.153321,450.734547,339.349521, 139.149979
Lasso,168,12,1265.392271,63.174770,1292.608122,1257.365108,1391.952163,652.636058,441.148611, 964.244186
ElasticNet,168,12,990.254325,69.589792,1011.552554,1002.060259,1110.729958,474.808464,419.249178, 749.357510
RandomForest,168,12,340.606006,17.929788,347.931705,379.019662,415.560155,423.928016,405.692086, 479.500000
GradientBoosting,168,12,328.516431,18.125545,335.582108,365.233285,390.459216,378.918024,283.119241, 213.414828
AdaBoost,168,12,363.589994,18.610291,371.410028,392.975976,433.849336,371.188472,248.276500, 70.931818
XGBRegressor,168,12,310.719734,17.591297,317.402644,344.242603,363.052895,354.693933,327.008282, 3.729492
SGDRegressor,168,24,415.397280,21.854195,424.331577,465.557159,506.401360,446.037430,408.090411, 466.815841
SVR,168,24,291.940404,17.289528,298.219410,315.746291,328.021333,298.203633,271.646215, 6.599099
Linear Regression,168,24,374.095523,24.241834,382.141509,385.636696,384.660036,414.283154,290.122853, 55.149497
Ridge,168,24,374.095523,24.241834,382.141509,385.636696,384.660036,414.283154,290.122853, 55.149497
Lasso,168,24,1258.793744,549.739366,1285.867675,1236.151162,1368.800498,675.525719,448.249836, 1001.150407
ElasticNet,168,24,984.867146,66.063847,1006.049508,987.704741,1090.830908,490.740599,428.682056, 822.555956
RandomForest,168,24,355.507588,19.156161,363.153787,391.015027,409.883671,371.214578,374.577800, 86.900000
GradientBoosting,168,24,281.196914,16.730910,287.244851,302.983736,299.646733,393.827606,431.117596, 48.845175
AdaBoost,168,24,325.809873,18.400991,332.817339,350.122094,333.642275,433.497060,389.069050, 269.352941
XGBRegressor,168,24,299.721396,17.476559,306.167755,326.131997,334.113720,372.833333,450.326085, 253.627441
SGDRegressor,168,168,399.719638,27.629655,408.316743,430.250288,411.576465,516.049864,512.094624, 78.192696
SVR,168,168,446.142888,24.725680,455.738457,489.302143,531.830272,465.202167,440.005217, 55.982214
Linear Regression,168,168,668.619494,52.674553,683.000053,753.545999,747.832382,615.929487,470.999438, 175.784076
Ridge,168,168,668.619494,52.674553,683.000053,753.545999,747.832382,615.929487,470.999438, 175.784076
Lasso,168,168,1269.957335,65.302677,1297.271370,1274.088144,1409.139949,632.317392,435.515268, 930.803922
ElasticNet,168,168,946.247003,54.149435,966.598730,966.095619,1068.324629,511.541070,462.526833, 810.560131
RandomForest,168,168,488.510164,27.543931,499.016961,547.150776,607.601308,450.829084,445.048995, 93.800000
GradientBoosting,168,168,441.377086,25.283271,450.870152,488.545889,520.985435,455.928833,444.252923, 220.742129
AdaBoost,168,168,458.732444,28.958177,468.598786,494.884649,541.119156,420.809463,321.152625, 233.500000
XGBRegressor,168,168,433.774634,24.707504,443.104188,476.055633,510.893958,418.483687,322.650683, 16.290894
