SGDRegressor,0,1,333.510206,26.049783,340.683289,319.555823,292.208622,752.755244,691.683016, 1056.695004
SVR,0,1,256.137729,13.138826,261.646697,292.378366,227.398371,499.265148,136.372896, 199.890686
Linear Regression,0,1,335.809879,27.777093,343.032423,320.317814,287.722872,775.241607,714.869323, 1092.401880
Ridge,0,1,335.809879,27.777093,343.032423,320.317814,287.722872,775.241607,714.869323, 1092.401880
Lasso,0,1,799.346788,39.769548,816.539008,838.922262,1011.434927,452.886652,247.789602, 521.141876
ElasticNet,0,1,641.786109,31.237262,655.589540,677.828310,815.987772,328.733532,62.252020, 129.514115
RandomForest,0,1,427.191814,29.724971,436.379786,472.618710,392.285785,805.062118,133.355362, 204.964426
GradientBoosting,0,1,339.366632,21.887001,346.665675,381.063487,325.032742,634.551328,150.548527, 205.035196
AdaBoost,0,1,347.339501,18.670418,354.810023,397.748532,317.316617,709.860671,231.341215, 281.692737
XGBRegressor,0,1,329.453834,21.657754,336.539673,367.220344,280.573688,586.707203,151.914611, 203.807617
SGDRegressor,0,12,276.743607,17.300303,282.695763,283.798204,285.916800,508.616441,324.788645, 488.554071
SVR,0,12,128.114130,9.110255,130.869588,139.423492,137.207365,174.825276,18.731470, 21.220410
Linear Regression,0,12,276.790074,18.368192,282.743229,271.990267,274.865237,542.709451,434.842536, 634.119119
Ridge,0,12,276.790074,18.368192,282.743229,271.990267,274.865237,542.709451,434.842536, 634.119119
Lasso,0,12,797.560179,39.614331,814.713973,835.122426,1006.778458,454.074230,250.695566, 526.330986
ElasticNet,0,12,619.530541,30.182348,632.855303,656.827353,790.048539,345.171461,69.879460, 169.498166
RandomForest,0,12,229.377491,14.576020,234.310904,235.500626,183.271218,442.322666,327.524231, 517.200000
GradientBoosting,0,12,186.820843,12.354311,190.838955,199.033769,151.860012,300.742235,174.635853, 312.517814
AdaBoost,0,12,275.202632,18.539632,281.121645,274.174428,234.638631,470.990923,343.280942, 561.313725
XGBRegressor,0,12,188.415148,12.180131,192.467550,203.820099,162.409476,293.796071,135.786326, 309.748169
SGDRegressor,0,24,242.081897,14.844207,247.288555,257.198750,260.264091,400.393045,298.104924, 407.406123
SVR,0,24,168.963560,11.487438,172.597601,187.116191,177.815769,245.956342,157.601598, 293.001094
Linear Regression,0,24,256.819882,15.769124,262.343522,273.826585,283.741582,402.636128,341.219837, 456.783629
Ridge,0,24,256.819882,15.769124,262.343522,273.826585,283.741582,402.636128,341.219837, 456.783629
Lasso,0,24,811.075075,40.752881,828.519545,862.861176,1040.485938,446.262769,229.782062, 488.893720
ElasticNet,0,24,646.660971,31.665325,660.569250,695.758923,837.757969,336.879173,77.625341, 188.444219
RandomForest,0,24,163.129427,10.300061,166.637988,180.519941,163.521155,265.279099,241.478422, 245.600000
GradientBoosting,0,24,153.941251,9.978289,157.252194,172.430599,141.544533,231.903043,177.028334, 185.031221
AdaBoost,0,24,215.023679,13.646973,219.648374,235.474391,221.177586,311.969082,276.582258, 418.134615
XGBRegressor,0,24,160.388591,10.447058,163.838203,180.871887,143.182139,256.380878,130.253948, 182.880615
SGDRegressor,0,168,213.099115,13.094398,217.682416,226.369922,210.847910,273.017226,235.705024, 116.868463
SVR,0,168,243.270989,13.745785,248.503222,275.672660,293.995814,243.039389,155.745509, 158.632798
Linear Regression,0,168,201.416003,12.700706,205.748026,216.001218,205.938475,218.254416,243.477681, 237.532058
Ridge,0,168,201.416003,12.700706,205.748026,216.001218,205.938475,218.254416,243.477681, 237.532058
Lasso,0,168,796.942496,39.560279,814.083005,833.798013,1005.152373,454.497063,251.711621, 528.144444
ElasticNet,0,168,559.907153,27.293334,571.949545,596.631801,717.382724,310.017861,102.879673, 251.646498
RandomForest,0,168,190.488563,11.008976,194.585560,217.154857,216.634487,285.616549,174.341165, 11.200000
GradientBoosting,0,168,176.697922,10.999857,180.498312,197.703755,181.608857,308.297557,169.548879, 173.571427
AdaBoost,0,168,182.952732,10.830177,186.887650,208.675107,196.547347,321.883270,201.299398, 177.412500
XGBRegressor,0,168,172.514043,10.727794,176.224447,190.805334,184.163304,291.134795,169.925609, 195.719971
SGDRegressor,1,1,344.967187,24.870744,352.386685,343.505081,274.209478,777.724360,640.323693, 1046.097030
SVR,1,1,211.925271,11.258525,216.483325,236.440051,210.256991,363.986789,213.433845, 112.211289
Linear Regression,1,1,346.012543,25.226848,353.454525,344.160772,274.712443,782.774523,646.950157, 1052.614352
Ridge,1,1,346.012543,25.226848,353.454525,344.160772,274.712443,782.774523,646.950157, 1052.614352
Lasso,1,1,374.371568,904.349494,382.423491,338.244801,270.499657,967.510490,890.339469, 1433.534404
ElasticNet,1,1,374.371568,904.349494,382.423491,338.244801,270.499657,967.510490,890.339469, 1433.534404
RandomForest,1,1,280.404748,15.082922,286.435648,309.038676,273.183299,137.702037,99.072398, 78.000000
GradientBoosting,1,1,254.786729,12.903087,260.266641,287.130520,280.959077,200.278614,112.531674, 129.595031
AdaBoost,1,1,312.685582,17.091441,319.410772,352.378270,320.575944,339.496227,160.332403, 66.857143
XGBRegressor,1,1,252.274663,12.522586,257.700545,285.278381,289.483115,218.118650,120.468115, 121.299683
SGDRegressor,1,12,299.426976,22.776333,305.867003,280.818382,268.525378,678.705167,644.542828, 1089.561584
SVR,1,12,127.490623,8.482221,130.232671,131.435590,129.435053,171.708408,123.198982, 199.372234
Linear Regression,1,12,295.319605,20.174248,301.671291,287.886064,286.535326,596.755313,571.567035, 965.100917
Ridge,1,12,295.319605,20.174248,301.671291,287.886064,286.535326,596.755313,571.567035, 965.100917
Lasso,1,12,375.362142,16.901079,383.435370,339.032644,271.600725,972.817467,894.063756, 1440.000000
ElasticNet,1,12,375.362142,16.901079,383.435370,339.032644,271.600725,972.817467,894.063756, 1440.000000
RandomForest,1,12,169.248007,11.143823,172.888166,169.818892,157.772128,149.858148,109.952838, 62.400000
GradientBoosting,1,12,200.036089,17.123922,204.338432,218.603257,217.053531,196.690811,186.347734, 165.159377
AdaBoost,1,12,194.401172,13.139787,198.582321,219.168200,228.148429,263.460823,193.227514, 302.750000
XGBRegressor,1,12,199.152417,14.871838,203.435755,215.343329,214.195313,214.658802,232.112857, 229.757080
SGDRegressor,1,24,303.961326,19.718206,310.498877,301.693510,291.359115,620.829970,586.812915, 1014.254073
SVR,1,24,129.781085,8.767531,132.572395,138.505379,134.462140,208.339890,173.220098, 341.282867
Linear Regression,1,24,257.658393,15.020370,263.200067,274.650869,280.739870,304.511324,306.778271, 349.109786
Ridge,1,24,257.658393,15.020370,263.200067,274.650869,280.739870,304.511324,306.778271, 349.109786
Lasso,1,24,375.009651,2675.197451,383.075297,338.701489,271.107610,970.796941,892.812692, 1437.828087
ElasticNet,1,24,375.009651,2675.197451,383.075297,338.701489,271.107610,970.796941,892.812692, 1437.828087
RandomForest,1,24,142.809191,9.180132,145.880708,146.039476,138.564214,209.302730,131.580267, 95.600000
GradientBoosting,1,24,136.108234,8.720634,139.035628,146.153746,136.875724,211.118270,200.804350, 216.503422
AdaBoost,1,24,177.640165,10.963283,181.460821,186.176094,178.774248,225.102191,156.159540, 207.250000
XGBRegressor,1,24,134.630667,8.831839,137.526282,144.166703,133.971222,216.161782,247.359392, 298.340332
SGDRegressor,1,168,159.637527,9.651816,163.070985,160.329066,160.661008,198.422714,139.300001, 107.544249
SVR,1,168,136.524809,8.857802,139.461162,135.391359,131.966583,196.406553,207.417217, 285.335299
Linear Regression,1,168,181.626500,11.458093,185.532893,189.988996,182.460608,184.153731,195.334399, 188.462043
Ridge,1,168,181.626500,11.458093,185.532893,189.988996,182.460608,184.153731,195.334399, 188.462043
Lasso,1,168,375.370730,16.900976,383.444142,339.074805,271.683167,972.993253,894.063756, 1440.000000
ElasticNet,1,168,273.990934,19.446055,279.883886,256.841819,206.770494,687.579206,634.753198, 960.410612
RandomForest,1,168,152.334122,9.522907,155.610499,162.390236,151.275140,242.649272,201.250598, 265.900000
GradientBoosting,1,168,150.980787,9.576959,154.228057,159.577325,146.430942,200.790192,172.794875, 273.887236
AdaBoost,1,168,171.307491,10.290338,174.991945,180.217847,173.997841,233.991234,167.766927, 200.700000
XGBRegressor,1,168,157.426418,9.795746,160.812320,167.262894,152.818477,211.112755,155.169696, 204.587036
SGDRegressor,24,1,463.297528,43.717786,473.262056,458.212325,318.596811,342.849523,398.057901, 354.424491
SVR,24,1,400.680615,36.321858,409.298389,393.602167,251.965240,360.466332,429.918181, 69.493928
Linear Regression,24,1,477.509747,56.082873,487.779949,479.382977,347.899924,345.010017,412.635460, 200.390102
Ridge,24,1,477.509747,56.082873,487.779949,479.382977,347.899924,345.010017,412.635460, 200.390102
Lasso,24,1,530.050560,23.320317,541.450801,540.504860,420.358689,210.905198,188.442357, 20.147700
ElasticNet,24,1,530.050560,23.320317,541.450801,540.504860,420.358689,210.905198,188.442357, 20.147700
RandomForest,24,1,459.685683,38.458762,469.572527,461.712523,397.740740,387.941866,600.346239, 118.000000
GradientBoosting,24,1,407.470794,44.845344,416.234609,395.888686,265.832343,451.330410,649.856597, 22.518407
AdaBoost,24,1,437.726817,24.805669,447.141374,407.778033,328.828198,380.978064,427.791575, 79.000000
XGBRegressor,24,1,397.454244,31.110844,406.002625,378.322465,253.324185,433.253729,563.189062, 20.860352
SGDRegressor,24,12,398.595510,50.200431,407.168437,391.565926,258.541183,247.460433,231.737001, 432.046089
SVR,24,12,325.053278,26.587012,332.044471,326.073502,227.323213,118.401068,84.099781, 128.464916
Linear Regression,24,12,417.297448,50.761970,426.272614,420.379971,292.012743,293.206259,259.774640, 551.872172
Ridge,24,12,417.297448,50.761970,426.272614,420.379971,292.012743,293.206259,259.774640, 551.872172
Lasso,24,12,529.158856,23.078953,540.539918,538.838773,416.989863,210.434693,183.561106, 8.549751
ElasticNet,24,12,529.158856,23.078953,540.539918,538.838773,416.989863,210.434693,183.561106, 8.549751
RandomForest,24,12,351.266281,25.092347,358.821259,340.021795,262.598947,140.053555,52.174707, 48.600000
GradientBoosting,24,12,325.739184,45.787412,332.745130,310.579091,241.713481,143.031893,76.821518, 134.825184
AdaBoost,24,12,404.205957,35.858322,412.899553,387.358989,304.709849,169.984801,142.384256, 325.197368
XGBRegressor,24,12,328.146052,41.825493,335.203764,312.052244,245.316307,158.229254,85.498327, 52.922729
SGDRegressor,24,24,372.798312,22.368254,380.816398,378.838725,276.789015,147.204129,130.203590, 244.741838
SVR,24,24,237.248656,13.849429,242.351361,252.643236,232.027815,132.368035,114.756434, 113.208198
Linear Regression,24,24,414.769246,25.048659,423.690036,436.729150,331.449195,207.359955,132.743579, 324.401851
Ridge,24,24,414.769246,25.048659,423.690036,436.729150,331.449195,207.359955,132.743579, 324.401851
Lasso,24,24,528.133027,22.706763,539.492026,536.420601,411.638259,210.577995,175.004746, 12.510256
ElasticNet,24,24,528.133027,22.706763,539.492026,536.420601,411.638259,210.577995,175.004746, 12.510256
RandomForest,24,24,265.440348,14.730272,271.149396,263.901903,234.726453,174.864270,93.394870, 76.500000
GradientBoosting,24,24,227.394111,13.328072,232.284866,228.956082,223.755771,145.491287,123.885491, 1.004551
AdaBoost,24,24,263.274125,15.147063,268.936582,261.443697,242.895866,193.539096,119.835085, 70.133333
XGBRegressor,24,24,223.250408,12.975749,228.052041,224.262134,217.438793,117.594980,119.623956, 0.210327
SGDRegressor,24,168,222.568753,12.747704,227.355726,236.335884,240.649531,221.925286,95.649497, 224.709748
SVR,24,168,241.466679,13.587161,246.660105,256.584314,253.475865,178.565257,74.262446, 61.409620
Linear Regression,24,168,252.739261,15.153283,258.175136,266.384994,258.988343,254.308659,177.691624, 392.691088
Ridge,24,168,252.739261,15.153283,258.175136,266.384994,258.988343,254.308659,177.691624, 392.691088
Lasso,24,168,530.047266,23.319505,541.447436,540.499026,420.347190,210.903025,188.426205, 20.109756
ElasticNet,24,168,527.665303,23.173740,539.014242,538.321378,418.719442,207.198214,189.890521, 16.415782
RandomForest,24,168,249.602338,14.304526,254.970745,269.560829,232.046493,141.543672,93.371454, 61.100000
GradientBoosting,24,168,254.598324,13.755995,260.074183,268.056696,268.701725,205.486152,163.801239, 194.862736
AdaBoost,24,168,236.886465,13.034859,241.981380,239.026440,235.823970,131.449712,143.300585, 162.454545
XGBRegressor,24,168,262.036214,14.055989,267.672047,277.324086,278.966971,197.887313,154.048415, 111.387573
SGDRegressor,168,1,560.158644,28.341231,572.206445,607.929254,715.420248,508.972459,552.430049, 269.656361
SVR,168,1,486.605366,28.875865,497.071195,530.761391,580.331968,684.026896,643.754831, 592.081546
Linear Regression,168,1,548.769266,28.113494,560.572106,601.915694,702.592760,553.933858,583.091928, 344.900113
Ridge,168,1,548.769266,28.113494,560.572106,601.915694,702.592760,553.933858,583.091928, 344.900113
Lasso,168,1,1264.984987,62.971562,1292.192078,1255.748956,1390.285007,654.662693,441.746119, 967.542751
ElasticNet,168,1,1039.406029,79.707558,1061.761405,1036.410281,1169.325087,472.643657,391.810188, 656.730478
RandomForest,168,1,579.461117,34.936237,591.924072,626.921066,657.368268,675.048138,666.875202, 562.500000
GradientBoosting,168,1,574.589992,28.765776,586.948180,632.643749,670.761492,641.540885,622.593623, 538.166391
AdaBoost,168,1,514.373157,28.224543,525.436211,558.979917,587.689663,594.076126,614.320307, 486.375000
XGBRegressor,168,1,540.704434,27.982239,552.333816,587.059832,626.423108,631.110668,625.423555, 560.487183
SGDRegressor,168,12,459.921367,23.804914,469.813280,521.906339,585.183264,473.193630,376.939238, 317.101769
SVR,168,12,358.132484,17.467923,365.835139,408.548679,461.012035,272.564365,183.585927, 35.163453
Linear Regression,168,12,432.345773,23.299411,441.644596,478.011843,539.638666,408.266313,338.688852, 150.836689
Ridge,168,12,432.345773,23.299411,441.644596,478.011843,539.638666,408.266313,338.688852, 150.836689
Lasso,168,12,1265.392271,63.174770,1292.608122,1257.365108,1391.952163,652.636058,441.148611, 964.244186
ElasticNet,168,12,990.254325,69.589792,1011.552554,1002.060259,1110.729958,474.808464,419.249178, 749.357510
RandomForest,168,12,353.681457,19.015725,361.288380,398.924590,426.647991,397.975765,411.401687, 236.000000
GradientBoosting,168,12,324.942470,17.931711,331.931280,360.173833,385.901509,394.768159,316.732830, 148.612263
AdaBoost,168,12,364.632211,19.082974,372.474661,395.425516,421.964789,456.876747,437.766921, 202.438356
XGBRegressor,168,12,325.980882,17.738525,332.992025,360.029183,385.977932,403.403193,362.152802, 267.552734
SGDRegressor,168,24,424.811767,23.297176,433.948549,475.167425,505.361170,459.113046,435.958105, 440.508600
SVR,168,24,248.674847,14.886283,254.023305,273.406089,275.244749,281.780142,294.685693, 60.208301
Linear Regression,168,24,321.970763,19.663981,328.895658,331.907083,348.149375,302.407050,248.606270, 162.280946
Ridge,168,24,321.970763,19.663981,328.895658,331.907083,348.149375,302.407050,248.606270, 162.280946
Lasso,168,24,1258.793744,549.739366,1285.867675,1236.151162,1368.800498,675.525719,448.249836, 1001.150407
ElasticNet,168,24,984.867146,66.063847,1006.049508,987.704741,1090.830908,490.740599,428.682056, 822.555956
RandomForest,168,24,351.159577,17.721039,358.712260,393.702971,433.763833,289.997976,242.166974, 128.500000
GradientBoosting,168,24,272.069259,15.705075,277.920880,299.869191,295.137651,376.033859,424.648054, 73.327320
AdaBoost,168,24,312.761985,17.145588,319.488819,340.456209,324.908073,372.693637,323.641267, 191.615385
XGBRegressor,168,24,277.742411,16.322100,283.716050,305.013151,305.470231,386.065927,471.843673, 234.115479
SGDRegressor,168,168,450.241087,43.848805,459.924799,481.504568,471.905850,579.996550,489.761182, 105.713667
SVR,168,168,442.150684,24.585390,451.660389,485.515187,526.046307,463.740525,442.299590, 76.173202
Linear Regression,168,168,676.378416,53.165084,690.925853,765.424415,764.367898,634.716290,486.384046, 168.495165
Ridge,168,168,676.378416,53.165084,690.925853,765.424415,764.367898,634.716290,486.384046, 168.495165
Lasso,168,168,1269.957335,65.302677,1297.271370,1274.088144,1409.139949,632.317392,435.515268, 930.803922
ElasticNet,168,168,946.247003,54.149435,966.598730,966.095619,1068.324629,511.541070,462.526833, 810.560131
RandomForest,168,168,475.998935,31.119711,486.236643,512.279303,564.429806,412.439088,470.431407, 48.400000
GradientBoosting,168,168,431.394801,24.601527,440.673170,481.305875,510.819057,469.444110,423.299544, 305.898742
AdaBoost,168,168,467.568052,29.475256,477.624430,508.108418,566.101867,432.665217,307.577775, 238.153846
XGBRegressor,168,168,426.669895,23.441999,435.846642,474.339330,508.378947,419.716610,297.185643, 59.795532
