[2698.21046283]
[2733.42752878]
[2940.6245416]
[2969.70103361]
[2807.93172215]
[2840.15680788]
[2908.85215328]
[2783.59570536]
[2641.03595739]
[2445.57771576]
[2239.06194488]
[2081.42640788]
[1903.26464613]
[0.]
[522.56790017]
[1267.94953309]
[1450.72707328]
[1376.67991701]
[1338.7383962]
[1344.3022385]
[1406.85295355]
[2027.57275282]
[2632.94643207]
[2905.26508685]
[3047.78345769]
[3106.21651225]
[3214.3418163]
[3307.38538764]
[3338.63439537]
[3246.09496556]
[3241.72205615]
[3246.33389002]
[3183.14243452]
[2913.84031399]
[2561.24860962]
[2337.58068638]
[2155.40249799]
[1970.55431124]
[0.]
[473.29724505]
[1111.43609203]
[1253.15183773]
[1213.66601872]
[1174.93102123]
[1341.80788087]
[1293.46386825]
[1607.47865369]
[2351.40934442]
[2665.36044519]
[2794.96348231]
[2815.39503536]
[2893.12844718]
[3038.80403572]
[3049.74176735]
[2922.48545469]
[2945.94868066]
[2925.344416]
[2869.35039264]
[2607.81119657]
[2257.16553697]
[2067.75492462]
[1908.47017433]
[1771.03735364]
[0.]
[486.26695899]
[1189.18824062]
[1320.39711094]
[1263.02028894]
[1225.08912476]
[1241.14544362]
[1319.46623853]
[1659.31521076]
[2434.08688101]
[2745.2830928]
[3083.23318666]
[2935.76225145]
[2973.46229257]
[3114.31438624]
[3062.44006806]
[2883.56933467]
[2957.00280614]
[3036.5703224]
[3001.9420313]
[2691.32674778]
[2453.71679981]
[2173.53030351]
[2033.06718199]
[1893.60423283]
[0.]
[477.35694422]
[1201.02788483]
[1329.86957882]
[1258.77418997]
[1236.46124775]
[1203.59603094]
[1270.19607016]
[1629.86423695]
[2340.24965716]
[2607.28804026]
[2709.6939689]
[2761.38241935]
[2921.16819802]
[2990.9072286]
[3031.49536044]
[2928.44719805]
[2921.64131454]
[2924.44631813]
[3008.86780666]
[2765.10756947]
[2489.16370781]
[2173.67363907]
[2128.17559346]
[1871.37257053]
[0.]
[489.62765174]
[1237.4659853]
[1351.08846686]
[1258.36532835]
[1213.7192258]
[1176.13054084]
[1210.92906983]
[1375.19643082]
[1694.10879803]
[1987.65858632]
[2236.0344418]
[2398.68062261]
[2564.73941787]
[2389.26834539]
[2668.63580982]
[2698.02041765]
[2678.27661525]
[2796.16560103]
[2757.76516025]
[2627.64680391]
[2615.2209879]
[2494.18575155]
[2385.59436813]
[2177.70137066]
[0.]
[567.10679351]
[1428.77196395]
[1564.65895533]
[1642.4458458]
[1362.56534728]
[1252.5676519]
[1257.32973278]
[1329.59238613]
[1455.69741193]
[1752.5800797]
[1954.18278193]
[2184.05018342]
[2354.50580197]
[2329.21977403]
[2451.66544198]
[2707.22050041]
[2749.96101005]
[2721.39646546]
[2601.20700391]
[2603.32627376]
[2591.36410143]
[2320.42886952]
[2190.02992365]
[1867.00821722]
[0.]
[518.68247321]
[1275.28798976]
[1445.71978456]
[1411.28299978]
