[2340.83592852]
[2377.54457525]
[2806.05104862]
[2910.41178327]
[2544.64945774]
[2611.86439884]
[1406.73239103]
[3555.29368869]
[2688.29853058]
[2251.54409915]
[2194.10395148]
[1556.51577844]
[1804.56779873]
0
[1335.50234204]
[1361.53888315]
[1784.60835148]
[1496.01140152]
[1631.96128767]
[1691.63345208]
[1487.02467453]
[2128.18992318]
[3082.0972211]
[3276.84032475]
[3111.75979202]
[2892.35356289]
[2854.40888714]
[3127.41480356]
[3224.41021603]
[3005.69927364]
[3022.58444367]
[1726.02257585]
[3942.04469632]
[2992.33510794]
[2248.12511199]
[1989.65598829]
[1923.59425848]
[1959.39879712]
0
[1207.61102677]
[1304.52991969]
[1482.25029554]
[1358.76346082]
[1485.66193946]
[1759.16338733]
[1419.75504151]
[1609.87658564]
[2637.62490495]
[3026.44341139]
[2965.72612829]
[2591.42676885]
[2632.99897273]
[2892.79155062]
[2947.39367181]
[2652.73374483]
[2687.66061377]
[1455.82153246]
[3642.05782475]
[2662.12229552]
[1746.45022909]
[1823.49008148]
[1734.65633456]
[1682.09809495]
0
[1223.74518515]
[1310.9153016]
[1580.69461708]
[1426.66780124]
[1465.85750737]
[1651.41873672]
[1386.00543319]
[1720.40277573]
[2767.5668149]
[3180.93122581]
[3274.29153896]
[2725.5349525]
[2829.17188814]
[3124.30695519]
[3021.50111222]
[2618.13508982]
[2671.53752273]
[1345.70798123]
[4143.5898978]
[2840.66529935]
[1891.83631123]
[1979.73816131]
[1875.15953694]
[2155.44320564]
0
[1042.67156906]
[1361.68379213]
[1724.62699636]
[1615.18276271]
[1527.66271733]
[1473.4105938]
[1438.63003681]
[1822.49721977]
[2590.50799858]
[2913.23946288]
[2986.67450007]
[2634.69862371]
[2747.41091445]
[2758.60010749]
[3060.34642585]
[2550.03926023]
[2699.26074699]
[1340.8713382]
[3977.31506641]
[2840.01732286]
[1918.6176699]
[2008.20354615]
[1980.55063614]
[1619.21953813]
0
[593.74756087]
[1344.82281457]
[1842.02961466]
[1626.4272972]
[1325.00285505]
[1048.38154419]
[1329.85171538]
[1542.20475182]
[1901.30631925]
[2139.71923623]
[2271.17903866]
[2318.86436606]
[2563.84289237]
[2252.46221455]
[2589.76229818]
[2625.71321344]
[2463.68786067]
[1190.82391857]
[3945.57331211]
[2558.3800517]
[2066.57332781]
[2300.11622397]
[2141.76348765]
[2026.92298223]
0
[404.55401484]
[1411.30163848]
[2009.29942262]
[1739.30851306]
[1654.98394188]
[884.0248753]
[1350.54104777]
[1616.74201346]
[1556.58606311]
[1995.58986193]
[2186.59658646]
[1931.29484376]
[2416.27904002]
[2599.43896136]
[2163.88702527]
[2424.83723951]
[2438.75919141]
[1313.92507553]
[3328.78978609]
[2836.4503277]
[2094.64950292]
[2029.0595717]
[2039.34263555]
[1799.53317979]
0
[1231.65257959]
[1937.2098968]
[1415.96546703]
[1412.32932194]
