[1735.57136794]
[2538.02369749]
[3630.52036734]
[2711.6572954]
[1534.53601556]
[2525.99785886]
[1978.96563097]
[3400.89838638]
[1475.43708229]
[2766.50432684]
[1788.44554369]
[1297.87198052]
[1363.11675924]
0
[2236.17186277]
[1495.9055678]
[1766.88946506]
[2121.11790148]
[1441.80888321]
[1512.1107661]
[2228.47038306]
[2785.05225659]
[3125.35988602]
[3154.95976593]
[3080.68017374]
[2899.96012032]
[2960.59997016]
[3183.36459257]
[3026.25942524]
[2638.81564438]
[2804.65814343]
[1640.46748745]
[4005.68687142]
[2268.28455404]
[1378.99781851]
[1714.14775453]
[2425.4595681]
[1774.96146783]
0
[856.35864835]
[1914.13469385]
[1951.26367852]
[1423.19091791]
[1451.02168935]
[2170.27519843]
[1846.30094546]
[1714.36056172]
[3075.75293656]
[3506.61037215]
[2699.7716375]
[2108.32797149]
[3024.12046792]
[3360.04711293]
[2502.16767396]
[2083.06215341]
[2813.14275044]
[1596.10600118]
[3419.55690766]
[1874.58910623]
[1206.66108065]
[1758.99507313]
[1998.15241984]
[1460.23714878]
0
[907.19711903]
[1594.92842724]
[1988.5960432]
[1736.83669187]
[1351.37037175]
[1779.14403569]
[1952.04704815]
[2056.45089341]
[3052.67812003]
[3400.50547231]
[3166.20676617]
[2353.07108408]
[2988.8547209]
[3448.91045425]
[2777.56165272]
[2126.484764]
[2730.16959998]
[1660.23181812]
[4171.18482424]
[1885.62838322]
[1129.59378381]
[2045.0717895]
[2461.35945304]
[1747.29634718]
0
[1049.61935854]
[1946.47130377]
[2038.33502511]
[1645.24317111]
[1510.19978674]
[1841.71840645]
[1973.59798721]
[2078.34101686]
[2959.50737973]
[3248.59086057]
[2850.89188088]
[2355.94879708]
[3062.95453639]
[3117.36376399]
[2811.64155977]
[2099.84051256]
[2796.27620426]
[1469.52182604]
[3946.06353491]
[2100.92073536]
[1184.35413218]
[1883.12508971]
[2463.53110779]
[1339.61742059]
0
[421.69705455]
[1912.82207137]
[2057.49626327]
[1445.50692321]
[1068.75960801]
[1455.35749895]
[2016.16543737]
[1533.05341829]
[1841.60272398]
[2532.06876813]
[2551.25246162]
[2114.01937332]
[2499.5483556]
[2394.88419693]
[2583.63955377]
[2404.07347458]
[2388.99940577]
[1135.86899958]
[4091.98944336]
[2014.65479662]
[1244.77573216]
[2219.62372133]
[2709.79858982]
[1561.39070362]
0
[204.95883089]
[2015.04492531]
[2214.84503251]
[1555.65176931]
[1160.28844342]
[1068.82526688]
[2012.53159944]
[1662.34389407]
[1312.14472556]
[2228.5226803]
[2644.47072798]
[1862.11476866]
[2229.79724846]
[2828.67032576]
[2212.92246398]
[2193.02065045]
[2523.83743734]
[1417.38463475]
[3102.46050728]
[2295.02036413]
[1627.4319824]
[1788.19081315]
[2221.65216537]
[1535.59356192]
0
[878.94450857]
[2254.8071362]
[1833.2421464]
[1729.64962821]
