[2326.98951562]
[2447.93086682]
[2708.57256583]
[2887.97196459]
[2488.6994263]
[2679.29546528]
[1380.83191855]
[3572.32462337]
[2600.99723113]
[2331.881912]
[2362.50796212]
[1515.56214168]
[1944.40844053]
0
[1410.42097513]
[1520.61052266]
[1860.9207253]
[1352.23692731]
[1747.23992678]
[1581.81749406]
[1540.09508223]
[2064.47582527]
[3016.12817794]
[3116.42889632]
[3125.68975518]
[2862.92723039]
[2861.89124571]
[3075.0012154]
[3188.95940373]
[2990.8573902]
[3057.63053751]
[1738.14060692]
[3960.80752512]
[2921.29430759]
[2342.4676158]
[2199.6081401]
[1875.40960715]
[2080.57748787]
0
[1355.26859453]
[1435.7939563]
[1553.65733754]
[1243.15661372]
[1564.67861826]
[1652.4729874]
[1447.63759643]
[1542.58245857]
[2608.69632469]
[2821.70813413]
[2939.3073037]
[2562.91219269]
[2635.56707356]
[2844.2376692]
[2894.24272722]
[2646.18572816]
[2709.92187904]
[1459.66549072]
[3632.75302923]
[2604.57854463]
[1845.98558312]
[2030.31914179]
[1665.94823209]
[1801.59461397]
0
[1332.88161942]
[1452.3020138]
[1660.22382089]
[1293.01645491]
[1570.99289335]
[1537.96422488]
[1437.9651272]
[1633.36564085]
[2719.71622659]
[2983.82372949]
[3246.12133089]
[2691.69518501]
[2842.99362673]
[3105.17784169]
[2960.21707557]
[2655.1466274]
[2681.72661168]
[1344.20346503]
[4085.14634785]
[2765.2461431]
[2009.77919962]
[2206.20331366]
[1775.57677943]
[2304.96389088]
0
[1217.29421571]
[1460.92764856]
[1761.67833822]
[1491.4717445]
[1626.49727506]
[1383.53063412]
[1479.3580754]
[1721.4792979]
[2523.57540842]
[2737.20042207]
[2938.29180648]
[2604.39779979]
[2736.14058751]
[2704.34210012]
[3002.51280576]
[2535.51678811]
[2699.97917498]
[1350.08439724]
[3923.49488201]
[2784.19085724]
[2008.28598004]
[2248.53488199]
[1888.72895219]
[1777.08793444]
0
[743.849055]
[1420.57319566]
[1908.58167686]
[1464.27411949]
[1531.39975673]
[936.22593196]
[1422.82878696]
[1396.25750631]
[1910.40401889]
[2024.23979824]
[2248.15237742]
[2246.87113615]
[2538.22384109]
[2202.88946744]
[2605.05996]
[2595.75833416]
[2433.60492003]
[1237.33798312]
[3886.03984584]
[2494.76736286]
[2166.91583792]
[2472.90332479]
[2020.02233076]
[2187.59939207]
0
[553.26319185]
[1532.76041941]
[2061.55983902]
[1542.58311216]
[1884.40935594]
[758.42660942]
[1530.71862575]
[1458.47655581]
[1609.32257706]
[1935.5134802]
[2178.40481815]
[1869.72101942]
[2426.52745774]
[2513.02687491]
[2176.39504547]
[2433.44608785]
[2385.92614437]
[1277.99825679]
[3337.86695103]
[2749.242901]
[2180.40493581]
[2168.6741081]
[2010.10493476]
[1893.23958722]
0
[1347.58143737]
[2078.491999]
[1498.95851247]
[1295.85425506]
