[2662.96799086]
[2284.18821871]
[2473.22556832]
[2209.05729492]
[2008.92650873]
[2061.33775582]
[618.11800635]
[2547.03476569]
[1156.52194978]
[2054.34520733]
[1454.76119913]
[1362.02262657]
[1421.4744362]
0
[1506.50891479]
[2671.75295645]
[2025.51444039]
[2367.86332284]
[2316.30767356]
[2516.65416489]
[2334.20961035]
[2847.47255449]
[3031.44596077]
[3131.03913508]
[3033.3221839]
[2772.06225738]
[2571.56784678]
[2518.07261656]
[2414.50918871]
[2197.12291638]
[2226.68074708]
[767.82157973]
[2761.96656626]
[1248.58733077]
[2040.79676916]
[1259.55567841]
[1600.39996601]
[1411.01194099]
0
[1554.0081133]
[2561.64943852]
[1933.22791172]
[2338.82681222]
[2229.24036688]
[2667.94365494]
[2224.70249429]
[2622.58800823]
[2918.04315226]
[2897.71408054]
[2968.85290807]
[2554.6699438]
[2554.39330346]
[2423.69873509]
[2339.40454405]
[2044.90234809]
[2100.20140511]
[633.11484924]
[2636.04740369]
[1096.53695536]
[1714.05152434]
[1202.79062657]
[1407.87058867]
[1279.77100857]
0
[1396.2198414]
[2612.28382412]
[1866.49397802]
[2368.91219332]
[2148.26154698]
[2560.17571559]
[2226.78943327]
[2593.92312473]
[2979.90328885]
[2974.44597303]
[3213.67491629]
[2515.50700408]
[2852.00664383]
[2624.9816843]
[2590.17200478]
[2217.31902919]
[2299.71739788]
[607.42741599]
[3100.17894773]
[1202.08114536]
[2106.14335768]
[1318.41662979]
[1721.4763809]
[1768.21248526]
0
[1574.5870271]
[2601.33744568]
[2077.50478667]
[2582.58364337]
[2384.63339876]
[2571.81623822]
[2472.54163216]
[2763.32926549]
[3019.84734827]
[2941.78695989]
[3114.72862279]
[2716.73764875]
[2806.52378338]
[2405.5696536]
[2660.42180569]
[1970.45516743]
[2292.39867522]
[516.67539841]
[3009.97349765]
[1094.62915851]
[1973.5588418]
[1246.02274452]
[1725.15917489]
[1117.25684906]
0
[609.84734772]
[2408.5700464]
[1517.88091696]
[2378.03132937]
[1871.95325426]
[1974.97280002]
[1987.92008272]
[2115.56118139]
[2329.11772122]
[2356.60347705]
[2395.06128619]
[2273.6393849]
[2389.33644947]
[1954.64927951]
[2445.21724107]
[1968.03417072]
[2099.18827461]
[566.78760677]
[2984.31834381]
[1074.68944619]
[2147.87041198]
[1298.11512056]
[1678.98330469]
[1320.94362018]
0
[280.58738813]
[2407.1361235]
[1235.73395818]
[2201.66996753]
[1677.76884028]
[1608.10996456]
[1829.71255485]
[1920.83609905]
[1988.22233969]
[2333.87612778]
[2314.04862735]
[2127.30554662]
[2366.9926417]
[2337.07575064]
[2127.79337052]
[2173.94798248]
[1796.02936238]
[688.69632257]
[2347.00501374]
[1462.56153172]
[1787.72231729]
[1289.81544692]
[1582.86246499]
[1255.71477401]
0
[1388.1884622]
[3294.42763065]
[1700.7297287]
[2673.91963265]
