[2821.49656751]
[2860.57990868]
[3144.21867882]
[3117.14999884]
[2893.63718821]
[2990.85067873]
[3064.00902891]
[2868.56306288]
[2712.20674154]
[2471.66367713]
[2235.13199105]
[2066.75446221]
[1853.27839644]
0
0
[1455.39823009]
[1351.16997792]
[1270.99558839]
[1236.92307692]
[1253.96271616]
[1340.15317287]
[2212.05458515]
[2862.46623094]
[3095.96738902]
[3242.27765727]
[3289.37229437]
[3428.66522678]
[3524.86422245]
[3543.89677419]
[3407.59656222]
[3430.63811563]
[3429.62820513]
[3339.42857143]
[2981.66170213]
[2568.78131635]
[2348.31144068]
[2141.87315011]
[1928.42194093]
0
0
[1203.90356394]
[1129.75105084]
[1091.6743215]
[1046.58333333]
[1292.0956318]
[1168.84232365]
[1639.81780538]
[2577.75206612]
[2811.2288638]
[2941.49176955]
[2941.48664691]
[3048.7008196]
[3227.0593047]
[3203.00408271]
[3030.64766259]
[3098.7804878]
[3054.68559838]
[2985.54048583]
[2636.83232323]
[2223.99798387]
[2047.64184748]
[1863.27108281]
[1710.96593186]
0
0
[1307.16334661]
[1199.95228628]
[1143.84325397]
[1103.76633663]
[1135.83201581]
[1239.03747535]
[1692.93110236]
[2675.85854385]
[2899.29215686]
[3320.10958674]
[3028.53515625]
[3139.74658652]
[3310.07198661]
[3201.85631068]
[2976.41472739]
[3123.69439072]
[3201.83976834]
[3136.70905588]
[2720.90576923]
[2478.43761996]
[2140.78927203]
[2015.54875717]
[1848.22900763]
0
0
[1311.21062619]
[1211.02272727]
[1133.87901701]
[1119.85471478]
[1077.77777668]
[1179.97180451]
[1658.87054409]
[2543.52434457]
[2731.8728972]
[2835.06156716]
[2885.15083799]
[3094.53531599]
[3147.62894249]
[3191.70555339]
[3040.42144177]
[3060.45387454]
[3059.44751381]
[3174.6544117]
[2815.99266055]
[2508.42673827]
[2135.7440585]
[2146.76277157]
[1791.1147541]
0
0
[1358.33152174]
[1229.09946074]
[1127.91877256]
[1087.84865104]
[1044.77338451]
[1102.87971275]
[1319.26880757]
[1716.980322]
[2041.55892857]
[2319.0516934]
[2487.34875445]
[2682.69271758]
[2399.18794326]
[2844.97345133]
[2792.87809187]
[2775.84479718]
[2942.13380385]
[2853.97539854]
[2691.6877193]
[2707.71278459]
[2536.41083916]
[2421.20767888]
[2156.74564412]
0
0
[1649.86481623]
[1460.53806228]
[1614.8048392]
[1182.06034232]
[1126.96730103]
[1147.00343326]
[1245.1732417]
[1401.4417776]
[1786.0991453]
[1983.43515358]
[2263.9114091]
[2441.21088435]
[2365.07979626]
[2555.4]
[2872.93401126]
[2860.91047297]
[2822.84316873]
[2661.56902357]
[2700.63193277]
[2674.58557047]
[2297.95309725]
[2198.78595318]
[1765.06176934]
0
0
[1439.52159468]
[1339.3565517]
[1314.31622517]
