[2777.51138136]
[2857.17001985]
[3087.91554202]
[3149.72240091]
[2940.44301269]
[2951.12445453]
[3058.09467974]
[2918.28300957]
[2729.54994772]
[2510.26030736]
[2264.91872434]
[2082.03639012]
[1884.05018965]
0
[328.3239998]
[972.10001756]
[1498.81895065]
[1281.16203304]
[1238.6935244]
[1248.0345854]
[1322.911268]
[2025.33558766]
[2796.48719138]
[3103.96342383]
[3232.87619933]
[3293.43917662]
[3404.42127198]
[3517.98634976]
[3549.60494234]
[3439.43515758]
[3414.88782292]
[3433.07457765]
[3359.67228099]
[3050.62830013]
[2624.56607851]
[2357.82837932]
[2165.46909881]
[1954.44303045]
0
[238.82926767]
[814.83508074]
[1251.20649695]
[1093.91219998]
[1053.36077715]
[1237.17201405]
[1216.3161386]
[1530.52757169]
[2425.42940454]
[2847.73096241]
[2936.93001329]
[2954.0756816]
[3027.98647173]
[3201.60487552]
[3224.82723328]
[3064.32709994]
[3070.63577802]
[3070.64907959]
[2996.55357281]
[2701.95048063]
[2276.08392121]
[2045.97518639]
[1884.42556977]
[1724.8553982]
0
[291.53780346]
[888.69871737]
[1336.78542991]
[1146.97201495]
[1107.87260389]
[1126.29674167]
[1220.83946713]
[1608.15237331]
[2516.66380599]
[2943.26811803]
[3258.49876883]
[3126.12998792]
[3091.72024745]
[3287.352361]
[3239.88444103]
[3012.25187161]
[3074.82048701]
[3200.58389899]
[3157.66078358]
[2798.47695975]
[2489.34926995]
[2185.43914667]
[2009.43149923]
[1869.89746195]
0
[264.35231629]
[899.97829326]
[1347.2756111]
[1141.44933243]
[1116.59700079]
[1085.58629908]
[1156.16961233]
[1571.3397574]
[2410.74312801]
[2774.46853203]
[2832.55130126]
[2885.42092504]
[3059.03731149]
[3156.92346531]
[3188.7526238]
[3074.70964345]
[3043.82871292]
[3062.28239598]
[3152.96898278]
[2897.14280862]
[2536.77099773]
[2180.28049785]
[2111.35632038]
[1861.17413443]
0
[293.9782871]
[927.52026807]
[1378.08871854]
[1137.49652166]
[1087.54866092]
[1050.39892408]
[1087.88472331]
[1281.29630642]
[1656.80265445]
[2012.80560295]
[2293.90283001]
[2479.88666607]
[2660.21707233]
[2473.57338562]
[2731.57535449]
[2844.41326321]
[2775.27764782]
[2908.42408586]
[2887.27045766]
[2716.66403602]
[2690.65792257]
[2572.52850955]
[2429.22717855]
[2199.192197]
0
[395.81082181]
[1104.5117961]
[1643.36918108]
[1566.39628625]
[1287.92355708]
[1101.92514433]
[1138.4924969]
[1226.53528101]
[1377.22643726]
[1718.75548708]
[1975.84418528]
[2222.95635902]
[2429.48946171]
[2397.36932446]
[2509.49790096]
[2824.02408335]
[2892.22835367]
[2830.55582418]
[2692.73515901]
[2679.03831734]
[2684.24200272]
[2375.14707271]
[2186.9764051]
[1847.02241128]
0
[318.22286625]
[975.50678734]
[1488.08156448]
[1311.6127859]
