[2368.37254807]
[2393.13146736]
[2475.34372448]
[2554.86335877]
[2805.69808687]
[2809.86892167]
[2336.39548325]
[2321.06068869]
[2525.50880578]
[2160.00556135]
[1812.32383468]
[1416.1081603]
[103.16280502]
0
[1589.70013426]
[918.47881476]
[979.00211385]
[736.40102443]
[1212.44544299]
[1822.61572052]
[2513.53052775]
[3104.69135796]
[2578.37423007]
[2637.58257693]
[2948.69852198]
[3370.98508781]
[3407.34718681]
[3085.49024234]
[3136.56516484]
[3237.48968104]
[3054.16333054]
[2936.31463647]
[2700.78395368]
[2476.26982583]
[2297.34167562]
[2012.68832552]
[1775.89355897]
[79.20137081]
0
[1633.12538442]
[1040.89026113]
[1138.36644376]
[849.541629]
[1275.69329705]
[2274.57459637]
[2776.42968497]
[2700.06617102]
[2722.64440973]
[2840.25811509]
[3204.96531294]
[3497.55198162]
[3440.18206169]
[3219.12880613]
[3224.21447999]
[3258.05206203]
[3203.11426507]
[2865.83858505]
[2456.62128255]
[2325.38637422]
[2152.10257557]
[1926.85872656]
[1421.49939082]
0
0
[1445.97756027]
[1027.3787473]
[1119.63383771]
[1013.2676652]
[1172.54032083]
[1685.38904943]
[2529.91541192]
[2605.10171948]
[2629.59205611]
[2735.22151664]
[3000.61994058]
[3420.15920877]
[3310.41031377]
[3059.56173531]
[3052.86572905]
[3006.05602728]
[2980.45826886]
[2687.27636284]
[2314.34160341]
[2251.73534534]
[2098.15216306]
[1920.2861576]
[1701.30533003]
[82.46746314]
0
[1482.71266434]
[1006.63548388]
[1137.691586]
[837.03998333]
[1254.89030003]
[1780.8367721]
[2611.44470003]
[2669.24610652]
[2915.38144674]
[2686.57749324]
[2876.81948788]
[3275.19757039]
[3153.46654133]
[2940.8427087]
[3099.08222372]
[3202.72843521]
[3127.16296543]
[2700.16272286]
[2452.96201358]
[2240.24213582]
[2181.96570526]
[2053.55482605]
[1654.16785438]
[71.80723496]
0
[1519.25735824]
[1021.7824816]
[1190.77938511]
[775.463787]
[1181.43566952]
[1747.85532129]
[2482.91756549]
[2497.3200489]
[2318.45042113]
[2329.0697368]
[2647.91083974]
[2908.80757763]
[3048.48365229]
[2867.37373167]
[2797.33481427]
[2877.4260302]
[3001.17653852]
[2752.01729007]
[2459.60184685]
[2128.86284323]
[2242.36120664]
[2004.03193965]
[1880.71338379]
[279.81363499]
0
[1669.93743434]
[1016.91837146]
[1214.28583045]
[800.30784471]
[1285.05432206]
[1539.85159504]
[1771.54057539]
[1933.36190878]
[2027.51513403]
[2150.28104215]
[2395.86869867]
[2177.29155829]
[2736.49963839]
[2750.19277534]
[2654.06068745]
[2883.39690564]
[2776.89694245]
[2660.70878548]
[2737.24447988]
[2512.65242901]
[2412.71455272]
[2160.2008717]
[2048.51559928]
0
0
[1716.73552736]
[1346.59698942]
[1189.85438636]
[719.16746552]
