[43.9072252]
[15.48342794]
[3.35774559]
[9.63969902]
[4.45155616]
[19.12764424]
[33.51742075]
[53.51061357]
[64.06060884]
[79.15227285]
[79.08762228]
[54.9670416]
[57.88963793]
[51.64773814]
[90.89688117]
[103.18584662]
[115.55088717]
[114.10844216]
[107.04104579]
[79.63719067]
[48.08513146]
[36.96168056]
[33.74172179]
[51.46652305]
[21.65876733]
[4.81546136]
[4.66598328]
[3.84527405]
[14.60771169]
[31.33834364]
[110.43621627]
[504.6124134]
[612.54271211]
[381.53463421]
[220.98200812]
[212.77131836]
[261.36816241]
[300.38209345]
[297.34680046]
[291.42346683]
[393.8761389]
[566.76697262]
[588.59383417]
[271.87079346]
[62.72202548]
0
[40.73228719]
[20.54763685]
[1.18367412]
0
[3.41340173]
0
[4.92530333]
[21.8789444]
[82.4004144]
[541.53236084]
[334.03951383]
[196.83475205]
[112.83587026]
[176.53367742]
[204.28792901]
[255.87718122]
[204.59772442]
[232.17242258]
[355.875774]
[479.0286273]
[568.44015117]
[202.93493911]
[160.47831707]
[43.00062289]
[72.58828541]
[22.25089093]
[32.99316657]
0
[5.8089273]
[3.60853039]
[11.11660912]
[23.09168945]
[120.48762862]
[586.36001805]
[470.57687514]
[172.60120569]
[407.89147298]
[187.65980464]
[50.58858414]
[210.752553]
[286.66427018]
[185.49659159]
[247.58166244]
[727.35849619]
[601.78451204]
[346.15315487]
[165.46312373]
[93.61354479]
[68.78085972]
[88.77516386]
[29.43523023]
[13.2178947]
[0.20876112]
[6.59682086]
[8.93557266]
[25.94483369]
[96.22081787]
[534.87982702]
[567.93384705]
[271.66149083]
[218.63328201]
[136.72124782]
[268.79072066]
[300.04162482]
[250.36941026]
[300.39197723]
[350.10026322]
[560.13818895]
[640.56951067]
[307.87456353]
[175.79581301]
[44.26385853]
[70.59667214]
[42.11277263]
[49.58869762]
0
[13.10611146]
[3.37361845]
[11.78464997]
[18.84737335]
[122.83986275]
[539.35736231]
[622.50086515]
[355.2196226]
[264.9487068]
[233.62199833]
[293.85982667]
[376.40237711]
[32.85478152]
[244.30042827]
[509.15989461]
[566.45059378]
[571.0692625]
[374.26208717]
[135.07194245]
[82.10397287]
[64.92182016]
[63.52981319]
[52.01266825]
[11.04247599]
[9.06377878]
[4.10260424]
[11.69753733]
[21.80491577]
[62.18021117]
[86.45272173]
[178.44577217]
[142.67686564]
[239.1160895]
[112.13118401]
[142.66897257]
[142.42271135]
[163.40850057]
[196.52726887]
[168.32694633]
[156.39422739]
[206.27851784]
[152.03804568]
[89.16001005]
[58.1678032]
[78.06966329]
[66.60835374]
[55.17911268]
[7.67479422]
[12.8107734]
[0.31259742]
[10.4180957]
[10.05748518]
[27.43419045]
[59.51341974]
[54.0779889]
[106.44225802]
[79.8208881]
[86.54011898]
[90.20838749]
[77.43875114]
[110.22684961]
[101.87139076]
[137.81751032]
[95.92402833]
[115.98345833]
[82.23974315]
[68.33502544]
[41.14467516]
[64.03066432]
[39.78828341]
[31.65857556]
[2.58390385]
[10.94969945]
[8.57096527]
[18.31633672]
[25.39310202]
[99.21857606]
[593.78915488]
[634.83720422]
[302.5854333]
[264.00553736]
[211.98963683]
[270.15730645]
[348.72384769]
[296.35229451]
[282.58161613]
[435.4947785]
[534.97780171]
[625.27796727]
[203.50980301]
[159.24702599]
[74.11921273]
[61.05038744]
[53.91809418]
[28.78756394]
[20.23615531]
[7.16984641]
[10.77400971]
[5.97166279]
[17.00726273]
[62.4028595]
[283.29666125]
[587.59702584]
[399.35063478]
[374.85078837]
[237.22818013]
[287.18698974]
[350.72186043]
[253.69870549]
[294.41028539]
[332.90072452]
[628.77912312]
[531.68694144]
[475.0899543]
[200.36550214]
[97.64052824]
[62.63962167]
[80.54857053]
[20.6094285]
[20.42934576]
[8.08920201]
[14.560047]
[7.03196608]
[35.60831952]
[113.72908744]
[531.21257753]
[586.7775786]
[391.29017227]
[348.07809402]
[173.88882626]
[308.27070817]
[394.46623328]
[292.48132935]
[314.66723296]
[410.88840432]
[592.44071705]
[570.8739441]
[324.47336809]
[194.02600275]
[83.72444639]
[74.96458046]
[89.79723198]
[14.57586329]
[22.5344699]
[4.09833366]
[11.76544684]
[8.477478]
[19.83601566]
[117.75328407]
[500.8802309]
[466.35000602]
[531.01380479]
[239.59804057]
[290.07356407]
[232.52808444]
[382.55440429]
[277.80802335]
[254.02558344]
[415.57100668]
[669.60996267]
[586.18178746]
[389.85575489]
[177.94209555]
[84.23225237]
[76.80958008]
[81.25314798]
[32.2540302]
[20.68621599]
[6.3520643]
[10.04039931]
[8.21636408]
[29.2176442]
[129.73275885]
[564.93053731]
[605.30208194]
[408.78089863]
[296.9338842]
[278.84142545]
[273.1803741]
[406.10017778]
[302.07231963]
[316.09170307]
[423.15664957]
[548.07482055]
[635.07205063]
[366.50238849]
[176.568936]
[101.69071325]
[75.10255551]
[81.57432155]
[55.19521991]
[4.31943153]
[13.45905325]
[4.85368941]
[10.58926623]
[24.67023349]
[58.00106322]
[112.21443936]
[159.78165858]
[202.15933149]
[160.89528771]
[161.25940923]
[120.17477688]
[175.14267683]
[214.39762684]
[192.646646]
[166.38610826]
[197.57673959]
[148.90700233]
[117.47259853]
[108.35353615]
[71.0344465]
[66.67415592]
[78.87639983]
RMSE: 49.74394957964829
MAPE: [27.95209073]
