[57.49550139]
[42.91096228]
[1.68750929]
[16.9142413]
0
[13.40213432]
[6.59888473]
[36.85124889]
[39.50662553]
[53.13603628]
[81.72548571]
[54.01647529]
[65.98196728]
[59.34598939]
[76.97771078]
[122.58349374]
[93.20358243]
[115.18168232]
[84.09377141]
[110.19660566]
[52.31031346]
[68.52286371]
[16.84505221]
[75.0024844]
[25.32940167]
[27.19175078]
0
[13.52944502]
[2.90171979]
[24.31342045]
[30.76006738]
[123.78778586]
[679.60317904]
[512.58388519]
[290.66253693]
[253.80055168]
[214.31140188]
[270.33869284]
[311.37534918]
[254.5276947]
[305.03513332]
[436.50666457]
[534.74044699]
[575.3319288]
[70.65409996]
[123.57595689]
0
[66.62071961]
[1.08992002]
[15.60355882]
0
[6.88622267]
0
[5.37026935]
[9.21972256]
[65.81838642]
[260.30615496]
[271.81857157]
[168.44963384]
[225.0009961]
[140.40861696]
[245.07448238]
[258.48237439]
[177.57511592]
[267.24794085]
[281.81477908]
[585.63389414]
[384.34935321]
[322.19724535]
[105.52051444]
[77.41748299]
[61.27028021]
[53.24409068]
[12.09099663]
[9.54697946]
[6.85927047]
[10.53998346]
[8.00201221]
[37.2961475]
[138.06346482]
[631.49341223]
[409.78004657]
[338.09362971]
[291.58831362]
[208.41543849]
[307.2325976]
[429.9741721]
[215.54641445]
[347.545216]
[383.93161273]
[622.06799985]
[496.08454951]
[206.49289051]
[206.23197553]
[38.29610109]
[129.22054658]
[39.54351264]
[36.60000918]
0
[15.45330637]
0
[11.9412954]
[16.726813]
[147.16635543]
[590.05168233]
[298.36040614]
[353.27292035]
[145.91423299]
[270.87461565]
[226.24327379]
[341.3381925]
[248.68816006]
[294.19261156]
[368.03084632]
[719.38289683]
[495.91173301]
[276.31265257]
[145.99139784]
[56.5883638]
[80.91563168]
[63.6743411]
[23.94916829]
[10.93502]
[9.63555345]
[5.82093404]
[6.93943968]
[26.67269355]
[154.77525003]
[671.30701227]
[463.82698177]
[346.68259808]
[269.03845879]
[269.89430918]
[311.70382371]
[395.823639]
[250.81095336]
[347.2389472]
[416.31893965]
[532.1817781]
[555.42438285]
[234.44816065]
[192.72256572]
[42.08920604]
[107.17031349]
[48.2040281]
[64.22296973]
0
[21.54895552]
[0.89444394]
[13.49988633]
[22.97209688]
[76.20165806]
[109.26400991]
[189.23873657]
[176.97198832]
[168.5729796]
[145.68979073]
[124.35002595]
[151.06740326]
[195.75027571]
[197.8580393]
[154.10219669]
[241.96278731]
[152.5698286]
[144.59457201]
[80.82552036]
[61.93028079]
[74.36171237]
[74.03341314]
[35.74026289]
[11.50966643]
[8.65523729]
[4.09972063]
[10.35053977]
[5.01277442]
[61.05182741]
[40.41604236]
[98.39089922]
[95.61405102]
[93.52352791]
[99.62133951]
[62.27837194]
[67.26918663]
[113.30554883]
[140.15716561]
[109.95518711]
[110.50066399]
[122.4633764]
[68.59310071]
[79.96953717]
[29.73856311]
[64.2102528]
[42.25251846]
[21.44404403]
[6.84053171]
[11.83701076]
[3.88791671]
[12.01568849]
[26.55996843]
[176.88641072]
[677.66318211]
[466.11030971]
[346.7249606]
[242.80082153]
[251.15984648]
[322.37007637]
[338.53726035]
[242.02952807]
[341.84233669]
[433.58647894]
[601.90327084]
[568.2755049]
[257.89256003]
[166.49743557]
[41.02215]
[92.18015975]
[33.61430917]
[30.74172993]
[0.38952092]
[15.00243676]
[0.23383089]
[15.50663485]
[20.44399407]
[158.51543055]
[696.05306356]
[514.29368608]
[408.73529267]
[273.83783065]
[242.98323369]
[333.10790613]
[321.50474099]
[246.60043146]
[317.62178618]
[440.03910935]
[642.60507593]
[620.23067083]
[358.1542298]
[170.64150483]
[56.2785456]
[107.29149351]
[33.81808512]
[41.03069953]
0
[18.30399572]
0
[18.81515251]
[25.5453689]
[147.92385847]
[714.88235323]
[482.14529523]
[417.53837758]
[203.19875946]
[276.84473547]
[258.17158157]
[455.33783727]
[240.72776796]
[381.52905515]
[405.54855501]
[636.04555739]
[587.13473694]
[235.71655025]
[219.43300608]
[15.01316115]
[160.48652078]
[11.35341544]
[72.08119347]
0
[29.01175368]
0
[17.49740655]
[13.71243409]
[146.81802524]
[644.05952419]
[635.79317458]
[364.08599967]
[268.08316648]
[199.50582327]
[353.33321028]
[289.3034459]
[235.02873511]
[374.69555886]
[395.25069026]
[696.16360458]
[628.28996395]
[303.39174745]
[189.34714815]
[64.21213373]
[97.27949968]
[54.56987121]
[42.37978876]
[1.2813094]
[16.57104129]
[3.84691944]
[18.01371313]
[26.56148106]
[155.91356697]
[704.40027236]
[537.67707727]
[377.34779274]
[297.6632799]
[217.22946035]
[356.96884673]
[389.27190742]
[269.2377534]
[359.09848868]
[466.77473307]
[627.85357986]
[618.27278768]
[245.6815061]
[240.64716781]
[34.4701356]
[127.46558903]
[40.02754161]
[53.4181905]
[2.18747898]
[13.4131951]
[4.44428197]
[14.66926875]
[10.94512132]
[82.16901529]
[81.84353]
[210.95465464]
[155.31177138]
[191.39777879]
[128.39167071]
[181.91620115]
[178.69433519]
[175.83598227]
[196.57541123]
[123.03436566]
[189.82342416]
[128.74347535]
[171.41315835]
[98.45779281]
[58.70989049]
[78.60318562]
RMSE: 103.34829087132164
MAPE: [70.53570766]
