[58.77989032]
[37.1273646]
0
[12.20851163]
0
[10.88319497]
[9.59478618]
[38.0881425]
[45.3271357]
[53.68876695]
[87.94961957]
[54.32679026]
[62.69527198]
[61.72160172]
[76.8557955]
[131.43978621]
[95.66302047]
[112.37547854]
[85.48727958]
[106.85274715]
[51.37501319]
[59.66873605]
[16.16995282]
[71.69753033]
[31.10894266]
[16.29817825]
0
[8.83268431]
[6.14974992]
[23.54384183]
[35.97019249]
[134.36058871]
[758.3498601]
[574.283541]
[221.97341735]
[232.47114758]
[202.53342776]
[271.02055221]
[325.60851832]
[251.40825413]
[302.46671062]
[462.35142112]
[563.69815491]
[592.51597901]
[13.90101731]
[50.70613668]
[7.1033561]
[42.22953359]
[13.99496125]
0
[3.26307928]
[1.40843374]
[2.27903793]
[3.34050775]
[11.66312442]
[72.44341352]
[292.41820863]
[300.83611525]
[152.73856236]
[219.40928556]
[141.04266195]
[241.02846355]
[280.84757835]
[163.64602559]
[268.64873998]
[298.75639685]
[619.74016401]
[409.46359044]
[272.62598777]
[83.87955493]
[35.65120397]
[64.10504823]
[44.89597651]
[8.34842341]
[1.96515496]
[7.89490763]
[9.5241818]
[8.76070626]
[39.97402491]
[154.6543539]
[702.44842367]
[456.35749472]
[281.62659938]
[292.66503338]
[184.59193744]
[310.22155316]
[460.04529994]
[204.57347018]
[328.6214146]
[417.51941077]
[646.24361458]
[521.60922452]
[141.77824137]
[171.59962463]
[22.39734601]
[109.95792345]
[49.88291258]
[14.83422316]
0
[7.75684408]
[3.711694]
[8.54557217]
[20.97326692]
[162.07924821]
[662.2315173]
[328.45937786]
[303.13771699]
[147.77975295]
[241.95326909]
[252.44710662]
[336.96452567]
[262.53333399]
[278.0501877]
[391.00625589]
[766.62467149]
[523.4917765]
[203.66849362]
[111.82975155]
[25.54418942]
[73.20265653]
[65.61678879]
[14.8463368]
[4.80625227]
[8.02988272]
[5.05549086]
[6.44541741]
[29.28378404]
[172.75851303]
[749.47816306]
[513.6949515]
[287.13197069]
[259.20849696]
[253.20110867]
[320.69411115]
[409.56329266]
[245.87761327]
[334.35515231]
[445.73961797]
[549.32231065]
[577.15301173]
[195.08414918]
[140.74540675]
[28.01460474]
[86.79972855]
[57.75920904]
[50.80320768]
0
[10.94633416]
[6.62308691]
[8.65135218]
[28.27786857]
[82.27434039]
[121.61445886]
[201.64223048]
[187.60605292]
[163.32312641]
[143.84898083]
[117.70849101]
[152.02597386]
[205.01110586]
[203.66323403]
[148.43349718]
[246.38010731]
[156.35129917]
[126.550825]
[77.32687383]
[47.50443359]
[76.19009216]
[74.49207763]
[31.19536309]
[3.00311499]
[5.94005391]
[3.09244036]
[10.30754154]
[5.4529205]
[66.52158918]
[46.69341797]
[100.0820676]
[105.90661833]
[89.94791065]
[101.84192585]
[58.05166919]
[62.4232266]
[120.63099684]
[149.17828939]
[109.33219803]
[105.97703889]
[125.18784944]
[63.2657439]
[73.20467029]
[27.3932683]
[59.16358914]
[47.20591596]
[13.13347824]
[4.12812236]
[9.8209805]
[4.21193584]
[11.25128273]
[29.9945175]
[196.09748771]
[756.84516006]
[511.3040244]
[287.92276866]
[229.35480815]
[231.92652761]
[336.68709534]
[347.67063196]
[232.09822616]
[339.52873046]
[462.61121613]
[629.86580431]
[589.25887582]
[210.64504593]
[114.0965252]
[21.1647917]
[76.93652853]
[38.76604643]
[17.03011235]
[0.78475227]
[9.94521793]
[2.66329559]
[13.47775202]
[24.57271205]
[174.07374829]
[777.72433804]
[566.99869186]
[355.23859629]
[259.19070432]
[214.80365314]
[345.11168659]
[330.4130161]
[234.07809933]
[316.76235368]
[466.41289241]
[680.2349562]
[644.89243088]
[318.9290257]
[115.24356884]
[23.24446061]
[98.33463756]
[34.30999754]
[27.95787354]
0
[11.86160527]
[3.19993184]
[16.21690868]
[30.69615265]
[161.31660514]
[796.247527]
[532.67434241]
[360.79285198]
[188.27226071]
[247.12317087]
[276.67205347]
[466.61343169]
[248.87229489]
[358.40823141]
[440.71506198]
[654.10832539]
[618.93381613]
[177.43859104]
[175.42619892]
0
[142.82150059]
[23.69006646]
[47.76386399]
0
[14.08901271]
[3.63817192]
[10.07626947]
[20.29868945]
[158.57035424]
[719.17619055]
[697.2525418]
[318.74376623]
[229.08023]
[183.22232462]
[360.58286703]
[305.22107754]
[213.34818674]
[389.06474467]
[415.84381022]
[728.49419032]
[664.68195807]
[245.06278802]
[139.97617856]
[40.81072241]
[82.60250457]
[58.05488267]
[31.3382828]
0
[11.21086373]
[6.45996149]
[16.15466621]
[30.75311835]
[170.42657425]
[782.61163636]
[590.0628282]
[320.6434867]
[282.78138859]
[194.22500489]
[364.65453721]
[412.86932366]
[254.49382955]
[354.81987545]
[494.82852562]
[655.74348285]
[638.71254507]
[196.84492813]
[191.2605262]
[21.75747698]
[102.24797687]
[52.98030686]
[33.74987059]
[5.94214442]
[3.0631644]
[8.90803591]
[12.01830578]
[13.48258438]
[88.46962757]
[92.2789539]
[222.5231795]
[168.46903735]
[182.71286673]
[131.31868203]
[175.43477105]
[189.73290976]
[170.95552327]
[200.80036604]
[116.64826489]
[186.96144894]
[133.73555041]
[163.8721006]
[100.3872016]
[40.54514418]
[79.81055119]
RMSE: 103.67914638996601
MAPE: [52.01521617]
