[55.63319082]
0
[13.58123624]
0
[9.76087705]
[19.24953731]
[53.38748688]
[64.04058614]
[140.51388108]
[65.21567382]
[195.94159899]
[42.13986953]
[127.31676989]
[94.14309448]
[143.34071808]
[149.92153596]
[115.71959214]
[136.24694167]
[112.14599307]
[124.6144632]
[39.06862835]
[56.03164439]
[47.15974574]
[70.72110442]
[23.61969666]
[6.61690831]
[3.86720389]
[3.41622599]
[9.25162161]
[16.12073473]
[40.46794725]
[89.39694876]
[402.35087373]
[249.11191401]
[129.33983232]
[135.54966387]
[120.28018043]
[169.65997649]
[219.09064577]
[150.32405399]
[210.36181083]
[246.42829463]
[316.02279766]
[272.31444954]
[4.27821162]
[58.60422542]
[28.15974057]
[48.57910622]
[4.17159611]
[5.28052159]
[4.93766319]
[7.1916351]
[16.48916232]
[24.2293205]
[93.90017156]
[530.53385809]
[401.74381613]
[257.7814603]
[187.20082255]
[221.83714672]
[208.61652844]
[309.92657325]
[245.03401506]
[254.38868689]
[397.90726297]
[450.36870614]
[634.6054884]
[80.93529695]
[216.90628591]
0
[94.65076896]
0
[47.53914125]
0
[19.31223454]
0
[16.1029729]
[5.2471605]
[73.12357632]
[257.24906247]
[501.93336473]
[226.00361955]
[283.1820519]
[172.53196721]
[245.98745358]
[288.22954906]
[295.99046592]
[229.95036032]
[335.62329973]
[559.45660003]
[488.70424249]
[372.74429785]
[64.43309476]
[126.59118072]
[15.30382975]
[103.46664233]
0
[28.38436081]
0
[22.89401824]
0
[39.15608447]
[104.0605142]
[539.2806037]
[508.73937637]
[283.67145705]
[311.92457728]
[135.54720432]
[329.5220142]
[354.31376534]
[255.26314294]
[314.28927919]
[360.47319839]
[571.20473874]
[619.97306907]
[250.45105573]
[205.14138326]
[24.49149425]
[105.64752217]
[35.78985835]
[52.38123415]
0
[20.97887284]
0
[16.12530492]
[11.79327488]
[126.96738943]
[504.38051689]
[481.63398076]
[392.88833214]
[174.24196195]
[284.55398592]
[229.5676321]
[364.42733721]
[301.05178745]
[273.42426729]
[382.02568702]
[670.63115772]
[487.31549667]
[367.76052641]
[105.84702278]
[94.48432666]
[37.9713399]
[93.02147541]
[14.29475988]
[39.49022622]
0
[20.97592901]
0
[31.36179294]
[122.70390555]
[524.66558187]
[280.78994727]
[283.17642514]
[202.02724338]
[233.74451365]
[238.40275499]
[298.91707401]
[181.774783]
[312.04173095]
[330.87021675]
[394.3250529]
[435.22098672]
[130.98012829]
[162.3181445]
[12.78739522]
[101.50862779]
[41.77745441]
[78.30536946]
0
[24.40213187]
0
[15.93631063]
[16.5966661]
[58.34726661]
[101.02841905]
[140.62659138]
[149.40054822]
[137.46090694]
[118.60042594]
[110.87446501]
[112.20359957]
[149.94998629]
[168.31729299]
[144.92245423]
[197.9176137]
[117.10649071]
[137.31694602]
[52.34356353]
[70.02406146]
[45.93923174]
[77.11417415]
[25.33596691]
[10.80462194]
[1.95982655]
[8.30578497]
[6.08146307]
[8.97947929]
[58.01897794]
[116.2732703]
[427.25059838]
[225.19604947]
[195.75000606]
[137.87717607]
[142.5372951]
[182.07669467]
[224.44783812]
[174.71151473]
[220.98013079]
[259.91543369]
[357.87014615]
[268.33784345]
[120.27187943]
[63.09138487]
[42.45264712]
[65.95888371]
[15.30336897]
[16.0611749]
[2.97654792]
[11.54810024]
[6.60931409]
[29.06972891]
[139.46233857]
[569.40099018]
[601.71952925]
[385.77280106]
[278.5273433]
[242.2176243]
[295.67761441]
[352.09698402]
[258.75592502]
[312.27537839]
[408.852804]
[585.43815888]
[623.78283652]
[358.81358148]
[196.62603073]
[41.97410858]
[69.98337197]
[56.72903113]
[25.4161655]
[12.15797165]
[7.34561048]
[8.20682538]
[11.05749823]
[24.42156731]
[129.9005101]
[577.52495025]
[646.07818497]
[403.86765662]
[301.80126503]
[188.269911]
[335.47805419]
[286.25155745]
[356.72179667]
[264.4474724]
[464.59407129]
[575.8357251]
[665.57007295]
[400.04614796]
[123.64226502]
[94.86680621]
[46.72729304]
[94.56171718]
[8.2262167]
[35.445193]
0
[20.194552]
[4.74378904]
[31.06594851]
[111.07860009]
[594.80284813]
[577.01681398]
[513.73974081]
[192.21819608]
[279.8491064]
[208.45708421]
[478.25952746]
[205.81810951]
[353.24017964]
[400.72783377]
[592.22471525]
[658.51770697]
[342.37214611]
[207.47741992]
[32.64558606]
[128.78095823]
[20.00046494]
[76.96677808]
0
[27.50382161]
0
[20.82733392]
[13.78669015]
[125.74483676]
[540.08072628]
[738.68944665]
[378.9580795]
[282.26322052]
[210.1267622]
[315.24433197]
[320.98627607]
[302.38450232]
[337.42253463]
[398.21568732]
[667.62676021]
[639.51513543]
[387.04440245]
[142.32850698]
[113.47007963]
[44.492455]
[92.17408479]
[25.41189616]
[22.55878792]
[4.05196662]
[10.64438524]
[12.96380969]
[27.21380967]
[117.07092613]
[546.05922866]
[314.9357679]
[309.60746161]
[204.68484013]
[204.92128408]
[268.30634894]
[318.59288409]
[207.79074953]
[300.48159456]
[368.65249144]
[436.39232695]
[441.25168595]
[124.40970623]
[215.65807632]
[6.62262884]
[116.37325594]
[32.52932623]
RMSE: 90.80239540161826
MAPE: [59.62314705]
