[48.46281793]
0
[9.43906132]
[2.91105844]
[6.6422005]
[21.90397633]
[49.60792098]
[56.92511054]
[126.92095891]
[40.04684818]
[162.49833926]
[19.67722096]
[73.84273022]
[88.71265604]
[101.66822518]
[138.52199774]
[87.54009308]
[117.89345886]
[95.97666814]
[103.09712454]
[22.25334739]
[34.16727087]
[47.38636921]
[56.64258359]
[22.72409936]
0
[3.29453982]
0
[10.64154558]
[17.93124092]
[46.96417156]
[106.94409173]
[514.412156]
[470.67328556]
[239.03986666]
[228.34570456]
[190.03421474]
[238.79307715]
[305.06628422]
[222.71659426]
[271.1355784]
[348.37183466]
[452.6503585]
[445.95128628]
[110.83510524]
[67.77684835]
[58.98275486]
[33.14938124]
[9.41237537]
0
[7.00900803]
[1.72155546]
[15.43348226]
[18.45384719]
[86.1106916]
[516.29170608]
[326.77116307]
[121.79984806]
[132.28494002]
[174.90704201]
[194.16963197]
[278.57471825]
[237.1410962]
[223.003392]
[378.55888044]
[416.66796223]
[603.7130401]
[72.28074592]
[192.19352427]
[46.88946068]
[67.96927561]
[41.02237517]
[31.70482482]
[12.07420427]
[5.8447635]
[7.51073027]
[9.22127378]
[13.89717783]
[72.50866535]
[277.45512228]
[568.37443139]
[335.35995404]
[320.91238393]
[238.61099888]
[258.94875238]
[324.99512236]
[328.05788519]
[281.6495209]
[345.10266909]
[603.72756431]
[509.74111673]
[399.92737771]
[74.16232499]
[107.40015287]
[47.05242247]
[86.17755308]
[25.6022016]
[13.49142949]
[3.51905931]
[10.49394979]
[5.42999804]
[30.2033512]
[105.88390026]
[530.79413644]
[508.06818601]
[253.18211106]
[290.79717033]
[119.73659712]
[295.49253812]
[368.87554886]
[206.25627583]
[310.92045409]
[353.60333397]
[553.99016962]
[631.94339152]
[270.99780869]
[208.31175717]
[38.35904043]
[85.40274776]
[43.24959592]
[34.35799994]
[0.43617834]
[10.91823872]
[5.74240262]
[9.16615453]
[16.18425075]
[122.86926089]
[509.78023841]
[491.4140847]
[436.56924173]
[207.39253693]
[295.77408625]
[267.30012176]
[364.78578592]
[339.92335348]
[275.68440701]
[395.76685502]
[687.68118639]
[471.25128194]
[328.18022614]
[127.64295587]
[73.07644898]
[59.65603461]
[79.7129222]
[27.45723852]
[32.20324642]
[1.96994297]
[10.03871894]
[7.20847709]
[24.66404749]
[127.0041075]
[508.44707714]
[183.4502111]
[107.59363888]
[138.42232788]
[157.72871935]
[203.16400162]
[230.99879035]
[107.10243482]
[243.19105015]
[301.76227842]
[308.43787795]
[339.5148588]
[3.21875719]
[55.37563846]
0
[60.49633172]
[48.91941126]
[60.73972496]
0
[11.11675165]
[3.87354575]
[6.2027861]
[22.22669288]
[50.65246046]
[97.28640839]
[125.85477388]
[120.65498759]
[105.98518721]
[89.3425741]
[85.95916274]
[92.45267741]
[121.3714426]
[137.64224681]
[117.25750256]
[178.0638729]
[86.66450719]
[100.6822842]
[39.22829966]
[44.8349792]
[46.8424486]
[60.78071546]
[23.43617646]
0
[1.61933856]
[4.65459881]
[8.25607162]
[7.5578645]
[62.58860759]
[137.09735369]
[546.22625921]
[428.69826676]
[291.25229896]
[237.46595095]
[192.49706164]
[267.1480128]
[320.72025244]
[256.63109346]
[277.71925361]
[362.56323748]
[499.76651266]
[449.03916032]
[243.88260368]
[123.32658795]
[72.50629545]
[75.21725345]
[24.97896689]
[13.00547875]
[7.06347761]
[7.22481204]
[8.3572379]
[25.95059427]
[139.9920387]
[562.88151496]
[599.87189773]
[395.91641389]
[296.75053202]
[259.41860319]
[300.09879104]
[351.91111306]
[259.4150619]
[306.66676549]
[407.79333568]
[577.26413418]
[632.86924319]
[372.07359333]
[222.42565274]
[64.85739526]
[69.60357774]
[67.24159849]
[25.44241092]
[14.8321252]
[8.25535829]
[7.6293459]
[11.16808105]
[23.59062963]
[130.68603471]
[575.7794991]
[644.57002654]
[402.94200927]
[292.48753884]
[182.7517112]
[318.8441215]
[289.20113722]
[348.3441587]
[305.31802775]
[454.73164387]
[599.67368273]
[642.69746245]
[404.81714921]
[88.54277444]
[78.35230812]
[53.18204989]
[83.75818362]
[24.0017247]
[24.54289921]
[4.00730007]
[9.30714211]
[12.32835876]
[23.17669787]
[112.27828707]
[587.88111655]
[568.35588584]
[514.91888295]
[225.99162874]
[260.63084807]
[228.51371986]
[457.65849086]
[220.06261559]
[293.35577965]
[420.5748356]
[569.27786181]
[674.52133159]
[354.04433742]
[227.67634053]
[42.03888341]
[127.02585641]
[26.84106195]
[61.13983931]
0
[12.46034743]
[4.63798535]
[10.87036317]
[21.04991681]
[121.95861441]
[546.78307613]
[744.97484]
[380.25434042]
[255.13925392]
[226.93737817]
[314.69999663]
[328.77532836]
[313.41565883]
[368.50593188]
[396.11826256]
[678.60550646]
[645.58524624]
[364.57092632]
[139.06103257]
[100.1618224]
[57.99672574]
[79.43836092]
[37.74614678]
[12.08042391]
[12.2242772]
[4.44132899]
[14.76571658]
[23.8059864]
[114.37936518]
[529.97056725]
[208.36810096]
[112.2704375]
[124.27820393]
[114.87174889]
[238.30552389]
[258.22240321]
[139.69317629]
[235.52575144]
[326.64281264]
[340.09466743]
[301.38505273]
0
[92.74382053]
0
[65.03831095]
[42.31734999]
RMSE: 76.5209295800829
MAPE: [41.23865125]
