[26.05911507]
[3.91140053]
0
[12.5593044]
0
[31.70024284]
[39.46319974]
[65.95573762]
[118.07002492]
[48.78148643]
[156.59875114]
[29.17192996]
[65.95696165]
[97.03852688]
[94.41048992]
[136.24685298]
[86.55222594]
[114.8790088]
[95.37912544]
[100.99087144]
[19.10377334]
[36.88340663]
[44.21818079]
[56.99326521]
[15.17708787]
0
0
[5.10965616]
[2.47538617]
[23.98834643]
[39.93503533]
[114.43095547]
[523.08630096]
[466.76202229]
[192.7613618]
[224.24579897]
[220.76855797]
[252.29474175]
[317.51209079]
[222.60162899]
[274.20218472]
[361.81421351]
[460.62392805]
[438.88706846]
[92.68950825]
[67.10812919]
[93.31220981]
[56.65858265]
[10.69487682]
[4.21167143]
[1.31867129]
[9.82702761]
[6.5398536]
[25.5702979]
[78.59112939]
[523.0357816]
[309.95240845]
[135.91345595]
[150.51378728]
[187.80312118]
[160.13751555]
[281.67752619]
[216.47200682]
[234.52184521]
[360.61975294]
[431.82875723]
[589.40184347]
[85.76484146]
[181.77844879]
[54.093055]
[46.82911925]
[36.0762803]
[45.06154451]
[2.17000144]
[18.54026917]
0
[23.84884814]
[1.49271954]
[86.14500275]
[266.27354512]
[588.70226097]
[311.95953885]
[316.90675123]
[224.42391426]
[289.52824248]
[310.50795285]
[362.51638683]
[256.86680531]
[366.54656874]
[585.46367707]
[539.51601827]
[372.8209116]
[101.24635507]
[86.31918855]
[80.57749972]
[64.19549429]
[42.07894326]
0
[16.13815074]
[1.18231479]
[16.59072491]
[20.8879601]
[115.32733083]
[521.99923318]
[516.73065403]
[241.19292506]
[304.80310678]
[112.44348411]
[304.91577704]
[357.697262]
[212.38787582]
[296.663633]
[375.87465521]
[526.38188228]
[653.83549934]
[251.39213436]
[217.34151902]
[19.49858767]
[105.67316891]
[26.5952226]
[59.00393538]
0
[34.69510318]
0
[35.34985235]
0
[150.19277343]
[483.00746334]
[519.69790487]
[411.31643781]
[225.99801746]
[264.18438962]
[299.08141529]
[342.22254265]
[365.27368207]
[255.55960535]
[415.09180396]
[675.79351171]
[482.74049394]
[315.22610945]
[158.86292405]
[53.19032284]
[67.07290983]
[69.59396753]
[33.9300059]
[26.75515201]
[7.44966234]
[3.61044638]
[13.07671421]
[21.46667231]
[130.11169714]
[503.2291246]
[173.01904539]
[117.64813038]
[174.58522283]
[159.45331129]
[173.73907057]
[225.14958559]
[89.84799685]
[257.74235907]
[292.64122654]
[300.6829542]
[322.83771581]
[19.41356856]
[53.79616662]
0
[34.08817893]
[37.14341888]
[47.00380034]
0
[8.23767525]
[2.00390478]
[6.52867389]
[19.63821342]
[52.82476973]
[94.10795365]
[128.23625541]
[117.56455162]
[111.53151608]
[90.49401705]
[87.83019444]
[88.14114125]
[119.21195773]
[133.69346955]
[120.87274323]
[175.11430776]
[83.36122824]
[97.79292924]
[43.31798315]
[41.29798478]
[42.77892102]
[58.90007535]
[17.50602985]
0
0
[8.37226226]
[1.81604905]
[10.87191325]
[58.27636787]
[144.15293505]
[555.32221508]
[418.29579598]
[250.07579184]
[234.5719116]
[222.22098284]
[279.55499393]
[339.97380161]
[243.56268552]
[287.37501393]
[373.48005789]
[518.24788172]
[433.11649539]
[235.24476713]
[113.97551428]
[107.4005273]
[91.82911673]
[47.53278397]
[13.42392164]
[18.28643244]
[3.42056541]
[15.24502464]
[21.14462298]
[145.35556541]
[557.15213077]
[606.44788375]
[392.81978019]
[300.47721496]
[249.49136179]
[302.64988629]
[348.72289325]
[268.77445623]
[302.6805906]
[413.63730898]
[573.435622]
[639.05805173]
[367.77550392]
[223.75301461]
[56.5802268]
[70.4687242]
[67.81253742]
[34.54745562]
[9.25635619]
[16.21265508]
[1.84513389]
[17.688041]
[18.32003953]
[136.4856649]
[569.76591265]
[650.61520523]
[396.98585001]
[298.34579234]
[176.16172896]
[328.01757134]
[281.28927338]
[359.59330086]
[292.82458706]
[460.30003749]
[581.78977724]
[663.19511615]
[387.94061576]
[110.19822709]
[61.98980697]
[79.20079596]
[57.39699248]
[38.63666121]
[6.79961932]
[17.52854505]
0
[24.61329949]
[12.34190838]
[122.66620151]
[578.14524246]
[577.14007827]
[510.76937157]
[233.47019518]
[244.22101338]
[234.22106119]
[461.3490708]
[215.84753972]
[297.06099491]
[423.89749611]
[578.6587748]
[657.17475326]
[366.69585495]
[210.23525005]
[49.39234238]
[117.59108932]
[39.19608472]
[55.09690835]
[8.75199291]
[6.6949942]
[7.77566019]
[9.34268963]
[21.90690762]
[121.46231656]
[546.66212698]
[745.74814915]
[375.51701346]
[256.06623325]
[234.13624078]
[316.2332052]
[318.33860493]
[321.72560304]
[362.40692144]
[394.7848217]
[675.9833634]
[654.76878692]
[356.9316843]
[149.14315914]
[102.28394693]
[57.67262337]
[75.95633156]
[35.75260185]
[14.43767468]
[8.63096839]
[8.70921568]
[9.83982862]
[29.0982404]
[109.25901589]
[532.83913569]
[188.9592648]
[130.77996852]
[156.65258811]
[127.98023848]
[199.09417732]
[256.06903563]
[107.58789139]
[256.05487371]
[308.20521684]
[341.52596135]
[276.66475108]
0
[95.30725833]
0
[20.82297309]
[31.18905579]
RMSE: 74.5945944466052
MAPE: [47.48472198]
