[52.75354307]
[1.7433644]
[9.03512109]
[4.52368731]
[5.62936532]
[22.19400771]
[48.86180927]
[54.85304652]
[125.81482605]
[37.50962844]
[161.45311243]
[27.35758519]
[69.12722657]
[105.24820659]
[101.32545436]
[144.311212]
[92.17677655]
[119.34705986]
[102.72125384]
[102.96566222]
[26.13814809]
[35.76818149]
[56.23587429]
[56.29863218]
[25.09604589]
0
[6.10873647]
[1.154939]
[11.36160466]
[19.39459075]
[47.72977126]
[110.2208929]
[540.84996091]
[503.2636415]
[187.7639019]
[184.60049671]
[174.26868299]
[222.98270872]
[301.77492369]
[208.81683686]
[253.56020204]
[351.24482394]
[456.0985906]
[441.35926205]
[70.8032769]
[8.58266352]
[52.56857111]
[22.27891556]
[7.6849315]
0
[8.55293788]
[3.64221688]
[14.830614]
[18.79128165]
[84.97921852]
[515.55256206]
[309.90829863]
[103.05776534]
[169.2396089]
[200.67762761]
[207.17720852]
[281.93007093]
[243.87597474]
[222.48857235]
[380.83509357]
[419.17754166]
[605.08345896]
[85.87363864]
[190.69239184]
[78.65840754]
[43.3427998]
[43.45131904]
[25.90427058]
[11.55117633]
[1.50420091]
[6.61340212]
[9.00187282]
[13.57904925]
[72.90679952]
[280.80811816]
[583.15559149]
[346.21469155]
[289.11936084]
[228.62356299]
[242.79843132]
[318.71662415]
[328.8619396]
[280.33821411]
[329.24562274]
[604.49452849]
[505.16394986]
[392.06505314]
[68.77726366]
[92.71784611]
[61.81071484]
[76.4370822]
[30.8223531]
[7.44340031]
[3.79653806]
[8.53007346]
[6.01798717]
[29.76666709]
[106.03936513]
[530.50907841]
[509.01610389]
[246.55285596]
[291.84609301]
[128.02525123]
[291.54396103]
[385.51508994]
[194.13225289]
[317.71203593]
[365.24313095]
[547.41501154]
[642.51844576]
[277.42272739]
[199.77117946]
[38.5973425]
[75.51611549]
[48.05856023]
[32.10190238]
[5.81705674]
[9.49576207]
[7.03110902]
[8.11041438]
[16.4181312]
[122.84360565]
[510.82414568]
[494.15692817]
[445.34006119]
[204.36745943]
[280.44919105]
[271.49101921]
[353.25156008]
[343.67985039]
[268.25687963]
[389.75552624]
[691.5098155]
[458.50648713]
[316.76267851]
[150.09019669]
[67.80480843]
[65.20124809]
[76.50177169]
[28.30874176]
[31.25609984]
[3.81753524]
[5.83485254]
[8.85761143]
[23.95100526]
[127.25844011]
[504.87160902]
[158.06124048]
[83.89856986]
[187.84770812]
[184.58951928]
[217.69184137]
[235.969697]
[106.24434972]
[256.6937256]
[325.05721685]
[301.8098992]
[336.86820637]
[9.41160667]
[73.3299524]
[25.88354712]
[72.90606418]
[64.6749303]
[61.76362361]
[0.59135289]
[9.32687542]
[6.83819273]
[4.56883651]
[23.20748279]
[49.99174275]
[95.9833012]
[124.88114156]
[115.99842593]
[107.51093111]
[94.50520631]
[91.72826125]
[98.25719295]
[122.17108429]
[139.28051784]
[122.63438293]
[184.83515717]
[87.62228694]
[100.56945526]
[51.48345808]
[46.92238951]
[55.22289389]
[60.77798018]
[25.60010904]
0
[4.53227488]
[7.03293394]
[8.979434]
[7.61958005]
[63.51505269]
[142.62136101]
[574.03931967]
[454.03887376]
[239.29971412]
[204.8973238]
[170.7843326]
[259.57534268]
[321.32996375]
[237.75476217]
[255.67562737]
[364.78499667]
[506.13056864]
[444.64751804]
[205.75040593]
[74.87115041]
[48.39755927]
[61.96648658]
[21.33687553]
[8.64013509]
[7.28299943]
[6.02656886]
[8.79103216]
[25.86026955]
[140.21536961]
[561.71169677]
[600.60494413]
[401.02867101]
[299.38945516]
[257.49121557]
[293.45582206]
[347.83647969]
[259.62752969]
[304.78750999]
[408.91596682]
[576.27266758]
[637.65062816]
[375.43973775]
[223.91714838]
[62.84384778]
[58.10952936]
[67.10323949]
[23.75998158]
[12.91976578]
[8.66487302]
[6.32959864]
[11.4351727]
[23.39928838]
[131.08798923]
[575.26514521]
[644.28369567]
[403.64637781]
[289.98028937]
[183.96627286]
[317.0456568]
[295.52299071]
[347.9753321]
[318.61007715]
[442.74804173]
[600.11302952]
[634.37754039]
[405.73959123]
[83.97615418]
[79.21376861]
[68.62837587]
[79.38975583]
[30.17288411]
[19.72377058]
[6.47514797]
[6.31131328]
[13.72682907]
[22.30963547]
[112.02596768]
[588.02918802]
[566.70321003]
[518.98730907]
[237.72690624]
[244.66810578]
[232.89335414]
[452.09693371]
[224.06610098]
[277.6949997]
[437.67812254]
[571.56522268]
[676.5633228]
[360.97438486]
[224.65630729]
[38.86509675]
[119.62781568]
[28.82727004]
[54.97427239]
[6.23164844]
[7.99400199]
[7.52142396]
[9.6563188]
[22.26879754]
[122.12133031]
[547.2273686]
[746.56066228]
[377.3022916]
[245.6774425]
[239.22139344]
[315.9234446]
[325.8045621]
[316.22771659]
[372.73548262]
[385.44848093]
[676.0400166]
[647.10695802]
[352.91063608]
[143.88583428]
[101.86076421]
[64.96667798]
[75.0022445]
[41.05742993]
[9.52230206]
[13.61969366]
[3.85273362]
[14.12548355]
[24.5217521]
[113.43866632]
[527.04685194]
[182.50192115]
[85.32364112]
[175.47011258]
[144.78825297]
[259.55319869]
[266.17158633]
[136.90081246]
[247.16564427]
[342.79528173]
[333.57426272]
[291.527732]
0
[126.28682356]
[26.41362454]
[75.06882657]
[60.47354524]
RMSE: 76.63676635947398
MAPE: [37.132033]
