[37.12353027]
0
[5.01355937]
[2.55213877]
[4.5585588]
[21.99048865]
[49.25468876]
[56.44084047]
[127.8607021]
[41.11900169]
[162.63441807]
[26.85945637]
[65.57558398]
[99.12679592]
[92.23502764]
[137.88712071]
[86.70428385]
[113.60565169]
[97.80396736]
[97.94342094]
[23.28782831]
[31.44058944]
[50.17086486]
[50.24896066]
[22.39561615]
0
[4.15183528]
0
[8.77867005]
[17.58190103]
[45.95489148]
[106.82674651]
[517.95521069]
[470.93079712]
[188.82184489]
[230.0831747]
[219.12576738]
[248.34866778]
[317.30111779]
[223.4818339]
[271.38264056]
[362.84460976]
[454.96438868]
[440.96524022]
[98.56144686]
[62.39106132]
[102.86847831]
[45.7522291]
[19.45629242]
0
[9.67229566]
[3.07882313]
[14.14693005]
[19.15424501]
[85.61524155]
[517.15882355]
[324.08074193]
[121.05222369]
[166.00232324]
[168.79635785]
[177.73520536]
[265.83551925]
[234.77241142]
[216.80810051]
[376.97835962]
[417.69817485]
[599.05306722]
[81.035887]
[176.58064741]
[64.01737908]
[33.72969425]
[50.81034621]
[31.40979858]
[14.94033372]
[5.38589966]
[10.09055922]
[10.86163785]
[14.32713846]
[72.89039632]
[278.45584201]
[569.71389474]
[333.13290377]
[293.15940446]
[251.48524215]
[263.57823703]
[334.5359216]
[335.8490186]
[284.43803683]
[337.89161331]
[614.60532585]
[511.75663722]
[398.0355393]
[80.90647719]
[102.80527409]
[67.42159183]
[74.54138822]
[32.57409429]
[9.22847324]
[6.77392503]
[10.68704276]
[7.21628045]
[30.14453566]
[106.50544416]
[530.43983939]
[509.37539978]
[250.30423439]
[293.9170096]
[127.11507125]
[285.70987313]
[379.87760768]
[190.51679042]
[316.52292511]
[358.96639178]
[541.11431286]
[637.27447124]
[269.87509599]
[196.2640412]
[43.57906996]
[80.77724882]
[52.55574111]
[31.78812824]
[4.16403979]
[7.23461816]
[6.30584583]
[7.99752635]
[16.68064573]
[122.76861131]
[510.24660068]
[491.22270339]
[437.80628999]
[201.55180963]
[285.87450691]
[280.73936189]
[358.52467788]
[348.63037544]
[273.15626728]
[396.09251483]
[695.43852414]
[467.01275357]
[326.96046594]
[150.4305182]
[58.52305174]
[61.94842202]
[75.36695333]
[28.78886342]
[31.15147862]
[3.81677381]
[6.66737766]
[10.37734837]
[24.12718692]
[127.35552601]
[507.72311617]
[179.23038051]
[109.73270111]
[183.94449939]
[146.55371831]
[184.34590091]
[219.14392936]
[99.68986281]
[246.21528834]
[306.01503469]
[288.65905305]
[337.1717159]
[10.7689678]
[57.28428752]
0
[32.97418382]
[38.62718286]
[45.98486475]
0
[5.47144169]
[4.89866958]
[3.12872282]
[22.7275662]
[50.10812612]
[96.62414448]
[127.06924168]
[119.556147]
[110.06588015]
[92.3771896]
[85.30952371]
[91.06729188]
[117.08948527]
[136.49584288]
[118.33371947]
[177.48750247]
[82.72298673]
[97.01059875]
[45.79897333]
[37.0938025]
[47.20967322]
[54.40569085]
[22.39617605]
0
[1.89178442]
[3.67684035]
[6.28730623]
[6.39150125]
[62.38183235]
[137.90220042]
[549.49052516]
[425.17957762]
[241.14615185]
[247.08183583]
[213.03627603]
[283.9225368]
[332.50556981]
[250.93147652]
[277.76353207]
[381.1073347]
[505.02601474]
[442.94891508]
[228.23233695]
[123.82373532]
[101.79035513]
[97.5213346]
[40.98412771]
[18.81950464]
[13.13419542]
[8.74202457]
[10.20365434]
[26.33624768]
[140.45372038]
[562.49306006]
[600.55538451]
[398.08093179]
[294.38300043]
[255.62282003]
[297.42145754]
[354.08498293]
[264.29201665]
[306.46539925]
[410.29371489]
[576.29277211]
[635.45386825]
[370.87662826]
[218.9335976]
[63.01789225]
[63.85125841]
[75.03393969]
[27.8417996]
[15.0786776]
[10.67291982]
[7.30334369]
[12.30214088]
[23.72415127]
[131.01934749]
[575.58843197]
[644.29793614]
[404.35075604]
[290.21809517]
[186.046307]
[316.3662562]
[295.09787672]
[341.64884535]
[312.86563617]
[438.48058362]
[605.294418]
[640.43916243]
[410.96744149]
[89.29806389]
[79.57280841]
[63.79761255]
[69.93877839]
[27.18468497]
[17.94744234]
[7.16845543]
[6.81213009]
[14.49446725]
[22.56474264]
[112.48652097]
[588.29411484]
[568.43254023]
[515.21232316]
[232.73286732]
[241.68160256]
[239.93529319]
[453.53955932]
[228.15229524]
[282.16880515]
[439.2448466]
[563.75339886]
[668.83368675]
[355.91152113]
[220.00848107]
[41.40461299]
[124.51278417]
[34.94653003]
[57.29060089]
[7.75533682]
[6.77055906]
[7.83734698]
[9.30675185]
[21.83034717]
[121.44981417]
[546.57446876]
[744.8109128]
[379.41206827]
[250.27282252]
[240.28427002]
[310.036839]
[323.48577535]
[315.15733384]
[370.11089399]
[387.43697029]
[681.82235249]
[652.54124353]
[357.56187137]
[149.87360161]
[99.91748437]
[60.70091701]
[71.56002719]
[41.00745099]
[9.24158729]
[13.74989768]
[3.9340181]
[14.34766658]
[24.85613892]
[113.73150519]
[529.71360485]
[204.33305494]
[113.37446567]
[176.56187377]
[104.70934995]
[217.65629845]
[240.72144904]
[125.58862648]
[238.52412745]
[328.2016887]
[324.74843828]
[297.15661341]
0
[104.69487331]
0
[23.4613217]
[29.35215981]
RMSE: 75.43535291068984
MAPE: [41.62042307]
