[86.43820659]
[71.07442717]
[37.76512743]
[55.04663377]
[42.04936791]
[54.24720751]
[51.92969746]
[76.55288652]
[80.19427017]
[87.20177933]
[115.07429629]
[84.13220997]
[94.18438681]
[91.77243061]
[104.92388209]
[149.17687726]
[114.88445712]
[132.30836649]
[107.21867866]
[127.83517688]
[78.63755924]
[90.70945192]
[52.28872748]
[103.19843057]
[63.6827131]
[55.93028635]
[39.54095816]
[51.64710098]
[48.0651974]
[63.39975407]
[72.24996616]
[154.33632083]
[670.67485806]
[465.52321308]
[192.87490277]
[221.01521603]
[191.77245867]
[252.81032793]
[291.85893415]
[226.77865019]
[275.57111215]
[403.79882833]
[477.15627854]
[494.8394355]
[6.37525401]
[84.58885413]
[35.42340383]
[74.36782839]
[46.08805669]
[38.91784606]
[42.89065234]
[42.18262144]
[43.59690126]
[45.02717638]
[52.3792613]
[103.10490635]
[283.0556572]
[273.0832451]
[150.79077513]
[216.73508867]
[143.26224446]
[235.15871052]
[257.97921837]
[158.94004349]
[255.53893423]
[270.15661482]
[539.21827266]
[335.06040015]
[242.28403629]
[88.39106603]
[63.38370515]
[88.73455121]
[71.78482222]
[43.67271459]
[41.71059117]
[47.51358875]
[49.1851153]
[49.05714107]
[75.80603627]
[169.88751615]
[620.9066349]
[370.26483738]
[250.24072641]
[264.62939591]
[173.10130956]
[286.71291239]
[400.28548772]
[176.60355562]
[302.24436223]
[360.87618588]
[550.2409433]
[425.88636194]
[120.67843296]
[171.97363604]
[39.83951597]
[129.18923873]
[68.93198217]
[48.82746908]
[34.1671602]
[47.19511474]
[43.12538535]
[48.86399785]
[59.24273484]
[177.36350747]
[585.55538798]
[266.11913836]
[279.12383531]
[140.12564684]
[234.62081232]
[231.66305503]
[304.86642833]
[234.15297361]
[254.70693304]
[345.86021181]
[652.86494556]
[418.12418298]
[173.58861246]
[116.15490263]
[49.02992486]
[96.58328727]
[86.57278809]
[46.78431852]
[42.89143456]
[46.87678355]
[45.07449583]
[47.31641311]
[66.98769445]
[186.05819036]
[658.58871852]
[414.71529528]
[249.71745281]
[236.39118887]
[232.39169768]
[288.96142291]
[357.95415997]
[214.23391348]
[302.16220229]
[385.30461561]
[465.51392789]
[480.70433233]
[158.04386953]
[142.78374155]
[47.4819516]
[108.26105313]
[78.34657828]
[77.67313806]
[29.12095938]
[50.78288891]
[45.65605734]
[49.24072954]
[65.93988121]
[110.4325551]
[139.67932494]
[204.43782627]
[186.36233695]
[167.73814622]
[152.38857728]
[131.70273967]
[162.23170069]
[203.60697254]
[198.6576737]
[152.68757834]
[238.74430864]
[154.53556039]
[138.17346399]
[97.37327994]
[76.84353934]
[102.81501098]
[99.46098584]
[64.04057213]
[44.00663514]
[48.59192941]
[46.22178237]
[53.02144503]
[48.61790092]
[100.66946558]
[79.15596517]
[126.46306577]
[126.35464885]
[113.27162874]
[123.97487525]
[85.97355103]
[93.19245464]
[140.99861848]
[160.5558917]
[125.27082208]
[125.51112791]
[141.10630876]
[87.62813137]
[101.03962312]
[60.88779565]
[91.83292682]
[78.57584322]
[51.79745369]
[46.60990223]
[52.0153577]
[46.99643908]
[53.6100149]
[68.80288259]
[207.12701694]
[665.23132786]
[414.38455863]
[251.5364061]
[212.50722756]
[217.86826666]
[304.72125207]
[305.72479839]
[208.78000635]
[307.53141572]
[400.56334559]
[533.04319973]
[485.81707768]
[171.42546837]
[118.71210843]
[44.14886467]
[99.65882148]
[63.08452299]
[50.09810637]
[38.27156732]
[48.29926204]
[42.08952017]
[52.75161926]
[61.69842241]
[187.15165316]
[682.61093902]
[458.11374544]
[302.07489695]
[231.42705353]
[200.150171]
[311.91459422]
[289.15620632]
[210.93278301]
[287.06887824]
[405.23111534]
[574.37868027]
[528.55484763]
[257.83387159]
[110.39151571]
[45.92235902]
[116.13349865]
[57.08494285]
[58.93400456]
[36.0657311]
[49.57341287]
[41.99139824]
[54.73867031]
[66.46844773]
[175.91498462]
[699.55047012]
[427.98051274]
[309.07640906]
[171.4412215]
[232.88523154]
[251.80166264]
[409.90250822]
[212.04189504]
[322.08222424]
[380.56857316]
[554.5148186]
[508.57395964]
[139.78904216]
[171.89257888]
[19.42835128]
[156.79949314]
[45.67931638]
[76.93468561]
[28.8848084]
[52.52656191]
[42.95527005]
[49.97431573]
[58.88634465]
[174.95095749]
[636.02345961]
[574.28676005]
[258.15326143]
[210.45850552]
[175.58015255]
[327.76808444]
[267.61686389]
[195.34408249]
[349.95918327]
[357.9977824]
[619.79083016]
[541.52897551]
[193.34632629]
[136.73458973]
[58.98549649]
[102.27506978]
[79.49252801]
[60.13818933]
[35.56748904]
[49.79147073]
[45.72662647]
[55.15954921]
[67.47492372]
[184.39208653]
[688.59219566]
[478.8063203]
[268.48598739]
[254.9933208]
[180.72151267]
[330.7732454]
[357.6349882]
[221.61081217]
[318.1715125]
[426.71995935]
[551.79534964]
[525.46008014]
[154.40321224]
[183.35710723]
[38.87501484]
[120.52679396]
[73.88133371]
[62.68285012]
[42.07798516]
[42.47722171]
[48.69900821]
[51.68790258]
[53.56098027]
[117.14221453]
[115.06103299]
[224.82723835]
[169.37411267]
[185.69317344]
[140.94769683]
[181.55868264]
[189.99078985]
[172.98158497]
[199.51302215]
[126.1168706]
[191.71045757]
[141.19768908]
[170.79554942]
[115.09445495]
[69.66058828]
[107.39568903]
RMSE: 94.23588405580902
MAPE: 166.1148931321665
