[84.43715368]
[67.78969612]
[35.53020871]
[52.29228752]
[39.44749117]
[50.0410499]
[48.20758798]
[71.82154554]
[75.73085994]
[81.91055301]
[110.42732947]
[79.28609196]
[89.17998956]
[88.26552987]
[100.43522577]
[145.28718928]
[110.46712489]
[127.59649128]
[104.53138498]
[124.02296051]
[76.1565399]
[87.08711686]
[50.48123939]
[99.67383829]
[61.37149892]
[51.14341226]
[37.1588264]
[47.9622386]
[44.71598219]
[59.00347796]
[68.21862949]
[149.71303251]
[666.59938119]
[458.90502859]
[178.63276921]
[226.73840636]
[197.53470626]
[254.42640898]
[294.49748366]
[226.67926168]
[276.86298314]
[407.31275918]
[478.21854277]
[495.08835329]
[8.16515441]
[89.75767143]
[51.95006592]
[75.80825435]
[50.85888047]
[38.62007229]
[44.19269292]
[41.41589384]
[42.22190122]
[42.92031495]
[49.72448578]
[100.04393245]
[279.67497655]
[268.25811953]
[143.51672471]
[215.36176154]
[144.16765057]
[232.69882975]
[259.17833522]
[155.65047478]
[255.44047648]
[272.17726761]
[537.48744481]
[335.66071334]
[237.5269258]
[97.44541353]
[68.54441836]
[96.44037847]
[74.32835122]
[44.52711097]
[42.34040634]
[47.55673441]
[47.81910897]
[46.85196191]
[73.126754]
[166.89394139]
[617.56434471]
[364.38804106]
[237.78179836]
[271.69547093]
[175.86204115]
[289.55098564]
[404.76781869]
[175.77209361]
[303.2921148]
[368.78045326]
[550.26165201]
[428.90726032]
[120.44712859]
[181.89219126]
[52.19197038]
[133.52551441]
[76.82206458]
[49.20979904]
[38.14198591]
[48.11266185]
[43.59894673]
[47.42612045]
[57.61841738]
[174.8813434]
[583.11453899]
[259.8497054]
[268.52837676]
[148.40525302]
[234.4169914]
[237.81509336]
[303.37974081]
[236.33329871]
[254.37873487]
[350.42560596]
[655.0046787]
[418.86188667]
[170.07097943]
[129.6141994]
[60.94403583]
[104.10937818]
[92.62045561]
[48.16837931]
[44.98935229]
[48.32975425]
[44.74804599]
[45.93125918]
[64.94696431]
[183.42518022]
[655.73513032]
[408.32253631]
[236.66535593]
[244.53623211]
[237.8330896]
[293.12276348]
[361.27805132]
[215.76544195]
[304.36649697]
[392.96200118]
[467.00026826]
[483.72361149]
[161.0864187]
[149.50622814]
[62.76790651]
[114.29992458]
[86.09184917]
[78.90018034]
[32.25957569]
[51.51354919]
[47.02443412]
[47.46160953]
[64.37731557]
[107.69663318]
[136.21504722]
[200.02185726]
[182.35143168]
[163.10633634]
[150.60686736]
[130.02235473]
[160.92574333]
[202.38065544]
[196.03053457]
[150.04955971]
[237.80550588]
[154.52834444]
[135.07567505]
[99.23750049]
[76.16278057]
[103.11436107]
[98.27142303]
[61.31931454]
[41.71604603]
[46.68171135]
[43.4076758]
[49.12814618]
[44.45113345]
[95.9388781]
[74.40183534]
[120.18066373]
[122.18409611]
[107.14172532]
[119.79339557]
[81.99651561]
[88.98643049]
[138.19184949]
[156.30837957]
[120.20360332]
[121.51957508]
[138.77892674]
[84.36821143]
[97.74818151]
[59.27725741]
[88.2401641]
[76.41224564]
[47.18782201]
[43.40796627]
[48.65606992]
[42.9115924]
[49.00758955]
[64.27450356]
[202.19894599]
[660.31599204]
[405.75566975]
[237.37217257]
[220.2377202]
[222.71586768]
[308.69419293]
[307.63240096]
[208.65051878]
[310.52797797]
[406.04673251]
[533.50614388]
[487.56821125]
[172.74348855]
[127.14850473]
[59.49308047]
[106.74485818]
[69.93660887]
[51.18291789]
[41.23579386]
[48.97514918]
[42.09637054]
[51.10556229]
[59.85695245]
[184.30394675]
[680.16487919]
[451.56081159]
[288.14116681]
[240.02825159]
[206.39542204]
[318.56954119]
[293.57150069]
[211.44010809]
[291.84309607]
[411.05650208]
[576.33368257]
[530.01359375]
[258.8373585]
[119.41249973]
[61.31760586]
[127.38847663]
[64.62946746]
[60.93656127]
[40.48068738]
[50.61494384]
[43.0744845]
[53.51281139]
[65.21023327]
[173.38000658]
[697.53377629]
[422.17249908]
[294.27906572]
[181.62290926]
[238.77856653]
[260.44733927]
[411.54632376]
[215.02960451]
[321.05890834]
[391.15883493]
[555.27975397]
[512.65404652]
[140.28077031]
[181.652681]
[38.44701496]
[162.10411024]
[56.21557622]
[75.26896887]
[35.19198338]
[51.92055919]
[44.76816786]
[47.79652497]
[57.39334747]
[172.09233667]
[633.51173397]
[568.31618295]
[242.66238588]
[215.38645842]
[188.97755111]
[333.89286536]
[273.03658472]
[193.49162495]
[356.15157386]
[363.93242271]
[618.83984345]
[546.88001375]
[190.47984432]
[147.87761217]
[78.40490002]
[111.20358386]
[87.87664607]
[62.15242608]
[38.79618135]
[51.37660253]
[46.59619219]
[53.61095487]
[65.78611472]
[181.62999239]
[686.27546957]
[472.95918779]
[251.79687392]
[264.49606699]
[189.80076018]
[336.10121979]
[364.39078126]
[220.39151926]
[322.02264865]
[435.48655941]
[553.61789827]
[528.05191924]
[156.84611199]
[192.43873583]
[59.17301361]
[126.35542525]
[84.86026778]
[63.27299945]
[46.49537019]
[43.70992853]
[49.63624328]
[50.62533848]
[51.51729641]
[114.50722459]
[111.93015099]
[219.47589708]
[166.3218486]
[178.97171315]
[140.65184273]
[178.74972794]
[189.99209912]
[169.79688418]
[197.97833143]
[125.30408956]
[189.74282386]
[142.75883022]
[167.32005708]
[115.95875105]
[67.1027511]
[108.08285515]
RMSE: 94.0880309119418
MAPE: 166.27030028887222
