[100.90313142]
[89.81784569]
[46.15872569]
[43.03213029]
[18.55079472]
[34.68021636]
[50.22677515]
[90.07942306]
[98.08899624]
[93.87324795]
[103.78237492]
[62.35920788]
[75.80233908]
[87.72284747]
[114.22451378]
[162.69547784]
[122.06600701]
[125.71898948]
[90.61436359]
[109.64459202]
[73.19967976]
[97.10684607]
[65.71292813]
[108.28422164]
[58.67273933]
[41.81924674]
[27.32664469]
[45.38092667]
[52.31615206]
[72.13364326]
[78.34878551]
[149.46060694]
[646.96511915]
[458.99015387]
[216.95675284]
[246.64870641]
[181.26191966]
[218.60370802]
[261.3651159]
[224.61445265]
[302.93886734]
[435.94004534]
[493.13841026]
[489.62388921]
[0.]
[64.19050518]
[12.59011966]
[60.94408019]
[66.87334525]
[72.53362512]
[70.82620332]
[42.20392798]
[19.26199195]
[14.52643963]
[38.35250039]
[113.85192477]
[306.38409596]
[296.78082341]
[162.65663338]
[202.31553255]
[109.9775792]
[203.72855063]
[253.6343111]
[184.70233328]
[290.25919999]
[284.88505249]
[519.0420094]
[311.18462982]
[230.56058844]
[98.9131385]
[73.31348342]
[94.32063119]
[67.79062395]
[39.58371367]
[40.07277971]
[49.91664942]
[54.51828422]
[54.12844358]
[76.15163752]
[163.19326182]
[603.33445894]
[375.1260566]
[276.09764066]
[285.51290219]
[160.40324019]
[253.80897479]
[368.55652224]
[179.82053344]
[334.41899388]
[394.51533706]
[557.55486552]
[419.8151132]
[110.31785321]
[157.42801629]
[27.15294471]
[126.00147376]
[87.31073126]
[73.49199849]
[54.09929343]
[44.08001125]
[24.87771747]
[28.91697862]
[53.66888652]
[186.57893447]
[595.62431884]
[291.46596524]
[297.99394194]
[137.74453418]
[193.92572786]
[194.20570806]
[290.48070572]
[263.85739422]
[300.22047632]
[374.36821981]
[636.19638318]
[390.05022595]
[160.17961185]
[120.22666808]
[55.19906235]
[103.59502014]
[93.54597605]
[53.20040915]
[47.52982394]
[45.68459215]
[41.29993637]
[44.99623947]
[67.65977387]
[186.47907406]
[649.31975114]
[425.21049373]
[277.05918326]
[252.70211752]
[208.909872]
[250.21952061]
[331.48763162]
[227.63673871]
[341.65599251]
[420.11346304]
[471.04073672]
[463.62811157]
[140.84927047]
[131.95046913]
[47.88865471]
[113.78764564]
[96.24120034]
[93.80757131]
[40.08889324]
[45.35072415]
[32.02378007]
[37.21285992]
[66.2600851]
[120.70031092]
[153.33120341]
[210.23864203]
[182.3642199]
[156.13071019]
[140.25970927]
[124.45702253]
[162.69993303]
[209.15696498]
[206.13277756]
[158.0712962]
[232.92835949]
[144.63314122]
[129.88178959]
[97.01400679]
[79.46730756]
[106.81121885]
[100.31136168]
[63.30976308]
[41.10552974]
[42.87554124]
[40.64218111]
[50.61205016]
[50.12602142]
[101.58328026]
[79.30470365]
[122.29509327]
[120.68861052]
[107.54357346]
[120.90058984]
[84.83848452]
[91.85494778]
[136.47952016]
[154.534789]
[123.67833959]
[126.5332236]
[140.35643857]
[85.25554685]
[96.03903493]
[55.65006219]
[85.97356028]
[76.93940546]
[53.45010108]
[49.51528952]
[50.11068049]
[40.96283521]
[46.06757792]
[63.28653279]
[202.29422252]
[654.63566789]
[427.49376594]
[281.91080764]
[228.67324245]
[190.1498751]
[258.73799678]
[276.10158728]
[222.77876255]
[349.73842344]
[437.26895795]
[539.1370662]
[468.38171503]
[152.35442887]
[105.21284522]
[39.21682925]
[102.94698955]
[81.75846668]
[70.96022973]
[51.41407014]
[42.76878751]
[26.14134838]
[38.25520463]
[60.42814554]
[196.29822707]
[685.96685754]
[476.19109589]
[327.83451426]
[240.06093398]
[168.06831552]
[266.53546943]
[265.58851856]
[232.52121426]
[335.01805914]
[440.4865971]
[574.33578551]
[505.98706199]
[239.73944778]
[106.8615121]
[49.97211901]
[120.08812258]
[67.61884231]
[71.44684255]
[46.33015659]
[49.16314947]
[36.17356275]
[47.55451701]
[65.29017387]
[178.46013733]
[693.49437656]
[443.33955359]
[338.72173741]
[190.23744261]
[204.8298107]
[207.5031155]
[376.0777465]
[229.5210912]
[369.92391131]
[425.4517032]
[558.22379482]
[486.1495423]
[117.00907988]
[157.34013648]
[19.75191686]
[164.98096457]
[71.2593933]
[96.39347924]
[38.86440886]
[39.71357254]
[25.01715356]
[37.57335346]
[64.41766252]
[189.50796497]
[640.35565828]
[583.34214697]
[281.3468909]
[221.35364729]
[149.16519169]
[280.88731148]
[245.09472093]
[215.99247467]
[395.16841357]
[394.04903228]
[620.73688817]
[521.42810875]
[178.10596665]
[132.40420897]
[57.09407084]
[103.68488993]
[91.99805538]
[76.3563181]
[49.70607774]
[50.09621566]
[35.83006844]
[43.15964767]
[63.66953887]
[188.1412319]
[686.79181732]
[497.10421221]
[301.86825564]
[269.50672705]
[150.80574802]
[280.83668775]
[327.56606538]
[241.25013361]
[370.93343029]
[468.46837394]
[556.03155687]
[501.81277851]
[132.75255181]
[168.71170434]
[40.27058631]
[131.03113145]
[98.53625171]
[81.41155035]
[50.41666194]
[31.36298949]
[31.30645472]
[40.90007692]
[59.09517798]
[132.69461131]
[131.0208733]
[226.60490145]
[160.73070776]
[170.06474942]
[131.06160276]
[177.19235024]
[195.93451557]
[182.82025466]
[205.93553164]
[124.52802391]
[179.18424652]
[128.9665694]
[164.39069982]
[122.80213893]
[81.929847]
[113.55572367]
RMSE: 91.5887560880261
MAPE: 174.11624781560502
