[115.505887]
[116.99089475]
[86.24453013]
[110.23903129]
[86.6077118]
[109.66911217]
[92.69834077]
[122.77747303]
[109.17669592]
[127.21294578]
[133.81733256]
[118.11833748]
[127.00752976]
[121.13889455]
[134.37928947]
[158.47487051]
[132.32073294]
[154.22457539]
[124.86406958]
[154.49126635]
[103.5213067]
[136.14720304]
[85.98783132]
[148.15034835]
[87.48804616]
[118.98894202]
[77.30623778]
[113.85155117]
[84.71987338]
[118.29526872]
[101.74788785]
[175.18367945]
[496.77257701]
[288.31445349]
[213.26271399]
[188.13642926]
[194.9931001]
[220.37943111]
[248.72909552]
[197.24244748]
[249.83377986]
[310.87063377]
[360.74469709]
[362.86205192]
[38.18895588]
[176.57908581]
[45.02992671]
[163.89399228]
[57.23369204]
[130.74990563]
[67.19382223]
[120.45516911]
[75.57782961]
[113.993677]
[86.62122097]
[146.49241415]
[238.20512958]
[225.10364566]
[153.77495668]
[212.04529373]
[136.19744057]
[236.05132722]
[201.80283587]
[174.31629023]
[226.01919314]
[228.03733299]
[418.23826084]
[224.12013281]
[252.90587327]
[84.1670173]
[147.71238436]
[97.60438682]
[136.25074416]
[77.63166046]
[113.31829965]
[84.8793908]
[111.17923785]
[88.94689056]
[125.17403258]
[168.6263057]
[475.93664085]
[223.85721508]
[270.21901515]
[191.11294919]
[198.79302771]
[235.23564002]
[324.04486537]
[143.78807473]
[297.54791796]
[252.60115365]
[444.83168254]
[273.74035539]
[167.5440004]
[171.88978607]
[90.94738468]
[168.8858941]
[92.44165133]
[120.41643359]
[76.63783286]
[114.96425489]
[83.48640498]
[111.48907422]
[96.24812358]
[193.01089746]
[435.44005337]
[174.78169567]
[290.48429198]
[97.65721189]
[271.99776666]
[156.9046754]
[304.51790952]
[160.84809568]
[270.2739459]
[247.44924077]
[511.19237603]
[251.27669951]
[222.16848158]
[109.37707391]
[130.00437267]
[116.81402223]
[136.13814678]
[88.88487471]
[109.07111618]
[91.18902836]
[105.20916321]
[93.32814626]
[116.57474204]
[185.00000275]
[494.74475191]
[254.80385386]
[264.15065728]
[180.22867773]
[239.62595622]
[226.82837682]
[306.31648967]
[170.41300971]
[290.83977806]
[277.25670688]
[377.57149812]
[337.37181928]
[161.15098858]
[175.55832343]
[84.67384922]
[164.07652233]
[96.64854637]
[141.32140057]
[68.6049942]
[124.37977434]
[80.05196147]
[117.07394452]
[97.67253375]
[149.8727871]
[142.95445053]
[204.86957776]
[166.42264338]
[181.03096384]
[151.18878543]
[156.04713033]
[164.5158543]
[196.7973608]
[183.17803132]
[162.7487593]
[220.93310405]
[147.06774052]
[167.86957636]
[114.36842253]
[128.94884386]
[125.03432203]
[134.94730105]
[101.42047865]
[101.75101001]
[95.4857889]
[99.78067543]
[99.41299473]
[98.76810465]
[132.73654199]
[109.21482648]
[154.00544509]
[134.01960411]
[143.17249897]
[137.96309343]
[120.46942746]
[125.83312303]
[155.65120667]
[162.48460055]
[141.63548612]
[146.49191057]
[152.44154392]
[117.22003991]
[135.77511156]
[96.66441565]
[135.23105357]
[104.49759805]
[107.52753006]
[90.61922855]
[105.52184116]
[91.23298126]
[105.61847974]
[106.02729043]
[205.43243237]
[486.3309597]
[261.05643834]
[257.25056363]
[167.38571471]
[228.5229323]
[237.71893113]
[264.51855712]
[179.19322437]
[281.00472816]
[294.74232055]
[411.85409188]
[335.65721071]
[173.2536681]
[152.58768014]
[90.94458858]
[149.32697039]
[93.51497686]
[117.60466443]
[82.15240615]
[112.64916724]
[85.24677117]
[112.34811477]
[98.72077628]
[198.29685832]
[498.8102418]
[289.49593892]
[288.29453186]
[177.62035332]
[219.38169729]
[246.552041]
[250.72879502]
[188.4534951]
[261.85063362]
[307.89415776]
[431.73557601]
[365.74952886]
[226.43377728]
[139.22857823]
[104.83486749]
[151.35579305]
[96.15911363]
[121.46515565]
[82.39818536]
[114.31562226]
[85.66523064]
[114.71468376]
[101.95008143]
[190.90219588]
[512.73773121]
[264.82282401]
[304.49592032]
[126.41359564]
[262.73856392]
[180.96765083]
[365.7642551]
[138.38560549]
[332.50192451]
[246.157328]
[462.0843505]
[318.92806632]
[179.3953066]
[175.64443024]
[77.09255572]
[194.25324951]
[67.13134485]
[155.39881183]
[55.8867919]
[136.90611847]
[68.70573015]
[126.76569224]
[85.42782811]
[201.63814232]
[460.65375396]
[382.89397824]
[227.24482928]
[204.28429601]
[173.12989996]
[287.76444291]
[208.22686312]
[207.88165817]
[283.15897453]
[283.08534309]
[468.65625785]
[361.60302014]
[195.92513845]
[161.11288514]
[105.28997298]
[148.87646221]
[109.56044742]
[120.69187086]
[85.08832842]
[113.29289603]
[90.26022634]
[113.77735932]
[104.8144521]
[195.74611057]
[505.38697537]
[302.83320196]
[268.09569603]
[202.17609628]
[197.07941346]
[273.97844522]
[283.48882757]
[198.79735394]
[283.79347098]
[319.38801542]
[419.57795224]
[369.92439566]
[156.29494849]
[211.70140321]
[66.96147395]
[188.21727332]
[79.93842984]
[146.74768343]
[69.19823203]
[125.2406396]
[80.37915435]
[121.50195413]
[88.38276171]
[159.28024878]
[122.19648895]
[228.53589123]
[143.93203106]
[208.51425627]
[128.76546181]
[206.92947618]
[161.28492544]
[193.00910396]
[178.07794409]
[151.02207687]
[190.6824094]
[146.2616177]
[186.23273719]
[124.66153714]
[125.07002783]
[130.55927793]
RMSE: 116.33172017566784
MAPE: 359.51974379681684
