[87.32894375]
[64.99293691]
[34.07338862]
[54.36463202]
[38.38830824]
[50.84203814]
[46.15591578]
[73.89523426]
[73.84136497]
[83.20143955]
[108.32016362]
[81.31111093]
[86.98171845]
[87.90969055]
[102.48239096]
[143.06396033]
[112.55023762]
[125.52197078]
[103.7064487]
[126.48819967]
[73.2897053]
[88.79344014]
[47.86945252]
[103.02002923]
[58.19322158]
[54.43319405]
[31.32111431]
[53.66738073]
[40.8210175]
[61.33331632]
[65.91142945]
[151.93090676]
[665.7784213]
[471.42703209]
[168.21278992]
[202.71375593]
[232.14564548]
[243.46776858]
[289.74705626]
[234.4231883]
[272.03796413]
[407.47736756]
[486.13080687]
[490.46768152]
[6.48004694]
[80.86193316]
[55.04246536]
[96.68724347]
[24.14148469]
[56.85818195]
[34.1319495]
[48.33997969]
[36.10797196]
[47.39161716]
[46.22138916]
[102.20512178]
[278.74031282]
[272.91301838]
[139.77113092]
[207.58011419]
[153.62723696]
[232.09449911]
[253.28008228]
[165.65641117]
[243.28003397]
[280.20868648]
[540.15288262]
[333.22932069]
[238.39778206]
[82.21223175]
[88.54691613]
[82.65399786]
[85.65355926]
[36.55581454]
[45.62739138]
[45.89729926]
[50.3959612]
[43.70667969]
[74.80021234]
[166.29813345]
[620.00780088]
[372.03873905]
[229.07877169]
[253.15657784]
[209.3897623]
[268.68893101]
[410.58449757]
[183.07619701]
[290.28645363]
[371.39735424]
[567.12099962]
[413.05681378]
[127.31999186]
[165.18049796]
[70.86653963]
[131.49955852]
[68.63656105]
[60.87947487]
[25.98920665]
[57.36920599]
[38.44885358]
[50.3725354]
[54.10120083]
[178.12547561]
[582.77871077]
[269.94805016]
[253.81248468]
[136.76149645]
[264.43461423]
[212.81082039]
[321.13157701]
[223.42951499]
[264.441976]
[339.37520777]
[669.08114354]
[415.51262584]
[167.51725124]
[111.28483185]
[86.39650463]
[92.72358071]
[93.9581209]
[51.04887381]
[41.49657842]
[49.4238604]
[46.53612637]
[43.90756593]
[65.41946683]
[184.09147089]
[657.87513505]
[417.5154744]
[226.49204839]
[225.44578793]
[269.41679915]
[276.69723436]
[364.19645946]
[218.36651424]
[300.69642894]
[391.14637697]
[479.94926962]
[471.82843396]
[166.65161384]
[139.14914961]
[65.53945111]
[124.64941088]
[74.0629982]
[88.99224075]
[23.870632]
[57.68286749]
[42.39293266]
[52.79437173]
[58.7975937]
[112.30728155]
[134.40756477]
[201.50122224]
[181.22934144]
[164.14119695]
[146.74427435]
[133.80001913]
[158.44680798]
[204.07967319]
[196.9754863]
[148.39408445]
[236.23484689]
[158.24373048]
[133.99993716]
[93.0033451]
[84.62990586]
[96.80254782]
[102.60213421]
[59.62180057]
[40.69522613]
[46.67326287]
[45.27465655]
[47.69519423]
[44.62615562]
[96.27075449]
[74.96186054]
[120.08644759]
[120.51944912]
[110.79403526]
[114.77195107]
[85.54347197]
[87.08816776]
[137.91348143]
[159.25429012]
[118.75752689]
[119.39359678]
[140.0518284]
[86.14348634]
[94.3763733]
[59.95781386]
[90.41532287]
[73.3423052]
[50.75369829]
[38.85595532]
[51.888376]
[42.08691075]
[48.95919882]
[63.75503557]
[203.63250253]
[662.04347778]
[415.87076274]
[225.82362213]
[202.4966994]
[252.35281867]
[292.50993506]
[312.42573607]
[208.40583503]
[307.36210984]
[408.55443253]
[540.71822017]
[480.33727189]
[175.49057601]
[115.06565636]
[65.47242351]
[113.55357134]
[61.15879879]
[58.12559324]
[35.13842882]
[54.72401645]
[38.41891061]
[53.6752808]
[57.71075365]
[186.79218417]
[680.73281591]
[463.76191673]
[276.72837565]
[220.21337298]
[236.36045739]
[301.57209787]
[300.11597455]
[210.7555226]
[287.10871833]
[416.05376244]
[581.42099153]
[526.21835867]
[258.47606845]
[108.54421423]
[65.50358721]
[132.08948344]
[62.46849849]
[61.49756308]
[37.1045327]
[57.04089457]
[37.92421945]
[57.18532579]
[62.73257832]
[176.21986199]
[697.67570592]
[435.32323145]
[282.51259627]
[159.23598162]
[271.34088301]
[240.11990022]
[422.24834334]
[209.34299219]
[325.34746089]
[379.53930278]
[577.16584822]
[495.17190422]
[150.59324093]
[161.18781777]
[50.19492458]
[166.33991912]
[43.59000861]
[89.60836023]
[20.3435148]
[66.84863561]
[32.80538922]
[57.95287377]
[49.88010524]
[178.70345822]
[631.66909877]
[581.40165647]
[236.09251738]
[193.74564635]
[207.71241542]
[333.02436356]
[265.46499935]
[200.4823336]
[346.29230037]
[376.0493962]
[616.43393219]
[544.37088329]
[197.6734101]
[123.92393193]
[91.56273401]
[114.77991969]
[77.5795868]
[70.19390568]
[34.16266837]
[54.59359195]
[44.97487582]
[56.24586212]
[63.29320264]
[184.79580435]
[687.39363625]
[484.76371379]
[243.62463166]
[241.38855247]
[221.13161237]
[319.87061614]
[365.49927632]
[227.87489709]
[310.03810335]
[441.62119591]
[562.33640965]
[518.77818877]
[159.32607782]
[180.71706885]
[62.6296461]
[136.44592672]
[67.42529906]
[80.79529803]
[32.01760168]
[54.77589986]
[42.68432468]
[56.42285563]
[47.43738416]
[118.02574182]
[111.2226544]
[221.69075055]
[164.4043804]
[182.9120785]
[132.61581498]
[187.47280179]
[183.10101574]
[176.33777522]
[191.33955847]
[130.38423781]
[186.50670427]
[143.1061273]
[170.8195707]
[109.48776923]
[73.45645634]
[100.796938]
RMSE: 93.33265592106177
MAPE: 166.80131539016904
