[50.87740093]
[68.69445082]
[68.89275067]
[68.01060275]
[15.20431528]
[23.17796915]
[54.963828]
[104.91274614]
[83.84414349]
[61.82297223]
[92.09299953]
[98.10057577]
[111.79535008]
[87.0811178]
[80.67174147]
[135.30161724]
[130.94642401]
[143.31985034]
[99.62156588]
[109.18341879]
[71.67582859]
[100.01292495]
[56.97346062]
[92.93460861]
[47.64298398]
[54.45431309]
[44.03377645]
[58.31318153]
[33.74020847]
[51.06506914]
[69.24954242]
[164.84587663]
[669.11533666]
[493.44684373]
[182.04186568]
[200.18537128]
[232.47964848]
[242.80425311]
[256.41822273]
[215.81019015]
[303.16919691]
[437.96943814]
[478.68510286]
[464.88582456]
[14.69018408]
[92.03475736]
[58.47055963]
[60.7553079]
[0.]
[48.98477752]
[81.93605949]
[76.06184622]
[2.41988404]
[6.32554028]
[58.22325099]
[148.59927975]
[290.50821461]
[249.04326421]
[123.84348956]
[226.93283408]
[190.93040015]
[229.5067426]
[212.18981807]
[147.34740902]
[274.2963939]
[316.00220769]
[527.58922029]
[312.40698424]
[232.56613919]
[113.84383525]
[99.20903896]
[49.71671856]
[32.72670725]
[33.27270271]
[89.78799586]
[70.32429296]
[21.94197002]
[3.22895021]
[82.58958425]
[209.66491656]
[634.70735688]
[370.95499125]
[217.45308501]
[263.0989992]
[238.38399083]
[267.11638877]
[357.04956249]
[167.15482825]
[328.44506597]
[408.87393521]
[553.2563781]
[383.73717925]
[120.70228321]
[191.78157893]
[92.35396856]
[91.1806538]
[11.13090581]
[52.57857142]
[84.52409056]
[83.73442762]
[0.]
[0.77902187]
[66.88126378]
[231.86213962]
[599.27005227]
[259.97422871]
[228.42766521]
[157.20768028]
[296.63977799]
[215.76233313]
[258.89049143]
[203.28588296]
[310.49128267]
[385.68759566]
[647.13873604]
[384.82130841]
[169.33270587]
[143.36350589]
[100.86064387]
[49.40444615]
[27.34883028]
[47.80596023]
[106.34329161]
[79.3948559]
[1.56753856]
[0.]
[80.29698079]
[243.62996191]
[674.43085558]
[405.28059979]
[209.62789316]
[243.57841633]
[306.0578497]
[275.85754901]
[298.08551326]
[192.69032619]
[350.5338629]
[443.29275328]
[461.25612628]
[419.09824542]
[164.96977721]
[184.34124801]
[90.46137401]
[70.13073017]
[9.05095234]
[85.91231898]
[91.38852905]
[87.24770809]
[0.]
[0.]
[75.62469336]
[174.45299035]
[154.68367558]
[154.72471904]
[146.56272047]
[197.37168607]
[201.69821907]
[131.7231928]
[104.05689768]
[176.66307332]
[235.30398712]
[195.41690478]
[221.75505794]
[115.59073121]
[122.15726342]
[126.49448162]
[107.5272406]
[76.19962837]
[62.95675358]
[58.86475587]
[76.56323728]
[63.24184872]
[21.75569185]
[17.60789784]
[51.07614545]
[128.09882723]
[89.5898903]
[97.84145317]
[102.43205773]
[125.85856835]
[143.27532373]
[87.00455384]
[63.24192782]
[124.0800318]
[175.2262717]
[142.02285843]
[115.47581377]
[121.46787701]
[84.18833719]
[106.75188929]
[67.16107373]
[80.36217334]
[62.40171759]
[50.8350773]
[50.71773155]
[56.16438344]
[34.8417711]
[39.58703485]
[65.97289308]
[214.35585629]
[668.89789942]
[440.80449196]
[236.04537062]
[201.27058365]
[252.15235743]
[290.30459377]
[282.13637627]
[197.36090702]
[332.06244705]
[434.20906308]
[533.19494762]
[461.04767026]
[181.90078105]
[135.24796811]
[66.59369751]
[72.78802954]
[20.16453912]
[54.97925918]
[76.64271091]
[74.27690407]
[9.63564698]
[17.07001703]
[68.24874204]
[226.17249409]
[690.57575672]
[468.06373258]
[275.73321317]
[233.24949498]
[254.42819983]
[295.95276985]
[251.05033974]
[188.92015061]
[323.62021686]
[455.58877748]
[571.54205405]
[492.79745231]
[261.85422446]
[146.98708148]
[76.62446552]
[81.0842737]
[4.51317758]
[56.92511157]
[90.03649904]
[85.56607263]
[2.82311438]
[6.5695922]
[73.60761818]
[229.05170959]
[712.39290993]
[432.33380605]
[269.72515538]
[176.74111058]
[295.90840692]
[241.45604389]
[359.58892041]
[189.24311755]
[367.88536707]
[431.56168222]
[560.56008629]
[452.02717324]
[146.32524761]
[196.75271408]
[77.39127572]
[116.29407947]
[0.]
[76.1938111]
[87.33737088]
[99.51534283]
[0.]
[0.]
[62.25383618]
[240.23493623]
[650.81528975]
[566.24618122]
[226.47098684]
[213.27282363]
[241.15605447]
[326.85229208]
[206.05018735]
[161.02457543]
[389.10434164]
[442.56917976]
[605.56288126]
[491.2083271]
[192.77928795]
[173.37698966]
[114.23622173]
[62.79256957]
[2.22223925]
[58.91476579]
[105.90596621]
[95.34811291]
[0.]
[0.]
[76.34953712]
[253.77925794]
[709.58471637]
[469.91372272]
[222.06329175]
[258.74980586]
[265.31665952]
[318.815611]
[295.30075343]
[192.89477903]
[362.9302059]
[502.33030063]
[551.00140464]
[462.08474701]
[151.1753718]
[225.68100008]
[97.39299041]
[80.60970323]
[0.]
[70.15388728]
[108.58927691]
[93.99932935]
[0.]
[0.]
[62.56237942]
[190.81992855]
[137.439952]
[166.20642735]
[121.53339257]
[217.82476638]
[199.80900348]
[186.32373811]
[122.84446052]
[143.62751214]
[231.92164666]
[184.9299273]
[171.61314721]
[89.08967775]
[151.80111452]
[154.84518401]
[105.33659715]
[76.36282598]
RMSE: 86.29215527262846
MAPE: 201.02883639614754
