               Date|        Records|               Bytes|          Packets|
2018/05/10T09:30:00|       26306.36|         37010504.13|         71427.37|
2018/05/10T09:30:01|       27091.19|         47879653.81|         80192.37|
2018/05/10T09:30:02|       27985.73|         49034686.85|         82398.78|
2018/05/10T09:30:03|       27147.23|         47021491.63|         80172.49|
2018/05/10T09:30:04|       27147.12|         49603103.11|         82277.44|
2018/05/10T09:30:05|       27704.74|         49721704.30|         82796.12|
2018/05/10T09:30:06|       26918.68|         51864978.11|         84355.52|
2018/05/10T09:30:07|       26832.66|         51414872.99|         83701.06|
2018/05/10T09:30:08|       27687.65|         46281503.11|         81047.58|
2018/05/10T09:30:09|       26777.80|         44945164.21|         78909.96|
2018/05/10T09:30:10|       26811.40|         46336999.66|         80543.59|
2018/05/10T09:30:11|       27395.85|         43434527.71|         78887.87|
2018/05/10T09:30:12|       26857.70|         42448685.04|         77666.95|
2018/05/10T09:30:13|       27840.35|         43985230.93|         79939.58|
2018/05/10T09:30:14|       27734.49|         43111317.49|         78900.89|
2018/05/10T09:30:15|       26809.14|         38758589.84|         75297.99|
2018/05/10T09:30:16|       26746.31|         40186606.26|         76925.74|
2018/05/10T09:30:17|       27529.38|         39131867.02|         76619.51|
2018/05/10T09:30:18|       26838.17|         41399486.90|         77716.70|
2018/05/10T09:30:19|       26954.17|         45102993.89|         80931.67|
2018/05/10T09:30:20|       27785.46|         42443315.32|         79503.63|
2018/05/10T09:30:21|       26568.78|         43418069.20|         79490.10|
2018/05/10T09:30:22|       26740.77|         54623300.85|         94674.52|
2018/05/10T09:30:23|       27224.72|         50918020.30|         85295.50|
2018/05/10T09:30:24|       26813.75|         49769018.47|         83941.58|
2018/05/10T09:30:25|       26840.58|         51181293.36|         84218.62|
2018/05/10T09:30:26|       28038.15|         55334205.46|         88248.62|
2018/05/10T09:30:27|       27331.38|         57767115.53|         89708.36|
2018/05/10T09:30:28|       26915.52|         55308769.49|         87364.36|
2018/05/10T09:30:29|       27312.50|         56014698.52|         87936.25|
2018/05/10T09:30:30|       26857.45|         55496077.27|         87229.43|
2018/05/10T09:30:31|       26675.17|         52227657.32|         84292.26|
2018/05/10T09:30:32|       27258.95|         52359435.30|         85331.61|
2018/05/10T09:30:33|       26902.82|         52067679.90|         84733.34|
2018/05/10T09:30:34|       26857.50|         45827113.74|         80221.81|
2018/05/10T09:30:35|       27150.25|         41846588.58|         77408.17|
2018/05/10T09:30:36|       26557.76|         43476097.54|         78441.28|
2018/05/10T09:30:37|       27644.43|         48072755.76|         83577.68|
2018/05/10T09:30:38|       27432.16|         46737893.91|         81439.54|
2018/05/10T09:30:39|       26749.61|         43514013.68|         78179.16|
2018/05/10T09:30:40|       27116.02|         44778619.77|         79979.06|
2018/05/10T09:30:41|       27122.45|         43733360.04|         78701.04|
2018/05/10T09:30:42|       26974.43|         44787763.75|         79587.94|
2018/05/10T09:30:43|       26814.93|         48131976.84|         82879.18|
2018/05/10T09:30:44|       27445.22|         49157932.90|         84600.89|
2018/05/10T09:30:45|       27147.67|         52824869.64|         87274.37|
2018/05/10T09:30:46|       26957.09|         52897875.82|         87443.80|
2018/05/10T09:30:47|       27460.61|         58017689.67|         91609.04|
2018/05/10T09:30:48|       27187.18|         54736849.81|         89723.64|
2018/05/10T09:30:49|       26860.44|         53070641.08|         89225.03|
2018/05/10T09:30:50|       27257.12|         48812151.84|         84062.20|
2018/05/10T09:30:51|       26987.48|         61389014.61|         92191.35|
2018/05/10T09:30:52|       26807.32|         62874363.51|         93726.70|
2018/05/10T09:30:53|       27070.33|         61348410.01|         92312.50|
2018/05/10T09:30:54|       26879.15|         62222258.23|         92580.10|
2018/05/10T09:30:55|       26785.17|         72861072.06|        100169.36|
2018/05/10T09:30:56|       27122.76|         70554786.65|         98980.16|
2018/05/10T09:30:57|       27064.04|         71500301.12|        100356.30|
2018/05/10T09:30:58|       26727.83|         73902905.35|         95754.24|
2018/05/10T09:30:59|       26992.31|         73951167.74|         92546.22|
2018/05/10T09:31:00|       26977.59|         74406982.83|         92511.94|
2018/05/10T09:31:01|       26735.18|         73724110.40|         91144.14|
2018/05/10T09:31:02|       27096.25|         74861126.55|         91594.25|
2018/05/10T09:31:03|       26708.40|         71411434.03|         89263.68|
2018/05/10T09:31:04|       26506.99|         61544009.19|         82642.45|
2018/05/10T09:31:05|       26887.88|         58978647.81|         81162.62|
2018/05/10T09:31:06|       26768.46|         58836919.47|         81509.28|
2018/05/10T09:31:07|       26389.28|         60949057.67|         83036.19|
2018/05/10T09:31:08|       27054.24|         75615584.18|         93385.80|
2018/05/10T09:31:09|       27154.02|         90187175.72|        104108.98|
2018/05/10T09:31:10|       26751.44|         60428835.68|         82967.42|
2018/05/10T09:31:11|       27297.15|         59390535.80|         81857.63|
2018/05/10T09:31:12|       26887.74|         56594264.36|         79276.91|
2018/05/10T09:31:13|       26943.26|         65224263.05|         85861.56|
2018/05/10T09:31:14|       27602.83|         64143490.73|         85732.67|
2018/05/10T09:31:15|       26994.28|         64071932.15|         84246.58|
2018/05/10T09:31:16|       27062.51|         63739881.38|         84133.19|
2018/05/10T09:31:17|       27288.40|         62030332.38|         82975.41|
2018/05/10T09:31:18|       26506.11|         62811882.45|         83023.59|
2018/05/10T09:31:19|       26541.76|         65496024.11|         84446.79|
2018/05/10T09:31:20|       26930.90|         73056694.12|         89942.73|
2018/05/10T09:31:21|       26352.95|         73445353.09|         90285.00|
2018/05/10T09:31:22|       26529.88|         76922002.54|         92669.75|
2018/05/10T09:31:23|       27316.15|         71161896.49|         89543.94|
2018/05/10T09:31:24|       26910.56|         68754728.42|         86739.53|
2018/05/10T09:31:25|       26415.16|         65320899.99|         84409.08|
2018/05/10T09:31:26|       27586.44|         67895204.30|         87440.81|
2018/05/10T09:31:27|       26717.91|         76666812.13|         92151.73|
2018/05/10T09:31:28|       27193.93|         67418736.91|         86628.04|
2018/05/10T09:31:29|       27276.11|         66731065.60|         86400.08|
2018/05/10T09:31:30|       26860.36|         64781508.96|         83911.99|
2018/05/10T09:31:31|       26120.39|         65628080.45|         84060.96|
2018/05/10T09:31:32|       26926.11|         66795243.68|         86028.33|
2018/05/10T09:31:33|       26526.08|         62731407.56|         83511.20|
2018/05/10T09:31:34|       27464.45|         56755749.32|         80029.61|
2018/05/10T09:31:35|       27186.12|         54932634.97|         78665.69|
2018/05/10T09:31:36|       26720.34|         56255972.00|         79675.12|
2018/05/10T09:31:37|       26692.23|         61414783.25|         84597.38|
2018/05/10T09:31:38|       27054.63|         57990236.29|         79613.20|
2018/05/10T09:31:39|       27303.66|         55572230.98|         78151.73|
2018/05/10T09:31:40|       26924.40|         51190884.41|         73843.40|
2018/05/10T09:31:41|       27429.86|         51646487.83|         74575.70|
2018/05/10T09:31:42|       27053.49|         49352304.45|         72545.06|
2018/05/10T09:31:43|       26425.48|         49122599.29|         71629.34|
2018/05/10T09:31:44|       27483.00|         47500474.83|         71861.39|
2018/05/10T09:31:45|       26931.97|         46603143.61|         70508.85|
2018/05/10T09:31:46|       26297.25|         48069779.34|         70826.08|
2018/05/10T09:31:47|       27956.30|         48630972.08|         73218.93|
2018/05/10T09:31:48|       26606.67|         45379161.62|         69249.28|
2018/05/10T09:31:49|       26435.33|         38940039.21|         64935.43|
2018/05/10T09:31:50|       26890.48|         40742017.65|         66693.83|
2018/05/10T09:31:51|       26878.79|         43589026.52|         68726.80|
2018/05/10T09:31:52|       26419.07|         48961677.41|         72509.56|
2018/05/10T09:31:53|       26978.88|         40715153.89|         66603.88|
2018/05/10T09:31:54|       27008.92|         39943319.06|         65757.26|
2018/05/10T09:31:55|       26606.68|         40160635.81|         65666.54|
2018/05/10T09:31:56|       27546.11|         46985711.69|         70595.95|
2018/05/10T09:31:57|       27098.32|         52002742.66|         74109.13|
2018/05/10T09:31:58|       26502.03|         53382040.03|         74465.76|
2018/05/10T09:31:59|       27257.46|         55198010.95|         77820.23|
2018/05/10T09:32:00|       26666.38|         58647219.96|         78805.89|
2018/05/10T09:32:01|       26771.98|         53252880.15|         74975.32|
2018/05/10T09:32:02|       27389.52|         50349808.37|         72930.79|
2018/05/10T09:32:03|       26730.02|         49367482.56|         71782.28|
2018/05/10T09:32:04|       26728.62|         52349179.13|         74117.12|
2018/05/10T09:32:05|       27313.19|         52403439.22|         74751.54|
2018/05/10T09:32:06|       26967.05|         49551312.88|         72359.60|
2018/05/10T09:32:07|       36044.00|         52270567.14|         82766.24|
2018/05/10T09:32:08|       36769.47|         52676468.25|         84241.60|
2018/05/10T09:32:09|       36615.38|         58813309.78|         90584.67|
2018/05/10T09:32:10|       31619.83|         50704471.75|         78173.37|
2018/05/10T09:32:11|       27404.92|         51055182.74|         74342.81|
2018/05/10T09:32:12|       26575.51|         49737438.67|         72901.66|
2018/05/10T09:32:13|       26901.39|         47730835.41|         71858.02|
2018/05/10T09:32:14|       27018.91|         45921677.60|         70114.01|
2018/05/10T09:32:15|       26829.95|         48948176.99|         72109.79|
2018/05/10T09:32:16|       26533.86|         46398656.81|         73530.34|
2018/05/10T09:32:17|       28646.09|         49882956.02|         74409.40|
2018/05/10T09:32:18|       26685.65|         51033874.34|         73550.84|
2018/05/10T09:32:19|       26706.57|         48015427.95|         71858.04|
2018/05/10T09:32:20|       26846.20|         47503707.16|         71316.59|
2018/05/10T09:32:21|       27074.01|         49870357.15|         72722.03|
2018/05/10T09:32:22|       26373.66|         49814001.33|         71834.42|
2018/05/10T09:32:23|       27147.07|         50458910.18|         73222.93|
2018/05/10T09:32:24|       26694.79|         49485348.14|         72252.14|
2018/05/10T09:32:25|       26752.53|         53391794.94|         74929.74|
2018/05/10T09:32:26|       27322.42|         56133933.79|         77631.96|
2018/05/10T09:32:27|       26420.61|         55677502.07|         76401.12|
2018/05/10T09:32:28|       26637.62|         56240892.58|         76479.37|
2018/05/10T09:32:29|       27114.52|         54097433.38|         76057.41|
2018/05/10T09:32:30|       26622.80|         55363642.66|         76143.84|
2018/05/10T09:32:31|       26646.55|         57499536.59|         78107.52|
2018/05/10T09:32:32|       26961.44|         55493499.29|         76720.46|
2018/05/10T09:32:33|       26753.66|         63467510.02|         82148.57|
2018/05/10T09:32:34|       26808.42|         60196980.77|         79784.71|
2018/05/10T09:32:35|       26782.74|         64796851.02|         82884.49|
2018/05/10T09:32:36|       26881.40|         69053252.23|         85691.79|
2018/05/10T09:32:37|       26844.92|         84937884.17|         99074.99|
2018/05/10T09:32:38|       27306.36|         92083836.63|        109633.37|
2018/05/10T09:32:39|       26604.95|         96489405.50|        113158.36|
2018/05/10T09:32:40|       26830.17|         70752554.73|        102386.36|
2018/05/10T09:32:41|       27306.78|         64126303.26|         97842.04|
2018/05/10T09:32:42|       26661.95|         63216146.51|        100949.23|
2018/05/10T09:32:43|       26609.11|         72996153.58|        107095.40|
2018/05/10T09:32:44|       27554.40|         73225285.45|        103524.29|
2018/05/10T09:32:45|       26534.36|         56638524.35|         82376.75|
2018/05/10T09:32:46|       26400.46|         58589944.72|         79264.06|
2018/05/10T09:32:47|       27121.37|         60107613.81|         80600.59|
2018/05/10T09:32:48|       26520.95|         58946591.95|         79007.29|
2018/05/10T09:32:49|       26470.78|         61339191.93|         80924.71|
2018/05/10T09:32:50|       27254.36|         52806206.74|         75290.71|
2018/05/10T09:32:51|       26481.20|         55768588.39|         76576.11|
2018/05/10T09:32:52|       26640.27|         56244472.52|         77012.41|
2018/05/10T09:32:53|       27245.80|         55591225.63|         77326.90|
2018/05/10T09:32:54|       26685.90|         53929793.98|         75096.78|
2018/05/10T09:32:55|       26660.78|         56293961.82|         76555.29|
2018/05/10T09:32:56|       27139.99|         67607321.03|         84230.97|
2018/05/10T09:32:57|       26385.69|         58491212.09|         77225.46|
2018/05/10T09:32:58|       26398.67|         56238105.87|         75542.50|
2018/05/10T09:32:59|       26932.59|         54561760.02|         75479.11|
2018/05/10T09:33:00|       27112.93|         53918936.28|         74959.72|
2018/05/10T09:33:01|       26784.97|         57197320.94|         77863.59|
2018/05/10T09:33:02|       27158.91|         57938146.29|         78244.83|
2018/05/10T09:33:03|       26630.88|         56029685.31|         76543.23|
2018/05/10T09:33:04|       26872.16|         56132934.83|         76570.15|
2018/05/10T09:33:05|       27422.01|         53644626.63|         75597.67|
2018/05/10T09:33:06|       28143.59|         60675175.78|         82221.29|
2018/05/10T09:33:07|       26556.57|         64696748.31|         84057.77|
2018/05/10T09:33:08|       28293.68|         58329372.22|         79986.88|
2018/05/10T09:33:09|       26830.54|         56398440.15|         77575.39|
2018/05/10T09:33:10|       26975.42|         59236992.66|         79568.98|
2018/05/10T09:33:11|       27436.25|         59087676.45|         80306.74|
2018/05/10T09:33:12|       26722.05|         57991725.07|         78604.00|
2018/05/10T09:33:13|       26639.36|         55525326.71|         76604.74|
2018/05/10T09:33:14|       28186.74|         58846103.33|         80352.17|
2018/05/10T09:33:15|       26522.68|         55811154.08|         76862.28|
2018/05/10T09:33:16|       26679.67|         55181426.35|         78639.66|
2018/05/10T09:33:17|       26882.85|         54597920.36|         77078.18|
2018/05/10T09:33:18|       26521.45|         54098289.90|         76589.46|
2018/05/10T09:33:19|       26423.20|         59466557.48|         88020.33|
2018/05/10T09:33:20|       26960.76|         59344585.03|         80340.78|
2018/05/10T09:33:21|       27655.97|         56306305.04|         78854.24|
2018/05/10T09:33:22|       26463.03|         55831150.14|         77580.08|
2018/05/10T09:33:23|       26985.68|         55266835.59|         77331.99|
2018/05/10T09:33:24|       26606.78|         53741867.53|         76402.94|
2018/05/10T09:33:25|       27052.66|         56866640.61|         81134.47|
2018/05/10T09:33:26|       26940.29|         58173490.88|         79318.13|
2018/05/10T09:33:27|       26666.99|         52596897.05|         75015.44|
2018/05/10T09:33:28|       26656.19|         57661197.88|         78255.67|
2018/05/10T09:33:29|       26798.62|         56873712.26|         77762.31|
2018/05/10T09:33:30|       26471.42|         56711684.67|         77494.18|
2018/05/10T09:33:31|       26898.81|         51574610.96|         74365.53|
2018/05/10T09:33:32|       26913.24|         53803276.80|         76134.80|
2018/05/10T09:33:33|       26369.03|         55009029.19|         76432.04|
2018/05/10T09:33:34|       26667.98|         56577277.71|         78255.73|
2018/05/10T09:33:35|       26966.74|         62863463.80|         83423.20|
2018/05/10T09:33:36|       26757.52|         60421900.03|         81125.76|
2018/05/10T09:33:37|       26163.09|         59206689.23|         79607.10|
2018/05/10T09:33:38|       26658.19|         55926591.32|         78182.46|
2018/05/10T09:33:39|       26483.32|         48230392.29|         72668.32|
2018/05/10T09:33:40|       26471.50|         51086729.94|         74890.36|
2018/05/10T09:33:41|       26770.81|         48697063.12|         73367.98|
2018/05/10T09:33:42|       26582.58|         49075871.98|         73765.90|
2018/05/10T09:33:43|       26338.19|         54903388.03|         76514.90|
2018/05/10T09:33:44|       26844.79|         53855900.84|         75724.38|
2018/05/10T09:33:45|       27396.23|         54218937.92|         76823.14|
2018/05/10T09:33:46|       26538.84|         47274011.00|         71150.11|
2018/05/10T09:33:47|       26867.64|         45987416.27|         70774.89|
2018/05/10T09:33:48|       26710.33|         49507963.66|         72696.72|
2018/05/10T09:33:49|       26911.73|         50273685.84|         73370.78|
2018/05/10T09:33:50|       26923.76|         47218821.12|         71908.68|
2018/05/10T09:33:51|       26731.33|         47982872.53|         72690.36|
2018/05/10T09:33:52|       26445.09|         51892426.50|         75529.31|
2018/05/10T09:33:53|       27154.74|         50879349.42|         75595.82|
2018/05/10T09:33:54|       26646.30|         51689451.85|         75638.48|
2018/05/10T09:33:55|       26520.45|         47474946.73|         72593.89|
2018/05/10T09:33:56|       26766.01|         47174193.26|         73252.17|
2018/05/10T09:33:57|       26568.64|         52632174.05|         76481.20|
2018/05/10T09:33:58|       26386.22|         57110154.03|         81095.19|
2018/05/10T09:33:59|       27038.35|         56822933.08|         83809.61|
2018/05/10T09:34:00|       26828.20|         56667628.78|         83346.51|
2018/05/10T09:34:01|       26525.78|         55029825.81|         81994.71|
2018/05/10T09:34:02|       27196.92|         50385668.92|         79180.57|
2018/05/10T09:34:03|       26627.11|         60568406.28|         85647.73|
2018/05/10T09:34:04|       26663.59|         58917300.11|         85106.42|
2018/05/10T09:34:05|       27059.10|         63974343.23|         88801.86|
2018/05/10T09:34:06|       26779.96|         65308050.73|         90769.46|
2018/05/10T09:34:07|       26491.89|         63117170.06|         88994.66|
2018/05/10T09:34:08|       27575.70|         64030009.34|         90840.71|
2018/05/10T09:34:09|       26657.27|         62145632.45|         88343.54|
2018/05/10T09:34:10|       27333.42|         61374130.20|         88458.52|
2018/05/10T09:34:11|       27356.13|         56084586.32|         84442.27|
2018/05/10T09:34:12|       27279.75|         54430805.65|         89999.65|
2018/05/10T09:34:13|       26522.19|         53401558.98|         87738.07|
2018/05/10T09:34:14|       27029.29|         55668890.76|         91923.11|
2018/05/10T09:34:15|       26851.76|         55290622.40|         90591.59|
2018/05/10T09:34:16|       26517.69|         50833297.75|         85481.90|
2018/05/10T09:34:17|       27402.28|         48409638.00|         85793.88|
2018/05/10T09:34:18|       26718.49|         48505936.93|         89527.65|
2018/05/10T09:34:19|       27250.04|         46471846.33|         88951.10|
2018/05/10T09:34:20|       27582.92|         47808821.12|         89851.77|
2018/05/10T09:34:21|       26429.50|         48295839.33|         88548.21|
2018/05/10T09:34:22|       26658.56|         52160268.30|         91419.67|
2018/05/10T09:34:23|       27474.05|         53023150.29|         92369.30|
2018/05/10T09:34:24|       27087.05|         48510106.09|         87984.03|
2018/05/10T09:34:25|       26784.34|         44208781.83|         80591.84|
2018/05/10T09:34:26|       27266.77|         47728998.22|         83360.13|
2018/05/10T09:34:27|       26703.77|         44174221.61|         80878.95|
2018/05/10T09:34:28|       26543.15|         46724006.38|         80962.01|
2018/05/10T09:34:29|       26688.08|         46816229.47|         80478.99|
2018/05/10T09:34:30|       26938.44|         53208305.20|         85012.37|
2018/05/10T09:34:31|       26533.73|         55267809.85|         86031.60|
2018/05/10T09:34:32|       27225.01|         45762970.52|         80542.39|
2018/05/10T09:34:33|       26498.18|         46085906.94|         79514.39|
2018/05/10T09:34:34|       26550.95|         49803817.16|         82051.60|
2018/05/10T09:34:35|       27011.87|         48207780.76|         80728.53|
2018/05/10T09:34:36|       27536.52|         52526352.99|         84948.01|
2018/05/10T09:34:37|       26923.87|         48502959.78|         81715.82|
2018/05/10T09:34:38|       26833.00|         46693855.46|         80224.01|
2018/05/10T09:34:39|       26404.88|         44507890.45|         71553.69|
2018/05/10T09:34:40|       26649.74|         47866822.95|         71723.82|
2018/05/10T09:34:41|       26871.35|         47298611.24|         71562.13|
2018/05/10T09:34:42|       26552.87|         51405110.38|         74355.30|
2018/05/10T09:34:43|       26609.57|         48090652.29|         72169.87|
2018/05/10T09:34:44|       27057.23|         48174565.50|         72470.36|
2018/05/10T09:34:45|       27654.47|         42478774.79|         69178.12|
2018/05/10T09:34:46|       26971.67|         45309828.27|         70735.70|
2018/05/10T09:34:47|       27079.85|         46211307.26|         71272.23|
2018/05/10T09:34:48|       26889.22|         43285394.34|         72040.90|
2018/05/10T09:34:49|       26613.48|         46895965.39|         71063.20|
2018/05/10T09:34:50|       27066.02|         47018414.51|         71627.81|
2018/05/10T09:34:51|       27132.85|         49752113.59|         73721.38|
2018/05/10T09:34:52|       26783.33|         45221773.84|         69454.32|
2018/05/10T09:34:53|       27232.10|         48735894.12|         72788.47|
2018/05/10T09:34:54|       26605.21|         50157211.22|         74237.84|
2018/05/10T09:34:55|       26623.11|         49421079.80|         74269.05|
2018/05/10T09:34:56|       27057.06|         50158671.30|         75413.92|
2018/05/10T09:34:57|       26772.56|         51533480.03|         76637.42|
2018/05/10T09:34:58|       26461.44|         54529921.69|         78298.44|
2018/05/10T09:34:59|       26903.14|         52252641.01|         76688.84|
2018/05/10T09:35:00|       26847.36|         53130712.68|         77312.13|
2018/05/10T09:35:01|       26836.47|         49959846.98|         74731.45|
2018/05/10T09:35:02|       26816.07|         49201775.19|         74453.41|
2018/05/10T09:35:03|       26767.89|         55420956.66|         79854.21|
2018/05/10T09:35:04|       26329.14|         63046316.79|         84927.37|
2018/05/10T09:35:05|       27166.80|         63529982.15|         86256.37|
2018/05/10T09:35:06|       26829.67|         57557998.65|         82560.72|
2018/05/10T09:35:07|       26658.88|         53024488.73|         77741.48|
2018/05/10T09:35:08|       26918.40|         53664982.56|         78232.16|
2018/05/10T09:35:09|       26309.70|         55740170.01|         79319.70|
2018/05/10T09:35:10|       26482.30|         56661379.25|         80305.51|
2018/05/10T09:35:11|       27042.29|         57536215.28|         81915.14|
2018/05/10T09:35:12|       26701.66|         61027064.97|         83908.43|
2018/05/10T09:35:13|       26598.23|         56233464.03|         80906.62|
2018/05/10T09:35:14|       26920.38|         52669359.93|         78014.50|
2018/05/10T09:35:15|       26748.42|         50982217.69|         76143.08|
2018/05/10T09:35:16|       26579.70|         52243805.11|         77567.67|
2018/05/10T09:35:17|       27376.11|         52119136.76|         78675.86|
2018/05/10T09:35:18|       26566.52|         51671893.28|         78099.41|
2018/05/10T09:35:19|       26885.26|         53832581.60|         79605.15|
2018/05/10T09:35:20|       27100.34|         51633018.87|         78006.80|
2018/05/10T09:35:21|       27161.31|         65260953.71|         86808.95|
2018/05/10T09:35:22|       26689.55|         71615709.40|         90206.81|
2018/05/10T09:35:23|       26949.20|         71928892.88|         90751.94|
2018/05/10T09:35:24|       26551.12|         69990895.07|         89375.40|
2018/05/10T09:35:25|       26697.45|         70461142.91|         90049.98|
2018/05/10T09:35:26|       27250.83|         72532200.90|         91777.73|
2018/05/10T09:35:27|       26791.41|         72650038.08|         89572.62|
2018/05/10T09:35:28|       26558.73|         73949129.50|         89339.74|
2018/05/10T09:35:29|       26821.57|         72631894.34|         88907.38|
2018/05/10T09:35:30|       26523.18|         69883031.85|         86860.44|
2018/05/10T09:35:31|       27015.81|         68633252.69|         86184.72|
2018/05/10T09:35:32|       27514.32|         67159936.18|         85418.73|
2018/05/10T09:35:33|       26529.53|         67147190.43|         84408.61|
2018/05/10T09:35:34|       26549.61|         69800678.41|         87653.39|
2018/05/10T09:35:35|       27106.54|         49291183.40|         73428.78|
2018/05/10T09:35:36|       26445.69|         46104254.94|         70459.40|
2018/05/10T09:35:37|       26343.12|         46413492.41|         70955.11|
2018/05/10T09:35:38|       27053.60|         47891162.41|         72638.09|
2018/05/10T09:35:39|       26746.16|         48376742.21|         72270.41|
2018/05/10T09:35:40|       26369.00|         58491740.54|         79557.34|
2018/05/10T09:35:41|       26908.88|         52706088.07|         76053.75|
2018/05/10T09:35:42|       26768.22|         47211478.00|         71526.97|
2018/05/10T09:35:43|       26407.78|         48436295.83|         72020.27|
2018/05/10T09:35:44|       27024.94|         45793425.19|         70477.29|
2018/05/10T09:35:45|       27184.46|         44062802.38|         69041.20|
2018/05/10T09:35:46|       26700.20|         48091161.88|         71569.67|
2018/05/10T09:35:47|       27191.47|         49281858.56|         73645.15|
2018/05/10T09:35:48|       26663.75|         44572553.78|         70120.10|
2018/05/10T09:35:49|       26452.43|         44632596.10|         68623.51|
2018/05/10T09:35:50|       27150.38|         44931683.05|         69900.44|
2018/05/10T09:35:51|       26656.36|         50352850.62|         73070.06|
2018/05/10T09:35:52|       26485.88|         55692820.28|         77909.03|
2018/05/10T09:35:53|       27102.96|         46410905.51|         71497.93|
2018/05/10T09:35:54|       26821.70|         45017575.28|         69540.11|
2018/05/10T09:35:55|       26466.29|         46607709.50|         70619.75|
2018/05/10T09:35:56|       27191.73|         47359987.03|         72320.29|
2018/05/10T09:35:57|       27099.26|         48741020.50|         73220.09|
2018/05/10T09:35:58|       26619.94|         49271665.15|         73203.45|
2018/05/10T09:35:59|       27017.44|         48267205.23|         72299.36|
2018/05/10T09:36:00|       26562.80|         47436687.56|         71091.99|
2018/05/10T09:36:01|       26532.44|         46910604.39|         71103.11|
2018/05/10T09:36:02|       27232.10|         45544251.17|         69940.21|
2018/05/10T09:36:03|       26794.90|         43714611.21|         68125.60|
2018/05/10T09:36:04|       27056.94|         46449252.87|         71337.18|
2018/05/10T09:36:05|       27344.01|         47817980.62|         73566.50|
2018/05/10T09:36:06|       27286.29|         49473328.27|         75230.48|
2018/05/10T09:36:07|       26907.53|         48211214.54|         73808.20|
2018/05/10T09:36:08|       27463.05|         49096979.74|         73881.69|
2018/05/10T09:36:09|       26535.06|         43719520.02|         68375.83|
2018/05/10T09:36:10|       26670.55|         42042487.96|         67530.10|
2018/05/10T09:36:11|       28578.09|         47486739.48|         72951.74|
2018/05/10T09:36:12|       26750.00|         45673667.79|         69163.09|
2018/05/10T09:36:13|       26553.67|         53685697.07|         75335.28|
2018/05/10T09:36:14|       26867.11|         43811368.17|         68340.21|
2018/05/10T09:36:15|       26418.83|         47925675.70|         71547.86|
2018/05/10T09:36:16|       26465.28|         53305633.51|         75876.76|
2018/05/10T09:36:17|       26830.94|         42370356.93|         66801.82|
2018/05/10T09:36:18|       26871.97|         48695466.16|         71183.72|
2018/05/10T09:36:19|       26400.59|         42810607.56|         66746.69|
2018/05/10T09:36:20|       27232.44|         45318246.59|         69545.94|
2018/05/10T09:36:21|       26599.52|         58411254.35|         78085.74|
2018/05/10T09:36:22|       26352.05|         43620683.57|         67396.11|
2018/05/10T09:36:23|       27131.37|         43269519.22|         67854.39|
2018/05/10T09:36:24|       26301.08|         43960667.58|         67475.77|
2018/05/10T09:36:25|       26751.79|         44050286.17|         68254.93|
2018/05/10T09:36:26|       27391.17|         44381405.86|         68998.01|
2018/05/10T09:36:27|       26666.51|         47136761.45|         71125.03|
2018/05/10T09:36:28|       26786.31|         47283572.77|         71520.30|
2018/05/10T09:36:29|       27036.86|         44432912.10|         70226.70|
2018/05/10T09:36:30|       26635.58|         46795548.12|         71836.78|
2018/05/10T09:36:31|       26789.27|         44614036.69|         69653.77|
2018/05/10T09:36:32|       27141.65|         45252770.40|         70268.90|
2018/05/10T09:36:33|       26634.01|         56558356.74|         77645.85|
2018/05/10T09:36:34|       26930.88|         45416690.55|         70223.05|
2018/05/10T09:36:35|       40453.94|         48265766.40|         84860.52|
2018/05/10T09:36:36|       51633.41|         46627120.54|         93728.47|
2018/05/10T09:36:37|       43087.37|         46839859.11|         85575.61|
2018/05/10T09:36:38|       39620.71|         43763652.54|         80125.33|
2018/05/10T09:36:39|       26614.88|         48605349.39|         72858.07|
2018/05/10T09:36:40|       26332.38|         43004087.72|         67811.56|
2018/05/10T09:36:41|       27111.64|         39692344.41|         65810.27|
2018/05/10T09:36:42|       26712.07|         42931201.81|         68411.56|
2018/05/10T09:36:43|       26724.49|         46195468.64|         71511.77|
2018/05/10T09:36:44|       27301.97|         45391597.15|         71830.31|
2018/05/10T09:36:45|       26671.83|         46299478.40|         72585.32|
2018/05/10T09:36:46|       26631.37|         50940581.48|         75968.03|
2018/05/10T09:36:47|       26849.40|         48919257.31|         74277.35|
2018/05/10T09:36:48|       27142.22|         48069681.11|         73844.12|
2018/05/10T09:36:49|       26438.38|         49222553.34|         74299.76|
2018/05/10T09:36:50|       26826.50|         51778962.68|         76603.56|
2018/05/10T09:36:51|       26698.88|         47780734.48|         73729.16|
2018/05/10T09:36:52|       26471.21|         46680595.70|         72623.92|
2018/05/10T09:36:53|       27424.87|         47884874.07|         74074.13|
2018/05/10T09:36:54|       26842.27|         50308615.85|         75179.28|
2018/05/10T09:36:55|       26251.54|         55727387.03|         77674.90|
2018/05/10T09:36:56|       27370.22|         61054169.43|         82091.01|
2018/05/10T09:36:57|       26922.54|         61792646.06|         82805.87|
2018/05/10T09:36:58|       26375.96|         60349063.46|         80873.45|
2018/05/10T09:36:59|       27234.34|         60695722.87|         81471.89|
2018/05/10T09:37:00|       26649.79|         65856402.10|         84769.96|
2018/05/10T09:37:01|       26599.91|         61482428.01|         81882.73|
2018/05/10T09:37:02|       27152.85|         63191496.75|         84695.24|
2018/05/10T09:37:03|       26992.17|         64993736.95|         85293.01|
2018/05/10T09:37:04|       26682.17|         64041610.36|         84370.34|
2018/05/10T09:37:05|       27397.63|         64443351.84|         85279.33|
2018/05/10T09:37:06|       27794.41|         64201673.64|         85185.90|
2018/05/10T09:37:07|       26355.61|         62390042.71|         82458.87|
2018/05/10T09:37:08|       27374.35|         55826422.38|         77976.82|
2018/05/10T09:37:09|       26686.96|         44059826.45|         69051.48|
2018/05/10T09:37:10|       26471.31|         43669871.36|         68313.87|
2018/05/10T09:37:11|       27261.78|         45194487.73|         70691.93|
2018/05/10T09:37:12|       26791.61|         43442008.14|         68597.23|
2018/05/10T09:37:13|       26578.76|         42965428.74|         67891.55|
2018/05/10T09:37:14|       27317.66|         44767026.28|         70498.95|
2018/05/10T09:37:15|       26758.24|         45438091.26|         70396.76|
2018/05/10T09:37:16|       26772.25|         46972462.07|         71473.59|
2018/05/10T09:37:17|       27136.12|         48213482.11|         72636.38|
2018/05/10T09:37:18|       26859.01|         54761138.06|         77004.68|
2018/05/10T09:37:19|       26904.06|         54667435.96|         77453.73|
2018/05/10T09:37:20|       27026.09|         52745173.08|         75949.68|
2018/05/10T09:37:21|       27065.99|         52458614.83|         76086.04|
2018/05/10T09:37:22|       26467.49|         53828991.34|         77258.75|
2018/05/10T09:37:23|       26877.87|         59554397.19|         81259.86|
2018/05/10T09:37:24|       26901.66|         56305845.07|         79405.87|
2018/05/10T09:37:25|       26680.10|         55371253.89|         79131.18|
2018/05/10T09:37:26|       27167.50|         62686088.37|         83799.25|
2018/05/10T09:37:27|       26739.37|         78106035.18|         93889.58|
2018/05/10T09:37:28|       26673.47|         78841557.46|         94065.45|
2018/05/10T09:37:29|       27074.25|         80269619.99|         95874.52|
2018/05/10T09:37:30|       26597.42|         79241393.69|         95048.51|
2018/05/10T09:37:31|       26689.77|         78411754.94|         95455.24|
2018/05/10T09:37:32|       27284.66|         78576496.01|         95153.08|
2018/05/10T09:37:33|       26529.06|         83048533.49|         97588.32|
2018/05/10T09:37:34|       26496.19|         82202252.81|         96663.78|
2018/05/10T09:37:35|       26928.54|         72168364.67|         89846.14|
2018/05/10T09:37:36|       26615.82|         52701807.72|         76963.39|
2018/05/10T09:37:37|       26410.68|         52277956.05|         76132.33|
2018/05/10T09:37:38|       26949.65|         52031825.56|         76334.76|
2018/05/10T09:37:39|       26572.09|         51666386.41|         75147.46|
2018/05/10T09:37:40|       26661.56|         51633592.88|         76345.56|
2018/05/10T09:37:41|       27104.67|         50072259.85|         74906.70|
2018/05/10T09:37:42|       26874.46|         53096976.54|         76979.25|
2018/05/10T09:37:43|       26795.12|         52874159.10|         76632.92|
2018/05/10T09:37:44|       27458.49|         53111817.90|         77509.15|
2018/05/10T09:37:45|       26793.04|         52068870.44|         75751.55|
2018/05/10T09:37:46|       26562.30|         53131904.83|         76635.31|
2018/05/10T09:37:47|       27168.03|         54292726.09|         78061.75|
2018/05/10T09:37:48|       26554.49|         51140435.55|         75037.44|
2018/05/10T09:37:49|       27187.33|         55822152.26|         78878.82|
2018/05/10T09:37:50|       27180.15|         50271117.29|         75926.46|
2018/05/10T09:37:51|       26561.00|         52806283.01|         78412.04|
2018/05/10T09:37:52|       26889.01|         53891789.18|         79562.60|
2018/05/10T09:37:53|       27056.12|         49097645.68|         76822.06|
2018/05/10T09:37:54|       26722.25|         46535873.48|         74577.05|
2018/05/10T09:37:55|       26868.17|         57675575.96|         83683.70|
2018/05/10T09:37:56|       26976.91|         70778745.92|         94213.92|
2018/05/10T09:37:57|       28906.93|         70071004.16|         94903.50|
2018/05/10T09:37:58|       26873.59|         70500395.99|         93520.74|
2018/05/10T09:37:59|       40383.70|         72142896.88|        108119.80|
2018/05/10T09:38:00|       30061.33|         70965063.06|         97409.36|
2018/05/10T09:38:01|       26653.75|         74108588.49|         94708.60|
2018/05/10T09:38:02|       26933.00|         76826798.45|         96997.66|
2018/05/10T09:38:03|       27303.20|         76486544.73|         96541.66|
2018/05/10T09:38:04|       26982.03|         75791800.48|         95286.15|
2018/05/10T09:38:05|       27338.83|         68712949.28|         89109.11|
2018/05/10T09:38:06|       27092.88|         52471835.15|         75259.09|
2018/05/10T09:38:07|       26961.83|         73347423.53|         95457.37|
2018/05/10T09:38:08|       27417.55|         77591718.45|        100651.99|
2018/05/10T09:38:09|       26771.39|         82220137.43|        103525.50|
2018/05/10T09:38:10|       27060.82|         84931999.00|        105722.01|
2018/05/10T09:38:11|       27396.08|         84462992.57|        106124.27|
2018/05/10T09:38:12|       27059.68|         84189287.62|        105544.86|
2018/05/10T09:38:13|       27086.40|         82314818.22|        105763.98|
2018/05/10T09:38:14|       27462.83|         80866898.69|        103795.98|
2018/05/10T09:38:15|       26945.23|         76590570.78|        100129.01|
2018/05/10T09:38:16|       26954.64|         75084060.89|         98642.35|
2018/05/10T09:38:17|       27560.09|         76732991.68|        100659.53|
2018/05/10T09:38:18|       26992.23|         74742266.95|         98859.80|
2018/05/10T09:38:19|       27254.43|         74634762.74|         98881.84|
2018/05/10T09:38:20|       27414.44|         61725924.21|         86235.63|
2018/05/10T09:38:21|       27298.21|         48565848.55|         72916.93|
2018/05/10T09:38:22|       27050.39|         48255164.51|         72837.92|
2018/05/10T09:38:23|       27159.37|         48050458.93|         72410.36|
2018/05/10T09:38:24|       27004.10|         47415845.62|         71589.11|
2018/05/10T09:38:25|       27295.25|         49548056.88|         73684.26|
2018/05/10T09:38:26|       27622.37|         49683932.83|         83253.34|
2018/05/10T09:38:27|       27424.50|         49681097.64|         74269.57|
2018/05/10T09:38:28|       27028.73|         48843147.40|         73141.97|
2018/05/10T09:38:29|       27423.82|         48878074.59|         73630.16|
2018/05/10T09:38:30|       27283.14|         50249879.61|         74463.11|
2018/05/10T09:38:31|       26990.29|         49474637.27|         73309.24|
2018/05/10T09:38:32|       27555.08|         51882391.36|         75538.91|
2018/05/10T09:38:33|       27303.38|         49313821.01|         73585.54|
2018/05/10T09:38:34|       27306.36|         49753622.27|         73636.67|
2018/05/10T09:38:35|       27387.41|         48795894.50|         72867.81|
2018/05/10T09:38:36|       27401.91|         51169978.05|         74746.26|
2018/05/10T09:38:37|       27605.09|         50515693.45|         74285.13|
2018/05/10T09:38:38|       27476.35|         49376076.96|         73106.79|
2018/05/10T09:38:39|       26980.65|         52365190.23|         74815.15|
2018/05/10T09:38:40|       26841.03|         53261884.80|         75259.04|
2018/05/10T09:38:41|       27608.92|         54279660.31|         77109.32|
2018/05/10T09:38:42|       27173.97|         55834879.77|         77791.60|
2018/05/10T09:38:43|       26868.00|         55832134.84|         77464.41|
2018/05/10T09:38:44|       27661.82|         56314688.61|         78692.41|
2018/05/10T09:38:45|       27026.92|         55977162.54|         77701.25|
2018/05/10T09:38:46|       26874.59|         56147648.29|         77871.53|
2018/05/10T09:38:47|       27847.18|         58921685.19|         81087.97|
2018/05/10T09:38:48|       27485.04|         68287099.10|         88440.10|
2018/05/10T09:38:49|       27182.77|         60492835.61|         83156.00|
2018/05/10T09:38:50|       59566.85|         56092451.96|        111279.01|
2018/05/10T09:38:51|       27343.67|         50610093.59|         76013.05|
2018/05/10T09:38:52|       27133.13|         49724972.52|         75075.49|
2018/05/10T09:38:53|       27578.03|         49346920.02|         75234.42|
2018/05/10T09:38:54|       27346.03|         52319942.34|         77066.92|
2018/05/10T09:38:55|       27378.17|         65654581.22|         85971.27|
2018/05/10T09:38:56|       27707.58|         63198771.06|         85059.38|
2018/05/10T09:38:57|       27098.03|         65508175.88|         85790.56|
2018/05/10T09:38:58|       26875.91|         60976728.74|         82648.63|
2018/05/10T09:38:59|       27591.99|         55195354.16|         78182.67|
2018/05/10T09:39:00|       27279.38|         56445872.49|         78954.60|
2018/05/10T09:39:01|       26940.09|         57695926.45|         79463.06|
2018/05/10T09:39:02|       27796.15|         61876470.32|         82304.49|
2018/05/10T09:39:03|       26870.36|         48183070.72|         72048.99|
2018/05/10T09:39:04|       26912.47|         48126059.75|         72113.05|
2018/05/10T09:39:05|       27410.05|         48490577.63|         73000.55|
2018/05/10T09:39:06|       26895.82|         47261453.63|         71973.85|
2018/05/10T09:39:07|       26685.97|         57657239.24|         79274.39|
2018/05/10T09:39:08|       27474.01|         48347923.56|         73882.80|
2018/05/10T09:39:09|       27067.12|         50286027.22|         75164.80|
2018/05/10T09:39:10|       26771.08|         47915739.79|         73994.85|
2018/05/10T09:39:11|       27341.50|         47900958.49|         75126.70|
2018/05/10T09:39:12|       27279.38|         49613188.06|         76923.33|
2018/05/10T09:39:13|       26965.13|         47792777.72|         73509.01|
2018/05/10T09:39:14|       27894.92|         51110407.29|         76479.33|
2018/05/10T09:39:15|       27192.26|         55357107.12|         79453.17|
2018/05/10T09:39:16|       26991.50|         49864848.26|         75098.66|
2018/05/10T09:39:17|       27484.09|         50869517.12|         75739.35|
2018/05/10T09:39:18|       27230.50|         49720330.85|         74758.39|
2018/05/10T09:39:19|       27205.10|         51702147.08|         76486.30|
2018/05/10T09:39:20|       27500.61|         49917903.08|         75704.08|
2018/05/10T09:39:21|       27110.51|         49172708.55|         74788.18|
2018/05/10T09:39:22|       27058.47|         50188072.09|         75815.29|
2018/05/10T09:39:23|       60528.60|         57669865.48|        114273.73|
2018/05/10T09:39:24|       26853.90|         64342024.60|         87368.07|
2018/05/10T09:39:25|       27336.47|         71065266.06|         93068.43|
2018/05/10T09:39:26|       27288.62|         70150160.82|         93148.42|
2018/05/10T09:39:27|       26638.70|         71739120.67|         93830.71|
2018/05/10T09:39:28|       26996.50|         73094772.01|         95990.08|
2018/05/10T09:39:29|       27211.20|         71608836.99|         96030.68|
2018/05/10T09:39:30|       27120.52|         70830315.34|         96295.12|
2018/05/10T09:39:31|       26866.91|         71422871.25|         97982.46|
2018/05/10T09:39:32|       28019.71|         68994774.13|         97616.59|
2018/05/10T09:39:33|       27478.29|         70943510.28|         97839.01|
2018/05/10T09:39:34|       27109.45|         67248248.44|         93722.62|
2018/05/10T09:39:35|       27296.22|         63047710.75|         90105.34|
2018/05/10T09:39:36|       26755.20|         61567821.61|         88513.46|
2018/05/10T09:39:37|       26272.57|         64113159.55|         89514.06|
2018/05/10T09:39:38|       27368.05|         61105801.34|         89604.08|
2018/05/10T09:39:39|       26640.35|         65662751.48|         93455.93|
2018/05/10T09:39:40|       26815.02|         63326966.79|         91976.23|
2018/05/10T09:39:41|       27633.59|        101716950.71|        117097.67|
2018/05/10T09:39:42|       27408.56|        112838862.27|        124134.50|
2018/05/10T09:39:43|       26971.51|        112587199.25|        123566.30|
2018/05/10T09:39:44|       28239.25|        107800661.22|        120502.72|
2018/05/10T09:39:45|       26915.51|        108812640.41|        117832.29|
2018/05/10T09:39:46|       27077.42|        109790933.77|        118748.32|
2018/05/10T09:39:47|       27321.39|        115115281.80|        123248.58|
2018/05/10T09:39:48|       27147.82|        122342034.38|        129646.12|
2018/05/10T09:39:49|       26709.60|        121105975.01|        127972.89|
2018/05/10T09:39:50|       27742.89|        116496486.04|        125546.47|
2018/05/10T09:39:51|       27496.78|        117757362.26|        125324.37|
2018/05/10T09:39:52|       27409.43|        116384780.37|        121590.15|
2018/05/10T09:39:53|       27676.00|        110506504.80|        118081.62|
2018/05/10T09:39:54|       27066.53|         94020806.11|        106564.50|
2018/05/10T09:39:55|       27545.46|         66044495.34|         87711.32|
2018/05/10T09:39:56|       27618.29|         64942680.56|         86891.07|
2018/05/10T09:39:57|       27323.17|         66094737.29|         87473.06|
2018/05/10T09:39:58|       26757.35|         59626082.16|         80991.02|
2018/05/10T09:39:59|       27410.14|         61255728.61|         82443.30|
2018/05/10T09:40:00|       27319.73|         56964069.78|         79304.76|
2018/05/10T09:40:01|       27314.69|         57860023.64|         80379.07|
2018/05/10T09:40:02|       27778.01|         59028758.80|         81869.65|
2018/05/10T09:40:03|       27415.06|         57565035.45|         79741.76|
2018/05/10T09:40:04|       27096.52|         57332440.07|         78947.31|
2018/05/10T09:40:05|       27743.08|         57780749.64|         79918.73|
2018/05/10T09:40:06|       27776.79|         54563687.55|         77517.07|
2018/05/10T09:40:07|       27064.70|         53360362.46|         75759.93|
2018/05/10T09:40:08|       27648.24|         44765804.72|         70722.01|
2018/05/10T09:40:09|       27270.70|         43587854.21|         69540.64|
2018/05/10T09:40:10|       27261.10|         42342550.73|         68553.41|
2018/05/10T09:40:11|       27555.12|         40560160.95|         67710.75|
2018/05/10T09:40:12|       26974.23|         39555009.81|         66438.53|
2018/05/10T09:40:13|       28001.51|         48651620.97|         74096.00|
2018/05/10T09:40:14|       27471.38|         41476161.65|         68095.16|
2018/05/10T09:40:15|       27090.81|         44735656.93|         70049.36|
2018/05/10T09:40:16|       27252.56|         44500277.93|         70076.39|
2018/05/10T09:40:17|       27739.08|         48069928.00|         73541.55|
2018/05/10T09:40:18|       27379.69|         48617561.37|         77157.07|
2018/05/10T09:40:19|       27323.16|         48509656.58|         77735.18|
2018/05/10T09:40:20|       27540.23|         48133948.67|         77140.93|
2018/05/10T09:40:21|       27228.50|         46520677.49|         75525.66|
2018/05/10T09:40:22|       27218.07|         46313706.66|         76254.83|
2018/05/10T09:40:23|       27947.43|         45377567.14|         76852.36|
2018/05/10T09:40:24|       27218.02|         46130427.66|         76733.33|
2018/05/10T09:40:25|       27089.05|         49798637.08|         79175.88|
2018/05/10T09:40:26|       27794.07|         45597776.66|         76724.33|
2018/05/10T09:40:27|       27146.22|         45421606.65|         75332.11|
2018/05/10T09:40:28|       27070.65|         45522736.05|         74898.42|
2018/05/10T09:40:29|       27661.45|         45974045.99|         75663.75|
2018/05/10T09:40:30|       26896.03|         44195038.07|         73199.66|
2018/05/10T09:40:31|       27009.06|         44833363.98|         74343.71|
2018/05/10T09:40:32|       27842.15|         47246952.69|         76930.22|
2018/05/10T09:40:33|       27064.62|         52388707.06|         79887.87|
2018/05/10T09:40:34|       26867.03|         44608988.00|         73933.00|
2018/05/10T09:40:35|       28768.76|         44257406.11|         75727.57|
2018/05/10T09:40:36|       27192.42|         45459351.45|         75506.44|
2018/05/10T09:40:37|       26969.84|         45659089.35|         77459.36|
2018/05/10T09:40:38|       27556.53|         48299259.72|         81468.37|
2018/05/10T09:40:39|       27576.49|         51443270.10|         84320.87|
2018/05/10T09:40:40|       26918.31|         48686344.90|         81306.61|
2018/05/10T09:40:41|       27414.99|         47566346.27|         77446.19|
2018/05/10T09:40:42|       26851.60|         47709422.27|         76664.11|
2018/05/10T09:40:43|       27290.67|         46703560.67|         76487.50|
2018/05/10T09:40:44|       28302.53|         47967404.91|         79870.17|
2018/05/10T09:40:45|       28542.72|         50460469.32|         80488.28|
2018/05/10T09:40:46|       28298.70|         45879052.60|         76670.79|
2018/05/10T09:40:47|       27722.24|         44488524.15|         74840.30|
2018/05/10T09:40:48|       27086.60|         43578791.29|         73400.69|
2018/05/10T09:40:49|       27712.57|         54769883.58|         84081.65|
2018/05/10T09:40:50|       27852.61|         54220120.41|         83987.17|
2018/05/10T09:40:51|       26885.57|         53583229.37|         82148.05|
2018/05/10T09:40:52|       27827.20|         54630958.48|         84240.24|
2018/05/10T09:40:53|       27916.37|         55313408.33|         85530.83|
2018/05/10T09:40:54|       27131.02|         64192155.85|         91330.88|
2018/05/10T09:40:55|       26790.79|         58272741.15|         87019.02|
2018/05/10T09:40:56|       27653.37|         55797822.42|         87435.67|
2018/05/10T09:40:57|       27068.00|         55120685.43|         86918.39|
2018/05/10T09:40:58|       27148.85|         54753188.12|         86806.32|
2018/05/10T09:40:59|       27848.99|         54322004.67|         86841.68|
2018/05/10T09:41:00|       29821.34|         53247940.58|         88834.81|
2018/05/10T09:41:01|       36723.63|         55758309.46|         96802.01|
2018/05/10T09:41:02|       38959.01|         49642766.03|         92654.67|
2018/05/10T09:41:03|       38185.53|         47409408.45|         89412.24|
2018/05/10T09:41:04|       37289.24|         46321959.43|         88069.09|
2018/05/10T09:41:05|       40269.02|         46194142.87|         90658.09|
2018/05/10T09:41:06|       37664.20|         45127187.78|         86398.66|
2018/05/10T09:41:07|       28029.86|         42837187.53|         75964.06|
2018/05/10T09:41:08|       28168.35|         42585296.59|         76054.04|
2018/05/10T09:41:09|       27436.61|         44075454.26|         76281.96|
2018/05/10T09:41:10|       27754.57|         45772567.92|         75484.60|
2018/05/10T09:41:11|       28125.77|         43782386.91|         74305.73|
2018/05/10T09:41:12|       27367.85|         43666603.05|         73600.82|
2018/05/10T09:41:13|       27536.85|         40031919.12|         70840.81|
2018/05/10T09:41:14|       28496.69|         40129906.21|         71533.09|
2018/05/10T09:41:15|       28303.29|         40639930.46|         71550.63|
2018/05/10T09:41:16|       27806.79|         62223497.67|         88122.66|
2018/05/10T09:41:17|       28016.59|         64120803.69|         89245.20|
2018/05/10T09:41:18|       27227.28|         62697482.87|         86981.47|
2018/05/10T09:41:19|       27710.31|         63000736.02|         87437.90|
2018/05/10T09:41:20|       28095.81|         59041242.62|         84223.46|
2018/05/10T09:41:21|       27276.36|         51054167.29|         76687.15|
2018/05/10T09:41:22|       27833.01|         54037222.06|         79372.44|
2018/05/10T09:41:23|       28052.49|         54284331.17|         79671.44|
2018/05/10T09:41:24|       27402.26|         53259476.07|         78771.26|
2018/05/10T09:41:25|       27350.60|         53064970.17|         79253.20|
2018/05/10T09:41:26|       28035.23|         49299196.34|         76749.97|
2018/05/10T09:41:27|       27514.30|         51023481.34|         79118.84|
2018/05/10T09:41:28|       27552.05|         49951825.67|         78420.88|
2018/05/10T09:41:29|       28033.49|         57105990.56|         84055.93|
2018/05/10T09:41:30|       27489.08|         58596641.18|         85120.44|
2018/05/10T09:41:31|       27664.28|         54820013.40|         82203.57|
2018/05/10T09:41:32|       28264.91|         53604541.36|         81970.36|
2018/05/10T09:41:33|       27167.56|         51679319.01|         79100.53|
2018/05/10T09:41:34|       28524.88|         54044109.83|         81938.16|
2018/05/10T09:41:35|       28120.75|         57911632.08|         84133.27|
2018/05/10T09:41:36|       28046.48|         68380757.24|         91040.62|
2018/05/10T09:41:37|       27990.57|         59623738.96|         86265.44|
2018/05/10T09:41:38|       28029.89|         54303137.49|         82586.98|
2018/05/10T09:41:39|       27814.07|         54298324.09|         82286.87|
2018/05/10T09:41:40|       27807.60|         44113665.69|         71580.84|
2018/05/10T09:41:41|       28629.73|         44670905.28|         72762.99|
2018/05/10T09:41:42|       27940.15|         43865222.58|         71499.12|
2018/05/10T09:41:43|       27880.60|         44710374.09|         72341.10|
2018/05/10T09:41:44|       28439.55|         45323181.35|         73243.47|
2018/05/10T09:41:45|       27928.54|         44073773.63|         71905.58|
2018/05/10T09:41:46|       27596.38|         45736304.71|         73074.13|
2018/05/10T09:41:47|       28108.81|         42072889.52|         70732.79|
2018/05/10T09:41:48|       27678.44|         41058588.90|         71663.80|
2018/05/10T09:41:49|       28630.87|         42086254.86|         72789.96|
2018/05/10T09:41:50|       30269.81|         43574868.83|         73420.59|
2018/05/10T09:41:51|       29778.07|         49562164.89|         76797.16|
2018/05/10T09:41:52|       29500.29|         44787939.76|         72929.28|
2018/05/10T09:41:53|       30527.93|         43519169.05|         72942.38|
2018/05/10T09:41:54|       30166.78|         44484934.49|         73839.19|
2018/05/10T09:41:55|       30163.93|         43188291.04|         72086.96|
2018/05/10T09:41:56|       30178.31|         44102970.08|         72703.94|
2018/05/10T09:41:57|       29672.48|         45086862.42|         72789.07|
2018/05/10T09:41:58|       29508.22|         52244391.39|         77874.50|
2018/05/10T09:41:59|       29972.78|         49410131.60|         77068.51|
2018/05/10T09:42:00|       29679.85|         49830410.46|         76158.79|
2018/05/10T09:42:01|       29901.65|         51355702.36|         77442.93|
2018/05/10T09:42:02|       30374.16|         49437348.99|         76541.21|
2018/05/10T09:42:03|       30202.56|         48728174.97|         75899.31|
2018/05/10T09:42:04|       29575.07|         49363235.93|         76043.52|
2018/05/10T09:42:05|       30488.55|         49995398.31|         77635.71|
2018/05/10T09:42:06|       29821.91|         47558304.72|         75153.74|
2018/05/10T09:42:07|       29580.45|         61314929.40|         84209.84|
2018/05/10T09:42:08|       30299.01|         65366337.73|         87246.29|
2018/05/10T09:42:09|       29799.73|         66933328.99|         87463.69|
2018/05/10T09:42:10|       29789.27|         62476548.21|         84303.48|
2018/05/10T09:42:11|       29890.58|         61855139.87|         84174.86|
2018/05/10T09:42:12|       29120.56|         58823228.86|         81679.35|
2018/05/10T09:42:13|       29528.15|         56941470.87|         80488.23|
2018/05/10T09:42:14|       29973.73|         54603391.99|         79573.00|
2018/05/10T09:42:15|       29884.87|         52805072.71|         78114.80|
2018/05/10T09:42:16|       29927.49|         57053930.13|         80946.91|
2018/05/10T09:42:17|       30161.97|         58582671.58|         82595.44|
2018/05/10T09:42:18|       30612.09|         57803963.02|         81706.37|
2018/05/10T09:42:19|       29905.53|         58199725.86|         82274.78|
2018/05/10T09:42:20|       30261.42|         57739419.32|         81378.82|
2018/05/10T09:42:21|       29973.02|         56640137.96|         81083.20|
2018/05/10T09:42:22|       29064.87|         59237937.18|         82825.80|
2018/05/10T09:42:23|       28287.82|         73508044.70|         95989.39|
2018/05/10T09:42:24|       27884.92|         76854400.76|         97030.88|
2018/05/10T09:42:25|       27671.53|         73614106.13|         91574.95|
2018/05/10T09:42:26|       29810.76|         61385227.14|         84886.23|
2018/05/10T09:42:27|       28076.78|         61321573.61|         83108.78|
2018/05/10T09:42:28|       27953.48|         61267544.59|         83159.00|
2018/05/10T09:42:29|       28239.95|         63300321.00|         84748.57|
2018/05/10T09:42:30|       27654.22|         54449510.17|         78155.99|
2018/05/10T09:42:31|       27897.67|         55098428.83|         78265.37|
2018/05/10T09:42:32|       28231.56|         54921576.85|         78556.68|
2018/05/10T09:42:33|       27543.23|         55724887.18|         78784.13|
2018/05/10T09:42:34|       27744.02|         59837602.29|         81907.52|
2018/05/10T09:42:35|       28304.85|         61586596.53|         83888.70|
2018/05/10T09:42:36|       29160.89|         56587830.17|         80682.44|
2018/05/10T09:42:37|       27723.68|         52796176.09|         75668.51|
2018/05/10T09:42:38|       28359.34|         51775122.88|         75874.31|
2018/05/10T09:42:39|       27931.16|         52187670.52|         75884.37|
2018/05/10T09:42:40|       27834.11|         51223873.89|         75156.41|
2018/05/10T09:42:41|       28488.40|         54478386.61|         78465.99|
2018/05/10T09:42:42|       28219.02|         54339943.42|         79197.79|
2018/05/10T09:42:43|       27899.01|         53681613.35|         78775.33|
2018/05/10T09:42:44|       28410.64|         56626132.76|         81438.45|
2018/05/10T09:42:45|       27996.41|         54113870.64|         79012.11|
2018/05/10T09:42:46|       28127.22|         55879287.62|         80836.98|
2018/05/10T09:42:47|       28473.11|         55489904.42|         80225.36|
2018/05/10T09:42:48|       27517.12|         55258863.95|         77928.57|
2018/05/10T09:42:49|       27700.69|         55586222.00|         78178.10|
2018/05/10T09:42:50|       28515.00|         55959208.53|         78943.69|
2018/05/10T09:42:51|       28001.06|         57670292.76|         79422.21|
2018/05/10T09:42:52|       27648.12|         61666335.70|         81724.04|
2018/05/10T09:42:53|       27975.54|         50894307.92|         74730.89|
2018/05/10T09:42:54|       27709.82|         51403663.54|         74727.28|
2018/05/10T09:42:55|       27680.06|         50989221.05|         74514.54|
2018/05/10T09:42:56|       28375.55|         54909400.06|         78744.08|
2018/05/10T09:42:57|       27597.38|         53218621.93|         76391.06|
2018/05/10T09:42:58|       27507.33|         51130817.87|         75186.61|
2018/05/10T09:42:59|       27984.06|         54157609.51|         77522.06|
2018/05/10T09:43:00|       28832.20|         52284499.60|         76970.30|
2018/05/10T09:43:01|       27925.67|         55497464.39|         77887.06|
2018/05/10T09:43:02|       28518.55|         58381805.89|         80707.50|
2018/05/10T09:43:03|       28014.23|         52565571.93|         76739.83|
2018/05/10T09:43:04|       27765.49|         50504091.84|         74481.35|
2018/05/10T09:43:05|       28182.40|         52160102.38|         75599.64|
2018/05/10T09:43:06|       27856.45|         48923091.87|         73297.95|
2018/05/10T09:43:07|       28905.77|         54305931.97|         78312.01|
2018/05/10T09:43:08|       28389.36|         55747604.47|         78850.27|
2018/05/10T09:43:09|       28054.01|         54383067.98|         77902.70|
2018/05/10T09:43:10|       27762.52|         54571188.74|         77897.70|
2018/05/10T09:43:11|       28935.37|         54926113.25|         79358.04|
2018/05/10T09:43:12|       27831.24|         54182959.38|         77709.69|
2018/05/10T09:43:13|       28985.92|         53512149.04|         78444.94|
2018/05/10T09:43:14|       28764.71|         56702127.29|         80988.32|
2018/05/10T09:43:15|       27997.11|         68653437.43|         89800.61|
2018/05/10T09:43:16|       27842.47|         64255553.75|         85441.08|
2018/05/10T09:43:17|       28238.90|         68251512.81|         88028.36|
2018/05/10T09:43:18|       27907.90|         74055391.47|         91987.03|
2018/05/10T09:43:19|       27805.40|         70335854.58|         90221.18|
2018/05/10T09:43:20|       27952.43|         62556417.78|         84643.59|
2018/05/10T09:43:21|       27612.11|         61230973.69|         82709.44|
2018/05/10T09:43:22|       27414.15|         61073336.31|         81675.89|
2018/05/10T09:43:23|       28091.18|         57871024.56|         80566.28|
2018/05/10T09:43:24|       27457.33|         57368647.99|         79427.52|
2018/05/10T09:43:25|       27609.84|         58443925.91|         79932.01|
2018/05/10T09:43:26|       28262.54|         52481453.66|         77034.88|
2018/05/10T09:43:27|       27611.87|         51482800.13|         75357.69|
2018/05/10T09:43:28|       27504.72|         55052207.78|         77662.97|
2018/05/10T09:43:29|       28373.49|         53716249.05|         77698.15|
2018/05/10T09:43:30|       27716.79|         52188259.82|         76093.58|
2018/05/10T09:43:31|       27633.66|         52014088.93|         75953.02|
2018/05/10T09:43:32|       28306.67|         52293743.49|         76793.84|
2018/05/10T09:43:33|       27862.75|         48968776.26|         73787.33|
2018/05/10T09:43:34|       28019.86|         50561909.65|         74400.24|
2018/05/10T09:43:35|       28419.45|         54023384.21|         77364.50|
2018/05/10T09:43:36|       28182.86|         50539405.67|         75116.36|
2018/05/10T09:43:37|       27787.21|         50066332.34|         74080.71|
2018/05/10T09:43:38|       28267.31|         49139844.98|         74190.18|
2018/05/10T09:43:39|       27722.34|         48131754.71|         72347.52|
2018/05/10T09:43:40|       28146.55|         47851318.44|         72190.15|
2018/05/10T09:43:41|       28179.44|         48468311.49|         72720.91|
2018/05/10T09:43:42|       27700.36|         60937171.22|         82365.60|
2018/05/10T09:43:43|       28088.94|         71414850.49|         91392.24|
2018/05/10T09:43:44|       28161.87|         69318551.68|         89988.37|
2018/05/10T09:43:45|       27745.54|         71377850.19|         91979.37|
2018/05/10T09:43:46|       27977.48|         75386745.45|         95580.07|
2018/05/10T09:43:47|       28035.72|         78816975.88|         98040.98|
2018/05/10T09:43:48|       27810.54|         76488886.18|        103665.13|
2018/05/10T09:43:49|       27464.15|         74809891.82|        104695.62|
2018/05/10T09:43:50|       28179.60|         73438284.85|        106172.06|
2018/05/10T09:43:51|       27650.51|         73282845.11|        108697.24|
2018/05/10T09:43:52|       27453.61|         71881993.88|        109668.90|
2018/05/10T09:43:53|       28209.08|         67365939.94|        106324.19|
2018/05/10T09:43:54|       27784.77|         67886561.21|        105224.49|
2018/05/10T09:43:55|       27975.91|         67881251.66|        106678.41|
2018/05/10T09:43:56|       28285.86|         66070460.40|         91573.30|
2018/05/10T09:43:57|       27732.26|         65796699.41|         89180.09|
2018/05/10T09:43:58|       27985.95|         65748556.91|         89854.02|
2018/05/10T09:43:59|       28350.88|         66160182.99|         90412.33|
2018/05/10T09:44:00|       27819.61|         66610982.09|         90540.79|
2018/05/10T09:44:01|       27750.89|         67714545.68|         91011.09|
2018/05/10T09:44:02|       28270.02|         73059069.01|         94398.58|
2018/05/10T09:44:03|       27728.58|         67734717.13|        100029.44|
2018/05/10T09:44:04|       28895.08|         70305800.11|         93154.28|
2018/05/10T09:44:05|       30596.37|         66239431.29|         91406.82|
2018/05/10T09:44:06|       30487.53|         58890759.65|         83631.51|
2018/05/10T09:44:07|       29877.70|         54824192.82|         78703.55|
2018/05/10T09:44:08|       30508.81|         55179506.81|         79068.40|
2018/05/10T09:44:09|       29822.08|         61138964.13|         82672.34|
2018/05/10T09:44:10|       29712.22|         56311361.74|         79270.21|
2018/05/10T09:44:11|       32143.18|         60750600.59|         85044.01|
2018/05/10T09:44:12|       29914.20|         59084533.36|         82216.99|
2018/05/10T09:44:13|       27722.81|         56882854.99|         78074.21|
2018/05/10T09:44:14|       28364.06|         58663306.22|         78962.41|
2018/05/10T09:44:15|       27767.70|         52314915.21|         74749.47|
2018/05/10T09:44:16|       27493.79|         53384239.41|         75615.46|
2018/05/10T09:44:17|       28015.22|         50486694.24|         74499.04|
2018/05/10T09:44:18|       27361.32|         51252324.21|         75142.95|
2018/05/10T09:44:19|       27406.39|         46701460.80|         72069.21|
2018/05/10T09:44:20|       28288.14|         45921673.39|         73946.37|
2018/05/10T09:44:21|       27629.28|         47397126.41|         73065.80|
2018/05/10T09:44:22|       27733.39|         50904426.95|         75000.02|
2018/05/10T09:44:23|       27864.37|         52305542.67|         76400.05|
2018/05/10T09:44:24|       27462.17|         62713031.65|         84112.01|
2018/05/10T09:44:25|       27664.41|         49332355.48|         73251.93|
2018/05/10T09:44:26|       28119.80|         50087406.23|         74348.91|
2018/05/10T09:44:27|       27764.77|         52338716.68|         76374.85|
2018/05/10T09:44:28|       27647.82|         51868556.81|         75723.48|
2018/05/10T09:44:29|       28264.43|         51206371.13|         75753.02|
2018/05/10T09:44:30|       28054.80|         49603461.88|         74031.87|
2018/05/10T09:44:31|       27407.59|         49025522.89|         73237.73|
2018/05/10T09:44:32|       28247.96|         45828372.27|         71857.21|
2018/05/10T09:44:33|       27452.32|         47288896.25|         72306.47|
2018/05/10T09:44:34|       27277.89|         52033868.69|         75835.74|
2018/05/10T09:44:35|       28042.99|         49428310.17|         74479.76|
2018/05/10T09:44:36|       27444.04|         45227816.12|         70765.78|
2018/05/10T09:44:37|       27972.00|         45115114.39|         70909.30|
2018/05/10T09:44:38|       28138.08|         46267315.43|         72092.81|
2018/05/10T09:44:39|       27287.21|         44813411.33|         70649.30|
2018/05/10T09:44:40|       27351.22|         43239423.85|         69498.29|
2018/05/10T09:44:41|       28603.32|         42653836.51|         70231.99|
2018/05/10T09:44:42|       27952.34|         43801522.82|         70148.50|
2018/05/10T09:44:43|       27468.35|         44547543.85|         70248.37|
2018/05/10T09:44:44|       28441.12|         45583575.09|         72550.39|
2018/05/10T09:44:45|       27608.62|         45388310.96|         71225.50|
2018/05/10T09:44:46|       27579.20|         45100255.85|         71305.01|
2018/05/10T09:44:47|       28178.22|         48160740.75|         73744.39|
2018/05/10T09:44:48|       27532.88|         46327334.96|         72122.90|
2018/05/10T09:44:49|       27374.98|         41756442.59|         68201.17|
2018/05/10T09:44:50|       28208.50|         41629411.00|         69148.49|
2018/05/10T09:44:51|       28044.19|         39908770.44|         66475.42|
2018/05/10T09:44:52|       27490.59|         42063713.38|         67778.30|
2018/05/10T09:44:53|       28430.95|         39503885.91|         66390.28|
2018/05/10T09:44:54|       28097.68|         43119366.08|         68236.10|
2018/05/10T09:44:55|       27507.16|         44746293.54|         68379.04|
2018/05/10T09:44:56|       28439.04|         30955754.07|         59434.59|
2018/05/10T09:44:57|       28026.58|         27651413.30|         58185.51|
2018/05/10T09:44:58|       28131.67|         26841199.39|         55969.07|
2018/05/10T09:44:59|       26534.44|         21462348.26|         48801.06|
