               Date|        Records|               Bytes|          Packets|
2018/05/10T02:14:59|         576.90|           472839.61|          1036.94|
2018/05/10T02:15:00|       28347.84|         38146666.89|         64701.73|
2018/05/10T02:15:01|       27806.21|         42368607.69|         68969.03|
2018/05/10T02:15:02|       28536.68|         46070777.28|         73230.37|
2018/05/10T02:15:03|       28393.41|         51112105.10|         77033.05|
2018/05/10T02:15:04|       27718.63|         49704197.53|         75552.68|
2018/05/10T02:15:05|       27900.24|         52365223.73|         78669.04|
2018/05/10T02:15:06|       28655.01|         55554503.76|         82594.77|
2018/05/10T02:15:07|       27212.59|         55338970.74|         80859.28|
2018/05/10T02:15:08|       28182.36|         59799936.18|         85076.58|
2018/05/10T02:15:09|       28121.16|         73856626.66|         95850.44|
2018/05/10T02:15:10|       27762.18|         73108555.84|         95554.31|
2018/05/10T02:15:11|       28133.81|         66675496.57|         91952.77|
2018/05/10T02:15:12|       28006.71|         68404444.42|         93337.07|
2018/05/10T02:15:13|       27750.98|         69522887.71|         94775.05|
2018/05/10T02:15:14|       27849.96|         73888565.19|         98904.96|
2018/05/10T02:15:15|       27901.23|         75725119.57|         99880.81|
2018/05/10T02:15:16|       27475.82|         74326240.61|         98428.52|
2018/05/10T02:15:17|       27962.42|         76197873.66|        100165.99|
2018/05/10T02:15:18|       40529.84|         72642045.58|        109817.45|
2018/05/10T02:15:19|       80295.34|         73447557.13|        148924.55|
2018/05/10T02:15:20|       28220.64|         75114957.96|        100077.56|
2018/05/10T02:15:21|       29654.93|         78116749.13|        102081.33|
2018/05/10T02:15:22|       27632.91|         79608586.99|        101759.59|
2018/05/10T02:15:23|       27735.37|         77941722.54|         99776.71|
2018/05/10T02:15:24|       28128.51|         75027830.36|         97900.27|
2018/05/10T02:15:25|       28201.97|         74217502.57|         98806.99|
2018/05/10T02:15:26|       28223.91|         73299106.81|         98035.33|
2018/05/10T02:15:27|       28500.94|         73491164.37|         98494.04|
2018/05/10T02:15:28|       27737.20|         72617579.93|         97254.55|
2018/05/10T02:15:29|       28269.45|         78737325.99|        101411.93|
2018/05/10T02:15:30|       27979.15|         81872138.85|        104512.53|
2018/05/10T02:15:31|       27740.63|         80579238.04|        104594.23|
2018/05/10T02:15:32|       27895.11|         79595373.40|        103984.55|
2018/05/10T02:15:33|       28002.05|         78555926.44|        103188.95|
2018/05/10T02:15:34|       27487.68|         78538573.77|        102179.48|
2018/05/10T02:15:35|       27762.11|         81396197.50|        104063.93|
2018/05/10T02:15:36|       28043.27|         84376167.31|        106221.31|
2018/05/10T02:15:37|       27470.55|         86301631.36|        107448.81|
2018/05/10T02:15:38|       28485.35|         84728234.00|        106564.93|
2018/05/10T02:15:39|       28185.94|         80727054.22|        103378.15|
2018/05/10T02:15:40|       27889.25|         83069919.12|        104286.94|
2018/05/10T02:15:41|       28032.01|         82048048.91|        103680.38|
2018/05/10T02:15:42|       28369.22|         80399323.54|        102526.01|
2018/05/10T02:15:43|       27683.74|         78470714.01|         99751.70|
2018/05/10T02:15:44|       29143.17|         73100898.37|         96365.60|
2018/05/10T02:15:45|       28047.79|         75779424.75|         97157.58|
2018/05/10T02:15:46|       27872.44|         74076978.71|         96315.00|
2018/05/10T02:15:47|       28578.86|         77568280.36|         99513.75|
2018/05/10T02:15:48|       28184.28|         84720132.95|        103670.77|
2018/05/10T02:15:49|       28097.47|         89484915.41|        105931.58|
2018/05/10T02:15:50|       28316.23|         88138755.21|        103970.51|
2018/05/10T02:15:51|       27968.04|         86865537.48|        102557.93|
2018/05/10T02:15:52|       28340.57|         84716037.53|        101563.88|
2018/05/10T02:15:53|       28186.20|         83046472.98|        100613.32|
2018/05/10T02:15:54|       27947.48|         82421610.40|        100347.43|
2018/05/10T02:15:55|       27547.02|         83001716.26|        100163.85|
2018/05/10T02:15:56|       28109.92|         91030069.45|        105965.69|
2018/05/10T02:15:57|       28284.72|         90170456.32|        106071.72|
2018/05/10T02:15:58|       27768.15|         86151847.22|        103059.99|
2018/05/10T02:15:59|       27837.51|         87779976.47|        104455.93|
2018/05/10T02:16:00|       28420.05|         89279099.38|        105654.07|
2018/05/10T02:16:01|       28204.25|         80233516.05|         99390.15|
2018/05/10T02:16:02|       28184.34|         74780386.98|        102341.35|
2018/05/10T02:16:03|       28034.48|         72459920.63|         96519.13|
2018/05/10T02:16:04|       27879.89|         78174566.99|        100522.71|
2018/05/10T02:16:05|       28556.20|         79837850.23|        100147.22|
2018/05/10T02:16:06|       28299.75|         77968115.89|         98000.30|
2018/05/10T02:16:07|       28165.70|         76318835.95|         97097.51|
2018/05/10T02:16:08|       28240.48|         79785635.77|         99175.88|
2018/05/10T02:16:09|       27934.58|         77685673.36|         97993.68|
2018/05/10T02:16:10|       27683.02|         82077353.41|        101338.02|
2018/05/10T02:16:11|       28238.90|         88221375.39|        106818.67|
2018/05/10T02:16:12|       27978.35|         80242041.17|        100260.80|
2018/05/10T02:16:13|       27855.23|         80095068.31|        113715.75|
2018/05/10T02:16:14|       28082.19|         80146136.68|        104511.06|
2018/05/10T02:16:15|       28361.32|         74790639.99|         96036.52|
2018/05/10T02:16:16|       27477.81|         78039997.41|         97583.81|
2018/05/10T02:16:17|       28150.95|         79048931.82|         99101.82|
2018/05/10T02:16:18|       27854.31|         83434194.50|        101529.45|
2018/05/10T02:16:19|       28514.70|         75847258.11|         96123.63|
2018/05/10T02:16:20|       28155.93|         75245005.63|         95035.57|
2018/05/10T02:16:21|       27783.07|         77758513.54|         96339.98|
2018/05/10T02:16:22|       27840.98|         74468933.25|         94178.21|
2018/05/10T02:16:23|       28027.23|         72538962.33|         93661.59|
2018/05/10T02:16:24|       29607.23|         74848751.12|         96871.22|
2018/05/10T02:16:25|       27897.34|         73765571.35|         93879.10|
2018/05/10T02:16:26|       28020.05|         77123879.01|         95830.49|
2018/05/10T02:16:27|       28241.59|         76192285.80|         95463.43|
2018/05/10T02:16:28|       27800.58|         79250642.98|         96892.26|
2018/05/10T02:16:29|       28279.72|         77677134.86|         96319.95|
2018/05/10T02:16:30|       28425.70|         79850160.67|         98290.95|
2018/05/10T02:16:31|       28688.40|         79755246.65|         98798.38|
2018/05/10T02:16:32|       28082.64|         78035124.18|         97132.59|
2018/05/10T02:16:33|       29706.54|         76726470.65|         97348.56|
2018/05/10T02:16:34|       29336.53|         79482348.46|         99116.40|
2018/05/10T02:16:35|       30206.78|         82224483.76|        101697.07|
2018/05/10T02:16:36|       29508.02|         90662747.38|        106893.47|
2018/05/10T02:16:37|       29390.63|         92761356.03|        107552.31|
2018/05/10T02:16:38|       30232.19|         89599494.36|        106481.08|
2018/05/10T02:16:39|       29586.48|         88479731.94|        104935.81|
2018/05/10T02:16:40|       29162.98|         89229041.26|        104964.29|
2018/05/10T02:16:41|       30377.72|         89769771.07|        107058.96|
2018/05/10T02:16:42|       29579.48|         88916917.62|        105741.33|
2018/05/10T02:16:43|       30144.82|         89108402.78|        106468.41|
2018/05/10T02:16:44|       31007.45|         89124933.91|        107085.61|
2018/05/10T02:16:45|       30040.22|         86624157.19|        104371.56|
2018/05/10T02:16:46|       29448.48|         97576269.60|        111577.86|
2018/05/10T02:16:47|       29754.30|         89816070.26|        106691.76|
2018/05/10T02:16:48|       30201.84|         92154300.26|        109192.05|
2018/05/10T02:16:49|       29528.23|         88339989.44|        105937.06|
2018/05/10T02:16:50|       30506.56|         90268050.67|        108089.04|
2018/05/10T02:16:51|       30230.20|         89524033.29|        107813.73|
2018/05/10T02:16:52|       29658.08|         91121826.70|        107502.72|
2018/05/10T02:16:53|       29878.23|         86320911.94|        104851.11|
2018/05/10T02:16:54|       30356.70|         87912002.85|        106392.50|
2018/05/10T02:16:55|       29659.96|         91959726.17|        108119.97|
2018/05/10T02:16:56|       29702.14|         81444300.48|        100793.97|
2018/05/10T02:16:57|       30026.86|         80301952.34|        100721.58|
2018/05/10T02:16:58|       29545.07|         83349039.15|        102522.62|
2018/05/10T02:16:59|       29615.13|         83657068.63|        103922.66|
2018/05/10T02:17:00|       30029.83|         79410281.51|        102496.53|
2018/05/10T02:17:01|       29751.08|         77296909.20|        100731.50|
2018/05/10T02:17:02|       30262.82|         75498161.93|        100215.66|
2018/05/10T02:17:03|       30328.61|         74419484.61|         98798.42|
2018/05/10T02:17:04|       29325.26|         93946117.16|        112627.08|
2018/05/10T02:17:05|       29738.81|         75238641.33|         98396.03|
2018/05/10T02:17:06|       30141.96|         82589619.50|        103538.64|
2018/05/10T02:17:07|       29813.08|         79030763.37|        100789.39|
2018/05/10T02:17:08|       29735.96|         80618318.05|        103080.31|
2018/05/10T02:17:09|       29472.53|         82368759.08|        104532.85|
2018/05/10T02:17:10|       29087.97|         78579382.86|        100965.36|
2018/05/10T02:17:11|       29165.38|         78113431.12|         99636.94|
2018/05/10T02:17:12|       28361.95|         79290222.45|         99052.16|
2018/05/10T02:17:13|       27745.39|         81914809.33|         99737.71|
2018/05/10T02:17:14|       28351.89|         82241518.70|        101733.24|
2018/05/10T02:17:15|       28391.05|         82998830.76|        102394.65|
2018/05/10T02:17:16|       27886.16|         83885032.29|        102011.08|
2018/05/10T02:17:17|       28201.55|         85639663.79|        102673.58|
2018/05/10T02:17:18|       28156.94|         87845347.18|        104291.78|
2018/05/10T02:17:19|       27782.88|         90598181.06|        106792.80|
2018/05/10T02:17:20|       27638.32|         86956539.67|        104533.18|
2018/05/10T02:17:21|       28110.10|         85638419.89|        102990.86|
2018/05/10T02:17:22|       27235.09|         86031730.72|        102236.23|
2018/05/10T02:17:23|       27879.22|         87564423.06|        104619.10|
2018/05/10T02:17:24|       28145.09|         85165425.12|        102845.01|
2018/05/10T02:17:25|       27520.70|         81890613.74|        101033.26|
2018/05/10T02:17:26|       28147.42|         83112142.16|        103109.64|
2018/05/10T02:17:27|       28192.10|         84253349.05|        103958.83|
2018/05/10T02:17:28|       27710.17|         83169755.61|        102759.01|
2018/05/10T02:17:29|       27928.12|         86713985.56|        105486.77|
2018/05/10T02:17:30|       27809.72|         88347419.80|        107113.87|
2018/05/10T02:17:31|       27544.94|         91411182.60|        108699.40|
2018/05/10T02:17:32|       27926.82|         93152431.64|        110213.34|
2018/05/10T02:17:33|       28022.49|         91940136.16|        109679.11|
2018/05/10T02:17:34|       27548.82|         92523315.84|        109737.29|
2018/05/10T02:17:35|       27791.26|         94084655.25|        110125.87|
2018/05/10T02:17:36|       28050.78|         95966690.45|        110677.05|
2018/05/10T02:17:37|       27739.76|         98923357.78|        112925.23|
2018/05/10T02:17:38|       27888.40|         98837657.69|        113349.81|
2018/05/10T02:17:39|       27890.33|         98737556.02|        114067.67|
2018/05/10T02:17:40|       27914.35|        101389932.38|        117560.94|
2018/05/10T02:17:41|       27789.41|         99177452.09|        115132.68|
2018/05/10T02:17:42|       27997.19|         98383983.56|        114458.54|
2018/05/10T02:17:43|       27558.50|         96023913.72|        112688.06|
2018/05/10T02:17:44|       28018.48|         96118869.48|        113156.15|
2018/05/10T02:17:45|       28089.62|         94729236.99|        116592.80|
2018/05/10T02:17:46|       27588.12|         91457105.36|        113870.44|
2018/05/10T02:17:47|       27806.28|         96124960.06|        115045.09|
2018/05/10T02:17:48|       27966.63|         95133619.16|        114090.49|
2018/05/10T02:17:49|       27647.37|         94003859.09|        112100.83|
2018/05/10T02:17:50|       27757.16|         88986540.43|        108647.55|
2018/05/10T02:17:51|       27896.20|         87708327.36|        107988.02|
2018/05/10T02:17:52|       27966.44|         91359207.81|        110521.07|
2018/05/10T02:17:53|       28007.96|         97309364.46|        114687.99|
2018/05/10T02:17:54|       27780.31|         90830343.57|        110670.15|
2018/05/10T02:17:55|       27722.64|         98412383.66|        116246.95|
2018/05/10T02:17:56|       27887.69|         93084374.00|        112584.18|
2018/05/10T02:17:57|       27985.56|         91403359.14|        110856.72|
2018/05/10T02:17:58|       27815.66|         93450227.56|        111507.81|
2018/05/10T02:17:59|       27768.97|         91931382.56|        112121.72|
2018/05/10T02:18:00|       28055.91|         92354343.29|        114410.60|
2018/05/10T02:18:01|       28046.59|         94627081.22|        117711.33|
2018/05/10T02:18:02|       28156.02|         98390536.47|        121268.92|
2018/05/10T02:18:03|       28420.08|         98086052.38|        122800.55|
2018/05/10T02:18:04|       27706.00|         94620562.30|        118414.78|
2018/05/10T02:18:05|       28099.41|         92876703.74|        117170.70|
2018/05/10T02:18:06|       28205.50|         94022786.94|        117618.21|
2018/05/10T02:18:07|       27740.74|        109154028.93|        126459.37|
2018/05/10T02:18:08|       29535.46|        110845044.64|        129442.17|
2018/05/10T02:18:09|       28828.08|        101032533.65|        120881.69|
2018/05/10T02:18:10|       28164.10|         82446598.78|        106723.24|
2018/05/10T02:18:11|       28170.61|         84075305.85|        105748.48|
2018/05/10T02:18:12|       28270.61|         86818383.36|        108662.25|
2018/05/10T02:18:13|       28012.05|         85400974.95|        107268.92|
2018/05/10T02:18:14|       27896.45|         84244661.54|        107727.60|
2018/05/10T02:18:15|       27844.40|         83703843.39|        106776.72|
2018/05/10T02:18:16|       27653.86|         85348485.88|        107022.31|
2018/05/10T02:18:17|       28021.43|         88472140.20|        108689.66|
2018/05/10T02:18:18|       28264.02|         97222477.24|        115396.64|
2018/05/10T02:18:19|       27793.45|         93341932.84|        112211.78|
2018/05/10T02:18:20|       27970.27|         91721043.69|        110575.35|
2018/05/10T02:18:21|       28164.90|         87417577.12|        106559.14|
2018/05/10T02:18:22|       27693.23|         89550763.24|        108153.23|
2018/05/10T02:18:23|       28033.75|         89064376.56|        107614.63|
2018/05/10T02:18:24|       28098.82|         85247480.35|        104798.30|
2018/05/10T02:18:25|       27344.42|         83170851.98|        102733.68|
2018/05/10T02:18:26|       28106.10|         82893902.52|        103456.47|
2018/05/10T02:18:27|       28136.63|         85339823.94|        105768.89|
2018/05/10T02:18:28|       28008.07|         86756472.97|        106809.35|
2018/05/10T02:18:29|       28085.40|         87956602.02|        113793.11|
2018/05/10T02:18:30|       28046.42|         84556078.50|        104882.10|
2018/05/10T02:18:31|       28075.42|         91293377.81|        110940.63|
2018/05/10T02:18:32|       27767.32|        110690902.88|        125206.28|
2018/05/10T02:18:33|       27815.50|         95766812.51|        112834.50|
2018/05/10T02:18:34|       27576.33|         92636392.44|        108837.12|
2018/05/10T02:18:35|       27725.56|         94889536.37|        110360.99|
2018/05/10T02:18:36|       28428.22|         98662811.97|        112673.36|
2018/05/10T02:18:37|       28499.87|         97590562.66|        112813.49|
2018/05/10T02:18:38|       29048.15|         96004598.18|        111974.93|
2018/05/10T02:18:39|       28137.41|         93063138.34|        109648.01|
2018/05/10T02:18:40|       27429.51|         93316200.77|        110353.27|
2018/05/10T02:18:41|       28191.39|         93640111.05|        111746.99|
2018/05/10T02:18:42|       28016.86|         92623932.33|        111003.04|
2018/05/10T02:18:43|       27419.57|         92640433.60|        110913.67|
2018/05/10T02:18:44|       27989.65|         90624670.92|        109978.82|
2018/05/10T02:18:45|       27945.71|        100142713.28|        120889.65|
2018/05/10T02:18:46|       27607.60|        110293096.86|        130626.85|
2018/05/10T02:18:47|       28214.73|        109710340.68|        131505.60|
2018/05/10T02:18:48|       28168.26|        107607774.81|        130011.98|
2018/05/10T02:18:49|       27532.57|        110157572.31|        130570.75|
2018/05/10T02:18:50|       28093.68|        119339841.71|        136604.04|
2018/05/10T02:18:51|       27795.91|        117350349.88|        135271.35|
2018/05/10T02:18:52|       27804.35|        115800864.75|        135359.47|
2018/05/10T02:18:53|       27886.46|        106366411.42|        128636.23|
2018/05/10T02:18:54|       28296.43|        107078903.35|        128568.35|
2018/05/10T02:18:55|       27697.49|        106411646.35|        127368.30|
2018/05/10T02:18:56|       28103.89|        101258482.14|        123943.07|
2018/05/10T02:18:57|       28201.16|        114518096.37|        133911.74|
2018/05/10T02:18:58|       27724.37|        113455719.20|        129208.78|
2018/05/10T02:18:59|       28084.18|        110203893.49|        125692.97|
2018/05/10T02:19:00|       28189.63|        109710298.31|        125614.38|
2018/05/10T02:19:01|       27936.10|        121534173.30|        134006.55|
2018/05/10T02:19:02|       28220.25|        112242308.59|        127252.64|
2018/05/10T02:19:03|       28477.21|        106302257.33|        123207.50|
2018/05/10T02:19:04|       27841.30|        109265196.96|        124682.49|
2018/05/10T02:19:05|       27786.34|        109924145.62|        124989.43|
2018/05/10T02:19:06|       27950.52|        112743449.89|        126624.83|
2018/05/10T02:19:07|       28724.83|         98643143.34|        118252.37|
2018/05/10T02:19:08|       28037.44|        104431226.93|        121750.40|
2018/05/10T02:19:09|       28472.48|        100746921.91|        119774.81|
2018/05/10T02:19:10|       28074.25|         91033971.60|        110727.75|
2018/05/10T02:19:11|       28051.88|         84802262.21|        104866.51|
2018/05/10T02:19:12|       28177.16|         86369391.57|        106805.18|
2018/05/10T02:19:13|       27872.66|         88904376.06|        108620.25|
2018/05/10T02:19:14|       28113.90|         88790409.99|        108818.59|
2018/05/10T02:19:15|       28317.36|         83915499.93|        106692.67|
2018/05/10T02:19:16|       27787.64|         88378767.34|        111522.79|
2018/05/10T02:19:17|       28355.08|         90373532.17|        113468.76|
2018/05/10T02:19:18|       28464.68|         91102533.69|        113116.87|
2018/05/10T02:19:19|       27661.33|         87430966.52|        109057.93|
2018/05/10T02:19:20|       28356.67|         89438456.08|        110740.17|
2018/05/10T02:19:21|       28369.38|         88603614.59|        110680.68|
2018/05/10T02:19:22|       27846.40|        108943090.17|        122909.52|
2018/05/10T02:19:23|       28041.49|        117595204.34|        130050.07|
2018/05/10T02:19:24|       28249.53|        107310622.70|        122960.26|
2018/05/10T02:19:25|       28029.72|        109779296.94|        124573.28|
2018/05/10T02:19:26|       28138.70|        106500220.59|        121866.37|
2018/05/10T02:19:27|       28565.45|        109700803.48|        125248.31|
2018/05/10T02:19:28|       27901.56|        109407319.95|        124148.89|
2018/05/10T02:19:29|       28618.91|        110361011.11|        125401.12|
2018/05/10T02:19:30|       28354.55|        117015896.46|        129782.73|
2018/05/10T02:19:31|       28058.74|        117533137.14|        129894.57|
2018/05/10T02:19:32|       28514.55|        106746801.95|        122756.97|
2018/05/10T02:19:33|       28027.86|        103832448.70|        119934.06|
2018/05/10T02:19:34|       27743.36|         97509251.06|        114854.56|
2018/05/10T02:19:35|       28405.33|         89307375.18|        109690.39|
2018/05/10T02:19:36|       28159.34|         88250595.22|        108734.75|
2018/05/10T02:19:37|       27995.18|         86631156.96|        106982.75|
2018/05/10T02:19:38|       28262.43|         95991498.70|        114600.65|
2018/05/10T02:19:39|       27859.56|         99553513.30|        117342.41|
2018/05/10T02:19:40|       27585.69|        100404989.62|        117858.51|
2018/05/10T02:19:41|       27950.30|         98080927.24|        117651.14|
2018/05/10T02:19:42|       28397.08|        106594706.28|        124135.71|
2018/05/10T02:19:43|       27945.87|        110955593.41|        128905.47|
2018/05/10T02:19:44|       28522.79|        109195003.47|        128143.95|
2018/05/10T02:19:45|       27986.86|         94740540.59|        116832.07|
2018/05/10T02:19:46|       27651.54|         94373145.65|        116941.72|
2018/05/10T02:19:47|       28293.10|         90303904.78|        113918.15|
2018/05/10T02:19:48|       28608.50|         91796040.79|        114646.33|
2018/05/10T02:19:49|       27600.90|         94707396.46|        114522.42|
2018/05/10T02:19:50|       28191.00|         94359137.50|        114087.17|
2018/05/10T02:19:51|       28146.24|         95077707.07|        114291.49|
2018/05/10T02:19:52|       28349.07|         92126592.70|        111918.91|
2018/05/10T02:19:53|       29542.93|         85327803.01|        109183.92|
2018/05/10T02:19:54|       29506.64|         88323303.42|        111320.53|
2018/05/10T02:19:55|       28112.25|         92432407.51|        111613.34|
2018/05/10T02:19:56|       28320.97|         92357387.55|        112163.15|
2018/05/10T02:19:57|       28523.06|         92309190.95|        112338.76|
2018/05/10T02:19:58|       27732.72|         91526936.97|        111306.24|
2018/05/10T02:19:59|       28180.40|         92043710.97|        112105.35|
2018/05/10T02:20:00|       28368.95|         94396766.98|        113482.55|
2018/05/10T02:20:01|       27928.64|         94218082.64|        113826.23|
2018/05/10T02:20:02|       28202.61|         95992637.26|        114845.26|
2018/05/10T02:20:03|       28418.81|         93418767.91|        112667.72|
2018/05/10T02:20:04|       28048.66|         93319937.95|        112787.59|
2018/05/10T02:20:05|       28088.52|         95341144.03|        113904.56|
2018/05/10T02:20:06|       29145.22|         99305078.05|        117052.57|
2018/05/10T02:20:07|       27343.81|         90109964.14|        109139.74|
2018/05/10T02:20:08|       28277.92|         87605180.87|        108588.36|
2018/05/10T02:20:09|       28131.67|         86181459.48|        107789.15|
2018/05/10T02:20:10|       27960.22|         86011038.50|        107275.02|
2018/05/10T02:20:11|       28493.60|         90669790.97|        110406.28|
2018/05/10T02:20:12|       28115.04|         96296928.54|        113799.41|
2018/05/10T02:20:13|       27857.69|         95316470.48|        112927.48|
2018/05/10T02:20:14|       28312.83|         87922722.96|        108132.49|
2018/05/10T02:20:15|       27953.41|         86073605.48|        106318.74|
2018/05/10T02:20:16|       27851.17|         86410915.89|        112635.63|
2018/05/10T02:20:17|       28316.41|         87395174.52|        113687.46|
2018/05/10T02:20:18|       28124.67|         99872053.48|        122250.82|
2018/05/10T02:20:19|       27747.54|         89584930.73|        113271.49|
2018/05/10T02:20:20|       28517.13|         92214509.44|        115786.78|
2018/05/10T02:20:21|       27989.52|         97364568.35|        121377.40|
2018/05/10T02:20:22|       27664.54|         97780063.57|        121783.52|
2018/05/10T02:20:23|       28085.60|        100542815.18|        123551.14|
2018/05/10T02:20:24|       27987.24|         96462789.75|        121082.41|
2018/05/10T02:20:25|       27666.40|         92745102.56|        118453.68|
2018/05/10T02:20:26|       28153.67|         99989174.62|        124150.66|
2018/05/10T02:20:27|       28042.70|         96375778.78|        122168.10|
2018/05/10T02:20:28|       27483.58|         93625463.10|        118446.96|
2018/05/10T02:20:29|       28193.08|         93481987.04|        119248.36|
2018/05/10T02:20:30|       27532.43|        100109009.68|        122597.43|
2018/05/10T02:20:31|       28049.15|        107993224.03|        128209.42|
2018/05/10T02:20:32|       27951.30|        108032565.83|        128250.75|
2018/05/10T02:20:33|       27805.53|        111223294.77|        130448.93|
2018/05/10T02:20:34|       27576.35|        102931079.33|        123869.21|
2018/05/10T02:20:35|       28225.22|         99296165.30|        121624.46|
2018/05/10T02:20:36|       27750.93|         98185519.33|        120180.48|
2018/05/10T02:20:37|       27677.28|         91469550.63|        115433.26|
2018/05/10T02:20:38|       27685.50|         87684585.06|        113741.75|
2018/05/10T02:20:39|       27894.33|         87962868.16|        114196.84|
2018/05/10T02:20:40|       27247.36|         87388337.90|        113471.92|
2018/05/10T02:20:41|       27828.96|         90093200.99|        116778.12|
2018/05/10T02:20:42|       27636.85|         88842878.51|        115965.20|
2018/05/10T02:20:43|       27460.59|         96449886.59|        120759.97|
2018/05/10T02:20:44|       28039.42|         96779501.98|        121408.34|
2018/05/10T02:20:45|       27897.38|         94661483.39|        119359.66|
2018/05/10T02:20:46|       25923.67|         86960489.70|        111425.49|
2018/05/10T02:20:47|       20031.14|         81888413.43|        102095.08|
2018/05/10T02:20:48|        5155.97|         80363685.96|         86240.38|
2018/05/10T02:20:49|        5110.29|         78180736.29|         83538.59|
2018/05/10T02:20:50|        5164.35|         78918068.57|         83158.42|
2018/05/10T02:20:51|        5135.46|         77882293.02|         81895.00|
2018/05/10T02:20:52|       16193.56|         80573465.74|         91349.56|
2018/05/10T02:20:53|       38317.32|         91103495.03|        122431.09|
2018/05/10T02:20:54|       42677.39|         92762745.58|        127459.06|
2018/05/10T02:20:55|       38856.75|         86244476.73|        117851.34|
2018/05/10T02:20:56|       32364.16|         86998153.46|        112182.02|
2018/05/10T02:20:57|       33256.59|         87067844.53|        112828.69|
2018/05/10T02:20:58|       31933.83|         91839063.24|        115126.11|
2018/05/10T02:20:59|       30310.65|         99776191.50|        118812.27|
2018/05/10T02:21:00|       30929.80|         94591771.30|        115340.33|
2018/05/10T02:21:01|       30060.52|         91189102.47|        109951.20|
2018/05/10T02:21:02|       29589.01|         95559098.02|        112424.06|
2018/05/10T02:21:03|       29917.81|         88177577.31|        107504.91|
2018/05/10T02:21:04|       31326.57|         98299581.80|        115560.09|
2018/05/10T02:21:05|       29167.14|        109385123.36|        121169.36|
2018/05/10T02:21:06|       29388.57|        109934252.66|        121782.18|
2018/05/10T02:21:07|       28678.97|         98051863.84|        112455.73|
2018/05/10T02:21:08|       28597.20|        102671844.64|        115259.89|
2018/05/10T02:21:09|       28833.87|        118383122.50|        126810.89|
2018/05/10T02:21:10|       28405.11|        116475302.45|        127388.11|
2018/05/10T02:21:11|       28878.12|        105999518.01|        120841.96|
2018/05/10T02:21:12|       28601.83|        106904718.45|        121176.88|
2018/05/10T02:21:13|       28056.84|        110577374.99|        123045.09|
2018/05/10T02:21:14|       28753.61|        104811894.74|        119848.72|
2018/05/10T02:21:15|       28328.82|        107323321.09|        122185.82|
2018/05/10T02:21:16|       27970.55|        110930826.05|        124238.42|
2018/05/10T02:21:17|       28641.11|        106239532.67|        121398.93|
2018/05/10T02:21:18|       28569.05|        113876829.24|        127391.60|
2018/05/10T02:21:19|       27993.41|        106573214.61|        121257.21|
2018/05/10T02:21:20|       28030.54|        105978927.92|        119998.83|
2018/05/10T02:21:21|       28147.80|        111606654.93|        125010.64|
2018/05/10T02:21:22|       28609.86|        110068978.18|        124316.06|
2018/05/10T02:21:23|       28364.54|        108614724.85|        123120.26|
2018/05/10T02:21:24|       28350.81|        106930375.32|        121847.53|
2018/05/10T02:21:25|       29929.00|        107746911.12|        124255.87|
2018/05/10T02:21:26|       37176.72|        108024514.72|        135526.77|
2018/05/10T02:21:27|       32629.50|        109957744.29|        131861.70|
2018/05/10T02:21:28|       34546.30|        106444704.98|        130048.33|
2018/05/10T02:21:29|       32446.43|        106552750.08|        126756.15|
2018/05/10T02:21:30|       28229.34|        103858378.11|        120687.77|
2018/05/10T02:21:31|       27808.54|        104117032.80|        123150.99|
2018/05/10T02:21:32|       27808.79|        101736539.38|        125175.28|
2018/05/10T02:21:33|       29527.33|        101540679.64|        128391.32|
2018/05/10T02:21:34|       44310.90|         95670242.37|        133761.68|
2018/05/10T02:21:35|       36333.36|         96027649.71|        122899.82|
2018/05/10T02:21:36|       28608.99|         97522465.00|        113933.17|
2018/05/10T02:21:37|       27653.99|         94501086.77|        109836.88|
2018/05/10T02:21:38|       28046.41|         94220419.29|        110039.66|
2018/05/10T02:21:39|       27725.07|         97362125.90|        112454.81|
2018/05/10T02:21:40|       27922.91|         95995702.78|        111685.09|
2018/05/10T02:21:41|       27942.41|         99938585.39|        114690.13|
2018/05/10T02:21:42|       27960.83|         98333089.68|        113801.43|
2018/05/10T02:21:43|       27744.73|         99603461.36|        114222.15|
2018/05/10T02:21:44|       28517.11|         98698256.90|        114491.99|
2018/05/10T02:21:45|       28075.16|         99005931.41|        114749.82|
2018/05/10T02:21:46|       27396.49|         96782397.75|        113596.27|
2018/05/10T02:21:47|       28246.13|         99406932.36|        118881.21|
2018/05/10T02:21:48|       27852.86|         95972609.50|        115712.80|
2018/05/10T02:21:49|       27871.75|        101225488.91|        119333.83|
2018/05/10T02:21:50|       28335.57|        103325005.51|        121398.35|
2018/05/10T02:21:51|       27949.31|         94682655.73|        115674.77|
2018/05/10T02:21:52|       27977.28|         93076923.75|        114774.79|
2018/05/10T02:21:53|       28361.85|         90352866.11|        113412.32|
2018/05/10T02:21:54|       28235.93|         97838355.63|        118486.33|
2018/05/10T02:21:55|       27999.05|         98631538.57|        121623.20|
2018/05/10T02:21:56|       28144.66|         92664862.60|        114682.41|
2018/05/10T02:21:57|       28184.53|         93340305.25|        115211.20|
2018/05/10T02:21:58|       27947.50|         98984771.44|        118741.74|
2018/05/10T02:21:59|       27829.74|         94359034.18|        116758.23|
2018/05/10T02:22:00|       27845.17|         95808181.99|        117468.22|
2018/05/10T02:22:01|       27689.89|         95918244.34|        116248.23|
2018/05/10T02:22:02|       28094.48|         97634549.64|        118231.74|
2018/05/10T02:22:03|       28483.22|         99450197.81|        119852.22|
2018/05/10T02:22:04|       27322.06|         92453625.44|        113462.47|
2018/05/10T02:22:05|       28933.46|         99305120.19|        119841.31|
2018/05/10T02:22:06|       27794.78|        110764754.78|        126181.23|
2018/05/10T02:22:07|       27396.84|        106300363.64|        122804.79|
2018/05/10T02:22:08|       27812.15|        106435014.33|        123541.38|
2018/05/10T02:22:09|       27691.73|        106801591.21|        123305.13|
2018/05/10T02:22:10|       27168.01|        109423148.33|        124393.27|
2018/05/10T02:22:11|       27738.44|        113602490.68|        127611.11|
2018/05/10T02:22:12|       27719.88|        106882197.46|        122857.78|
2018/05/10T02:22:13|       27482.97|        106533545.66|        122982.19|
2018/05/10T02:22:14|       27814.48|        105793255.16|        122882.88|
2018/05/10T02:22:15|       27827.15|        104908856.97|        122163.95|
2018/05/10T02:22:16|       27353.19|         96960455.69|        115359.13|
2018/05/10T02:22:17|       27433.02|         97753042.71|        116393.82|
2018/05/10T02:22:18|       27914.30|        103240739.08|        123131.65|
2018/05/10T02:22:19|       31354.24|        102245449.30|        126467.05|
2018/05/10T02:22:20|       39586.44|        100384506.44|        131648.29|
2018/05/10T02:22:21|       27851.18|         95658075.76|        117441.71|
2018/05/10T02:22:22|       27197.89|         97577054.06|        118256.01|
2018/05/10T02:22:23|       27713.94|         97336740.93|        117748.45|
2018/05/10T02:22:24|       27676.16|         94852546.79|        115730.44|
2018/05/10T02:22:25|       27498.07|         92659007.55|        113953.58|
2018/05/10T02:22:26|       27968.47|         93761994.40|        115020.62|
2018/05/10T02:22:27|       27796.13|         96092408.79|        116110.88|
2018/05/10T02:22:28|       27142.69|         99192625.80|        116419.11|
2018/05/10T02:22:29|       27423.46|        102017599.40|        115280.63|
2018/05/10T02:22:30|       27264.09|         99609357.42|        113486.89|
2018/05/10T02:22:31|       27355.98|         97115733.27|        112116.57|
2018/05/10T02:22:32|       27681.26|         97339515.90|        112653.83|
2018/05/10T02:22:33|       27750.99|         99053956.18|        113625.69|
2018/05/10T02:22:34|       27448.43|        103437755.99|        116350.46|
2018/05/10T02:22:35|       27681.25|        105202912.57|        118037.29|
2018/05/10T02:22:36|       27753.04|        105175700.98|        118131.57|
2018/05/10T02:22:37|       27466.90|        108778384.91|        120207.67|
2018/05/10T02:22:38|       27707.33|        111051493.65|        122087.78|
2018/05/10T02:22:39|       27739.28|        115323446.12|        124748.09|
2018/05/10T02:22:40|       27304.00|        114878012.51|        124341.49|
2018/05/10T02:22:41|       27587.56|        110896482.74|        121365.24|
2018/05/10T02:22:42|       27911.49|        112394160.94|        122608.69|
2018/05/10T02:22:43|       27395.32|        106011918.24|        117306.73|
2018/05/10T02:22:44|       27720.46|        105053021.14|        117253.10|
2018/05/10T02:22:45|       27824.43|        108270527.40|        119882.67|
2018/05/10T02:22:46|       27133.54|        106736167.87|        119585.11|
2018/05/10T02:22:47|       27784.39|        101801792.35|        116544.61|
2018/05/10T02:22:48|       27545.31|        102967216.16|        117491.81|
2018/05/10T02:22:49|       27675.67|        102687094.32|        117176.33|
2018/05/10T02:22:50|       27825.30|        102900538.60|        117713.87|
2018/05/10T02:22:51|       27813.42|        111116411.30|        122748.32|
2018/05/10T02:22:52|       27554.20|        116663676.18|        125665.33|
2018/05/10T02:22:53|       27867.31|        102778428.41|        116427.45|
2018/05/10T02:22:54|       27880.53|         98808134.26|        113373.17|
2018/05/10T02:22:55|       27514.46|         99347298.35|        113194.60|
2018/05/10T02:22:56|       27987.52|         99860927.46|        114310.02|
2018/05/10T02:22:57|       27813.70|        104919168.52|        118078.90|
2018/05/10T02:22:58|       27679.02|        108423035.36|        120291.04|
2018/05/10T02:22:59|       29056.52|        110253949.60|        124134.78|
2018/05/10T02:23:00|       27985.08|        113863678.01|        125717.30|
2018/05/10T02:23:01|       27513.93|        106592017.29|        119708.80|
2018/05/10T02:23:02|       28085.43|        101747077.13|        117571.33|
2018/05/10T02:23:03|       28283.33|         99951361.51|        116647.00|
2018/05/10T02:23:04|       27641.57|        108470601.38|        121770.37|
2018/05/10T02:23:05|       27682.48|        104398628.01|        119344.43|
2018/05/10T02:23:06|       28639.07|        104407252.91|        119853.90|
2018/05/10T02:23:07|       27390.73|        103470012.60|        117784.26|
2018/05/10T02:23:08|       28960.89|        104942363.33|        120578.85|
2018/05/10T02:23:09|       28377.50|        106085482.23|        120507.38|
2018/05/10T02:23:10|       27842.48|        103166927.57|        117641.15|
2018/05/10T02:23:11|       28153.52|        107614128.49|        120608.42|
2018/05/10T02:23:12|       28204.26|        111831177.74|        123962.66|
2018/05/10T02:23:13|       27780.82|        119308342.46|        128911.52|
2018/05/10T02:23:14|       27973.20|        118086978.80|        129131.12|
2018/05/10T02:23:15|       27955.69|        115887561.17|        127666.15|
2018/05/10T02:23:16|       28807.39|        113227205.01|        126817.54|
2018/05/10T02:23:17|       27807.94|        105973456.30|        120473.23|
2018/05/10T02:23:18|       28244.06|        108159899.53|        122691.86|
2018/05/10T02:23:19|       27896.71|        108522666.56|        123050.63|
2018/05/10T02:23:20|       27706.58|        102685476.56|        118544.94|
2018/05/10T02:23:21|       27960.31|        104013512.76|        122147.86|
2018/05/10T02:23:22|       27471.99|        108573564.57|        125673.68|
2018/05/10T02:23:23|       28071.74|        104836091.40|        122377.89|
2018/05/10T02:23:24|       27913.86|        106138676.11|        121857.61|
2018/05/10T02:23:25|       27397.81|        111300993.67|        124409.56|
2018/05/10T02:23:26|       27618.50|        111508672.61|        124055.38|
2018/05/10T02:23:27|       27836.49|        113443036.41|        125824.00|
2018/05/10T02:23:28|       27300.99|        113291609.20|        125109.63|
2018/05/10T02:23:29|       27560.52|        116374897.77|        127630.35|
2018/05/10T02:23:30|       27871.12|        115840087.92|        127699.11|
2018/05/10T02:23:31|       27379.04|        117584724.25|        126123.46|
2018/05/10T02:23:32|       27743.72|        118632668.10|        128289.26|
2018/05/10T02:23:33|       27663.16|        116127083.90|        126070.74|
2018/05/10T02:23:34|       27259.58|        116791336.38|        124863.81|
2018/05/10T02:23:35|       27692.98|        121380428.83|        128652.50|
2018/05/10T02:23:36|       27730.37|        115699072.21|        124364.29|
2018/05/10T02:23:37|       28022.55|        113271043.72|        123536.14|
2018/05/10T02:23:38|       27690.85|        111130363.07|        120644.52|
2018/05/10T02:23:39|       27486.52|        110396274.61|        120297.68|
2018/05/10T02:23:40|       27315.41|        106826701.87|        117194.37|
2018/05/10T02:23:41|       27481.41|        106803843.65|        117538.84|
2018/05/10T02:23:42|       27794.92|        106049696.22|        116953.55|
2018/05/10T02:23:43|       27391.23|        101167254.14|        113563.08|
2018/05/10T02:23:44|       27946.53|        101682606.53|        114460.30|
2018/05/10T02:23:45|       27738.19|        101870996.12|        114001.02|
2018/05/10T02:23:46|       27397.44|        101783037.74|        113581.94|
2018/05/10T02:23:47|       27273.01|        100706199.97|        113156.00|
2018/05/10T02:23:48|       23538.40|        102707178.61|        111804.32|
2018/05/10T02:23:49|       11177.53|        101138213.00|         98358.74|
2018/05/10T02:23:50|        6700.36|         97797930.14|         91490.51|
2018/05/10T02:23:51|       28586.92|        109156744.74|        121952.58|
2018/05/10T02:23:52|       32900.99|        114467307.01|        131294.49|
2018/05/10T02:23:53|       35194.95|        105324419.01|        125711.48|
2018/05/10T02:23:54|       28501.32|        105944141.98|        119282.92|
2018/05/10T02:23:55|       29530.39|        110610951.09|        123331.72|
2018/05/10T02:23:56|       30680.12|        112119460.78|        125368.93|
2018/05/10T02:23:57|       28367.69|        105706502.74|        118797.27|
2018/05/10T02:23:58|       28617.55|        106194290.32|        120167.89|
2018/05/10T02:23:59|       29208.07|        108161259.56|        121746.99|
2018/05/10T02:24:00|       27607.11|        108073051.63|        119962.76|
2018/05/10T02:24:01|       28411.24|        111520714.59|        123114.56|
2018/05/10T02:24:02|       28834.83|        112891302.71|        125019.88|
2018/05/10T02:24:03|       28917.00|        105012481.53|        120394.77|
2018/05/10T02:24:04|       27873.23|        114608519.65|        125662.48|
2018/05/10T02:24:05|       29027.41|        109582633.24|        122832.15|
2018/05/10T02:24:06|       27938.17|        110232676.66|        121320.67|
2018/05/10T02:24:07|       27897.25|        112440870.71|        122678.90|
2018/05/10T02:24:08|       28309.05|        108440597.09|        120329.29|
2018/05/10T02:24:09|       28064.56|        112604877.17|        123491.06|
2018/05/10T02:24:10|       27691.11|        112326825.27|        122799.44|
2018/05/10T02:24:11|       28366.09|        108041484.75|        120153.63|
2018/05/10T02:24:12|       27924.23|        115468425.64|        124302.04|
2018/05/10T02:24:13|       27525.63|        117450099.95|        126371.86|
2018/05/10T02:24:14|       27999.54|        125704336.77|        133217.86|
2018/05/10T02:24:15|       27871.23|        122011331.89|        130498.03|
2018/05/10T02:24:16|       27303.91|        121864191.65|        129487.49|
2018/05/10T02:24:17|       28012.15|        118592656.37|        127714.19|
2018/05/10T02:24:18|       27717.15|        121060728.31|        129613.15|
2018/05/10T02:24:19|       27211.17|        118405930.99|        127491.28|
2018/05/10T02:24:20|       27903.10|        117121072.44|        127207.43|
2018/05/10T02:24:21|       27921.21|        120526832.94|        129481.37|
2018/05/10T02:24:22|       27131.79|        116724864.14|        125518.99|
2018/05/10T02:24:23|       27949.89|        121450873.60|        129623.81|
2018/05/10T02:24:24|       27645.95|        120317348.72|        128114.49|
2018/05/10T02:24:25|       27479.03|        118388068.47|        126592.93|
2018/05/10T02:24:26|       27746.39|        115254059.75|        124804.24|
2018/05/10T02:24:27|       27796.89|        114431169.53|        124497.32|
2018/05/10T02:24:28|       27372.53|        117261877.27|        125936.23|
2018/05/10T02:24:29|       27988.16|        113435292.03|        124037.74|
2018/05/10T02:24:30|       27826.62|        112708023.48|        123148.72|
2018/05/10T02:24:31|       27326.13|        109134740.49|        120150.57|
2018/05/10T02:24:32|       28346.25|        112397352.25|        123282.09|
2018/05/10T02:24:33|       27807.29|        115772649.46|        125275.01|
2018/05/10T02:24:34|       27870.17|        125432430.82|        132867.88|
2018/05/10T02:24:35|       27534.12|        119224574.49|        128003.62|
2018/05/10T02:24:36|       27497.63|        118939058.09|        127786.42|
2018/05/10T02:24:37|       34594.42|        121627070.77|        136242.41|
2018/05/10T02:24:38|       64550.18|        128004608.22|        168057.31|
2018/05/10T02:24:39|       42690.14|        125480227.72|        146591.79|
2018/05/10T02:24:40|       34742.20|        122704622.04|        137203.91|
2018/05/10T02:24:41|       27897.47|        117917315.52|        127606.56|
2018/05/10T02:24:42|       27821.59|        118094553.94|        128485.04|
2018/05/10T02:24:43|       27343.68|        119325391.67|        133915.77|
2018/05/10T02:24:44|       28096.39|        115885931.36|        126155.54|
2018/05/10T02:24:45|       27703.47|        116709255.63|        125797.25|
2018/05/10T02:24:46|       27294.22|        115390546.34|        124738.90|
2018/05/10T02:24:47|       27811.50|        113895856.53|        124529.41|
2018/05/10T02:24:48|       27754.04|        114350502.16|        124878.23|
2018/05/10T02:24:49|       27510.97|        113370642.56|        124212.03|
2018/05/10T02:24:50|       27940.81|        117131551.12|        126923.37|
2018/05/10T02:24:51|       27670.95|        114215239.40|        124197.08|
2018/05/10T02:24:52|       27179.10|        112118481.60|        121996.09|
2018/05/10T02:24:53|       28553.72|        116698162.72|        126854.01|
2018/05/10T02:24:54|       27687.51|        109821095.74|        121448.52|
2018/05/10T02:24:55|       27111.56|        112887327.88|        123091.54|
2018/05/10T02:24:56|       27529.25|        108769873.06|        120543.30|
2018/05/10T02:24:57|       27628.91|        118740489.16|        127677.80|
2018/05/10T02:24:58|       27638.10|        108494664.84|        120610.91|
2018/05/10T02:24:59|       27855.47|        101493687.93|        115160.15|
2018/05/10T02:25:00|       27819.47|         90387863.65|        106392.63|
2018/05/10T02:25:01|       27338.90|         94638984.17|        108467.94|
2018/05/10T02:25:02|       27691.58|         97086320.26|        111914.47|
2018/05/10T02:25:03|       27616.14|         97094208.16|        111664.80|
2018/05/10T02:25:04|       27266.86|         97971305.55|        112182.22|
2018/05/10T02:25:05|       27718.14|         99994711.53|        114552.72|
2018/05/10T02:25:06|       27471.45|        102806017.57|        117604.23|
2018/05/10T02:25:07|       27266.76|        108676547.50|        120462.24|
2018/05/10T02:25:08|       28812.76|        103287401.33|        118302.13|
2018/05/10T02:25:09|       27643.95|        101141992.85|        114847.40|
2018/05/10T02:25:10|       27276.02|        100039381.67|        113603.93|
2018/05/10T02:25:11|       27882.38|         99733542.08|        114420.39|
2018/05/10T02:25:12|       28011.73|         98183780.80|        113839.91|
2018/05/10T02:25:13|       27569.38|         98864400.37|        113688.36|
2018/05/10T02:25:14|       28133.00|         92096787.96|        110071.42|
2018/05/10T02:25:15|       27967.11|         93501638.54|        110875.92|
2018/05/10T02:25:16|       28407.20|         97832543.66|        114724.41|
2018/05/10T02:25:17|       28046.27|         97926762.08|        114588.95|
2018/05/10T02:25:18|       28213.90|         94841728.04|        112341.61|
2018/05/10T02:25:19|       27332.60|        118065623.73|        127087.84|
2018/05/10T02:25:20|       28323.44|        113130783.24|        124476.02|
2018/05/10T02:25:21|       27909.59|         94946224.22|        112125.49|
2018/05/10T02:25:22|       27829.78|         97913020.95|        113780.74|
2018/05/10T02:25:23|       27954.92|         91615023.55|        112031.67|
2018/05/10T02:25:24|       28474.25|         93673110.10|        115831.66|
2018/05/10T02:25:25|       27287.85|         93218750.24|        114239.46|
2018/05/10T02:25:26|       28550.07|         94881420.18|        116661.72|
2018/05/10T02:25:27|       27779.33|         97217708.82|        117602.89|
2018/05/10T02:25:28|       27796.88|         98702757.21|        116700.42|
2018/05/10T02:25:29|       27835.89|         87263502.51|        105230.08|
2018/05/10T02:25:30|       28690.23|         92606879.34|        110060.17|
2018/05/10T02:25:31|       27537.25|         97333148.98|        112036.36|
2018/05/10T02:25:32|       28361.87|         94043745.87|        110327.94|
2018/05/10T02:25:33|       27656.25|         88486688.61|        105841.28|
2018/05/10T02:25:34|       27792.23|         91527547.04|        108045.23|
2018/05/10T02:25:35|       28827.25|         96295303.40|        112173.91|
2018/05/10T02:25:36|       28389.97|        107133779.74|        119743.38|
2018/05/10T02:25:37|       27354.10|        102487447.46|        115808.65|
2018/05/10T02:25:38|       28195.69|        102867312.77|        117005.18|
2018/05/10T02:25:39|       27813.27|         99691171.01|        114409.18|
2018/05/10T02:25:40|       27690.17|         96903425.30|        112335.10|
2018/05/10T02:25:41|       27991.81|         97915225.45|        113228.99|
2018/05/10T02:25:42|       28705.30|        103209677.86|        118590.34|
2018/05/10T02:25:43|       27583.69|        120863734.19|        130489.28|
2018/05/10T02:25:44|       28256.29|        119149485.38|        130761.64|
2018/05/10T02:25:45|       27983.41|        114810640.08|        127429.25|
2018/05/10T02:25:46|       27533.26|        113618107.28|        125126.83|
2018/05/10T02:25:47|       27899.45|        114582338.45|        126342.90|
2018/05/10T02:25:48|       28525.17|        111137057.89|        124150.31|
2018/05/10T02:25:49|       27170.94|        113526768.02|        124253.95|
2018/05/10T02:25:50|       28957.53|        112448852.06|        124787.02|
2018/05/10T02:25:51|       29337.22|        107379764.93|        120955.78|
2018/05/10T02:25:52|       29288.80|        108504931.06|        121501.09|
2018/05/10T02:25:53|       29562.82|        102224922.63|        117471.80|
2018/05/10T02:25:54|       30663.54|        108652836.69|        122677.32|
2018/05/10T02:25:55|       29414.17|        108939049.49|        121912.73|
2018/05/10T02:25:56|       31113.49|        103788564.41|        119833.47|
2018/05/10T02:25:57|       29761.80|         98509147.77|        115123.88|
2018/05/10T02:25:58|       30125.30|        100448052.91|        116466.13|
2018/05/10T02:25:59|       29549.71|         99532355.34|        115489.08|
2018/05/10T02:26:00|       30357.37|         99119206.94|        116037.30|
2018/05/10T02:26:01|       29615.41|         99851735.61|        115770.20|
2018/05/10T02:26:02|       30479.55|        102283023.27|        118578.27|
2018/05/10T02:26:03|       30551.04|        109131714.02|        122917.06|
2018/05/10T02:26:04|       29930.16|        103156845.65|        118689.78|
2018/05/10T02:26:05|       30830.97|        108948795.94|        122883.08|
2018/05/10T02:26:06|       30004.32|        108206601.44|        121840.47|
2018/05/10T02:26:07|       29244.28|        105643466.97|        119173.56|
2018/05/10T02:26:08|       30545.87|        101628172.03|        117858.98|
2018/05/10T02:26:09|       29349.65|        102382704.14|        117826.94|
2018/05/10T02:26:10|       30233.67|        101471203.38|        118318.14|
2018/05/10T02:26:11|       29999.42|        103144511.64|        120236.97|
2018/05/10T02:26:12|       30049.16|        101792205.38|        118487.04|
2018/05/10T02:26:13|       29495.81|        101979284.73|        117941.21|
2018/05/10T02:26:14|       30374.66|        103801803.37|        121597.35|
2018/05/10T02:26:15|       29953.21|        101995122.22|        118237.50|
2018/05/10T02:26:16|       29635.59|        105687377.62|        120377.81|
2018/05/10T02:26:17|       29783.42|        111646275.14|        126524.72|
2018/05/10T02:26:18|       29656.45|        114382800.43|        129282.62|
2018/05/10T02:26:19|       29266.84|        116873799.63|        131125.16|
2018/05/10T02:26:20|       30381.77|        115474729.40|        131220.12|
2018/05/10T02:26:21|       29319.22|        115998949.82|        130579.39|
2018/05/10T02:26:22|       29013.20|        112242745.40|        127220.28|
2018/05/10T02:26:23|       30200.90|        110535785.38|        127041.01|
2018/05/10T02:26:24|       30145.69|        114524738.99|        129672.34|
2018/05/10T02:26:25|       29221.29|        111493256.71|        131507.26|
2018/05/10T02:26:26|       29997.18|        108525513.08|        133236.96|
2018/05/10T02:26:27|       30040.39|        109051457.82|        133552.01|
2018/05/10T02:26:28|       28221.09|        110123372.86|        132728.41|
2018/05/10T02:26:29|       29069.48|        114000448.84|        136607.09|
2018/05/10T02:26:30|       28139.68|        115929948.67|        136606.56|
2018/05/10T02:26:31|       27727.94|        112634036.87|        132940.22|
2018/05/10T02:26:32|       28430.60|        112787359.77|        134195.05|
2018/05/10T02:26:33|       27790.07|        110696737.11|        131947.78|
2018/05/10T02:26:34|       27940.61|        111219619.54|        132492.05|
2018/05/10T02:26:35|       27905.91|        106406396.98|        128388.29|
2018/05/10T02:26:36|       29354.46|        101531351.85|        126435.76|
2018/05/10T02:26:37|       27471.42|         99251338.74|        123785.29|
2018/05/10T02:26:38|       28304.40|        103371709.82|        128308.54|
2018/05/10T02:26:39|       27864.97|        108807024.25|        132538.60|
2018/05/10T02:26:40|       27560.90|        104739434.79|        128531.58|
2018/05/10T02:26:41|       28120.73|         97980322.28|        123816.59|
2018/05/10T02:26:42|       28132.35|         96014353.50|        121560.05|
2018/05/10T02:26:43|       27565.95|         94649298.11|        119829.39|
2018/05/10T02:26:44|       28363.89|        101000446.58|        124740.40|
2018/05/10T02:26:45|       27697.32|         94765700.48|        119369.63|
2018/05/10T02:26:46|       27292.59|         91616886.12|        116640.11|
2018/05/10T02:26:47|       28251.47|         93028505.92|        118622.16|
2018/05/10T02:26:48|       27992.63|         93034873.80|        119086.72|
2018/05/10T02:26:49|       27828.20|         95577126.84|        120330.52|
2018/05/10T02:26:50|       28005.04|         91268160.86|        117005.47|
2018/05/10T02:26:51|       27978.43|         90644064.27|        116588.22|
2018/05/10T02:26:52|       27844.67|         90983873.60|        117826.22|
2018/05/10T02:26:53|       28383.81|         86058802.41|        115660.93|
2018/05/10T02:26:54|       28010.63|         88199871.72|        117296.74|
2018/05/10T02:26:55|       27899.46|         95016522.95|        122267.48|
2018/05/10T02:26:56|       27874.38|         96384856.98|        122641.48|
2018/05/10T02:26:57|       28335.39|         95951943.98|        123224.76|
2018/05/10T02:26:58|       27631.33|         93128528.93|        121004.92|
2018/05/10T02:26:59|       27943.27|         95910326.02|        123116.62|
2018/05/10T02:27:00|       29054.64|        112346710.02|        137224.90|
2018/05/10T02:27:01|       27548.55|         99268887.67|        124334.79|
2018/05/10T02:27:02|       27937.61|         96536946.53|        121529.27|
2018/05/10T02:27:03|       28131.07|         94507022.95|        120178.18|
2018/05/10T02:27:04|       27539.57|         96852878.49|        121099.23|
2018/05/10T02:27:05|       28176.37|        100181307.07|        124462.37|
2018/05/10T02:27:06|       27733.49|         95379552.86|        121435.91|
2018/05/10T02:27:07|       27581.10|         93566993.14|        120155.20|
2018/05/10T02:27:08|       28197.72|         94654700.71|        121126.67|
2018/05/10T02:27:09|       27972.25|         92230902.36|        119335.19|
2018/05/10T02:27:10|       27738.44|         92861275.06|        119593.66|
2018/05/10T02:27:11|       28396.98|         92895992.26|        120651.21|
2018/05/10T02:27:12|       28095.30|         98336106.80|        124289.07|
2018/05/10T02:27:13|       27880.55|         97127404.17|        123215.08|
2018/05/10T02:27:14|       28282.68|         94860124.62|        121279.83|
2018/05/10T02:27:15|       27913.02|         93762879.22|        119712.81|
2018/05/10T02:27:16|       27619.41|         99363077.20|        122850.55|
2018/05/10T02:27:17|       28362.22|        101246750.87|        124467.65|
2018/05/10T02:27:18|       27908.44|        101621679.02|        124534.65|
2018/05/10T02:27:19|       27640.20|        101352390.84|        125028.54|
2018/05/10T02:27:20|       27834.02|         99050249.01|        123493.08|
2018/05/10T02:27:21|       28252.77|         99622267.37|        124416.33|
2018/05/10T02:27:22|       27411.59|        101059718.41|        124438.20|
2018/05/10T02:27:23|       28164.04|        100618481.58|        125230.63|
2018/05/10T02:27:24|       28109.50|        103317069.17|        127308.89|
2018/05/10T02:27:25|       28139.21|        101571559.18|        125760.35|
2018/05/10T02:27:26|       27655.68|         97820088.80|        122530.64|
2018/05/10T02:27:27|       28286.04|         97608396.87|        123310.77|
2018/05/10T02:27:28|       27893.38|        106482282.14|        128619.73|
2018/05/10T02:27:29|       28232.86|        100493592.41|        124358.65|
2018/05/10T02:27:30|       28077.24|         96334981.47|        121597.25|
2018/05/10T02:27:31|       27267.09|         97102051.98|        121863.99|
2018/05/10T02:27:32|       27657.61|        105973670.72|        127974.80|
2018/05/10T02:27:33|       28320.48|        101155962.65|        125725.83|
2018/05/10T02:27:34|       28080.92|         97537838.82|        122231.77|
2018/05/10T02:27:35|       28226.36|         97892359.62|        122521.62|
2018/05/10T02:27:36|       27739.30|        100678611.47|        123985.57|
2018/05/10T02:27:37|       27688.84|         96663943.81|        121496.93|
2018/05/10T02:27:38|       27950.73|         93859511.12|        119531.60|
2018/05/10T02:27:39|       28053.59|         94167698.20|        119545.76|
2018/05/10T02:27:40|       27310.44|         94939886.37|        119087.21|
2018/05/10T02:27:41|       28341.88|        101736025.12|        124361.70|
2018/05/10T02:27:42|       27559.60|         99591135.66|        122401.72|
2018/05/10T02:27:43|       28235.42|         91937466.60|        121220.93|
2018/05/10T02:27:44|       28341.51|         92147890.77|        121374.54|
2018/05/10T02:27:45|       28032.02|         94345916.54|        122426.93|
2018/05/10T02:27:46|       27023.42|         89487417.41|        117879.11|
2018/05/10T02:27:47|       28236.11|         92620777.60|        121282.72|
2018/05/10T02:27:48|       27968.71|         95828374.58|        123485.83|
2018/05/10T02:27:49|       27724.25|        102481014.47|        127586.13|
2018/05/10T02:27:50|       30692.14|         98378486.92|        123811.72|
2018/05/10T02:27:51|       28390.40|         93719839.12|        114656.57|
2018/05/10T02:27:52|       27291.71|         97135453.11|        115489.16|
2018/05/10T02:27:53|       28321.97|         98100568.13|        114168.22|
2018/05/10T02:27:54|       28012.36|        102924095.87|        116079.21|
2018/05/10T02:27:55|       27460.97|         95413562.93|        110583.78|
2018/05/10T02:27:56|       27769.37|         88330564.44|        105440.59|
2018/05/10T02:27:57|       28254.90|         90896659.09|        107644.68|
2018/05/10T02:27:58|       27256.80|         96505071.40|        111168.45|
2018/05/10T02:27:59|       28247.96|         94574111.82|        110862.10|
2018/05/10T02:28:00|       27754.58|         93204477.10|        109681.47|
2018/05/10T02:28:01|       27169.06|         94301971.36|        110916.97|
2018/05/10T02:28:02|       27493.10|         94715949.80|        112647.31|
2018/05/10T02:28:03|       28049.05|        102796657.00|        119862.33|
2018/05/10T02:28:04|       26921.46|         93466976.35|        110820.93|
2018/05/10T02:28:05|       27277.09|         93400884.06|        109082.60|
2018/05/10T02:28:06|       27551.38|        100077765.58|        114389.77|
2018/05/10T02:28:07|       27318.67|         89870834.74|        107521.75|
2018/05/10T02:28:08|       27733.80|         97196271.55|        113538.76|
2018/05/10T02:28:09|       29239.21|         94092990.79|        114330.13|
2018/05/10T02:28:10|       26671.57|         90259852.05|        107906.13|
2018/05/10T02:28:11|       27554.61|         93759075.81|        110969.33|
2018/05/10T02:28:12|       27605.96|        100522396.39|        115030.51|
2018/05/10T02:28:13|       27262.53|        102269610.54|        115594.83|
2018/05/10T02:28:14|       27802.25|         96208470.50|        112113.47|
2018/05/10T02:28:15|       27509.55|         94284228.18|        111350.93|
2018/05/10T02:28:16|       27323.19|        100139544.61|        114779.68|
2018/05/10T02:28:17|       27743.17|         99542003.93|        114713.65|
2018/05/10T02:28:18|       27609.26|        110445282.94|        121695.67|
2018/05/10T02:28:19|       27527.87|        106115639.88|        119515.34|
2018/05/10T02:28:20|       27944.48|         97308594.42|        113671.51|
2018/05/10T02:28:21|       28076.39|        103829641.72|        118915.51|
2018/05/10T02:28:22|       27498.17|        106646484.08|        120321.26|
2018/05/10T02:28:23|       27740.60|        111768414.15|        125455.37|
2018/05/10T02:28:24|       27797.46|        111620284.05|        125479.28|
2018/05/10T02:28:25|       27240.00|        115102354.24|        127405.79|
2018/05/10T02:28:26|       27673.77|        113175946.20|        125006.44|
2018/05/10T02:28:27|       27799.96|        116813337.42|        127567.03|
2018/05/10T02:28:28|       27186.48|        108862848.65|        121361.94|
2018/05/10T02:28:29|       27815.71|        110200111.70|        122551.93|
2018/05/10T02:28:30|       27527.13|        101974952.69|        115906.63|
2018/05/10T02:28:31|       27111.94|        101426649.79|        115455.00|
2018/05/10T02:28:32|       28001.47|        102408845.72|        117823.10|
2018/05/10T02:28:33|       27794.99|        102788189.24|        118370.49|
2018/05/10T02:28:34|       27213.42|        106396899.53|        120076.19|
2018/05/10T02:28:35|       27909.83|        102397963.07|        117450.62|
2018/05/10T02:28:36|       27596.88|        106097834.60|        119295.78|
2018/05/10T02:28:37|       27099.97|        104213527.90|        117235.25|
2018/05/10T02:28:38|       27603.12|        102510375.26|        116820.90|
2018/05/10T02:28:39|       27662.12|        101880583.79|        116036.39|
2018/05/10T02:28:40|       26962.80|        103965674.37|        117116.83|
2018/05/10T02:28:41|       27634.08|        106749075.41|        120422.21|
2018/05/10T02:28:42|       28954.95|        110358896.22|        126743.89|
2018/05/10T02:28:43|       27615.29|        111036483.80|        123562.56|
2018/05/10T02:28:44|       28179.75|        118413943.52|        128881.07|
2018/05/10T02:28:45|       27800.35|        119105540.91|        128860.69|
2018/05/10T02:28:46|       27397.04|        113113721.41|        124174.92|
2018/05/10T02:28:47|       27648.83|        112075977.94|        123740.48|
2018/05/10T02:28:48|       27669.57|        113995361.90|        124364.04|
2018/05/10T02:28:49|       27172.82|        112414894.42|        122979.22|
2018/05/10T02:28:50|       27845.86|        111891019.81|        123607.40|
2018/05/10T02:28:51|       27758.89|        112326525.35|        123867.29|
2018/05/10T02:28:52|       27250.11|        118067437.51|        127305.47|
2018/05/10T02:28:53|       27450.54|        121455962.85|        130998.06|
2018/05/10T02:28:54|       27498.23|        111958056.65|        124693.84|
2018/05/10T02:28:55|       27243.07|        114490791.56|        125146.88|
2018/05/10T02:28:56|       27601.02|        110336093.96|        122448.19|
2018/05/10T02:28:57|       27416.96|        117212550.73|        126307.68|
2018/05/10T02:28:58|       27193.37|        113461107.46|        123684.77|
2018/05/10T02:28:59|       27581.33|        112010592.01|        122954.17|
2018/05/10T02:29:00|       27788.35|        113321496.44|        125015.70|
2018/05/10T02:29:01|       27421.14|        111319186.39|        123085.38|
2018/05/10T02:29:02|       28007.48|        115775802.99|        126638.64|
2018/05/10T02:29:03|       28151.46|        117480276.94|        128288.20|
2018/05/10T02:29:04|       27472.76|        117994499.25|        128320.98|
2018/05/10T02:29:05|       29284.12|        119183962.24|        130422.72|
2018/05/10T02:29:06|       27880.79|        128313235.70|        134883.76|
2018/05/10T02:29:07|       27685.78|        123909568.39|        131644.42|
2018/05/10T02:29:08|       27951.66|        120527139.28|        128963.34|
2018/05/10T02:29:09|       27738.85|        119332134.56|        128403.24|
2018/05/10T02:29:10|       27296.88|        114848044.74|        125032.30|
2018/05/10T02:29:11|       28841.26|        101691371.52|        117385.39|
2018/05/10T02:29:12|       27811.45|         98003686.83|        114188.05|
2018/05/10T02:29:13|       27822.42|         99154691.49|        114699.22|
2018/05/10T02:29:14|       27895.36|        101525562.96|        116468.23|
2018/05/10T02:29:15|       28006.64|        108163167.35|        121685.03|
2018/05/10T02:29:16|       27766.17|        102705361.58|        117547.60|
2018/05/10T02:29:17|       27757.65|        100252867.81|        115549.09|
2018/05/10T02:29:18|       27801.23|         94824614.49|        111667.96|
2018/05/10T02:29:19|       27471.98|         97539252.81|        113060.44|
2018/05/10T02:29:20|       27789.28|         97858449.06|        112739.85|
2018/05/10T02:29:21|       28587.72|         96535019.92|        112958.14|
2018/05/10T02:29:22|       27154.90|        118137721.54|        126601.82|
2018/05/10T02:29:23|       27773.99|        121000031.52|        129595.84|
2018/05/10T02:29:24|       28149.31|        112031348.51|        124332.40|
2018/05/10T02:29:25|       27413.86|        108227011.11|        120965.26|
2018/05/10T02:29:26|       27719.01|        107947927.27|        121066.39|
2018/05/10T02:29:27|       28102.52|        109003698.61|        121463.25|
2018/05/10T02:29:28|       27258.31|        109623935.15|        121311.66|
2018/05/10T02:29:29|       27924.08|        108308220.44|        121080.01|
2018/05/10T02:29:30|       27888.72|        110098444.16|        122562.60|
2018/05/10T02:29:31|       28456.68|        105164538.36|        125072.41|
2018/05/10T02:29:32|       28280.01|        103766958.78|        125035.45|
2018/05/10T02:29:33|       27831.37|        100373848.15|        121913.98|
2018/05/10T02:29:34|       27300.62|         99469606.99|        119998.29|
2018/05/10T02:29:35|       27920.50|        100227995.97|        121138.71|
2018/05/10T02:29:36|       27822.20|         96099873.00|        118539.65|
2018/05/10T02:29:37|       27904.03|        101013889.35|        122015.33|
2018/05/10T02:29:38|       27839.73|        101483829.82|        121973.25|
2018/05/10T02:29:39|       27810.35|        107830485.73|        126777.45|
2018/05/10T02:29:40|       27445.93|        108295809.79|        126295.40|
2018/05/10T02:29:41|       27947.65|        100619480.70|        121110.62|
2018/05/10T02:29:42|       27698.18|        100186857.24|        115691.10|
2018/05/10T02:29:43|       27009.56|        102527280.02|        116849.00|
2018/05/10T02:29:44|       28804.68|        111118723.74|        123842.27|
2018/05/10T02:29:45|       27928.02|        109065790.13|        121733.91|
2018/05/10T02:29:46|       27478.31|        126432029.29|        134363.78|
2018/05/10T02:29:47|       27627.48|        142731599.48|        145278.52|
2018/05/10T02:29:48|       27509.46|        116610400.47|        127853.96|
2018/05/10T02:29:49|       27305.45|         98194890.79|        114156.50|
2018/05/10T02:29:50|       27939.56|         94214592.33|        111784.13|
2018/05/10T02:29:51|       27989.01|         90566117.97|        108752.99|
2018/05/10T02:29:52|       27155.24|         94200909.18|        110265.32|
2018/05/10T02:29:53|       27904.15|        100460364.33|        115528.66|
2018/05/10T02:29:54|       27547.64|         94610110.16|        110617.42|
2018/05/10T02:29:55|       27740.45|         88033696.87|        106315.44|
2018/05/10T02:29:56|       27727.83|         86343620.79|        104573.94|
2018/05/10T02:29:57|       28184.28|         96524656.03|        111732.77|
2018/05/10T02:29:58|       27612.92|         74835742.81|         95063.55|
2018/05/10T02:29:59|       28146.90|         64405554.98|         85401.94|
2018/05/10T02:30:00|         328.61|           400292.42|           661.80|
