               Date|        Records|               Bytes|          Packets|
2018/05/09T14:30:00|       26665.31|         30962252.80|         61081.18|
2018/05/09T14:30:01|       27362.99|         34135115.09|         66151.04|
2018/05/09T14:30:02|       27915.79|         37244567.73|         69474.79|
2018/05/09T14:30:03|       27116.48|         40848095.61|         71862.94|
2018/05/09T14:30:04|       27132.50|         44591193.18|         74903.86|
2018/05/09T14:30:05|       27899.80|         46542152.38|         76693.53|
2018/05/09T14:30:06|       26981.03|         46113440.09|         75590.89|
2018/05/09T14:30:07|       27509.91|         44270448.91|         74755.81|
2018/05/09T14:30:08|       27339.81|         45890305.90|         75946.65|
2018/05/09T14:30:09|       27249.53|         45226959.50|         75026.99|
2018/05/09T14:30:10|       27124.85|         46395640.74|         74198.57|
2018/05/09T14:30:11|       27637.77|         77606990.70|         95740.12|
2018/05/09T14:30:12|       26828.68|         68893013.74|         89266.15|
2018/05/09T14:30:13|       27117.48|         79779919.30|         96933.40|
2018/05/09T14:30:14|       27600.66|         80366966.91|         98113.74|
2018/05/09T14:30:15|       26821.38|         78375809.37|         96334.14|
2018/05/09T14:30:16|       26913.33|         76284511.02|         95148.22|
2018/05/09T14:30:17|       27246.91|         72780532.77|         92914.65|
2018/05/09T14:30:18|       26929.31|         71048207.67|         91225.47|
2018/05/09T14:30:19|       27358.68|         79968151.10|         97790.02|
2018/05/09T14:30:20|       27686.53|         91008644.50|        106109.18|
2018/05/09T14:30:21|       26932.69|         89523498.89|        104402.49|
2018/05/09T14:30:22|       27463.33|         78367510.23|         97116.13|
2018/05/09T14:30:23|       27497.44|         69468529.21|         91685.20|
2018/05/09T14:30:24|       27525.35|         74107465.01|         94254.07|
2018/05/09T14:30:25|       27293.12|         80588662.21|         98343.97|
2018/05/09T14:30:26|       27798.64|         80230960.17|         99100.85|
2018/05/09T14:30:27|       27182.77|         78832493.80|         97911.50|
2018/05/09T14:30:28|       26955.74|         73887162.84|         94133.98|
2018/05/09T14:30:29|       27336.76|         78424660.33|         97897.49|
2018/05/09T14:30:30|       27568.78|         80914803.90|        100422.07|
2018/05/09T14:30:31|       33079.17|         79466037.63|        105181.81|
2018/05/09T14:30:32|       32674.93|         74599824.08|        101456.98|
2018/05/09T14:30:33|       27094.19|         80279485.11|         99587.95|
2018/05/09T14:30:34|       26976.63|         76128510.84|         96729.56|
2018/05/09T14:30:35|       27268.00|         78316275.55|         98825.39|
2018/05/09T14:30:36|       27368.80|         93626667.43|        109625.47|
2018/05/09T14:30:37|       27266.58|         90344654.25|        106134.35|
2018/05/09T14:30:38|       27369.07|         82455152.36|        100581.21|
2018/05/09T14:30:39|       26945.66|         67383077.90|         89900.70|
2018/05/09T14:30:40|       27152.04|         82205097.79|        100252.96|
2018/05/09T14:30:41|       27549.29|         86316958.49|        103591.54|
2018/05/09T14:30:42|       27088.61|         83362983.63|        100988.04|
2018/05/09T14:30:43|       27199.65|         75080506.55|         94860.95|
2018/05/09T14:30:44|       27549.28|         77785025.62|         96933.40|
2018/05/09T14:30:45|       26779.43|         77245805.58|         95634.67|
2018/05/09T14:30:46|       27003.49|         81814489.83|         98900.87|
2018/05/09T14:30:47|       27571.44|         84756056.71|        101608.08|
2018/05/09T14:30:48|       26844.01|         84552195.02|        103681.87|
2018/05/09T14:30:49|       26968.67|         85576199.24|        104988.29|
2018/05/09T14:30:50|       27420.03|         86011386.42|        106308.56|
2018/05/09T14:30:51|       30883.56|         80014086.06|        106188.60|
2018/05/09T14:30:52|       30083.99|         83366776.96|        107643.08|
2018/05/09T14:30:53|       27424.15|         89357696.44|        108972.62|
2018/05/09T14:30:54|       26800.57|         74546743.91|         98409.52|
2018/05/09T14:30:55|       27111.04|         82377769.19|        104313.82|
2018/05/09T14:30:56|       27409.75|         80737487.01|        103694.84|
2018/05/09T14:30:57|       26939.67|         88797550.43|        109143.55|
2018/05/09T14:30:58|       26953.15|         84669630.86|        104425.26|
2018/05/09T14:30:59|       27485.53|         78197375.85|         99876.10|
2018/05/09T14:31:00|       27017.00|         70693652.22|         94449.69|
2018/05/09T14:31:01|       27528.48|         77939152.54|         98988.52|
2018/05/09T14:31:02|       27242.70|         72311168.73|         94049.84|
2018/05/09T14:31:03|       26940.88|         77459097.85|         96981.79|
2018/05/09T14:31:04|       27343.51|         74244833.03|         94907.09|
2018/05/09T14:31:05|       27303.04|         77010647.05|         96845.82|
2018/05/09T14:31:06|       27704.76|         76902292.08|         97405.58|
2018/05/09T14:31:07|       26958.99|         75124528.99|         95714.95|
2018/05/09T14:31:08|       27164.00|         82122843.91|        101576.88|
2018/05/09T14:31:09|       26669.74|         82169380.49|        101399.57|
2018/05/09T14:31:10|       26836.50|         77649612.99|         98483.13|
2018/05/09T14:31:11|       27255.68|         71799345.96|         95523.48|
2018/05/09T14:31:12|       26813.69|         87574792.87|        106037.54|
2018/05/09T14:31:13|       26901.13|         96380189.15|        112525.48|
2018/05/09T14:31:14|       27749.46|         90584282.30|        108339.28|
2018/05/09T14:31:15|       27706.90|         79968126.62|        100549.46|
2018/05/09T14:31:16|       27570.80|         86048241.68|        103907.27|
2018/05/09T14:31:17|       27375.87|         87631403.52|        104416.86|
2018/05/09T14:31:18|       26987.75|         91538235.95|        106644.32|
2018/05/09T14:31:19|       26848.99|         71857285.29|         93347.94|
2018/05/09T14:31:20|       27165.70|         72840680.29|         94429.89|
2018/05/09T14:31:21|       27018.54|         79313459.58|         98732.35|
2018/05/09T14:31:22|       27241.59|         89338702.41|        106670.24|
2018/05/09T14:31:23|       27460.17|         89025540.64|        106703.75|
2018/05/09T14:31:24|       27230.57|         90250278.38|        109323.31|
2018/05/09T14:31:25|       27049.53|         73666450.88|         97926.73|
2018/05/09T14:31:26|       27471.99|         72231107.65|         97373.59|
2018/05/09T14:31:27|       27081.41|         55632715.09|         84956.02|
2018/05/09T14:31:28|       26689.72|         46317580.03|         79218.67|
2018/05/09T14:31:29|       27382.49|         52562972.55|         83683.56|
2018/05/09T14:31:30|       26771.39|         60788263.01|         88343.23|
2018/05/09T14:31:31|       27055.51|         50093082.08|         82202.96|
2018/05/09T14:31:32|       27472.88|         52160122.10|         84184.69|
2018/05/09T14:31:33|       26795.35|         53340392.95|         84185.32|
2018/05/09T14:31:34|       26784.64|         54828146.08|         85189.33|
2018/05/09T14:31:35|       28038.96|         52434478.58|         82457.84|
2018/05/09T14:31:36|       29356.71|         59730975.59|         87859.17|
2018/05/09T14:31:37|       29979.83|         52500788.65|         83235.32|
2018/05/09T14:31:38|       29495.20|         61102720.71|         89262.70|
2018/05/09T14:31:39|       28842.69|         56103119.84|         85182.55|
2018/05/09T14:31:40|       29220.45|         56172906.64|         85577.08|
2018/05/09T14:31:41|       29500.10|         60338075.84|         87810.54|
2018/05/09T14:31:42|       28913.85|         64248939.43|         89747.39|
2018/05/09T14:31:43|       30106.00|         64289119.76|         90567.87|
2018/05/09T14:31:44|       29636.42|         64309990.27|         89893.47|
2018/05/09T14:31:45|       28780.57|         62866151.00|         88057.51|
2018/05/09T14:31:46|       28967.54|         63946972.57|         90066.36|
2018/05/09T14:31:47|       29451.04|         61142178.45|         89267.50|
2018/05/09T14:31:48|       28689.82|         55960297.68|         84992.98|
2018/05/09T14:31:49|       29054.37|         55150235.15|         83648.87|
2018/05/09T14:31:50|       29542.46|         56294153.94|         84615.27|
2018/05/09T14:31:51|       28980.06|         53157645.62|         81393.02|
2018/05/09T14:31:52|       27201.52|         51702893.55|         79154.89|
2018/05/09T14:31:53|       27357.74|         51005138.25|         79211.94|
2018/05/09T14:31:54|       27392.92|         53710289.01|         81464.06|
2018/05/09T14:31:55|       27143.14|         53066306.99|         80284.04|
2018/05/09T14:31:56|       27959.47|         56059040.43|         83255.73|
2018/05/09T14:31:57|       27153.37|         55039940.83|         81912.77|
2018/05/09T14:31:58|       26875.13|         55823099.84|         83087.81|
2018/05/09T14:31:59|       27557.93|         56624045.77|         84212.65|
2018/05/09T14:32:00|       27063.82|         55388806.99|         82788.69|
2018/05/09T14:32:01|       27041.68|         57953240.00|         84819.70|
2018/05/09T14:32:02|       27329.32|         53611062.81|         83690.61|
2018/05/09T14:32:03|       26857.80|         52013377.43|         81071.20|
2018/05/09T14:32:04|       27483.11|         56930120.28|         84830.55|
2018/05/09T14:32:05|       27909.29|         57217890.56|         84707.14|
2018/05/09T14:32:06|       26855.91|         59045109.57|         84599.20|
2018/05/09T14:32:07|       27070.44|         57930134.52|         84087.73|
2018/05/09T14:32:08|       28359.30|         51858106.13|         81182.42|
2018/05/09T14:32:09|       28363.38|         54883328.00|         83927.35|
2018/05/09T14:32:10|       28118.84|         53995713.27|         83226.98|
2018/05/09T14:32:11|       27339.82|         52704629.46|         85197.54|
2018/05/09T14:32:12|       27229.68|         52595218.08|         84752.67|
2018/05/09T14:32:13|       27152.05|         48918028.31|         82210.85|
2018/05/09T14:32:14|       27260.47|         49174176.47|         82294.97|
2018/05/09T14:32:15|       27080.55|         50300906.63|         83118.48|
2018/05/09T14:32:16|       26891.91|         59831018.88|         89410.69|
2018/05/09T14:32:17|       27581.80|         57991094.84|         88812.25|
2018/05/09T14:32:18|       26731.46|         51667621.28|         83975.17|
2018/05/09T14:32:19|       26819.48|         52911760.58|         84678.69|
2018/05/09T14:32:20|       45285.44|         55246587.29|        104058.48|
2018/05/09T14:32:21|       75971.43|         56198873.61|        134395.91|
2018/05/09T14:32:22|       26830.01|         53657406.08|         85058.06|
2018/05/09T14:32:23|       27516.82|         52014101.41|         85188.59|
2018/05/09T14:32:24|       26715.37|         55547740.13|         87863.69|
2018/05/09T14:32:25|       27665.26|         54669693.62|         87503.47|
2018/05/09T14:32:26|       27375.91|         52259711.00|         85485.42|
2018/05/09T14:32:27|       26625.52|         51917114.88|         84546.93|
2018/05/09T14:32:28|       26869.28|         53235247.92|         86054.90|
2018/05/09T14:32:29|       27490.87|         52688857.41|         87166.12|
2018/05/09T14:32:30|       26596.67|         50436932.73|         84469.37|
2018/05/09T14:32:31|       27026.22|         50319596.47|         83711.25|
2018/05/09T14:32:32|       27494.88|         54445077.53|         87136.23|
2018/05/09T14:32:33|       26949.18|         51468616.82|         84345.72|
2018/05/09T14:32:34|       27014.47|         50308806.57|         83535.51|
2018/05/09T14:32:35|       27251.19|         57451505.85|         91058.05|
2018/05/09T14:32:36|       27898.57|         56200116.88|         90801.74|
2018/05/09T14:32:37|       26970.18|         57845051.57|         91108.22|
2018/05/09T14:32:38|       27636.06|         56667177.89|         91155.87|
2018/05/09T14:32:39|       26737.43|         57683964.49|         91001.40|
2018/05/09T14:32:40|       27095.70|         56976291.16|         90661.96|
2018/05/09T14:32:41|       27549.09|         56432453.05|         90960.11|
2018/05/09T14:32:42|       26728.15|         56706194.53|         91041.94|
2018/05/09T14:32:43|       26761.33|         57277354.36|         91675.37|
2018/05/09T14:32:44|       27519.19|         56137992.70|         91349.51|
2018/05/09T14:32:45|       26760.80|         55458495.54|         90318.63|
2018/05/09T14:32:46|       27034.26|         56302388.20|         90913.13|
2018/05/09T14:32:47|       27358.72|         56452316.75|         93619.31|
2018/05/09T14:32:48|       26950.20|         51741444.69|         93556.04|
2018/05/09T14:32:49|       26920.33|         49166997.33|         90301.72|
2018/05/09T14:32:50|       27364.81|         49174204.68|         90650.11|
2018/05/09T14:32:51|       26770.59|         50041567.20|         90746.27|
2018/05/09T14:32:52|       26913.51|         50214955.28|         90998.74|
2018/05/09T14:32:53|       27345.26|         50199304.63|         91609.95|
2018/05/09T14:32:54|       26807.43|         51483536.22|         92131.58|
2018/05/09T14:32:55|       27133.51|         48142575.61|         89930.52|
2018/05/09T14:32:56|       27596.19|         48092953.32|         90251.16|
2018/05/09T14:32:57|       27269.49|         48969623.35|         90779.27|
2018/05/09T14:32:58|       27044.38|         48662153.92|         91604.02|
2018/05/09T14:32:59|       27201.79|         50198814.47|         92850.33|
2018/05/09T14:33:00|       27033.12|         49148746.46|         86618.04|
2018/05/09T14:33:01|       27172.19|         48735681.39|         83364.31|
2018/05/09T14:33:02|       27444.16|         55160025.22|         89497.47|
2018/05/09T14:33:03|       27242.74|         59338635.37|         93452.18|
2018/05/09T14:33:04|       26880.57|         62151386.54|         95492.59|
2018/05/09T14:33:05|       27055.80|         61915632.32|         95535.72|
2018/05/09T14:33:06|       27213.44|         62161659.65|         96004.88|
2018/05/09T14:33:07|       26903.77|         63730449.52|         96484.86|
2018/05/09T14:33:08|       27224.51|         65715404.98|         98334.38|
2018/05/09T14:33:09|       29426.37|         75029913.01|        106886.93|
2018/05/09T14:33:10|       27061.02|         74841314.18|        104854.15|
2018/05/09T14:33:11|       27367.86|         78486361.42|        109913.94|
2018/05/09T14:33:12|       26899.08|         78430876.50|        109108.28|
2018/05/09T14:33:13|       26940.98|         73920060.09|        105580.90|
2018/05/09T14:33:14|       27508.27|         74325987.60|        106847.29|
2018/05/09T14:33:15|       27330.06|         76070326.21|        107757.70|
2018/05/09T14:33:16|       27185.57|         69575822.83|        101074.69|
2018/05/09T14:33:17|       27658.21|         71357606.26|        102757.50|
2018/05/09T14:33:18|       26962.32|         69120322.12|         99783.74|
2018/05/09T14:33:19|       27940.24|         71823315.70|         98371.59|
2018/05/09T14:33:20|       27646.47|         72150817.24|         98348.95|
2018/05/09T14:33:21|       27132.85|         71410179.18|         98794.51|
2018/05/09T14:33:22|       27100.53|         75099045.52|        101413.97|
2018/05/09T14:33:23|       27470.41|         75454374.12|        101738.39|
2018/05/09T14:33:24|       27484.37|         65851857.76|         94272.63|
2018/05/09T14:33:25|       28128.81|         59847803.05|         90224.40|
2018/05/09T14:33:26|       27409.57|         59419181.82|         88548.95|
2018/05/09T14:33:27|       27083.76|         58069310.73|         85893.24|
2018/05/09T14:33:28|       27046.32|         49024529.12|         77909.77|
2018/05/09T14:33:29|       27935.18|         51416853.84|         80374.38|
2018/05/09T14:33:30|       26808.01|         50704448.96|         78599.21|
2018/05/09T14:33:31|       27167.37|         50045021.98|         78838.26|
2018/05/09T14:33:32|       27403.76|         53390970.19|         81315.96|
2018/05/09T14:33:33|       26922.71|         57799472.20|         84166.47|
2018/05/09T14:33:34|       27001.51|         51786050.90|         83937.57|
2018/05/09T14:33:35|       27588.45|         50238888.15|         83893.48|
2018/05/09T14:33:36|       26881.34|         50829960.45|         83694.14|
2018/05/09T14:33:37|       27209.12|         52170181.01|         85153.17|
2018/05/09T14:33:38|       27743.97|         51739820.03|         85727.64|
2018/05/09T14:33:39|       26696.01|         55466923.65|         87837.71|
2018/05/09T14:33:40|       27198.81|         56133609.23|         88407.41|
2018/05/09T14:33:41|       27643.37|         55741960.05|         87926.47|
2018/05/09T14:33:42|       26800.19|         55147300.22|         86380.35|
2018/05/09T14:33:43|       26918.86|         51911897.03|         84111.91|
2018/05/09T14:33:44|       27281.38|         64289327.92|         91678.22|
2018/05/09T14:33:45|       27390.20|         93891191.10|        109269.23|
2018/05/09T14:33:46|       27004.97|         92795624.97|        107880.15|
2018/05/09T14:33:47|       27300.85|         93375860.77|        108443.02|
2018/05/09T14:33:48|       26567.42|         89872205.32|        105308.65|
2018/05/09T14:33:49|       27096.89|         91916192.12|        107267.91|
2018/05/09T14:33:50|       27620.85|         92502108.27|        107853.97|
2018/05/09T14:33:51|       27062.97|         92050831.38|        107042.22|
2018/05/09T14:33:52|       27704.56|         92691899.66|        108243.30|
2018/05/09T14:33:53|       28368.32|         90910707.27|        107603.73|
2018/05/09T14:33:54|       27165.22|         81761916.44|         99741.47|
2018/05/09T14:33:55|       27389.69|         43992293.01|         73405.86|
2018/05/09T14:33:56|       27724.23|         44409583.38|         74840.20|
2018/05/09T14:33:57|       27177.01|         45426337.11|         81236.80|
2018/05/09T14:33:58|       27332.45|         44057606.02|         79788.45|
2018/05/09T14:33:59|       27589.24|         47032311.95|         78571.85|
2018/05/09T14:34:00|       27631.69|         45609107.43|         75230.25|
2018/05/09T14:34:01|       27580.90|         48979418.86|         80039.56|
2018/05/09T14:34:02|       28034.85|         52571239.37|        102680.86|
2018/05/09T14:34:03|       28149.61|         52213814.92|         94832.34|
2018/05/09T14:34:04|       27729.93|         53134474.59|         86516.27|
2018/05/09T14:34:05|       28088.39|         50292028.56|         84932.22|
2018/05/09T14:34:06|       27404.04|         49333256.21|         82568.82|
2018/05/09T14:34:07|       27279.74|         52389773.45|         84525.51|
2018/05/09T14:34:08|       27751.86|         52082861.19|         84959.99|
2018/05/09T14:34:09|       27134.41|         52472703.03|         82669.71|
2018/05/09T14:34:10|       27504.05|         50626030.44|         80636.90|
2018/05/09T14:34:11|       27890.39|         52572597.10|         82283.64|
2018/05/09T14:34:12|       26960.79|         54623097.08|         82049.21|
2018/05/09T14:34:13|       27781.05|         49251848.17|         79296.25|
2018/05/09T14:34:14|       28079.36|         49771253.93|         79686.18|
2018/05/09T14:34:15|       27039.51|         45467710.27|         74185.38|
2018/05/09T14:34:16|       27783.91|         45686600.00|         75189.17|
2018/05/09T14:34:17|       27534.44|         47602958.84|         76369.07|
2018/05/09T14:34:18|       27395.13|         52074875.76|         79565.04|
2018/05/09T14:34:19|       27256.88|         48474996.76|         76963.05|
2018/05/09T14:34:20|       27997.18|         51729171.27|         79513.91|
2018/05/09T14:34:21|       26978.97|         53183464.96|         80120.55|
2018/05/09T14:34:22|       27479.39|         57094390.89|         84800.57|
2018/05/09T14:34:23|       27703.02|         55824125.78|         83517.54|
2018/05/09T14:34:24|       27119.95|         54411523.98|         82364.17|
2018/05/09T14:34:25|       27392.14|         54158766.11|         82467.83|
2018/05/09T14:34:26|       28001.16|         54614425.07|         90003.12|
2018/05/09T14:34:27|       27547.89|         56656734.38|         84460.46|
2018/05/09T14:34:28|       27461.76|         53225375.82|         82363.10|
2018/05/09T14:34:29|       27815.00|         55736323.38|         84004.33|
2018/05/09T14:34:30|       26935.06|         57409303.09|         83961.25|
2018/05/09T14:34:31|       27739.63|         57796910.87|         84907.16|
2018/05/09T14:34:32|       27775.66|         58090471.46|         85307.46|
2018/05/09T14:34:33|       27285.01|         55706429.15|         83481.33|
2018/05/09T14:34:34|       27571.34|         52779567.08|         81739.76|
2018/05/09T14:34:35|       27775.20|         50266847.91|         79893.07|
2018/05/09T14:34:36|       27271.04|         50355108.30|         78664.41|
2018/05/09T14:34:37|       27262.27|         49858658.80|         78201.60|
2018/05/09T14:34:38|       27961.46|         48164630.53|         77778.93|
2018/05/09T14:34:39|       27144.05|         49754582.20|         77950.92|
2018/05/09T14:34:40|       27439.20|         49064240.44|         77675.44|
2018/05/09T14:34:41|       27901.41|         49266067.87|         78515.30|
2018/05/09T14:34:42|       27081.09|         53141836.76|         81088.96|
2018/05/09T14:34:43|       27564.04|         52869111.60|         82084.33|
2018/05/09T14:34:44|       27862.27|         52152268.45|         81965.64|
2018/05/09T14:34:45|       27190.36|         52147114.34|         81402.19|
2018/05/09T14:34:46|       27423.75|         51646071.31|         81391.36|
2018/05/09T14:34:47|       28272.79|         51753289.18|         82266.65|
2018/05/09T14:34:48|       27131.83|         50256167.85|         79914.43|
2018/05/09T14:34:49|       27561.90|         51492440.76|         81279.35|
2018/05/09T14:34:50|       28296.55|         51430914.05|         82916.89|
2018/05/09T14:34:51|       27084.55|         52423660.71|         81715.57|
2018/05/09T14:34:52|       27503.51|         52141850.26|         84548.94|
2018/05/09T14:34:53|       27716.11|         52016260.04|         82256.08|
2018/05/09T14:34:54|       27186.32|         51393426.00|         81142.37|
2018/05/09T14:34:55|       28029.66|         49334827.76|         80398.92|
2018/05/09T14:34:56|       28787.73|         46655986.52|         77699.09|
2018/05/09T14:34:57|       27303.80|         53880728.04|         80945.50|
2018/05/09T14:34:58|       27803.87|         45453889.20|         75877.02|
2018/05/09T14:34:59|       27982.80|         46261130.50|         76080.62|
2018/05/09T14:35:00|       27394.63|         50017881.95|         78132.93|
2018/05/09T14:35:01|       27580.08|         50763865.30|         79954.95|
2018/05/09T14:35:02|       28464.96|         50621227.55|         81037.74|
2018/05/09T14:35:03|       27554.02|         49890444.01|         79793.90|
2018/05/09T14:35:04|       27376.40|         51383486.30|         80600.30|
2018/05/09T14:35:05|       28087.42|         50709671.15|         80761.71|
2018/05/09T14:35:06|       27380.96|         48194464.40|         78626.20|
2018/05/09T14:35:07|       27924.21|         48997644.03|         79514.05|
2018/05/09T14:35:08|       27778.05|         47569407.31|         78335.35|
2018/05/09T14:35:09|       27334.79|         48750441.85|         78469.98|
2018/05/09T14:35:10|       27872.60|         46832289.62|         77564.31|
2018/05/09T14:35:11|       27881.13|         47287601.54|         77777.36|
2018/05/09T14:35:12|       27417.11|         48976046.54|         78485.01|
2018/05/09T14:35:13|       28083.48|         48307109.99|         79377.35|
2018/05/09T14:35:14|       28969.62|         49247221.06|         81176.78|
2018/05/09T14:35:15|       27431.10|         46450638.28|         76781.94|
2018/05/09T14:35:16|       27693.13|         44504988.91|         75859.89|
2018/05/09T14:35:17|       28196.57|         46587669.22|         77655.93|
2018/05/09T14:35:18|       27314.37|         45196480.73|         75932.21|
2018/05/09T14:35:19|       27449.58|         48810982.19|         78534.36|
2018/05/09T14:35:20|       27925.54|         49547691.60|         79537.60|
2018/05/09T14:35:21|       27700.05|         50265575.94|         80111.39|
2018/05/09T14:35:22|       27708.56|         52296841.93|         81509.15|
2018/05/09T14:35:23|       27950.40|         50082157.92|         80056.47|
2018/05/09T14:35:24|       27446.76|         61064761.44|         88878.41|
2018/05/09T14:35:25|       27380.36|         74892390.37|        103314.12|
2018/05/09T14:35:26|       28140.41|         75842996.80|        104676.16|
2018/05/09T14:35:27|       27624.29|         76455415.67|        104534.91|
2018/05/09T14:35:28|       27528.82|         78302539.44|        105852.91|
2018/05/09T14:35:29|       28065.77|         80620468.63|        107727.38|
2018/05/09T14:35:30|       27321.25|         81699023.50|        109754.29|
2018/05/09T14:35:31|       28243.22|         95042646.24|        122710.52|
2018/05/09T14:35:32|       27900.89|         92697688.03|        121243.84|
2018/05/09T14:35:33|       27620.01|         94567349.41|        122828.91|
2018/05/09T14:35:34|       27684.83|         99065867.95|        126556.27|
2018/05/09T14:35:35|       27956.89|         96326953.28|        124235.53|
2018/05/09T14:35:36|       27513.80|         95200440.55|        122978.74|
2018/05/09T14:35:37|       27457.21|         95044450.81|        122222.94|
2018/05/09T14:35:38|       28904.36|         76215946.00|        103581.21|
2018/05/09T14:35:39|       27308.78|         76984692.13|        104415.56|
2018/05/09T14:35:40|       27596.20|         79320334.41|        104367.65|
2018/05/09T14:35:41|       28261.02|         73138412.18|        100694.01|
2018/05/09T14:35:42|       26997.41|         72470519.30|         99408.46|
2018/05/09T14:35:43|       27623.77|         70921297.49|         98081.48|
2018/05/09T14:35:44|       28201.52|         51584442.47|         79498.33|
2018/05/09T14:35:45|       27124.07|         57677125.73|         84332.18|
2018/05/09T14:35:46|       27504.25|         67564699.42|         92253.38|
2018/05/09T14:35:47|       28118.71|         65357544.47|         91317.03|
2018/05/09T14:35:48|       27478.02|         64411427.48|         90102.03|
2018/05/09T14:35:49|       27454.92|         64479896.29|         89891.75|
2018/05/09T14:35:50|       27614.02|         65393420.78|         90435.98|
2018/05/09T14:35:51|       27378.33|         64607328.54|         89577.17|
2018/05/09T14:35:52|       27797.43|         64452684.43|         89940.09|
2018/05/09T14:35:53|       28224.40|         62557477.82|         89148.54|
2018/05/09T14:35:54|       27485.99|         63011262.68|         88675.61|
2018/05/09T14:35:55|       27931.79|         62734362.01|         88927.74|
2018/05/09T14:35:56|       28087.19|         62331890.40|         89260.96|
2018/05/09T14:35:57|       27625.83|         62665042.58|         88846.26|
2018/05/09T14:35:58|       28811.33|         62827375.56|         88699.98|
2018/05/09T14:35:59|       28228.63|         57027661.53|         82975.04|
2018/05/09T14:36:00|       27627.14|         59836718.57|         84936.50|
2018/05/09T14:36:01|       28193.54|         58375875.71|         84585.72|
2018/05/09T14:36:02|       28526.99|         61005728.11|         86679.55|
2018/05/09T14:36:03|       27955.39|         59495249.25|         85123.01|
2018/05/09T14:36:04|       28033.08|         57828621.25|         83933.39|
2018/05/09T14:36:05|       28519.71|         60440514.08|         86082.66|
2018/05/09T14:36:06|       28077.23|         59911610.32|         85392.45|
2018/05/09T14:36:07|       27863.44|         58640978.84|         85697.47|
2018/05/09T14:36:08|       28683.24|         59948220.40|         86398.14|
2018/05/09T14:36:09|       27765.45|         60754437.15|         86013.22|
2018/05/09T14:36:10|       28253.43|         60939599.62|         86273.00|
2018/05/09T14:36:11|       28241.10|         61520994.64|         86807.08|
2018/05/09T14:36:12|       28002.57|         63621552.56|         89014.61|
2018/05/09T14:36:13|       28411.72|         68759771.05|         93795.95|
2018/05/09T14:36:14|       28375.90|         68873222.42|         94658.08|
2018/05/09T14:36:15|       27653.84|         69381732.29|         96345.99|
2018/05/09T14:36:16|       27975.99|         68029491.33|         92505.90|
2018/05/09T14:36:17|       28720.81|         69551788.85|         94321.75|
2018/05/09T14:36:18|       27908.18|         70937114.02|         94538.25|
2018/05/09T14:36:19|       27694.20|         68532303.93|         92643.33|
2018/05/09T14:36:20|       28319.53|         65564331.54|         90793.56|
2018/05/09T14:36:21|       27513.46|         64772299.39|         89283.13|
2018/05/09T14:36:22|       27813.09|         62817344.70|         88043.82|
2018/05/09T14:36:23|       28362.79|         54989433.23|         83037.58|
2018/05/09T14:36:24|       28081.12|         52883527.04|         81507.82|
2018/05/09T14:36:25|       27949.89|         53742160.10|         82229.74|
2018/05/09T14:36:26|       28346.89|         53687391.27|         82379.32|
2018/05/09T14:36:27|       27406.99|         52037844.88|         80109.27|
2018/05/09T14:36:28|       29376.45|         53243498.79|         82952.61|
2018/05/09T14:36:29|       28857.04|         54071967.00|         83440.81|
2018/05/09T14:36:30|       28787.13|         53486072.43|         82799.68|
2018/05/09T14:36:31|       28535.88|         54098799.73|         83229.08|
2018/05/09T14:36:32|       29358.80|         53447757.21|         83107.61|
2018/05/09T14:36:33|       29048.70|         52649445.53|         81968.55|
2018/05/09T14:36:34|       27807.44|         58401789.89|         88341.84|
2018/05/09T14:36:35|       28158.45|         62849000.14|         93347.27|
2018/05/09T14:36:36|       27623.88|         62267752.49|         91448.32|
2018/05/09T14:36:37|       28035.31|         60855176.20|         90806.24|
2018/05/09T14:36:38|       28425.11|         65323522.62|         93813.16|
2018/05/09T14:36:39|       27451.90|         62547790.17|         90369.13|
2018/05/09T14:36:40|       27849.40|         61523052.12|         90131.09|
2018/05/09T14:36:41|       28553.28|         61567298.39|         90733.47|
2018/05/09T14:36:42|       27403.37|         61197068.22|         89171.52|
2018/05/09T14:36:43|       28354.35|         63092157.31|         91708.29|
2018/05/09T14:36:44|       28731.91|         60082760.04|         89818.76|
2018/05/09T14:36:45|       27833.19|         64604147.41|         91514.57|
2018/05/09T14:36:46|       28065.27|         67082628.61|         93998.67|
2018/05/09T14:36:47|       28203.99|         67315834.76|         94348.75|
2018/05/09T14:36:48|       27471.69|         67975820.30|         94234.71|
2018/05/09T14:36:49|       28060.06|         66756414.57|         93694.30|
2018/05/09T14:36:50|       28323.05|         65942447.76|         95035.35|
2018/05/09T14:36:51|       27401.90|         66692526.76|         92980.10|
2018/05/09T14:36:52|       27730.46|         64969522.06|         92600.42|
2018/05/09T14:36:53|       28380.32|         63072959.89|         91523.63|
2018/05/09T14:36:54|       27761.80|         61899600.82|         90214.95|
2018/05/09T14:36:55|       28208.02|         62684861.27|         91258.61|
2018/05/09T14:36:56|       28451.16|         64158728.89|         93317.20|
2018/05/09T14:36:57|       27557.95|         65953515.68|         94015.25|
2018/05/09T14:36:58|       28223.66|         61597919.46|         89112.31|
2018/05/09T14:36:59|       28322.05|         50164424.86|         78096.24|
2018/05/09T14:37:00|       27467.03|         56148926.31|         81422.93|
2018/05/09T14:37:01|       28201.58|         57276883.70|         83081.32|
2018/05/09T14:37:02|       28273.01|         54149575.94|         81200.69|
2018/05/09T14:37:03|       27331.53|         48801390.65|         76698.07|
2018/05/09T14:37:04|       27704.32|         47894636.49|         76288.36|
2018/05/09T14:37:05|       28040.10|         50720292.89|         78667.01|
2018/05/09T14:37:06|       27318.50|         49274055.71|         77035.73|
2018/05/09T14:37:07|       27577.63|         51715610.81|         80192.75|
2018/05/09T14:37:08|       28368.53|         53035116.23|         82019.54|
2018/05/09T14:37:09|       27761.17|         49411897.20|         77382.06|
2018/05/09T14:37:10|       27960.13|         48371502.95|         76030.29|
2018/05/09T14:37:11|       28396.15|         46983309.57|         75464.82|
2018/05/09T14:37:12|       27242.98|         48436750.62|         75398.21|
2018/05/09T14:37:13|       27583.63|         48164113.08|         75603.82|
2018/05/09T14:37:14|       29082.31|         46787655.25|         76234.80|
2018/05/09T14:37:15|       27079.86|         49112247.17|         75933.29|
2018/05/09T14:37:16|       27999.55|         51490894.21|         79982.22|
2018/05/09T14:37:17|       28472.10|         54513319.46|         84101.39|
2018/05/09T14:37:18|       27621.48|         54545215.59|         82951.77|
2018/05/09T14:37:19|       27616.85|         54000764.40|         82734.78|
2018/05/09T14:37:20|       28182.66|         58726129.35|         86995.02|
2018/05/09T14:37:21|       27264.45|         59522591.46|         86381.39|
2018/05/09T14:37:22|       27679.13|         56750738.45|         84943.93|
2018/05/09T14:37:23|       28386.88|         56846864.92|         85536.43|
2018/05/09T14:37:24|       27434.83|         55918236.45|         84390.15|
2018/05/09T14:37:25|       27778.42|         57993189.66|         86218.47|
2018/05/09T14:37:26|       28271.90|         58293752.27|         86778.33|
2018/05/09T14:37:27|       27533.40|         55254199.11|         83747.26|
2018/05/09T14:37:28|       28026.75|         55691186.09|         84377.09|
2018/05/09T14:37:29|       28537.88|         55377556.44|         84591.66|
2018/05/09T14:37:30|       27670.72|         49089252.39|         77226.24|
2018/05/09T14:37:31|       27688.84|         49787271.06|         77730.74|
2018/05/09T14:37:32|       28124.14|         49798002.21|         78456.28|
2018/05/09T14:37:33|       27315.14|         49208980.45|         78112.81|
2018/05/09T14:37:34|       28203.72|         46914591.45|         77240.91|
2018/05/09T14:37:35|       28090.21|         48084779.85|         77765.67|
2018/05/09T14:37:36|       27362.50|         46174419.81|         76813.06|
2018/05/09T14:37:37|       27750.67|         47825612.53|         78822.47|
2018/05/09T14:37:38|       28231.05|         46842094.49|         78268.83|
2018/05/09T14:37:39|       27316.04|         46942458.97|         77411.31|
2018/05/09T14:37:40|       27901.85|         48308696.79|         78791.78|
2018/05/09T14:37:41|       28293.63|         48184158.14|         79115.94|
2018/05/09T14:37:42|       27504.18|         48486079.28|         78220.10|
2018/05/09T14:37:43|       27930.90|         48704170.42|         79209.79|
2018/05/09T14:37:44|       28834.28|         49563161.52|         80667.78|
2018/05/09T14:37:45|       27525.90|         48958756.96|         78746.93|
2018/05/09T14:37:46|       27667.86|         48284709.56|         79360.33|
2018/05/09T14:37:47|       29135.90|         66229318.90|         96588.29|
2018/05/09T14:37:48|       27549.41|         64432448.55|         94005.71|
2018/05/09T14:37:49|       27869.21|         59772893.15|         91029.60|
2018/05/09T14:37:50|       28245.10|         61225465.96|         91994.47|
2018/05/09T14:37:51|       27171.76|         61364472.64|         90908.20|
2018/05/09T14:37:52|       27794.22|         61562392.61|         91343.40|
2018/05/09T14:37:53|       28018.52|         62369918.69|         91577.64|
2018/05/09T14:37:54|       27131.20|         66611139.95|         93161.70|
2018/05/09T14:37:55|       28007.06|         60203862.72|         90848.14|
2018/05/09T14:37:56|       28239.06|         59273770.28|         90518.76|
2018/05/09T14:37:57|       27349.52|         54676013.06|         84244.15|
2018/05/09T14:37:58|       27735.38|         60281425.44|         88174.82|
2018/05/09T14:37:59|       28338.77|         58342812.55|         87422.54|
2018/05/09T14:38:00|       27550.42|         57534973.32|         85815.82|
2018/05/09T14:38:01|       28043.03|         58137507.99|         86767.08|
2018/05/09T14:38:02|       28035.91|         59315986.91|         87469.44|
2018/05/09T14:38:03|       27427.12|         61331241.27|         88344.32|
2018/05/09T14:38:04|       27925.66|         59790078.06|         87646.26|
2018/05/09T14:38:05|       28121.47|         60667449.27|         87470.61|
2018/05/09T14:38:06|       27583.98|         61525452.95|         87268.61|
2018/05/09T14:38:07|       27694.34|         60940503.99|         86771.71|
2018/05/09T14:38:08|       28160.72|         67327364.51|         92976.15|
2018/05/09T14:38:09|       27494.00|         72392137.27|         97942.57|
2018/05/09T14:38:10|       27756.66|         69382186.22|         96189.53|
2018/05/09T14:38:11|       28194.15|         64351617.97|         91604.49|
2018/05/09T14:38:12|       27439.00|         65039182.65|         91203.29|
2018/05/09T14:38:13|       27874.36|         62758243.80|         90379.71|
2018/05/09T14:38:14|       28060.54|         58469971.02|         87594.89|
2018/05/09T14:38:15|       27288.22|         58529316.40|         86838.42|
2018/05/09T14:38:16|       27912.72|         59649982.15|         88022.87|
2018/05/09T14:38:17|       28054.81|         61720912.99|         90102.18|
2018/05/09T14:38:18|       27587.10|         58195975.87|         87195.71|
2018/05/09T14:38:19|       27717.02|         60060244.93|         88874.84|
2018/05/09T14:38:20|       27943.15|         61273549.82|         90108.81|
2018/05/09T14:38:21|       28024.01|         60231292.97|         89997.81|
2018/05/09T14:38:22|       29035.35|         54410941.20|         82244.74|
2018/05/09T14:38:23|       28702.42|         47795613.06|         77068.36|
2018/05/09T14:38:24|       27667.08|         49391304.66|         77060.45|
2018/05/09T14:38:25|       27834.53|         48614988.36|         77054.31|
2018/05/09T14:38:26|       28589.05|         49029567.07|         78775.34|
2018/05/09T14:38:27|       27613.58|         49751066.88|         84694.07|
2018/05/09T14:38:28|       28031.40|         49067634.25|         84527.82|
2018/05/09T14:38:29|       28519.44|         51650222.42|         81276.32|
2018/05/09T14:38:30|       27653.58|         55716119.89|         82203.28|
2018/05/09T14:38:31|       28013.97|         62334004.20|         89703.55|
2018/05/09T14:38:32|       29237.78|         55353727.38|         88405.69|
2018/05/09T14:38:33|       27562.62|         57019150.47|         82713.71|
2018/05/09T14:38:34|       27666.73|         56883079.72|         82636.58|
2018/05/09T14:38:35|       28214.96|         64722847.19|         91026.37|
2018/05/09T14:38:36|       27364.58|         69637328.14|         92981.67|
2018/05/09T14:38:37|       28211.51|         71689028.63|         95196.63|
2018/05/09T14:38:38|       28329.97|         67782075.42|         93709.73|
2018/05/09T14:38:39|       27764.22|         67888015.46|         91802.73|
2018/05/09T14:38:40|       28339.29|         68436270.37|         92638.90|
2018/05/09T14:38:41|       28411.83|         66984875.38|         91949.34|
2018/05/09T14:38:42|       27449.20|         69072182.26|         92783.39|
2018/05/09T14:38:43|       27717.54|         74209813.82|         96551.46|
2018/05/09T14:38:44|       28297.34|         73786661.22|         99738.35|
2018/05/09T14:38:45|       28396.52|         75904848.78|        103258.45|
2018/05/09T14:38:46|       27998.16|         67055662.21|         97796.09|
2018/05/09T14:38:47|       28487.38|         67855815.91|         99319.67|
2018/05/09T14:38:48|       28954.61|         68470916.83|         98664.78|
2018/05/09T14:38:49|       27722.98|         63424189.52|         92551.00|
2018/05/09T14:38:50|       28195.37|         63386686.23|         92988.77|
2018/05/09T14:38:51|       27561.06|         62648085.61|         92194.42|
2018/05/09T14:38:52|       27720.70|         62673868.78|         92419.79|
2018/05/09T14:38:53|       28958.22|         62993479.19|         93671.04|
2018/05/09T14:38:54|       27451.48|         62477222.84|         90439.94|
2018/05/09T14:38:55|       27862.78|         88286105.04|        105312.92|
2018/05/09T14:38:56|       28305.37|        105236178.97|        117421.34|
2018/05/09T14:38:57|       27561.80|        108466604.06|        120958.64|
2018/05/09T14:38:58|       27552.08|        114164554.91|        127408.53|
2018/05/09T14:38:59|       28082.79|        111989878.93|        126396.63|
2018/05/09T14:39:00|       27068.08|        113597231.73|        126855.70|
2018/05/09T14:39:01|       27613.66|        114395153.13|        130698.23|
2018/05/09T14:39:02|       29306.73|        115043673.58|        132641.57|
2018/05/09T14:39:03|       27363.40|        116746894.44|        132373.60|
2018/05/09T14:39:04|       27564.82|        113607764.80|        129930.64|
2018/05/09T14:39:05|       28101.87|        113107284.49|        130148.55|
2018/05/09T14:39:06|       27235.50|        113728135.84|        129937.56|
2018/05/09T14:39:07|       28033.13|        116358073.38|        132512.46|
2018/05/09T14:39:08|       28860.81|        108605954.35|        128373.04|
2018/05/09T14:39:09|       27424.44|         73803889.15|        103440.69|
2018/05/09T14:39:10|       27671.34|         72669675.13|        102959.98|
2018/05/09T14:39:11|       28490.08|         57912170.26|         89500.44|
2018/05/09T14:39:12|       27305.40|         57530492.12|         87850.07|
2018/05/09T14:39:13|       28113.48|         63514315.40|         92454.69|
2018/05/09T14:39:14|       28816.51|         56822525.35|         88437.14|
2018/05/09T14:39:15|       27529.24|         59714803.15|         88338.73|
2018/05/09T14:39:16|       27738.25|         59609230.94|         88229.63|
2018/05/09T14:39:17|       28055.54|         60899084.05|         89877.60|
2018/05/09T14:39:18|       28817.19|         57101307.83|         87813.69|
2018/05/09T14:39:19|       27822.21|         59060121.35|         87975.14|
2018/05/09T14:39:20|       28372.10|         59557562.82|         88713.94|
2018/05/09T14:39:21|       28042.56|         60863327.71|         89300.65|
2018/05/09T14:39:22|       27761.58|         58352733.16|         87029.65|
2018/05/09T14:39:23|       29278.39|         62235371.89|         92622.74|
2018/05/09T14:39:24|       27909.12|         62529801.48|         91926.00|
2018/05/09T14:39:25|       28053.91|         64307496.15|         93325.33|
2018/05/09T14:39:26|       28255.09|         62752873.04|         91992.62|
2018/05/09T14:39:27|       27349.79|         62492316.92|         90822.22|
2018/05/09T14:39:28|       27998.03|         64884172.48|         92913.53|
2018/05/09T14:39:29|       28481.11|         60290540.07|         90277.46|
2018/05/09T14:39:30|       27574.54|         58148143.12|         87609.19|
2018/05/09T14:39:31|       27802.56|         56570032.64|         86632.08|
2018/05/09T14:39:32|       28448.87|         57047564.72|         87734.62|
2018/05/09T14:39:33|       28094.80|         55990776.23|         86418.15|
2018/05/09T14:39:34|       27965.02|         55526996.29|         85976.33|
2018/05/09T14:39:35|       28467.12|         53636794.07|         85655.78|
2018/05/09T14:39:36|       27923.58|         52355706.96|         83324.38|
2018/05/09T14:39:37|       27878.71|         48709844.08|         79866.59|
2018/05/09T14:39:38|       28058.90|         50387202.70|         81867.44|
2018/05/09T14:39:39|       27439.40|         52424436.62|         82133.41|
2018/05/09T14:39:40|       27727.59|         50535665.53|         83046.45|
2018/05/09T14:39:41|       28166.78|         51414193.16|         84714.40|
2018/05/09T14:39:42|       27259.78|         56950060.32|         85100.37|
2018/05/09T14:39:43|       28122.09|         60551972.95|         89528.20|
2018/05/09T14:39:44|       28484.40|         60451782.56|         90043.87|
2018/05/09T14:39:45|       27285.77|         60289845.43|         88994.33|
2018/05/09T14:39:46|       27859.91|         61546347.13|         90305.62|
2018/05/09T14:39:47|       28382.51|         65903227.29|         94001.80|
2018/05/09T14:39:48|       27136.39|         70830620.21|         96374.40|
2018/05/09T14:39:49|       27603.03|         64250227.13|         92084.23|
2018/05/09T14:39:50|       28498.80|         67290402.46|         95271.99|
2018/05/09T14:39:51|       27478.52|         66099719.01|         92028.80|
2018/05/09T14:39:52|       27973.66|         64867651.29|         93254.29|
2018/05/09T14:39:53|       28939.48|         65835288.81|         96705.33|
2018/05/09T14:39:54|       27504.41|         62242728.54|         93869.84|
2018/05/09T14:39:55|       27690.00|         63434710.51|         94858.45|
2018/05/09T14:39:56|       28115.00|         73154182.58|        104132.13|
2018/05/09T14:39:57|       27152.33|         79203898.42|        109179.85|
2018/05/09T14:39:58|       27659.35|         77239025.32|        107964.76|
2018/05/09T14:39:59|       28149.30|         75831356.02|        103754.14|
2018/05/09T14:40:00|       27387.80|         77149802.70|        104450.13|
2018/05/09T14:40:01|       27826.83|         72683357.45|        101686.54|
2018/05/09T14:40:02|       28317.18|         71252082.84|        101159.85|
2018/05/09T14:40:03|       27406.85|         71323464.21|        100427.80|
2018/05/09T14:40:04|       27938.36|         69855860.25|         99739.74|
2018/05/09T14:40:05|       28168.87|         71318878.88|        100924.46|
2018/05/09T14:40:06|       27386.79|         70085106.65|         99238.16|
2018/05/09T14:40:07|       27619.84|         70706371.42|        100088.12|
2018/05/09T14:40:08|       28261.49|         72122398.15|        101595.19|
2018/05/09T14:40:09|       27835.12|         68546683.77|         97944.10|
2018/05/09T14:40:10|       27880.40|         52356025.21|         81916.28|
2018/05/09T14:40:11|       29042.90|         52433206.81|         82558.38|
2018/05/09T14:40:12|       27366.86|         51680865.39|         80493.06|
2018/05/09T14:40:13|       28251.53|         51292402.14|         80824.77|
2018/05/09T14:40:14|       28115.49|         50967199.20|         80041.42|
2018/05/09T14:40:15|       27940.10|         52683339.19|         82474.10|
2018/05/09T14:40:16|       27962.33|         49976239.27|         79316.92|
2018/05/09T14:40:17|       28598.32|         50565261.76|         80385.69|
2018/05/09T14:40:18|       27664.82|         50788208.91|         79833.27|
2018/05/09T14:40:19|       27784.60|         51154066.10|         80908.56|
2018/05/09T14:40:20|       28461.53|         55015018.55|         85165.80|
2018/05/09T14:40:21|       27819.93|         56892683.18|         86461.49|
2018/05/09T14:40:22|       27782.52|         56146511.70|         85802.40|
2018/05/09T14:40:23|       28090.49|         57214409.46|         86922.14|
2018/05/09T14:40:24|       27325.56|         56725348.89|         85751.53|
2018/05/09T14:40:25|       27720.99|         57019383.19|         86128.85|
2018/05/09T14:40:26|       28260.39|         54344051.00|         84255.80|
2018/05/09T14:40:27|       27172.94|         55604280.00|         84742.94|
2018/05/09T14:40:28|       27620.18|         57132680.88|         85425.11|
2018/05/09T14:40:29|       28316.30|         54863060.61|         86404.34|
2018/05/09T14:40:30|       27310.49|         54962975.85|         85233.41|
2018/05/09T14:40:31|       27845.76|         57473974.76|         87434.22|
2018/05/09T14:40:32|       28109.96|         59931997.18|         89310.00|
2018/05/09T14:40:33|       27859.71|         61553915.87|         89854.14|
2018/05/09T14:40:34|       27637.37|         54080999.17|         83196.96|
2018/05/09T14:40:35|       27802.63|         59768188.50|         87931.84|
2018/05/09T14:40:36|       27020.99|         61117722.29|         88546.09|
2018/05/09T14:40:37|       27560.65|         61632445.68|         89578.98|
2018/05/09T14:40:38|       27797.36|         64360954.37|         92080.57|
2018/05/09T14:40:39|       27019.66|         64231763.64|         91019.17|
2018/05/09T14:40:40|       27859.04|         62503354.02|         90454.14|
2018/05/09T14:40:41|       28131.10|         61850638.65|         90243.61|
2018/05/09T14:40:42|       26934.04|         62694746.38|         90124.41|
2018/05/09T14:40:43|       28031.73|         62988152.61|         90788.72|
2018/05/09T14:40:44|       28731.93|         58517198.59|         88103.72|
2018/05/09T14:40:45|       27095.84|         58673228.05|         86659.53|
2018/05/09T14:40:46|       27788.51|         56571645.42|         85600.46|
2018/05/09T14:40:47|       27823.43|         58001137.04|         86581.78|
2018/05/09T14:40:48|       27358.10|         58720640.96|         86208.50|
2018/05/09T14:40:49|       27819.81|         56635944.00|         85077.11|
2018/05/09T14:40:50|       28070.61|         57281870.12|         86114.05|
2018/05/09T14:40:51|       26887.99|         57503928.19|         84624.66|
2018/05/09T14:40:52|       27437.66|         56309594.94|         84348.38|
2018/05/09T14:40:53|       27872.68|         55471635.53|         84108.03|
2018/05/09T14:40:54|       26815.91|         57765321.69|         84802.02|
2018/05/09T14:40:55|       27351.06|         58864138.42|         85761.20|
2018/05/09T14:40:56|       28226.17|         58214011.47|         86088.63|
2018/05/09T14:40:57|       27221.71|         60415793.07|         86850.07|
2018/05/09T14:40:58|       27695.22|         62190356.21|         88630.99|
2018/05/09T14:40:59|       27796.05|         60160590.36|         87326.04|
2018/05/09T14:41:00|       53021.29|         63689298.57|        113147.23|
2018/05/09T14:41:01|       67480.50|         65356914.91|        128051.38|
2018/05/09T14:41:02|       27786.52|         60202436.00|         89926.39|
2018/05/09T14:41:03|       27221.86|         49148244.64|         80189.31|
2018/05/09T14:41:04|       27333.77|         50452495.05|         77368.93|
2018/05/09T14:41:05|       27922.23|         51363981.56|         78682.47|
2018/05/09T14:41:06|       28782.44|         50651156.97|         79683.03|
2018/05/09T14:41:07|       28150.50|         51085825.08|         79334.92|
2018/05/09T14:41:08|       28618.84|         51628491.67|         79778.71|
2018/05/09T14:41:09|       27930.55|         52507047.92|         79539.82|
2018/05/09T14:41:10|       27721.49|         50610847.73|         78273.50|
2018/05/09T14:41:11|       28016.93|         48873077.07|         80910.67|
2018/05/09T14:41:12|       27409.51|         49622178.99|         81761.35|
2018/05/09T14:41:13|       27532.68|         53645886.57|         84563.77|
2018/05/09T14:41:14|       27913.92|         56974517.83|         86973.22|
2018/05/09T14:41:15|       27235.69|         57623457.44|         85888.19|
2018/05/09T14:41:16|       27555.80|         49778919.82|         81134.49|
2018/05/09T14:41:17|       27885.73|         49554407.22|         81552.34|
2018/05/09T14:41:18|       27486.45|         48618203.23|         79972.64|
2018/05/09T14:41:19|       27358.57|         48413961.50|         79716.92|
2018/05/09T14:41:20|       27913.68|         49938195.11|         81408.96|
2018/05/09T14:41:21|       27192.08|         51293897.92|         81368.79|
2018/05/09T14:41:22|       27528.10|         58948494.52|         86807.65|
2018/05/09T14:41:23|       28054.26|         57871187.14|         86786.09|
2018/05/09T14:41:24|       27243.58|         59387434.79|         88787.80|
2018/05/09T14:41:25|       27456.46|         67295979.93|         94537.25|
2018/05/09T14:41:26|       27837.22|         67001033.52|         95137.58|
2018/05/09T14:41:27|       27585.37|         64598680.49|         92774.00|
2018/05/09T14:41:28|       27464.50|         65530184.68|         93961.00|
2018/05/09T14:41:29|       27995.20|         62304633.79|         92339.22|
2018/05/09T14:41:30|       27200.21|         63685979.41|         92006.76|
2018/05/09T14:41:31|       27626.49|         63755684.11|         92740.03|
2018/05/09T14:41:32|       28146.51|         68697461.49|         98221.36|
2018/05/09T14:41:33|       27027.00|         70765953.32|         98969.36|
2018/05/09T14:41:34|       27382.17|         70036951.75|         99023.59|
2018/05/09T14:41:35|       27909.03|         70992935.54|        100237.55|
2018/05/09T14:41:36|       27171.74|         61871283.90|         92306.16|
2018/05/09T14:41:37|       27619.24|         58399628.67|         88908.52|
2018/05/09T14:41:38|       27828.89|         57717971.50|         88327.26|
2018/05/09T14:41:39|       27143.28|         59405203.21|         94592.04|
2018/05/09T14:41:40|       27400.96|         60372962.57|         90316.41|
2018/05/09T14:41:41|       28290.62|         58895917.84|         90270.08|
2018/05/09T14:41:42|       27273.68|         59591780.08|         90324.86|
2018/05/09T14:41:43|       28003.16|         62763222.12|         93335.22|
2018/05/09T14:41:44|       28086.32|         78317128.81|        107662.12|
2018/05/09T14:41:45|       28197.10|         82459342.03|        108675.53|
2018/05/09T14:41:46|       40580.55|         78427988.90|        116528.69|
2018/05/09T14:41:47|       37720.64|         77876638.89|        113175.16|
2018/05/09T14:41:48|       34766.31|         78385633.79|        111440.13|
2018/05/09T14:41:49|       35982.41|         81848150.18|        116660.49|
2018/05/09T14:41:50|       31223.76|         94626608.92|        126299.87|
2018/05/09T14:41:51|       27147.73|         91992482.15|        121606.71|
2018/05/09T14:41:52|       27616.90|         92571068.81|        124577.75|
2018/05/09T14:41:53|       28017.77|         93338845.34|        121683.26|
2018/05/09T14:41:54|       27190.31|         92650168.94|        121668.91|
2018/05/09T14:41:55|       27829.88|         93503594.85|        122789.17|
2018/05/09T14:41:56|       27811.64|         92137845.49|        121634.58|
2018/05/09T14:41:57|       27518.38|         84098391.45|        112594.00|
2018/05/09T14:41:58|       27384.57|         79454973.77|        105830.54|
2018/05/09T14:41:59|       27919.92|         78184587.62|        105942.82|
2018/05/09T14:42:00|       27351.16|         80741622.01|        107043.00|
2018/05/09T14:42:01|       27412.39|         84489890.66|        109702.90|
2018/05/09T14:42:02|       29368.22|         85848672.03|        113474.70|
2018/05/09T14:42:03|       27783.35|         77907913.69|        103468.76|
2018/05/09T14:42:04|       27433.06|         79622018.60|        103574.48|
2018/05/09T14:42:05|       28132.25|         75295666.88|        101429.33|
2018/05/09T14:42:06|       27352.97|         72846596.32|         99416.06|
2018/05/09T14:42:07|       26983.72|         73017152.48|         99638.52|
2018/05/09T14:42:08|       27677.84|         72397624.19|        101042.77|
2018/05/09T14:42:09|       26703.47|         72895563.75|        101464.25|
2018/05/09T14:42:10|       26886.07|         72619827.32|        101439.75|
2018/05/09T14:42:11|       27440.97|         70029742.73|         99957.78|
2018/05/09T14:42:12|       26718.01|         69621578.89|         98400.56|
2018/05/09T14:42:13|       26587.95|         69182535.36|         97326.75|
2018/05/09T14:42:14|       27413.60|         67053382.78|         96290.54|
2018/05/09T14:42:15|       27094.60|         64197680.30|         93798.73|
2018/05/09T14:42:16|       27712.93|         64113304.01|         93418.81|
2018/05/09T14:42:17|       27525.73|         64269253.46|         93322.05|
2018/05/09T14:42:18|       26646.71|         64315454.51|         92154.07|
2018/05/09T14:42:19|       27415.34|         65329330.37|         93722.70|
2018/05/09T14:42:20|       27610.70|         67266606.52|         95499.99|
2018/05/09T14:42:21|       27480.84|         66854515.24|         94411.85|
2018/05/09T14:42:22|       26858.51|         56336053.36|         83978.44|
2018/05/09T14:42:23|       27625.72|         58391033.89|         86044.23|
2018/05/09T14:42:24|       26872.25|         58354430.31|         85615.68|
2018/05/09T14:42:25|       27038.65|         58293188.80|         85558.42|
2018/05/09T14:42:26|       27776.98|         56536023.77|         85111.58|
2018/05/09T14:42:27|       26856.59|         56230086.08|         83416.57|
2018/05/09T14:42:28|       26917.63|         61481903.63|         88517.77|
2018/05/09T14:42:29|       27602.25|         62867931.66|         90918.58|
2018/05/09T14:42:30|       26758.32|         66282462.26|         93279.23|
2018/05/09T14:42:31|       27355.64|         65498440.63|         93370.75|
2018/05/09T14:42:32|       27302.44|         64360254.55|         93657.02|
2018/05/09T14:42:33|       27352.91|         64480629.75|         94067.46|
2018/05/09T14:42:34|       27150.36|         61694750.72|         91696.52|
2018/05/09T14:42:35|       28260.82|         64770169.07|         94872.15|
2018/05/09T14:42:36|       26273.42|         59080665.25|         87894.93|
2018/05/09T14:42:37|       27041.41|         59544041.11|         87626.50|
2018/05/09T14:42:38|       27543.30|         59762912.92|         86913.46|
2018/05/09T14:42:39|       27059.70|         59180033.23|         86156.51|
2018/05/09T14:42:40|       26931.60|         59924683.70|         86354.41|
2018/05/09T14:42:41|       28554.28|         66233441.89|         91212.72|
2018/05/09T14:42:42|       27920.74|         74287245.26|         92998.04|
2018/05/09T14:42:43|       27417.65|         72341834.37|         91073.22|
2018/05/09T14:42:44|       28415.11|         71436166.91|         91246.81|
2018/05/09T14:42:45|       26802.48|         72311263.42|         90410.89|
2018/05/09T14:42:46|       26992.81|         73851146.11|         92485.26|
2018/05/09T14:42:47|       27296.85|         74599131.97|         93233.18|
2018/05/09T14:42:48|       26757.06|         75075351.17|         92460.50|
2018/05/09T14:42:49|       26981.66|         73418574.58|         91695.93|
2018/05/09T14:42:50|       27494.05|         73881807.12|         92506.87|
2018/05/09T14:42:51|       26693.14|         81675516.87|         97198.60|
2018/05/09T14:42:52|       27091.36|         87689300.88|        102453.26|
2018/05/09T14:42:53|       27562.35|         94475808.69|        108035.62|
2018/05/09T14:42:54|       27319.65|         92023256.43|        106813.29|
2018/05/09T14:42:55|       27448.28|         90444242.15|        105275.98|
2018/05/09T14:42:56|       27277.44|         89120220.01|        104083.38|
2018/05/09T14:42:57|       26805.54|         91859043.50|        105182.91|
2018/05/09T14:42:58|       26955.27|         92384787.70|        105836.75|
2018/05/09T14:42:59|       27403.34|         91447265.15|        105925.46|
2018/05/09T14:43:00|       27452.30|         91703228.38|        108146.69|
2018/05/09T14:43:01|       27331.87|         85414534.87|        103919.71|
2018/05/09T14:43:02|       27498.09|         81396516.55|        101169.50|
2018/05/09T14:43:03|       28073.16|         80131393.76|         99558.87|
2018/05/09T14:43:04|       26701.40|         83178281.59|        100616.85|
2018/05/09T14:43:05|       27710.61|         82771945.12|        107309.84|
2018/05/09T14:43:06|       26777.79|         77922665.96|         98165.31|
2018/05/09T14:43:07|       27084.18|         78185435.22|         98839.08|
2018/05/09T14:43:08|       27270.48|         77877509.24|         96672.93|
2018/05/09T14:43:09|       26991.59|         76707494.17|         92893.84|
2018/05/09T14:43:10|       27146.65|         76997145.81|         93396.21|
2018/05/09T14:43:11|       27541.10|         87064466.53|        101317.12|
2018/05/09T14:43:12|       27065.58|         89729460.55|        102952.99|
2018/05/09T14:43:13|       27162.59|         90563916.16|        103422.93|
2018/05/09T14:43:14|       27423.84|         88879271.34|        103017.45|
2018/05/09T14:43:15|       27110.76|         87644036.92|        105034.31|
2018/05/09T14:43:16|       27094.93|         83775559.07|         99477.10|
2018/05/09T14:43:17|       27167.50|         85740379.22|        100633.57|
2018/05/09T14:43:18|       27290.46|         85511667.18|        101098.94|
2018/05/09T14:43:19|       26923.22|         82558904.47|         99144.06|
2018/05/09T14:43:20|       27553.21|         82721176.96|        100366.65|
2018/05/09T14:43:21|       26873.33|         84061106.48|        100792.69|
2018/05/09T14:43:22|       27095.50|         80623898.69|         98321.71|
2018/05/09T14:43:23|       27584.98|         64471313.24|         88198.95|
2018/05/09T14:43:24|       26621.56|         61752493.32|         85167.50|
2018/05/09T14:43:25|       27163.05|         71859209.85|         94287.59|
2018/05/09T14:43:26|       27331.49|         71905749.63|         94583.14|
2018/05/09T14:43:27|       26702.37|         70898245.12|         93554.76|
2018/05/09T14:43:28|       27291.79|         69069686.20|         92034.96|
2018/05/09T14:43:29|       27123.51|         64452180.16|         87946.58|
2018/05/09T14:43:30|       27136.05|         73101806.39|         96976.83|
2018/05/09T14:43:31|       27006.43|         73142559.99|         96711.23|
2018/05/09T14:43:32|       27321.11|         80965481.78|        102357.57|
2018/05/09T14:43:33|       27158.82|         73637308.53|         97492.45|
2018/05/09T14:43:34|       26633.40|         72747780.77|         96204.38|
2018/05/09T14:43:35|       27548.13|         73816997.74|         97811.30|
2018/05/09T14:43:36|       26974.86|         72987776.00|         96909.95|
2018/05/09T14:43:37|       27142.37|         71914813.34|         96127.18|
2018/05/09T14:43:38|       27887.38|         67084564.08|         91901.85|
2018/05/09T14:43:39|       26906.48|         63204609.49|         87648.11|
2018/05/09T14:43:40|       26691.29|         63627697.82|         88178.51|
2018/05/09T14:43:41|       27538.76|         64030508.20|         89171.35|
2018/05/09T14:43:42|       27025.14|         68260719.29|         91650.61|
2018/05/09T14:43:43|       28685.10|         60912226.56|         86235.21|
2018/05/09T14:43:44|       27755.17|         50457345.70|         76708.86|
2018/05/09T14:43:45|       27013.04|         49987445.62|         75630.93|
2018/05/09T14:43:46|       27191.19|         52444700.85|         77610.73|
2018/05/09T14:43:47|       27403.19|         51777925.70|         77443.02|
2018/05/09T14:43:48|       26933.78|         52179208.65|         77139.36|
2018/05/09T14:43:49|       27590.27|         52659160.19|         78032.36|
2018/05/09T14:43:50|       27580.32|         51671728.38|         77425.58|
2018/05/09T14:43:51|       27691.81|         53178437.94|         78376.25|
2018/05/09T14:43:52|       26962.31|         52966760.23|         77592.49|
2018/05/09T14:43:53|       27286.36|         53936281.17|         78820.72|
2018/05/09T14:43:54|       27277.64|         53477763.41|         78492.46|
2018/05/09T14:43:55|       26982.86|         53743156.62|         78390.12|
2018/05/09T14:43:56|       29038.03|         54031245.61|         80702.58|
2018/05/09T14:43:57|       26944.31|         51184379.34|         76547.21|
2018/05/09T14:43:58|       26979.58|         51474099.96|         76491.01|
2018/05/09T14:43:59|       27414.70|         52644327.13|         77761.90|
2018/05/09T14:44:00|       27005.22|         52639065.18|         77932.22|
2018/05/09T14:44:01|       26805.38|         52862510.57|         77932.80|
2018/05/09T14:44:02|       27119.67|         58964393.78|         83581.41|
2018/05/09T14:44:03|       26960.54|         62912526.62|         88020.45|
2018/05/09T14:44:04|       26889.61|         64058241.88|         89148.45|
2018/05/09T14:44:05|       27189.36|         63605122.72|         89265.72|
2018/05/09T14:44:06|       27056.25|         65822187.25|         90608.00|
2018/05/09T14:44:07|       26824.47|         65331995.36|         89471.96|
2018/05/09T14:44:08|       27320.40|         67628450.44|         91608.31|
2018/05/09T14:44:09|       27031.51|         67845033.57|         91700.38|
2018/05/09T14:44:10|       26444.44|         66038597.53|         90413.88|
2018/05/09T14:44:11|       27287.55|         67477560.36|         93747.68|
2018/05/09T14:44:12|       26696.87|         67465294.89|         93973.17|
2018/05/09T14:44:13|       26935.23|         68756425.22|         94276.20|
2018/05/09T14:44:14|       27334.07|         71187437.75|         95162.09|
2018/05/09T14:44:15|       26943.33|         70493971.89|         94699.34|
2018/05/09T14:44:16|       28754.53|         62957084.18|         88752.34|
2018/05/09T14:44:17|       27229.08|         60834357.83|         86079.46|
2018/05/09T14:44:18|       26739.72|         60232408.04|         84636.70|
2018/05/09T14:44:19|       26822.70|         60471104.90|         84132.09|
2018/05/09T14:44:20|       27388.16|         63200864.62|         86632.58|
2018/05/09T14:44:21|       26836.61|         58377197.29|         82921.25|
2018/05/09T14:44:22|       27056.45|         58194739.42|         82716.43|
2018/05/09T14:44:23|       27109.85|         69791937.40|         91429.31|
2018/05/09T14:44:24|       26815.84|         69565151.97|         91245.96|
2018/05/09T14:44:25|       26947.47|         68788538.24|         89397.39|
2018/05/09T14:44:26|       27306.81|         65142350.49|         86314.01|
2018/05/09T14:44:27|       26660.95|         69257328.18|         88570.00|
2018/05/09T14:44:28|       27005.31|         74739908.83|         92382.97|
2018/05/09T14:44:29|       27915.11|         75967528.55|         93954.87|
2018/05/09T14:44:30|       26669.53|         70101009.00|         88631.05|
2018/05/09T14:44:31|       26678.56|         66851024.86|         86038.67|
2018/05/09T14:44:32|       27610.91|         65594484.35|         86363.59|
2018/05/09T14:44:33|       26679.68|         65896926.60|         85817.62|
2018/05/09T14:44:34|       26595.71|         64215166.20|         84594.21|
2018/05/09T14:44:35|       27244.16|         64433721.03|         85337.99|
2018/05/09T14:44:36|       26825.10|         66577227.00|         86438.21|
2018/05/09T14:44:37|       26830.91|         65938129.17|         86137.18|
2018/05/09T14:44:38|       27538.30|         66465874.03|         86978.83|
2018/05/09T14:44:39|       26702.38|         66331957.77|         86196.70|
2018/05/09T14:44:40|       27019.83|         72042985.80|         90733.00|
2018/05/09T14:44:41|       27337.28|         71286502.54|         90416.07|
2018/05/09T14:44:42|       26683.54|         67352483.89|         86916.49|
2018/05/09T14:44:43|       26796.48|         67505592.92|         87079.91|
2018/05/09T14:44:44|       27413.13|         65360111.06|         86135.67|
2018/05/09T14:44:45|       26838.07|         64515047.51|         84936.67|
2018/05/09T14:44:46|       27824.06|         67456803.65|         87746.75|
2018/05/09T14:44:47|       26851.55|         65951715.86|         85874.65|
2018/05/09T14:44:48|       27068.15|         69787125.49|         88730.32|
2018/05/09T14:44:49|       27025.70|         73191025.15|         90897.28|
2018/05/09T14:44:50|       27587.51|         74019917.83|         92276.08|
2018/05/09T14:44:51|       27319.67|         70740040.90|         89786.04|
2018/05/09T14:44:52|       27627.46|         68637214.67|         88698.11|
2018/05/09T14:44:53|       27370.07|         69722690.39|         88931.90|
2018/05/09T14:44:54|       26817.84|         65047156.36|         85389.55|
2018/05/09T14:44:55|       26963.53|         61918446.72|         83292.41|
2018/05/09T14:44:56|       28162.71|         63281616.22|         84848.85|
2018/05/09T14:44:57|       27074.97|         63500995.81|         87486.11|
2018/05/09T14:44:58|       27012.82|         58640706.74|         86535.87|
2018/05/09T14:44:59|       27508.11|         45751025.26|         77598.58|
2018/05/09T14:45:00|         584.18|           343194.32|           913.89|
