               Date|        Records|               Bytes|          Packets|
2018/05/10T02:45:00|       28474.76|         49134452.40|         72759.01|
2018/05/10T02:45:01|       29408.69|         65448543.93|         87299.63|
2018/05/10T02:45:02|       30744.35|         70749197.97|         92835.91|
2018/05/10T02:45:03|       29937.36|         77934329.59|         97818.07|
2018/05/10T02:45:04|       29338.36|         87444297.95|        103414.91|
2018/05/10T02:45:05|       29775.56|         78673904.21|         97828.42|
2018/05/10T02:45:06|       29727.86|         79428919.58|         98742.51|
2018/05/10T02:45:07|       29577.56|         78916826.20|         97716.17|
2018/05/10T02:45:08|       29652.20|         86411347.34|        103955.40|
2018/05/10T02:45:09|       29799.96|         95976410.51|        110986.84|
2018/05/10T02:45:10|       29747.83|         88570012.58|        105786.58|
2018/05/10T02:45:11|       30478.65|        102969876.20|        117549.78|
2018/05/10T02:45:12|       29892.59|        106956771.97|        117941.30|
2018/05/10T02:45:13|       29720.89|        112919712.80|        121406.54|
2018/05/10T02:45:14|       30330.10|        122575104.29|        129388.23|
2018/05/10T02:45:15|       30025.54|        116459200.96|        125399.20|
2018/05/10T02:45:16|       29515.41|        116598488.98|        124825.51|
2018/05/10T02:45:17|       30057.71|        122658640.73|        129562.11|
2018/05/10T02:45:18|       29828.58|        135485941.40|        137924.43|
2018/05/10T02:45:19|       29870.92|        124447530.91|        130592.98|
2018/05/10T02:45:20|       29577.12|        111460652.41|        121600.89|
2018/05/10T02:45:21|       29731.95|        107818955.31|        119412.96|
2018/05/10T02:45:22|       28927.88|         96237818.91|        110637.69|
2018/05/10T02:45:23|       29598.58|         93141277.55|        109097.79|
2018/05/10T02:45:24|       29489.62|        107581238.68|        118550.08|
2018/05/10T02:45:25|       29707.52|        113043805.71|        122636.99|
2018/05/10T02:45:26|       29869.24|        106355063.74|        118179.53|
2018/05/10T02:45:27|       28951.86|        108405417.18|        118909.30|
2018/05/10T02:45:28|       29175.61|        111920679.37|        121825.40|
2018/05/10T02:45:29|       29886.31|        109850987.86|        121234.72|
2018/05/10T02:45:30|       29972.96|        102471844.65|        116569.35|
2018/05/10T02:45:31|       29289.89|        102187788.44|        115387.85|
2018/05/10T02:45:32|       29986.97|        102912151.84|        116147.12|
2018/05/10T02:45:33|       29975.89|         95816013.82|        111022.07|
2018/05/10T02:45:34|       28801.48|         92528045.90|        107691.24|
2018/05/10T02:45:35|       29741.91|         98083735.12|        112845.60|
2018/05/10T02:45:36|       29617.91|         95516932.01|        111205.48|
2018/05/10T02:45:37|       29195.83|         98381340.06|        112820.21|
2018/05/10T02:45:38|       30215.28|         96951960.72|        112436.56|
2018/05/10T02:45:39|       28507.68|         97616044.66|        111624.45|
2018/05/10T02:45:40|       27944.94|         97123443.52|        110789.78|
2018/05/10T02:45:41|       28568.00|        105634814.40|        117788.68|
2018/05/10T02:45:42|       27883.42|         99353221.34|        113045.76|
2018/05/10T02:45:43|       27571.01|        104437538.09|        115889.10|
2018/05/10T02:45:44|       28455.76|        106554057.67|        118403.24|
2018/05/10T02:45:45|       28569.40|        107506110.93|        119110.60|
2018/05/10T02:45:46|       27878.92|        106202464.97|        117334.62|
2018/05/10T02:45:47|       28771.83|        108854696.64|        119659.61|
2018/05/10T02:45:48|       28094.40|        102839132.03|        115377.17|
2018/05/10T02:45:49|       27883.66|        105254545.93|        117599.50|
2018/05/10T02:45:50|       28342.23|        105492500.94|        117869.75|
2018/05/10T02:45:51|       27938.55|        115907139.23|        125000.37|
2018/05/10T02:45:52|       27593.28|        109234327.91|        120032.20|
2018/05/10T02:45:53|       28383.83|        107508289.44|        120079.41|
2018/05/10T02:45:54|       27874.04|        107228054.58|        119363.49|
2018/05/10T02:45:55|       27430.34|        111858250.73|        122033.04|
2018/05/10T02:45:56|       27957.23|        113626475.87|        123617.55|
2018/05/10T02:45:57|       27544.51|        112350835.59|        122864.47|
2018/05/10T02:45:58|       26940.57|        107166318.65|        118255.50|
2018/05/10T02:45:59|       28040.17|        107287929.85|        119639.63|
2018/05/10T02:46:00|       27966.97|        108180864.96|        120362.63|
2018/05/10T02:46:01|       27404.93|        107605641.08|        119709.71|
2018/05/10T02:46:02|       28185.29|        110557949.05|        122200.97|
2018/05/10T02:46:03|       27779.21|        115301393.23|        123991.87|
2018/05/10T02:46:04|       27327.67|        123860495.94|        128108.52|
2018/05/10T02:46:05|       29535.23|        129829533.61|        135276.52|
2018/05/10T02:46:06|       27916.16|        132636953.87|        135607.56|
2018/05/10T02:46:07|       27506.59|        134211305.29|        136172.14|
2018/05/10T02:46:08|       27889.62|        133182153.16|        135732.27|
2018/05/10T02:46:09|       27828.61|        122640309.79|        128201.84|
2018/05/10T02:46:10|       27351.18|        122370173.23|        127568.05|
2018/05/10T02:46:11|       27938.79|        123264293.25|        128558.48|
2018/05/10T02:46:12|       27977.16|        123289373.12|        128884.20|
2018/05/10T02:46:13|       27523.20|        129770869.89|        133139.82|
2018/05/10T02:46:14|       27829.77|        122861824.96|        130426.91|
2018/05/10T02:46:15|       27900.44|        113495258.90|        124985.44|
2018/05/10T02:46:16|       27388.97|        112329815.99|        123239.98|
2018/05/10T02:46:17|       27853.51|        104526816.23|        117764.70|
2018/05/10T02:46:18|       27461.25|        103934179.98|        116605.73|
2018/05/10T02:46:19|       27149.00|        109196939.96|        119706.72|
2018/05/10T02:46:20|       28106.65|        108713911.17|        120729.16|
2018/05/10T02:46:21|       28037.35|        107226992.48|        119202.31|
2018/05/10T02:46:22|       27470.26|        109292557.51|        121326.89|
2018/05/10T02:46:23|       27999.98|        118661565.30|        129849.78|
2018/05/10T02:46:24|       27721.27|        117159482.94|        128487.05|
2018/05/10T02:46:25|       28576.49|        130858420.18|        139201.10|
2018/05/10T02:46:26|       27830.58|        130920507.30|        138128.25|
2018/05/10T02:46:27|       27967.00|        129839661.61|        137992.97|
2018/05/10T02:46:28|       27428.61|        124547989.58|        134574.27|
2018/05/10T02:46:29|       28107.70|        129264068.05|        139159.35|
2018/05/10T02:46:30|       27903.78|        122853559.10|        134797.20|
2018/05/10T02:46:31|       28525.65|        119160703.74|        133238.03|
2018/05/10T02:46:32|       28364.12|        112461881.32|        128938.79|
2018/05/10T02:46:33|       27873.17|        111038722.25|        123869.92|
2018/05/10T02:46:34|       27557.99|        113294866.05|        125297.46|
2018/05/10T02:46:35|       28298.97|        115114571.87|        126877.65|
2018/05/10T02:46:36|       27562.21|        116924112.16|        127262.19|
2018/05/10T02:46:37|       27638.96|        113633525.72|        125340.66|
2018/05/10T02:46:38|       27809.96|        120043524.46|        129536.12|
2018/05/10T02:46:39|       27619.68|        127031826.63|        134361.77|
2018/05/10T02:46:40|       27375.33|        122774505.93|        131455.77|
2018/05/10T02:46:41|       27986.59|        122986813.22|        132512.07|
2018/05/10T02:46:42|       27755.82|        127023140.02|        135416.22|
2018/05/10T02:46:43|       27593.50|        135187001.05|        141791.88|
2018/05/10T02:46:44|       28016.12|        135903769.52|        141986.85|
2018/05/10T02:46:45|       27962.26|        136930502.08|        141285.52|
2018/05/10T02:46:46|       27270.91|        142319502.17|        143673.75|
2018/05/10T02:46:47|       28054.17|        137131603.35|        140797.29|
2018/05/10T02:46:48|       28055.36|        134981011.27|        139476.55|
2018/05/10T02:46:49|       27363.56|        138087166.23|        141169.85|
2018/05/10T02:46:50|       27842.29|        138364119.09|        141389.49|
2018/05/10T02:46:51|       28141.06|        135268114.69|        139289.02|
2018/05/10T02:46:52|       27199.83|        130595667.30|        135234.19|
2018/05/10T02:46:53|       28172.27|        133817939.98|        138600.22|
2018/05/10T02:46:54|       27562.02|        131330044.20|        135375.19|
2018/05/10T02:46:55|       27696.24|        130487272.36|        135971.90|
2018/05/10T02:46:56|       27734.43|        131537641.89|        136679.52|
2018/05/10T02:46:57|       27739.27|        132037785.83|        137023.76|
2018/05/10T02:46:58|       27276.39|        128701721.44|        133939.28|
2018/05/10T02:46:59|       28212.06|        126566441.87|        132972.90|
2018/05/10T02:47:00|       28127.94|        123180626.37|        130201.53|
2018/05/10T02:47:01|       27467.76|        124109834.72|        129789.99|
2018/05/10T02:47:02|       28086.43|        122849375.34|        129846.33|
2018/05/10T02:47:03|       28574.36|        126466500.91|        132825.25|
2018/05/10T02:47:04|       27759.46|        123120273.83|        130158.62|
2018/05/10T02:47:05|       28297.85|        123364941.26|        130469.50|
2018/05/10T02:47:06|       28228.74|        122253480.49|        129663.08|
2018/05/10T02:47:07|       27537.28|        127463228.11|        132359.53|
2018/05/10T02:47:08|       28201.76|        125872644.77|        131374.70|
2018/05/10T02:47:09|       27673.11|        123818746.40|        129023.29|
2018/05/10T02:47:10|       27245.03|        118118555.64|        124396.15|
2018/05/10T02:47:11|       28156.99|        121989134.48|        128358.94|
2018/05/10T02:47:12|       27609.87|        125120855.71|        129753.74|
2018/05/10T02:47:13|       27493.14|        120095505.11|        127043.00|
2018/05/10T02:47:14|       27680.86|        120146663.94|        128046.26|
2018/05/10T02:47:15|       28223.78|        117971266.68|        127554.52|
2018/05/10T02:47:16|       27465.62|        115456265.51|        125657.68|
2018/05/10T02:47:17|       27820.59|        116809087.97|        125956.75|
2018/05/10T02:47:18|       27918.36|        110162569.14|        121386.86|
2018/05/10T02:47:19|       28323.77|        113439269.74|        123515.03|
2018/05/10T02:47:20|       28418.49|        121728197.68|        129342.23|
2018/05/10T02:47:21|       27908.50|        120977278.25|        128337.35|
2018/05/10T02:47:22|       27473.92|        124673745.18|        130470.47|
2018/05/10T02:47:23|       27986.33|        114506533.16|        123650.30|
2018/05/10T02:47:24|       27616.58|        109028881.91|        118377.70|
2018/05/10T02:47:25|       27385.85|        110316583.98|        119354.32|
2018/05/10T02:47:26|       28132.98|        108939237.78|        119320.44|
2018/05/10T02:47:27|       28240.68|        109677523.42|        120293.22|
2018/05/10T02:47:28|       27179.49|        107691485.84|        117780.11|
2018/05/10T02:47:29|       27744.78|        100853593.45|        113963.56|
2018/05/10T02:47:30|       27805.48|        106384187.73|        117962.93|
2018/05/10T02:47:31|       27190.92|        101632209.18|        113772.02|
2018/05/10T02:47:32|       28369.59|         94172987.53|        109250.81|
2018/05/10T02:47:33|       27624.07|         93643380.30|        108188.62|
2018/05/10T02:47:34|       27741.02|         87739899.31|        104194.81|
2018/05/10T02:47:35|       27837.59|         88300013.98|        104524.99|
2018/05/10T02:47:36|       27879.05|         94162666.10|        108465.71|
2018/05/10T02:47:37|       27370.08|        102018153.82|        112947.17|
2018/05/10T02:47:38|       28216.09|        110876447.21|        119626.79|
2018/05/10T02:47:39|       28024.08|        110177810.09|        119431.58|
2018/05/10T02:47:40|       27030.26|        109066519.78|        117503.26|
2018/05/10T02:47:41|       27809.27|        110893490.73|        119857.10|
2018/05/10T02:47:42|       29167.65|        107014165.52|        118350.03|
2018/05/10T02:47:43|       27549.56|        106381973.12|        116362.43|
2018/05/10T02:47:44|       27967.08|        109952918.35|        119426.49|
2018/05/10T02:47:45|       27361.84|        110599594.46|        119416.01|
2018/05/10T02:47:46|       27561.73|        107648663.66|        117303.56|
2018/05/10T02:47:47|       28081.52|        109159648.49|        119988.86|
2018/05/10T02:47:48|       27882.98|        107175888.63|        117597.72|
2018/05/10T02:47:49|       27397.95|        108095417.98|        117636.30|
2018/05/10T02:47:50|       28364.80|        107818861.22|        118565.39|
2018/05/10T02:47:51|       27711.63|        111156756.48|        121150.10|
2018/05/10T02:47:52|       27038.63|        107040230.59|        117367.50|
2018/05/10T02:47:53|       28131.23|        110616480.39|        121231.57|
2018/05/10T02:47:54|       27455.38|        117740742.96|        126201.42|
2018/05/10T02:47:55|       27286.29|        116727502.37|        125574.06|
2018/05/10T02:47:56|       27954.27|        125247444.12|        131776.12|
2018/05/10T02:47:57|       27546.86|        123612069.47|        130455.16|
2018/05/10T02:47:58|       27238.48|        123155317.03|        130040.53|
2018/05/10T02:47:59|       28099.99|        123974356.73|        132281.31|
2018/05/10T02:48:00|       27760.01|        129261893.88|        136336.01|
2018/05/10T02:48:01|       27453.48|        125832207.52|        136799.12|
2018/05/10T02:48:02|       27977.62|        130390813.62|        140984.90|
2018/05/10T02:48:03|       27988.89|        132894570.70|        142041.36|
2018/05/10T02:48:04|       27259.82|        130495670.61|        139363.14|
2018/05/10T02:48:05|       28156.85|        127223439.15|        137377.64|
2018/05/10T02:48:06|       27715.95|        123865690.74|        134626.60|
2018/05/10T02:48:07|       27499.17|        124259798.53|        134626.79|
2018/05/10T02:48:08|       27786.10|        127793470.75|        136998.34|
2018/05/10T02:48:09|       27959.68|        122628472.96|        133793.13|
2018/05/10T02:48:10|       27589.17|        125443466.93|        135007.27|
2018/05/10T02:48:11|       28168.90|        122217018.25|        131436.47|
2018/05/10T02:48:12|       27974.76|        119785796.24|        129295.97|
2018/05/10T02:48:13|       27495.40|        125082180.04|        134616.94|
2018/05/10T02:48:14|       28239.85|        127993815.59|        136674.39|
2018/05/10T02:48:15|       28800.14|        128414504.23|        136435.99|
2018/05/10T02:48:16|       27395.23|        122685794.16|        130624.11|
2018/05/10T02:48:17|       27691.34|        120349942.97|        129634.88|
2018/05/10T02:48:18|       27951.28|        114563371.34|        124729.75|
2018/05/10T02:48:19|       27436.17|        114439112.25|        123841.29|
2018/05/10T02:48:20|       28015.97|        117310934.82|        126600.75|
2018/05/10T02:48:21|       28867.34|        119593331.58|        129275.01|
2018/05/10T02:48:22|       27348.11|        121142778.62|        129338.83|
2018/05/10T02:48:23|       27786.83|        119429499.64|        128409.72|
2018/05/10T02:48:24|       27792.35|        124569904.28|        132421.28|
2018/05/10T02:48:25|       27996.00|        121618961.99|        130184.21|
2018/05/10T02:48:26|       28329.60|        113958699.77|        124377.21|
2018/05/10T02:48:27|       27592.84|        113174546.06|        122572.22|
2018/05/10T02:48:28|       27394.44|        112064185.01|        121229.27|
2018/05/10T02:48:29|       27806.45|        113401933.30|        122658.58|
2018/05/10T02:48:30|       27634.48|        116682926.50|        125241.91|
2018/05/10T02:48:31|       27492.00|        119396414.86|        127510.58|
2018/05/10T02:48:32|       27987.88|        119759772.15|        127850.06|
2018/05/10T02:48:33|       27146.98|        122046096.04|        132046.42|
2018/05/10T02:48:34|       27165.17|        118617783.02|        125754.82|
2018/05/10T02:48:35|       27795.64|        126798734.95|        131768.88|
2018/05/10T02:48:36|       27654.66|        121144955.62|        127709.88|
2018/05/10T02:48:37|       27920.79|        120894012.26|        128061.87|
2018/05/10T02:48:38|       27647.87|        131057689.70|        133890.55|
2018/05/10T02:48:39|       27868.07|        136570806.17|        138209.35|
2018/05/10T02:48:40|       27349.03|        139265114.14|        141777.33|
2018/05/10T02:48:41|       27977.10|        137799369.46|        143883.10|
2018/05/10T02:48:42|       27862.96|        138704656.43|        142460.88|
2018/05/10T02:48:43|       26965.95|        142505898.17|        142732.40|
2018/05/10T02:48:44|       28099.01|        132907418.62|        136937.76|
2018/05/10T02:48:45|       27749.58|        127708358.80|        133665.84|
2018/05/10T02:48:46|       27242.51|        124970548.14|        131155.77|
2018/05/10T02:48:47|       28131.72|        127568551.53|        133324.48|
2018/05/10T02:48:48|       27844.49|        127190331.28|        133131.85|
2018/05/10T02:48:49|       27403.97|        127939451.95|        133870.62|
2018/05/10T02:48:50|       28095.74|        122637240.72|        133228.34|
2018/05/10T02:48:51|       27331.92|        120141569.34|        130811.01|
2018/05/10T02:48:52|       27396.25|        119206607.64|        130763.08|
2018/05/10T02:48:53|       27585.71|        122019980.10|        133264.12|
2018/05/10T02:48:54|       27932.98|        122291043.04|        133772.96|
2018/05/10T02:48:55|       27529.47|        121854555.03|        132879.69|
2018/05/10T02:48:56|       28585.77|        119823011.43|        133112.13|
2018/05/10T02:48:57|       27635.62|        124276747.09|        134348.92|
2018/05/10T02:48:58|       27185.89|        126159095.68|        135421.06|
2018/05/10T02:48:59|       28040.04|        130596055.16|        139868.63|
2018/05/10T02:49:00|       27893.24|        127145704.47|        137510.39|
2018/05/10T02:49:01|       27424.82|        124557959.65|        135264.48|
2018/05/10T02:49:02|       28346.42|        125614988.53|        136263.11|
2018/05/10T02:49:03|       27825.47|        130915721.83|        139400.76|
2018/05/10T02:49:04|       27324.47|        124933836.08|        136167.75|
2018/05/10T02:49:05|       28283.24|        124307916.94|        135708.57|
2018/05/10T02:49:06|       27990.09|        127230609.33|        136211.47|
2018/05/10T02:49:07|       27394.38|        126978940.08|        135362.20|
2018/05/10T02:49:08|       27832.81|        122348874.50|        132273.33|
2018/05/10T02:49:09|       27946.24|        125423715.95|        134401.48|
2018/05/10T02:49:10|       27289.71|        124445265.93|        132528.92|
2018/05/10T02:49:11|       28194.88|        122118009.99|        131477.22|
2018/05/10T02:49:12|       28280.23|        119292367.55|        129802.70|
2018/05/10T02:49:13|       27336.47|        119988548.27|        129515.81|
2018/05/10T02:49:14|       28023.00|        128301603.23|        135605.25|
2018/05/10T02:49:15|       27719.93|        128204458.08|        135533.33|
2018/05/10T02:49:16|       27063.34|        125935996.48|        133044.30|
2018/05/10T02:49:17|       27999.23|        128269900.16|        137061.69|
2018/05/10T02:49:18|       28104.47|        119474151.44|        131820.49|
2018/05/10T02:49:19|       26960.60|        124576596.65|        134463.01|
2018/05/10T02:49:20|       28445.95|        123764214.34|        135307.33|
2018/05/10T02:49:21|       27786.49|        118643242.00|        131584.00|
2018/05/10T02:49:22|       27262.89|        119453687.90|        131722.48|
2018/05/10T02:49:23|       27950.05|        120033980.37|        133038.95|
2018/05/10T02:49:24|       28051.80|        123042259.96|        135493.73|
2018/05/10T02:49:25|       27572.18|        128102712.15|        138282.04|
2018/05/10T02:49:26|       27987.73|        129542878.10|        139749.77|
2018/05/10T02:49:27|       27930.67|        127336559.95|        138673.56|
2018/05/10T02:49:28|       27972.54|        125097945.84|        137128.95|
2018/05/10T02:49:29|       28085.60|        125480007.64|        137394.78|
2018/05/10T02:49:30|       27904.82|        121586505.65|        133857.18|
2018/05/10T02:49:31|       27481.45|        125459782.71|        136370.71|
2018/05/10T02:49:32|       28100.36|        121627699.75|        134275.09|
2018/05/10T02:49:33|       27863.83|        121708849.31|        134380.40|
2018/05/10T02:49:34|       27559.27|        121939885.83|        134201.88|
2018/05/10T02:49:35|       28076.67|        122228033.10|        135543.70|
2018/05/10T02:49:36|       27859.58|        121410872.75|        135236.85|
2018/05/10T02:49:37|       27422.90|        127781878.41|        139983.07|
2018/05/10T02:49:38|       28098.26|        128827321.46|        141651.96|
2018/05/10T02:49:39|       27880.11|        128151774.84|        140730.71|
2018/05/10T02:49:40|       27116.15|        131252390.62|        142772.94|
2018/05/10T02:49:41|       28069.79|        139122129.66|        149582.56|
2018/05/10T02:49:42|       28147.13|        131865947.24|        144340.22|
2018/05/10T02:49:43|       27471.72|        129873657.33|        141695.01|
2018/05/10T02:49:44|       28255.34|        133770797.52|        143977.13|
2018/05/10T02:49:45|       27417.21|        132023716.48|        144220.70|
2018/05/10T02:49:46|       27260.75|        138208613.28|        145387.41|
2018/05/10T02:49:47|       28026.59|        138515257.02|        147033.77|
2018/05/10T02:49:48|       28858.22|        130396418.13|        141026.54|
2018/05/10T02:49:49|       26979.50|        126304087.79|        134466.85|
2018/05/10T02:49:50|       27671.21|        126677797.65|        135345.36|
2018/05/10T02:49:51|       27870.20|        127531095.05|        135976.13|
2018/05/10T02:49:52|       27383.59|        125682827.48|        134630.87|
2018/05/10T02:49:53|       27657.67|        126543333.86|        135913.52|
2018/05/10T02:49:54|       27709.19|        128550890.11|        137022.34|
2018/05/10T02:49:55|       26877.35|        128718213.46|        136083.79|
2018/05/10T02:49:56|       27824.62|        130374061.04|        137833.98|
2018/05/10T02:49:57|       27729.27|        131603589.71|        138600.83|
2018/05/10T02:49:58|       27061.64|        127484595.29|        135056.03|
2018/05/10T02:49:59|       27805.64|        129326933.64|        137222.17|
2018/05/10T02:50:00|       27601.14|        127539116.58|        136147.44|
2018/05/10T02:50:01|       26851.45|        131289318.97|        137228.49|
2018/05/10T02:50:02|       27893.45|        132985241.85|        139284.35|
2018/05/10T02:50:03|       27924.99|        135675462.34|        141136.62|
2018/05/10T02:50:04|       26743.45|        131835269.18|        136953.92|
2018/05/10T02:50:05|       27948.16|        127259314.30|        134788.43|
2018/05/10T02:50:06|       28191.66|        130478214.87|        138166.12|
2018/05/10T02:50:07|       27166.36|        129262554.57|        136598.22|
2018/05/10T02:50:08|       27998.73|        129050027.44|        137513.54|
2018/05/10T02:50:09|       27811.19|        140078766.57|        145400.64|
2018/05/10T02:50:10|       27287.56|        132753484.16|        139309.70|
2018/05/10T02:50:11|       28105.39|        128222580.73|        136455.26|
2018/05/10T02:50:12|       28121.71|        127932453.02|        135902.18|
2018/05/10T02:50:13|       27312.33|        131322954.61|        137921.82|
2018/05/10T02:50:14|       27935.37|        132576824.55|        140081.91|
2018/05/10T02:50:15|       28068.66|        129207800.65|        138343.90|
2018/05/10T02:50:16|       27596.86|        124978494.47|        134850.84|
2018/05/10T02:50:17|       27582.53|        126893248.07|        136025.90|
2018/05/10T02:50:18|       28237.58|        128133888.97|        137438.91|
2018/05/10T02:50:19|       27284.01|        127853754.59|        135715.57|
2018/05/10T02:50:20|       27467.98|        129333468.73|        136034.72|
2018/05/10T02:50:21|       27993.83|        128017812.45|        135814.57|
2018/05/10T02:50:22|       26796.29|        127114076.55|        133742.11|
2018/05/10T02:50:23|       27750.35|        128002089.36|        135555.53|
2018/05/10T02:50:24|       27738.25|        119434884.84|        130663.86|
2018/05/10T02:50:25|       27321.29|        116581181.20|        128177.50|
2018/05/10T02:50:26|       27530.14|        111982236.59|        125776.81|
2018/05/10T02:50:27|       27960.39|        111481326.41|        126307.95|
2018/05/10T02:50:28|       27123.74|        109908982.47|        125499.53|
2018/05/10T02:50:29|       27800.71|        113438700.60|        129375.51|
2018/05/10T02:50:30|       27929.16|        115619826.54|        131585.29|
2018/05/10T02:50:31|       27296.47|        116668882.75|        131094.74|
2018/05/10T02:50:32|       27782.39|        114706590.40|        130283.59|
2018/05/10T02:50:33|       27917.46|        113481767.61|        128441.43|
2018/05/10T02:50:34|       27373.29|        114477086.94|        127721.94|
2018/05/10T02:50:35|       27885.44|        115260687.14|        128661.22|
2018/05/10T02:50:36|       27505.57|        113132904.07|        126346.48|
2018/05/10T02:50:37|       27244.32|        113552100.68|        125630.65|
2018/05/10T02:50:38|       27692.66|        108700335.23|        123345.45|
2018/05/10T02:50:39|       28418.29|        114700589.33|        127790.79|
2018/05/10T02:50:40|       27682.15|        109168290.28|        123138.54|
2018/05/10T02:50:41|       27745.46|        108599929.84|        122730.27|
2018/05/10T02:50:42|       27573.67|        108353014.15|        122344.50|
2018/05/10T02:50:43|       28136.71|        108271565.98|        122907.38|
2018/05/10T02:50:44|       27936.21|        111372473.40|        125149.77|
2018/05/10T02:50:45|       28153.77|        111497871.96|        125457.64|
2018/05/10T02:50:46|       27739.91|        111434606.42|        126028.77|
2018/05/10T02:50:47|       27886.39|        114736565.79|        128224.53|
2018/05/10T02:50:48|       27727.41|        114319335.70|        127782.34|
2018/05/10T02:50:49|       27346.00|        110552918.90|        124949.58|
2018/05/10T02:50:50|       27877.68|        109640472.95|        124804.55|
2018/05/10T02:50:51|       27614.35|        111016089.31|        124845.76|
2018/05/10T02:50:52|       27525.07|        111376047.32|        124757.06|
2018/05/10T02:50:53|       28009.85|        115989691.86|        127721.25|
2018/05/10T02:50:54|       27814.21|        119982793.79|        130685.71|
2018/05/10T02:50:55|       27273.27|        116287500.71|        127990.86|
2018/05/10T02:50:56|       27863.91|        113822513.58|        126585.54|
2018/05/10T02:50:57|       28214.80|        121184540.78|        131946.45|
2018/05/10T02:50:58|       27772.40|        118954518.89|        130275.34|
2018/05/10T02:50:59|       28100.89|        113614304.42|        126646.36|
2018/05/10T02:51:00|       28536.95|        115050303.03|        128131.41|
2018/05/10T02:51:01|       27523.67|        112987498.07|        125006.96|
2018/05/10T02:51:02|       27996.71|        109462159.42|        122859.88|
2018/05/10T02:51:03|       29859.60|        113391672.64|        128791.54|
2018/05/10T02:51:04|       27581.63|        112679972.77|        126302.72|
2018/05/10T02:51:05|       27961.13|        112619737.66|        125892.75|
2018/05/10T02:51:06|       28174.97|        117528622.03|        129842.87|
2018/05/10T02:51:07|       27468.06|        115070694.46|        128090.49|
2018/05/10T02:51:08|       27862.59|        125016390.37|        135597.01|
2018/05/10T02:51:09|       27938.13|        124737915.07|        134858.75|
2018/05/10T02:51:10|       28886.61|        122488258.42|        134348.53|
2018/05/10T02:51:11|       30389.97|        120231589.71|        135703.12|
2018/05/10T02:51:12|       27769.77|        124761477.07|        145455.22|
2018/05/10T02:51:13|       27405.49|        127408298.52|        147167.03|
2018/05/10T02:51:14|       27666.59|        124179610.92|        145525.56|
2018/05/10T02:51:15|       27924.78|        123488992.03|        145210.52|
2018/05/10T02:51:16|       27637.17|        132627905.70|        151118.69|
2018/05/10T02:51:17|       27828.43|        119198076.08|        141294.55|
2018/05/10T02:51:18|       27821.11|        117768220.25|        139561.20|
2018/05/10T02:51:19|       27342.14|        117229139.16|        138616.70|
2018/05/10T02:51:20|       27691.85|        117670728.34|        139007.05|
2018/05/10T02:51:21|       28954.64|        122205169.57|        146422.36|
2018/05/10T02:51:22|       26993.47|        118126991.23|        140710.27|
2018/05/10T02:51:23|       28015.22|        128267967.51|        149131.43|
2018/05/10T02:51:24|       27873.32|        133137195.38|        153961.59|
2018/05/10T02:51:25|       27370.74|        132822111.00|        152819.87|
2018/05/10T02:51:26|       28282.47|        126119832.05|        147835.36|
2018/05/10T02:51:27|       27766.10|        130529849.36|        150551.04|
2018/05/10T02:51:28|       27650.79|        130063352.50|        150323.87|
2018/05/10T02:51:29|       27824.78|        130703249.46|        150379.72|
2018/05/10T02:51:30|       27829.86|        130675251.23|        148779.66|
2018/05/10T02:51:31|       27696.16|        133013521.99|        149522.88|
2018/05/10T02:51:32|       27548.32|        135578478.08|        151788.56|
2018/05/10T02:51:33|       27870.11|        127927658.79|        147393.60|
2018/05/10T02:51:34|       27936.51|        120666133.29|        145079.80|
2018/05/10T02:51:35|       27748.08|        125675436.21|        150112.90|
2018/05/10T02:51:36|       28034.52|        127099180.89|        152364.91|
2018/05/10T02:51:37|       27343.51|        126407669.65|        151296.05|
2018/05/10T02:51:38|       27787.55|        128272583.89|        152772.17|
2018/05/10T02:51:39|       27821.28|        121611207.70|        148382.26|
2018/05/10T02:51:40|       27034.85|        122060003.02|        147835.83|
2018/05/10T02:51:41|       27801.21|        124507819.53|        150252.06|
2018/05/10T02:51:42|       27830.22|        127055484.23|        152469.09|
2018/05/10T02:51:43|       27034.87|        133804939.28|        157571.27|
2018/05/10T02:51:44|       28600.61|        128667861.85|        154411.34|
2018/05/10T02:51:45|       27634.78|        130974544.02|        152042.97|
2018/05/10T02:51:46|       27173.26|        132886673.31|        152727.52|
2018/05/10T02:51:47|       27584.34|        131323923.12|        151949.51|
2018/05/10T02:51:48|       27648.85|        131603254.54|        151544.37|
2018/05/10T02:51:49|       27789.48|        133272580.52|        153007.64|
2018/05/10T02:51:50|       27926.78|        129980775.73|        150669.73|
2018/05/10T02:51:51|       27868.02|        131848476.59|        151531.70|
2018/05/10T02:51:52|       27152.35|        127671575.74|        147225.15|
2018/05/10T02:51:53|       28083.36|        130470644.89|        150669.26|
2018/05/10T02:51:54|       27983.58|        133009635.53|        151580.80|
2018/05/10T02:51:55|       26922.40|        139601726.59|        155657.86|
2018/05/10T02:51:56|       28329.08|        136556027.04|        155606.03|
2018/05/10T02:51:57|       27484.16|        133469898.07|        152098.78|
2018/05/10T02:51:58|       26818.58|        136824123.35|        153204.60|
2018/05/10T02:51:59|       28387.25|        139369730.37|        156412.77|
2018/05/10T02:52:00|       28214.74|        139705691.81|        156354.37|
2018/05/10T02:52:01|       27287.34|        136292313.64|        153152.84|
2018/05/10T02:52:02|       28583.79|        130036697.48|        149644.10|
2018/05/10T02:52:03|       27856.79|        133370184.15|        150154.11|
2018/05/10T02:52:04|       26808.18|        129539083.10|        147769.33|
2018/05/10T02:52:05|       28235.35|        133194093.83|        152200.28|
2018/05/10T02:52:06|       27791.26|        129520723.28|        148867.25|
2018/05/10T02:52:07|       27224.86|        130072075.52|        149655.24|
2018/05/10T02:52:08|       28359.78|        131458244.06|        152899.33|
2018/05/10T02:52:09|       28205.44|        130869559.12|        152501.37|
2018/05/10T02:52:10|       27870.88|        136101250.54|        155046.31|
2018/05/10T02:52:11|       28188.38|        133754184.07|        153228.09|
2018/05/10T02:52:12|       28017.21|        135470009.37|        154245.50|
2018/05/10T02:52:13|       27159.31|        130012682.98|        150519.32|
2018/05/10T02:52:14|       28120.94|        129954755.82|        150939.81|
2018/05/10T02:52:15|       27598.28|        126765458.24|        148772.45|
2018/05/10T02:52:16|       26927.06|        126751513.78|        147953.83|
2018/05/10T02:52:17|       28030.00|        124847369.29|        158985.01|
2018/05/10T02:52:18|       28005.42|        127225066.53|        149154.87|
2018/05/10T02:52:19|       27025.27|        131390557.18|        151644.89|
2018/05/10T02:52:20|       27921.86|        128853249.51|        151628.16|
2018/05/10T02:52:21|       27947.07|        137222763.46|        158024.42|
2018/05/10T02:52:22|       27484.87|        133963080.10|        154819.78|
2018/05/10T02:52:23|       28292.00|        135269116.46|        157177.29|
2018/05/10T02:52:24|       27818.69|        135771180.64|        158180.56|
2018/05/10T02:52:25|       27409.59|        133679585.64|        154382.57|
2018/05/10T02:52:26|       28105.08|        134816673.81|        155216.14|
2018/05/10T02:52:27|       27914.52|        132611509.85|        152920.05|
2018/05/10T02:52:28|       27827.36|        134097509.39|        154359.32|
2018/05/10T02:52:29|       28096.30|        132593536.75|        151275.92|
2018/05/10T02:52:30|       27888.99|        132315113.48|        150322.88|
2018/05/10T02:52:31|       27483.81|        136773668.70|        153413.18|
2018/05/10T02:52:32|       28012.05|        136458971.98|        153959.03|
2018/05/10T02:52:33|       28054.69|        131386484.15|        149880.12|
2018/05/10T02:52:34|       27697.29|        132576304.31|        151053.66|
2018/05/10T02:52:35|       28083.65|        125697766.99|        145198.27|
2018/05/10T02:52:36|       27852.27|        123260527.35|        143271.19|
2018/05/10T02:52:37|       27435.94|        126372696.02|        144254.12|
2018/05/10T02:52:38|       28222.03|        119990791.79|        141023.79|
2018/05/10T02:52:39|       27688.23|        116638745.75|        138361.87|
2018/05/10T02:52:40|       27324.94|        113640943.60|        136508.73|
2018/05/10T02:52:41|       28217.17|        114873467.13|        137918.45|
2018/05/10T02:52:42|       27827.56|        120760775.32|        142145.55|
2018/05/10T02:52:43|       27934.83|        116413769.61|        140394.45|
2018/05/10T02:52:44|       27683.70|        112257106.67|        136236.81|
2018/05/10T02:52:45|       28057.42|        113507075.94|        127617.55|
2018/05/10T02:52:46|       27658.81|        114122634.08|        128869.41|
2018/05/10T02:52:47|       28189.24|        117839999.51|        132111.65|
2018/05/10T02:52:48|       28060.89|        115013290.22|        129199.18|
2018/05/10T02:52:49|       27305.85|        113828142.51|        127218.67|
2018/05/10T02:52:50|       28069.72|        116545752.99|        129651.55|
2018/05/10T02:52:51|       27353.98|        122677417.80|        133589.12|
2018/05/10T02:52:52|       27612.62|        129753883.93|        140383.75|
2018/05/10T02:52:53|       28206.49|        126213403.48|        137325.26|
2018/05/10T02:52:54|       27970.46|        128135310.83|        136991.69|
2018/05/10T02:52:55|       27468.61|        128091776.05|        136224.54|
2018/05/10T02:52:56|       28264.44|        132985060.68|        141006.03|
2018/05/10T02:52:57|       28184.24|        137639537.55|        145116.26|
2018/05/10T02:52:58|       27440.41|        136703417.29|        142537.00|
2018/05/10T02:52:59|       28072.51|        131755005.75|        139285.78|
2018/05/10T02:53:00|       28113.96|        133134887.15|        140292.62|
2018/05/10T02:53:01|       27584.48|        134812937.49|        143032.13|
2018/05/10T02:53:02|       28312.63|        133908304.43|        146539.36|
2018/05/10T02:53:03|       28475.38|        136110953.06|        148135.72|
2018/05/10T02:53:04|       27678.61|        130513091.06|        142033.76|
2018/05/10T02:53:05|       27973.59|        134520907.87|        143614.51|
2018/05/10T02:53:06|       27992.02|        134599537.75|        143472.16|
2018/05/10T02:53:07|       27213.29|        131096818.85|        140194.13|
2018/05/10T02:53:08|       28281.49|        128001464.29|        140669.10|
2018/05/10T02:53:09|       27620.19|        137081855.94|        147275.20|
2018/05/10T02:53:10|       27640.21|        131607637.45|        143372.61|
2018/05/10T02:53:11|       27899.12|        128151255.30|        140227.17|
2018/05/10T02:53:12|       27876.72|        128610818.32|        136815.28|
2018/05/10T02:53:13|       27551.47|        127757449.51|        135410.20|
2018/05/10T02:53:14|       28071.38|        134013924.13|        140323.96|
2018/05/10T02:53:15|       27706.35|        134702709.04|        140282.49|
2018/05/10T02:53:16|       27279.85|        129082680.47|        137512.20|
2018/05/10T02:53:17|       28120.19|        129729983.66|        139044.68|
2018/05/10T02:53:18|       27908.56|        125583103.89|        136602.19|
2018/05/10T02:53:19|       27344.36|        122367207.22|        133585.65|
2018/05/10T02:53:20|       28541.50|        116749910.17|        131048.63|
2018/05/10T02:53:21|       27902.10|        118418988.27|        131650.59|
2018/05/10T02:53:22|       27804.81|        124060040.74|        136061.27|
2018/05/10T02:53:23|       28629.57|        118981135.41|        132547.77|
2018/05/10T02:53:24|       28046.17|        122703216.71|        133777.71|
2018/05/10T02:53:25|       27626.66|        126604067.84|        136073.80|
2018/05/10T02:53:26|       28272.96|        119221563.54|        130602.40|
2018/05/10T02:53:27|       30012.20|        124883740.64|        136099.17|
2018/05/10T02:53:28|       30476.26|        119334726.15|        132158.67|
2018/05/10T02:53:29|       30503.83|        124094923.98|        135845.11|
2018/05/10T02:53:30|       31149.81|        130131974.06|        140746.05|
2018/05/10T02:53:31|       29974.72|        127261046.68|        138019.25|
2018/05/10T02:53:32|       30271.76|        128866365.31|        139457.35|
2018/05/10T02:53:33|       29707.88|        121148590.35|        133033.77|
2018/05/10T02:53:34|       29182.63|        120920525.54|        132819.75|
2018/05/10T02:53:35|       30187.36|        124306412.75|        136560.49|
2018/05/10T02:53:36|       29949.09|        116393269.64|        130612.21|
2018/05/10T02:53:37|       29514.23|        115311008.07|        129039.66|
2018/05/10T02:53:38|       29880.54|        115490399.05|        128705.64|
2018/05/10T02:53:39|       30259.17|        114832520.09|        128923.73|
2018/05/10T02:53:40|       29557.56|        108103631.91|        123447.97|
2018/05/10T02:53:41|       30221.54|        117505795.40|        130937.57|
2018/05/10T02:53:42|       29869.33|        114441883.93|        128511.60|
2018/05/10T02:53:43|       28753.35|        114062711.37|        126556.88|
2018/05/10T02:53:44|       28192.65|        118572563.52|        130097.60|
2018/05/10T02:53:45|       28413.02|        119060935.29|        131234.90|
2018/05/10T02:53:46|       28222.14|        116115496.74|        127759.60|
2018/05/10T02:53:47|       28192.73|        115465455.47|        127380.09|
2018/05/10T02:53:48|       28509.55|        121936750.82|        133458.19|
2018/05/10T02:53:49|       28436.33|        122955777.75|        133736.31|
2018/05/10T02:53:50|       28425.41|        121561381.00|        132017.08|
2018/05/10T02:53:51|       28081.48|        118373266.40|        130471.56|
2018/05/10T02:53:52|       28181.61|        114087448.65|        126974.12|
2018/05/10T02:53:53|       45165.32|        110490217.09|        139957.43|
2018/05/10T02:53:54|       35374.54|        109913426.51|        129528.69|
2018/05/10T02:53:55|       27385.06|        108365691.01|        120902.28|
2018/05/10T02:53:56|       28923.48|        109632448.02|        123205.99|
2018/05/10T02:53:57|       27840.47|        119775161.43|        130427.74|
2018/05/10T02:53:58|       27381.12|        117602691.76|        128940.13|
2018/05/10T02:53:59|       28140.38|        115868499.35|        127493.93|
2018/05/10T02:54:00|       27697.69|        110796811.11|        123516.44|
2018/05/10T02:54:01|       27421.76|        107240123.15|        120543.13|
2018/05/10T02:54:02|       28434.22|        111416094.94|        125051.42|
2018/05/10T02:54:03|       27934.79|        111263076.93|        123649.76|
2018/05/10T02:54:04|       27674.07|        112563279.38|        124477.49|
2018/05/10T02:54:05|       28248.90|        119528321.61|        129259.35|
2018/05/10T02:54:06|       27703.76|        122313150.01|        130515.98|
2018/05/10T02:54:07|       27547.85|        120005088.43|        128882.39|
2018/05/10T02:54:08|       28290.24|        114982778.69|        126431.81|
2018/05/10T02:54:09|       27640.46|        113137756.68|        123941.41|
2018/05/10T02:54:10|       27707.61|        114656909.11|        124768.39|
2018/05/10T02:54:11|       28203.89|        118002913.28|        126885.55|
2018/05/10T02:54:12|       33507.67|        118731972.98|        133302.53|
2018/05/10T02:54:13|       35469.96|        119755809.65|        136145.77|
2018/05/10T02:54:14|       28138.22|        117930906.30|        127606.27|
2018/05/10T02:54:15|       27771.95|        116229745.61|        126113.28|
2018/05/10T02:54:16|       27781.27|        115081531.82|        125172.38|
2018/05/10T02:54:17|       28003.83|        116823764.81|        125853.92|
2018/05/10T02:54:18|       27682.34|        115934506.71|        124441.24|
2018/05/10T02:54:19|       27620.28|        111009023.84|        120809.62|
2018/05/10T02:54:20|       28044.67|        113188934.09|        122798.54|
2018/05/10T02:54:21|       27715.89|        119827769.06|        128247.93|
2018/05/10T02:54:22|       27482.43|        110925946.72|        121433.46|
2018/05/10T02:54:23|       27870.43|        116027551.66|        125611.50|
2018/05/10T02:54:24|       28536.41|        111367133.87|        123420.78|
2018/05/10T02:54:25|       27536.81|        111204568.00|        122711.70|
2018/05/10T02:54:26|       28641.65|        108804816.95|        121239.63|
2018/05/10T02:54:27|       29471.74|        115612444.21|        126939.59|
2018/05/10T02:54:28|       29333.55|        121261623.94|        130636.20|
2018/05/10T02:54:29|       29892.92|        105668463.45|        119172.70|
2018/05/10T02:54:30|       29772.08|        116110265.76|        126447.42|
2018/05/10T02:54:31|       29102.33|        122165224.35|        130503.64|
2018/05/10T02:54:32|       30027.77|        149415439.04|        149894.57|
2018/05/10T02:54:33|       29201.03|        136438493.37|        141417.66|
2018/05/10T02:54:34|       29538.00|        121595715.19|        132424.29|
2018/05/10T02:54:35|       29862.92|        123165185.47|        133704.36|
2018/05/10T02:54:36|       29127.73|        123972826.54|        133664.93|
2018/05/10T02:54:37|       29372.64|        124715022.92|        134537.03|
2018/05/10T02:54:38|       29547.20|        127917640.50|        136339.23|
2018/05/10T02:54:39|       29299.58|        127579091.96|        142649.63|
2018/05/10T02:54:40|       29286.36|        122991145.51|        132828.76|
2018/05/10T02:54:41|       29612.23|        122158231.93|        134664.85|
2018/05/10T02:54:42|       29952.04|        119860498.29|        132913.61|
2018/05/10T02:54:43|       29608.35|        122741524.34|        134471.09|
2018/05/10T02:54:44|       30263.57|        122478720.03|        135152.05|
2018/05/10T02:54:45|       30024.79|        116776680.89|        129855.06|
2018/05/10T02:54:46|       29700.80|        118253224.10|        131938.76|
2018/05/10T02:54:47|       29649.65|        121712039.85|        135471.15|
2018/05/10T02:54:48|       30030.26|        120470423.69|        135057.48|
2018/05/10T02:54:49|       28975.46|        122301726.06|        135590.61|
2018/05/10T02:54:50|       30449.37|        123742021.58|        138629.08|
2018/05/10T02:54:51|       30045.95|        127892780.29|        141859.15|
2018/05/10T02:54:52|       29531.95|        120219190.32|        135573.89|
2018/05/10T02:54:53|       29667.56|        119410768.93|        134477.24|
2018/05/10T02:54:54|       30225.78|        115625628.68|        129928.65|
2018/05/10T02:54:55|       29133.04|        120169936.38|        130870.45|
2018/05/10T02:54:56|       29458.28|        119182838.70|        130012.50|
2018/05/10T02:54:57|       29559.17|        127518493.76|        135322.93|
2018/05/10T02:54:58|       28841.07|        125986392.05|        133348.24|
2018/05/10T02:54:59|       29748.36|        121749136.11|        131310.83|
2018/05/10T02:55:00|       31801.93|        121881469.14|        132896.70|
2018/05/10T02:55:01|       29126.72|        116978560.50|        126295.36|
2018/05/10T02:55:02|       29440.49|        122647209.19|        131127.31|
2018/05/10T02:55:03|       30271.99|        117250854.11|        128161.78|
2018/05/10T02:55:04|       29501.02|        128885077.18|        134830.37|
2018/05/10T02:55:05|       28976.49|        151197701.02|        149529.13|
2018/05/10T02:55:06|       28105.73|        145155160.90|        145205.70|
2018/05/10T02:55:07|       27544.56|        146683602.64|        146144.76|
2018/05/10T02:55:08|       28045.17|        142126859.32|        143008.92|
2018/05/10T02:55:09|       27451.86|        145402635.66|        144242.17|
2018/05/10T02:55:10|       27732.05|        187547977.30|        177065.60|
2018/05/10T02:55:11|       28050.64|        196204147.15|        183343.15|
2018/05/10T02:55:12|       28156.44|        190251926.71|        178922.24|
2018/05/10T02:55:13|       27860.27|        190716577.77|        179959.40|
2018/05/10T02:55:14|       28265.26|        206528471.49|        191726.94|
2018/05/10T02:55:15|       28007.65|        192109447.29|        181163.22|
2018/05/10T02:55:16|       27408.83|        191013056.84|        179921.14|
2018/05/10T02:55:17|       28924.28|        191306781.41|        181363.77|
2018/05/10T02:55:18|       29540.60|        192565737.06|        183348.44|
2018/05/10T02:55:19|       29430.45|        189809268.78|        180611.23|
2018/05/10T02:55:20|       29154.63|        151117007.98|        152122.94|
2018/05/10T02:55:21|       28916.98|        137971578.89|        142489.37|
2018/05/10T02:55:22|       28545.58|        133879586.64|        138750.09|
2018/05/10T02:55:23|       29067.38|        136874318.22|        141390.46|
2018/05/10T02:55:24|       28794.94|        133083918.95|        138763.71|
2018/05/10T02:55:25|       28580.96|        117199048.84|        128377.29|
2018/05/10T02:55:26|       29096.96|        117882937.09|        129721.17|
2018/05/10T02:55:27|       28802.33|        118188546.27|        129598.80|
2018/05/10T02:55:28|       29030.56|        117136909.10|        129415.74|
2018/05/10T02:55:29|       29102.46|        115368409.44|        128058.49|
2018/05/10T02:55:30|       29321.36|        106640039.37|        120715.53|
2018/05/10T02:55:31|       28405.31|        116150371.51|        129688.49|
2018/05/10T02:55:32|       29350.34|        123015554.35|        138133.56|
2018/05/10T02:55:33|       28598.52|        125795970.96|        140278.04|
2018/05/10T02:55:34|       27457.29|        126934688.33|        139883.52|
2018/05/10T02:55:35|       28009.39|        130328894.09|        142778.51|
2018/05/10T02:55:36|       28536.28|        134080538.86|        146459.47|
2018/05/10T02:55:37|       28202.59|        131954417.48|        144592.51|
2018/05/10T02:55:38|       28177.05|        132749341.53|        145497.23|
2018/05/10T02:55:39|       28091.64|        133717607.16|        146059.25|
2018/05/10T02:55:40|       28034.66|        135943919.37|        145740.85|
2018/05/10T02:55:41|       28280.95|        134493057.81|        144883.56|
2018/05/10T02:55:42|       28076.78|        138015502.94|        147776.16|
2018/05/10T02:55:43|       27465.39|        135518506.05|        145722.66|
2018/05/10T02:55:44|       29639.27|        130688748.87|        144246.18|
2018/05/10T02:55:45|       28183.41|        107773479.61|        119897.67|
2018/05/10T02:55:46|       27887.70|        106605507.80|        119006.87|
2018/05/10T02:55:47|       28459.19|        104591081.96|        118238.57|
2018/05/10T02:55:48|       28141.86|        106190117.05|        118603.02|
2018/05/10T02:55:49|       27683.08|        105958207.58|        123286.09|
2018/05/10T02:55:50|       29040.92|        103145158.07|        122537.72|
2018/05/10T02:55:51|       28542.04|        106683456.75|        125586.23|
2018/05/10T02:55:52|       27826.38|        104106108.78|        120527.91|
2018/05/10T02:55:53|       28399.23|        106766313.94|        119489.42|
2018/05/10T02:55:54|       28543.50|        107983082.91|        120754.54|
2018/05/10T02:55:55|       27632.61|        110026237.75|        120616.76|
2018/05/10T02:55:56|       28084.65|        108133826.10|        118934.64|
2018/05/10T02:55:57|       28179.91|        111912892.81|        121600.49|
2018/05/10T02:55:58|       27915.16|        111926107.14|        121308.18|
2018/05/10T02:55:59|       28397.09|        109873309.83|        121122.14|
2018/05/10T02:56:00|       28167.40|        106181985.33|        117751.71|
2018/05/10T02:56:01|       27393.11|        108712203.59|        118185.50|
2018/05/10T02:56:02|       28429.58|        106450657.14|        117476.50|
2018/05/10T02:56:03|       28109.29|        104960530.38|        116065.28|
2018/05/10T02:56:04|       28484.35|        104508101.73|        116473.53|
2018/05/10T02:56:05|       29287.74|         99900474.33|        113010.68|
2018/05/10T02:56:06|       28604.36|         96878227.79|        110085.99|
2018/05/10T02:56:07|       27560.95|         97149210.29|        108864.02|
2018/05/10T02:56:08|       28304.08|         99796586.79|        112356.23|
2018/05/10T02:56:09|       28276.00|        102066786.68|        113765.38|
2018/05/10T02:56:10|       27570.86|         99832668.37|        111617.07|
2018/05/10T02:56:11|       28485.94|        104187824.51|        115284.83|
2018/05/10T02:56:12|       28061.74|        100864929.27|        112221.39|
2018/05/10T02:56:13|       28656.04|        103319198.75|        114690.59|
2018/05/10T02:56:14|       28173.28|        106898982.78|        117398.81|
2018/05/10T02:56:15|       28337.74|        107688132.60|        117150.38|
2018/05/10T02:56:16|       28825.44|        106922739.70|        117307.79|
2018/05/10T02:56:17|       28165.76|        106119813.71|        116444.09|
2018/05/10T02:56:18|       28337.81|        108131570.67|        118904.27|
2018/05/10T02:56:19|       28012.57|        105484009.75|        116379.44|
2018/05/10T02:56:20|       28047.49|        114764241.12|        122966.41|
2018/05/10T02:56:21|       28354.35|        112719014.98|        122161.67|
2018/05/10T02:56:22|       27808.28|        120185363.47|        126308.96|
2018/05/10T02:56:23|       27945.65|        122275544.58|        128279.77|
2018/05/10T02:56:24|       27924.59|        120679293.03|        127883.49|
2018/05/10T02:56:25|       28834.53|        116223950.19|        125035.27|
2018/05/10T02:56:26|       28403.21|        116025216.80|        124683.97|
2018/05/10T02:56:27|       28127.23|        115673793.73|        123907.60|
2018/05/10T02:56:28|       27850.48|        127227347.08|        132807.20|
2018/05/10T02:56:29|       28173.20|        142329278.77|        144774.32|
2018/05/10T02:56:30|       28393.00|        141511971.77|        144329.69|
2018/05/10T02:56:31|       27948.90|        146368906.86|        146837.46|
2018/05/10T02:56:32|       28904.97|        142859413.63|        145085.58|
2018/05/10T02:56:33|       28216.80|        138956445.01|        141468.48|
2018/05/10T02:56:34|       27905.30|        141718683.33|        143677.72|
2018/05/10T02:56:35|       28111.77|        146347880.15|        146853.73|
2018/05/10T02:56:36|       28001.15|        147485650.46|        147798.16|
2018/05/10T02:56:37|       27900.17|        144145250.36|        144767.62|
2018/05/10T02:56:38|       28060.66|        143790538.65|        144264.56|
2018/05/10T02:56:39|       28300.74|        124328361.70|        129979.27|
2018/05/10T02:56:40|       27503.71|        122944637.73|        128720.53|
2018/05/10T02:56:41|       28801.49|        124239353.68|        131668.43|
2018/05/10T02:56:42|       27935.71|        125381834.35|        131165.27|
2018/05/10T02:56:43|       27611.98|        125175303.32|        130424.90|
2018/05/10T02:56:44|       29065.83|        128360227.95|        134772.76|
2018/05/10T02:56:45|       27939.18|        131458294.37|        135694.08|
2018/05/10T02:56:46|       28812.55|        131809447.38|        136566.69|
2018/05/10T02:56:47|       28359.55|        121112361.40|        129066.24|
2018/05/10T02:56:48|       27932.96|        119841529.31|        126435.98|
2018/05/10T02:56:49|       27911.40|        123309764.54|        129092.03|
2018/05/10T02:56:50|       28283.33|        123027562.01|        130192.80|
2018/05/10T02:56:51|       27984.31|        122913751.67|        129303.70|
2018/05/10T02:56:52|       27616.74|        122491261.67|        129274.29|
2018/05/10T02:56:53|       28450.03|        118788737.60|        125708.74|
2018/05/10T02:56:54|       28338.50|        125613654.89|        130562.78|
2018/05/10T02:56:55|       28033.04|        126604490.43|        130706.14|
2018/05/10T02:56:56|       28435.29|        121130997.61|        127282.03|
2018/05/10T02:56:57|       27739.70|        121781660.43|        127285.50|
2018/05/10T02:56:58|       27730.26|        124935617.06|        130237.98|
2018/05/10T02:56:59|       28278.50|        131066386.98|        134864.90|
2018/05/10T02:57:00|       28075.30|        131805075.24|        135237.60|
2018/05/10T02:57:01|       27921.03|        117573155.15|        125408.60|
2018/05/10T02:57:02|       28658.26|        116885405.55|        126281.38|
2018/05/10T02:57:03|       27838.23|        114765596.39|        122677.40|
2018/05/10T02:57:04|       27842.01|        121228300.92|        127077.14|
2018/05/10T02:57:05|       27999.27|        128339772.58|        132469.03|
2018/05/10T02:57:06|       28488.62|        126893426.29|        131963.43|
2018/05/10T02:57:07|       27607.87|        125227017.98|        130225.67|
2018/05/10T02:57:08|       28246.69|        121263087.58|        128006.65|
2018/05/10T02:57:09|       28127.31|        123179496.02|        129306.30|
2018/05/10T02:57:10|       27797.39|        121264759.39|        127841.73|
2018/05/10T02:57:11|       28287.85|        117839915.61|        125283.79|
2018/05/10T02:57:12|       28092.97|        120754021.62|        127614.34|
2018/05/10T02:57:13|       27839.25|        120883543.54|        127609.02|
2018/05/10T02:57:14|       28212.66|        125313777.17|        130510.97|
2018/05/10T02:57:15|       28103.75|        128319036.22|        133199.31|
2018/05/10T02:57:16|       27697.96|        122478052.54|        129303.55|
2018/05/10T02:57:17|       28150.04|        122512967.13|        128882.40|
2018/05/10T02:57:18|       28103.78|        120450527.12|        127308.27|
2018/05/10T02:57:19|       27690.76|        117406148.61|        124759.29|
2018/05/10T02:57:20|       28230.62|        123598631.48|        129187.73|
2018/05/10T02:57:21|       28358.36|        131514576.18|        139163.68|
2018/05/10T02:57:22|       27636.15|        126753691.24|        136925.27|
2018/05/10T02:57:23|       28315.38|        125396471.12|        137157.40|
2018/05/10T02:57:24|       28606.05|        128094682.59|        138652.35|
2018/05/10T02:57:25|       27639.33|        126440992.54|        136356.27|
2018/05/10T02:57:26|       29353.81|        119792381.10|        134390.77|
2018/05/10T02:57:27|       28029.67|        117797067.75|        131687.69|
2018/05/10T02:57:28|       27706.27|        115826965.67|        129696.70|
2018/05/10T02:57:29|       28458.70|        118149791.65|        132048.53|
2018/05/10T02:57:30|       28226.90|        117478078.79|        131395.83|
2018/05/10T02:57:31|       27857.35|        125216273.60|        134282.50|
2018/05/10T02:57:32|       28317.24|        142510636.40|        142986.37|
2018/05/10T02:57:33|       27958.83|        141130804.17|        141583.55|
2018/05/10T02:57:34|       27304.15|        137152345.11|        137659.42|
2018/05/10T02:57:35|       27945.22|        138085792.70|        139651.28|
2018/05/10T02:57:36|       28131.44|        143082366.83|        144295.28|
2018/05/10T02:57:37|       27559.53|        140274138.52|        140572.03|
2018/05/10T02:57:38|       28377.87|        141781550.99|        142954.25|
2018/05/10T02:57:39|       28371.01|        135661295.23|        138802.80|
2018/05/10T02:57:40|       27565.35|        135688402.62|        138337.58|
2018/05/10T02:57:41|       28154.20|        138149051.96|        140241.19|
2018/05/10T02:57:42|       28398.84|        142673183.10|        143002.96|
2018/05/10T02:57:43|       28152.89|        142267688.95|        144873.26|
2018/05/10T02:57:44|       28903.01|        145754371.56|        149165.32|
2018/05/10T02:57:45|       28584.12|        129316306.99|        138394.13|
2018/05/10T02:57:46|       81334.10|        126770038.63|        190761.05|
2018/05/10T02:57:47|       28587.96|        129497395.92|        141961.03|
2018/05/10T02:57:48|       28396.79|        126828902.61|        137770.26|
2018/05/10T02:57:49|       28049.96|        123269804.25|        135023.93|
2018/05/10T02:57:50|       28079.18|        112310279.36|        125761.75|
2018/05/10T02:57:51|       28061.85|        111183296.26|        124692.49|
2018/05/10T02:57:52|       27549.08|        112695153.31|        125570.56|
2018/05/10T02:57:53|       27727.42|        116423054.07|        128561.75|
2018/05/10T02:57:54|       27907.31|        118497362.39|        126872.75|
2018/05/10T02:57:55|       28150.01|        119408024.62|        127780.60|
2018/05/10T02:57:56|       28164.30|        120725467.09|        129305.79|
2018/05/10T02:57:57|       27688.94|        127154112.15|        133371.24|
2018/05/10T02:57:58|       27598.79|        125581131.80|        134909.70|
2018/05/10T02:57:59|       28138.09|        125488259.07|        136147.54|
2018/05/10T02:58:00|       28021.56|        116356681.28|        127072.66|
2018/05/10T02:58:01|       27601.53|        119160217.73|        129017.18|
2018/05/10T02:58:02|       28972.92|        126133531.00|        135487.72|
2018/05/10T02:58:03|       28329.35|        126305577.82|        136585.32|
2018/05/10T02:58:04|       27954.97|        122224780.30|        132394.24|
2018/05/10T02:58:05|       28416.08|        123886209.57|        133442.36|
2018/05/10T02:58:06|       28188.86|        125336031.50|        133929.49|
2018/05/10T02:58:07|       27475.95|        116243073.20|        126107.66|
2018/05/10T02:58:08|       28254.81|        120949121.98|        130564.64|
2018/05/10T02:58:09|       28220.99|        119834035.68|        129753.89|
2018/05/10T02:58:10|       27653.74|        122532115.49|        130776.77|
2018/05/10T02:58:11|       28086.97|        126213554.05|        134413.75|
2018/05/10T02:58:12|       28126.20|        124835541.00|        133977.00|
2018/05/10T02:58:13|       27612.27|        123366562.41|        133611.33|
2018/05/10T02:58:14|       28120.24|        120848498.57|        132553.56|
2018/05/10T02:58:15|       27894.31|        121014102.05|        132420.06|
2018/05/10T02:58:16|       27941.47|        124923254.99|        135478.18|
2018/05/10T02:58:17|       28256.75|        118188558.56|        130107.50|
2018/05/10T02:58:18|       28697.30|        119241759.36|        131782.26|
2018/05/10T02:58:19|       27882.01|        123952930.34|        136806.27|
2018/05/10T02:58:20|       28191.17|        128111360.68|        139677.19|
2018/05/10T02:58:21|       28214.62|        127024625.43|        138782.57|
2018/05/10T02:58:22|       27479.54|        129349337.42|        138946.69|
2018/05/10T02:58:23|       28129.06|        126971333.28|        137713.73|
2018/05/10T02:58:24|       28148.86|        129340987.81|        139168.33|
2018/05/10T02:58:25|       27554.77|        129329929.09|        139031.53|
2018/05/10T02:58:26|       28523.84|        130621967.63|        141089.09|
2018/05/10T02:58:27|       28302.93|        118101461.63|        135502.04|
2018/05/10T02:58:28|       27463.79|        114675124.51|        131781.71|
2018/05/10T02:58:29|       27742.60|        117543322.73|        133606.97|
2018/05/10T02:58:30|       28185.26|        117993388.87|        133997.81|
2018/05/10T02:58:31|       27597.94|        118518873.13|        134422.56|
2018/05/10T02:58:32|       28245.51|        115199474.52|        131569.71|
2018/05/10T02:58:33|       28334.15|        113867664.02|        131246.46|
2018/05/10T02:58:34|       27306.13|        112677118.81|        129613.13|
2018/05/10T02:58:35|       28367.86|        115727118.06|        132705.91|
2018/05/10T02:58:36|       29716.40|        115049417.90|        133375.58|
2018/05/10T02:58:37|       27672.29|        114317578.92|        130592.24|
2018/05/10T02:58:38|       27687.58|        113496267.53|        129271.00|
2018/05/10T02:58:39|       28228.01|        113565120.41|        130072.08|
2018/05/10T02:58:40|       27583.17|        110988771.50|        127943.06|
2018/05/10T02:58:41|       28252.96|        114603389.02|        131436.93|
2018/05/10T02:58:42|       27867.19|        122639324.20|        137058.44|
2018/05/10T02:58:43|       27955.54|        119474069.40|        135221.85|
2018/05/10T02:58:44|       28764.61|        124614127.23|        140250.50|
2018/05/10T02:58:45|       28289.69|        131206038.52|        145068.69|
2018/05/10T02:58:46|       27564.10|        130071162.63|        143710.43|
2018/05/10T02:58:47|       28547.37|        131261317.34|        146522.31|
2018/05/10T02:58:48|       28289.13|        131865233.98|        148186.59|
2018/05/10T02:58:49|       27900.70|        136042207.07|        149849.96|
2018/05/10T02:58:50|       28343.86|        128795574.49|        144550.27|
2018/05/10T02:58:51|       28226.22|        134279223.33|        149103.35|
2018/05/10T02:58:52|       27788.88|        128072731.59|        143780.06|
2018/05/10T02:58:53|       28339.15|        120846249.53|        137778.49|
2018/05/10T02:58:54|       28404.45|        121072886.43|        138314.55|
2018/05/10T02:58:55|       27758.19|        123307621.62|        139580.64|
2018/05/10T02:58:56|       28250.04|        122812569.26|        139248.00|
2018/05/10T02:58:57|       27812.64|        122657560.30|        138083.76|
2018/05/10T02:58:58|       27669.55|        129973836.86|        142787.34|
2018/05/10T02:58:59|       28381.14|        129545235.11|        142624.68|
2018/05/10T02:59:00|       28190.16|        136013879.12|        147635.16|
2018/05/10T02:59:01|       27495.56|        142673057.42|        151616.09|
2018/05/10T02:59:02|       28179.31|        145723823.48|        154346.74|
2018/05/10T02:59:03|       28243.22|        141253494.63|        151664.81|
2018/05/10T02:59:04|       28095.91|        140182032.79|        151506.62|
2018/05/10T02:59:05|       28664.21|        135654420.04|        148250.14|
2018/05/10T02:59:06|       28660.72|        141345572.87|        153665.10|
2018/05/10T02:59:07|       27488.22|        145253474.94|        152553.31|
2018/05/10T02:59:08|       28275.15|        130842088.53|        142899.26|
2018/05/10T02:59:09|       28172.28|        129073589.97|        141116.64|
2018/05/10T02:59:10|       27325.73|        131311433.53|        141882.03|
2018/05/10T02:59:11|       28091.66|        129188398.39|        141272.41|
2018/05/10T02:59:12|       28312.50|        127253318.23|        141310.24|
2018/05/10T02:59:13|       27839.16|        132444498.67|        145193.16|
2018/05/10T02:59:14|       28092.18|        137181469.48|        149121.78|
2018/05/10T02:59:15|       28205.65|        133510152.05|        145942.08|
2018/05/10T02:59:16|       27563.14|        130981195.54|        143479.21|
2018/05/10T02:59:17|       28902.20|        134828002.48|        147274.89|
2018/05/10T02:59:18|       29135.13|        137256491.31|        149085.41|
2018/05/10T02:59:19|       27961.31|        143472253.63|        153286.03|
2018/05/10T02:59:20|       28930.20|        142254006.46|        154276.36|
2018/05/10T02:59:21|       29058.86|        142938318.94|        155029.25|
2018/05/10T02:59:22|       28409.69|        139616665.27|        151379.63|
2018/05/10T02:59:23|       28848.59|        136831886.68|        149677.88|
2018/05/10T02:59:24|       28334.20|        131531894.04|        144055.59|
2018/05/10T02:59:25|       27938.59|        129566016.12|        141560.97|
2018/05/10T02:59:26|       29282.96|        135391542.13|        147509.79|
2018/05/10T02:59:27|       28755.83|        135527879.82|        147695.28|
2018/05/10T02:59:28|       28020.80|        139182337.14|        150719.21|
2018/05/10T02:59:29|       28500.50|        144381948.43|        155026.63|
2018/05/10T02:59:30|       28443.78|        151084352.01|        160760.35|
2018/05/10T02:59:31|       27699.72|        152808511.22|        159816.78|
2018/05/10T02:59:32|       28639.09|        161190842.28|        164686.32|
2018/05/10T02:59:33|       28275.79|        152126244.70|        158235.47|
2018/05/10T02:59:34|       28508.55|        148361872.39|        156137.10|
2018/05/10T02:59:35|       28592.99|        151244681.37|        161320.52|
2018/05/10T02:59:36|       29210.63|        153145353.82|        164509.20|
2018/05/10T02:59:37|       28222.54|        148562253.22|        159784.95|
2018/05/10T02:59:38|       29075.67|        144129193.33|        157794.70|
2018/05/10T02:59:39|       28896.88|        142565764.47|        155868.24|
2018/05/10T02:59:40|       29921.40|        139690182.52|        153965.10|
2018/05/10T02:59:41|       29074.10|        135315158.58|        149470.97|
2018/05/10T02:59:42|       28728.29|        132266016.53|        146558.97|
2018/05/10T02:59:43|       27888.14|        133023884.96|        146151.90|
2018/05/10T02:59:44|       29236.89|        128962336.50|        145414.77|
2018/05/10T02:59:45|       28700.00|        131966912.46|        147011.79|
2018/05/10T02:59:46|       27875.77|        131545182.24|        143703.05|
2018/05/10T02:59:47|       28782.39|        123339382.68|        136502.02|
2018/05/10T02:59:48|       28725.49|        131014851.77|        142148.80|
2018/05/10T02:59:49|       27894.91|        129693197.36|        139077.12|
2018/05/10T02:59:50|       28446.05|        126333928.38|        136382.01|
2018/05/10T02:59:51|       28573.82|        116906584.34|        126472.48|
2018/05/10T02:59:52|       27966.23|        113879956.03|        124353.53|
2018/05/10T02:59:53|       28752.60|        119964736.63|        129514.05|
2018/05/10T02:59:54|       28959.61|        115771245.22|        126901.37|
2018/05/10T02:59:55|       27964.49|        123976401.86|        132083.25|
2018/05/10T02:59:56|       28486.51|        117888738.29|        128046.31|
2018/05/10T02:59:57|       28737.26|        121296692.91|        129800.78|
2018/05/10T02:59:58|       28362.18|        108565725.81|        120520.67|
2018/05/10T02:59:59|       28620.72|        106077004.69|        117177.07|
2018/05/10T03:00:00|        1429.05|          3565444.50|          4326.69|
