               Date|        Records|               Bytes|          Packets|
2018/05/10T07:15:00|       28915.62|         42384394.71|         70128.16|
2018/05/10T07:15:01|       28528.85|         57870517.58|         82969.56|
2018/05/10T07:15:02|       27186.30|         55853078.36|         81662.34|
2018/05/10T07:15:03|       28224.75|         52990547.94|         80684.30|
2018/05/10T07:15:04|       28706.64|         47837054.49|         78059.92|
2018/05/10T07:15:05|       27225.47|         56731370.88|         83885.23|
2018/05/10T07:15:06|       27783.66|         51747093.14|         79113.06|
2018/05/10T07:15:07|       28439.87|         52890747.61|         80725.11|
2018/05/10T07:15:08|       27041.53|         53570712.45|         80462.70|
2018/05/10T07:15:09|       27692.32|         56178866.74|         82551.38|
2018/05/10T07:15:10|       29941.18|         52357422.74|         81610.68|
2018/05/10T07:15:11|       26927.90|         54264580.39|         80185.95|
2018/05/10T07:15:12|       27646.56|         58029885.15|         83573.69|
2018/05/10T07:15:13|       28372.29|         63416623.46|         89104.14|
2018/05/10T07:15:14|       26496.06|         99252144.37|        113290.40|
2018/05/10T07:15:15|       27728.80|         80481130.49|        100931.30|
2018/05/10T07:15:16|       29341.67|         65115106.04|         90688.13|
2018/05/10T07:15:17|       26933.29|         62536074.54|         87073.08|
2018/05/10T07:15:18|       27791.67|         61288780.33|         87429.16|
2018/05/10T07:15:19|       28300.91|         64055828.50|         89903.70|
2018/05/10T07:15:20|       26905.58|         64230508.17|         88891.94|
2018/05/10T07:15:21|       27867.94|         63746757.68|         89348.50|
2018/05/10T07:15:22|       28492.70|         62656812.21|         89959.50|
2018/05/10T07:15:23|       27287.40|         67026230.83|         92186.82|
2018/05/10T07:15:24|       28671.64|         69852939.78|         95891.94|
2018/05/10T07:15:25|       28505.94|         72267328.35|        103198.25|
2018/05/10T07:15:26|       27302.77|         66406703.00|         99955.39|
2018/05/10T07:15:27|       39983.98|         63664497.47|        107406.04|
2018/05/10T07:15:28|       41737.84|         65341330.42|        110398.50|
2018/05/10T07:15:29|       27006.94|         64346322.12|        103633.95|
2018/05/10T07:15:30|       27709.56|         66284302.48|         97765.13|
2018/05/10T07:15:31|       28502.07|         63565208.99|         96219.49|
2018/05/10T07:15:32|       28076.69|         68043471.18|        100195.37|
2018/05/10T07:15:33|       27776.49|         70289229.68|        101361.05|
2018/05/10T07:15:34|       28563.72|         76273942.29|        106917.96|
2018/05/10T07:15:35|       27087.26|         84270063.84|        111577.57|
2018/05/10T07:15:36|       28204.36|         81199751.59|        110507.68|
2018/05/10T07:15:37|       28637.52|         84506802.19|        113969.82|
2018/05/10T07:15:38|       27216.89|         81415939.58|        109158.98|
2018/05/10T07:15:39|       28252.36|         84869887.78|        112780.94|
2018/05/10T07:15:40|       28565.63|         88511698.42|        115492.16|
2018/05/10T07:15:41|       27251.06|         90268607.38|        116208.59|
2018/05/10T07:15:42|       28054.53|         89372746.00|        116620.59|
2018/05/10T07:15:43|       29214.90|         91833150.52|        119160.18|
2018/05/10T07:15:44|       27831.97|         94076351.10|        119939.63|
2018/05/10T07:15:45|       28158.76|         98912303.84|        123510.89|
2018/05/10T07:15:46|       28725.91|         97832571.08|        123018.62|
2018/05/10T07:15:47|       30616.03|         99290253.78|        125170.96|
2018/05/10T07:15:48|       28056.10|         94954721.61|        119454.81|
2018/05/10T07:15:49|       28532.25|         92655768.29|        116916.22|
2018/05/10T07:15:50|       27313.15|         91751510.23|        114721.33|
2018/05/10T07:15:51|       27853.99|         90712380.05|        114240.76|
2018/05/10T07:15:52|       28507.94|         95829386.05|        118386.35|
2018/05/10T07:15:53|       27115.21|         91632581.02|        114378.70|
2018/05/10T07:15:54|       27872.57|         89644465.41|        114145.89|
2018/05/10T07:15:55|       28905.29|         89959365.93|        115469.59|
2018/05/10T07:15:56|       27407.77|         95231779.12|        117232.41|
2018/05/10T07:15:57|       28145.63|         94487638.10|        117522.77|
2018/05/10T07:15:58|       28647.35|         92075380.96|        116548.50|
2018/05/10T07:15:59|       27374.00|         92983235.89|        115779.67|
2018/05/10T07:16:00|       28017.07|         92759968.17|        116079.87|
2018/05/10T07:16:01|       28334.04|         90976083.75|        115559.72|
2018/05/10T07:16:02|       27395.68|         93707000.49|        116588.73|
2018/05/10T07:16:03|       27844.81|         89253610.86|        115698.41|
2018/05/10T07:16:04|       28708.70|         90899547.78|        114664.60|
2018/05/10T07:16:05|       27260.30|         98603634.43|        118813.38|
2018/05/10T07:16:06|       27564.06|         98483214.65|        118993.99|
2018/05/10T07:16:07|       28620.39|        101272392.83|        121078.23|
2018/05/10T07:16:08|       27574.00|        103331498.91|        122680.12|
2018/05/10T07:16:09|       27892.76|        100818147.40|        119945.27|
2018/05/10T07:16:10|       28263.58|         98960410.29|        118866.46|
2018/05/10T07:16:11|       27137.48|        101838624.16|        119857.61|
2018/05/10T07:16:12|       28068.49|         99037330.04|        119310.39|
2018/05/10T07:16:13|       28271.08|         99298347.50|        120015.42|
2018/05/10T07:16:14|       27372.15|        106593596.77|        124697.16|
2018/05/10T07:16:15|       27984.38|        101661153.53|        121169.96|
2018/05/10T07:16:16|       28443.95|         97613685.81|        118648.38|
2018/05/10T07:16:17|       27250.13|        105560941.28|        123261.01|
2018/05/10T07:16:18|       28387.23|        102820176.02|        118370.61|
2018/05/10T07:16:19|       28734.44|        102363904.27|        116610.54|
2018/05/10T07:16:20|       27244.01|        100686393.02|        113308.85|
2018/05/10T07:16:21|       28020.43|        101334846.66|        115151.68|
2018/05/10T07:16:22|       29032.86|        100142708.97|        114453.25|
2018/05/10T07:16:23|       27077.71|        105357761.90|        116117.18|
2018/05/10T07:16:24|       27736.53|        100809648.14|        114423.40|
2018/05/10T07:16:25|       28447.66|        102996967.15|        116169.15|
2018/05/10T07:16:26|       27110.53|        104269225.43|        114341.52|
2018/05/10T07:16:27|       27805.17|        104580968.69|        115204.65|
2018/05/10T07:16:28|       28672.42|        102232961.78|        114106.00|
2018/05/10T07:16:29|       27064.96|        108122588.60|        117994.66|
2018/05/10T07:16:30|       28171.51|        107167306.05|        118674.33|
2018/05/10T07:16:31|       28462.63|        106874946.49|        118222.49|
2018/05/10T07:16:32|       27471.64|        100415499.73|        112595.67|
2018/05/10T07:16:33|       27755.35|        101826066.20|        113829.88|
2018/05/10T07:16:34|       29483.26|        104661551.11|        117938.42|
2018/05/10T07:16:35|       27163.10|        101371423.96|        113045.71|
2018/05/10T07:16:36|       27835.84|         95485236.70|        109612.92|
2018/05/10T07:16:37|       28409.62|         97554939.21|        111598.46|
2018/05/10T07:16:38|       27479.69|         97031398.41|        109921.98|
2018/05/10T07:16:39|       27822.17|         98117508.96|        111289.63|
2018/05/10T07:16:40|       28581.93|        114970038.75|        124273.76|
2018/05/10T07:16:41|       27325.32|        107513104.10|        117998.10|
2018/05/10T07:16:42|       28183.26|        107137180.52|        117686.83|
2018/05/10T07:16:43|       28684.41|        109004655.15|        118966.21|
2018/05/10T07:16:44|       27485.54|        105007004.77|        115011.97|
2018/05/10T07:16:45|       28084.96|        111459957.42|        120644.69|
2018/05/10T07:16:46|       28599.64|        119518690.04|        126581.31|
2018/05/10T07:16:47|       27228.22|        114253287.86|        121598.86|
2018/05/10T07:16:48|       27953.88|        111245330.93|        120049.21|
2018/05/10T07:16:49|       28346.24|        112559507.19|        121906.63|
2018/05/10T07:16:50|       27384.84|        108078181.18|        117975.60|
2018/05/10T07:16:51|       28359.22|        104554929.23|        118091.97|
2018/05/10T07:16:52|       28403.40|        103629373.38|        118125.09|
2018/05/10T07:16:53|       27699.12|        102636303.07|        116891.04|
2018/05/10T07:16:54|       28094.75|        103592271.57|        117485.82|
2018/05/10T07:16:55|       28413.87|        102861036.10|        118599.09|
2018/05/10T07:16:56|       27617.52|        104459301.31|        118321.87|
2018/05/10T07:16:57|       27869.66|        100132072.53|        115284.73|
2018/05/10T07:16:58|       28430.19|         98939403.30|        114870.27|
2018/05/10T07:16:59|       27135.20|         96833940.62|        111902.75|
2018/05/10T07:17:00|       28120.15|         95807841.37|        112179.57|
2018/05/10T07:17:01|       28248.81|         96496284.53|        112496.62|
2018/05/10T07:17:02|       27875.65|         95290204.10|        111167.23|
2018/05/10T07:17:03|       28394.65|         92242516.21|        109911.01|
2018/05/10T07:17:04|       28889.11|         85694376.65|        105162.39|
2018/05/10T07:17:05|       27499.44|         86865632.67|        104599.26|
2018/05/10T07:17:06|       28381.13|         89810919.17|        107747.04|
2018/05/10T07:17:07|       28799.24|         90054056.38|        108958.48|
2018/05/10T07:17:08|       27782.96|         87483866.66|        106016.78|
2018/05/10T07:17:09|       27947.46|         88712430.07|        107175.64|
2018/05/10T07:17:10|       28776.80|         94151286.10|        112034.41|
2018/05/10T07:17:11|       27700.63|         94803871.57|        111139.89|
2018/05/10T07:17:12|       28183.80|         96741772.67|        113429.55|
2018/05/10T07:17:13|       28642.37|         93456537.27|        111874.62|
2018/05/10T07:17:14|       27742.12|         93763595.32|        114420.05|
2018/05/10T07:17:15|       27996.82|         88638087.53|        107318.84|
2018/05/10T07:17:16|       28709.84|         84554289.77|        104784.45|
2018/05/10T07:17:17|       27527.59|         84295595.01|        103425.51|
2018/05/10T07:17:18|       27850.49|         84913531.83|        104182.15|
2018/05/10T07:17:19|       28428.59|         84338529.42|        104516.78|
2018/05/10T07:17:20|       27128.39|         81224576.88|        100594.06|
2018/05/10T07:17:21|       28117.69|         79734671.17|        100219.59|
2018/05/10T07:17:22|       28986.31|         80217735.14|        101470.59|
2018/05/10T07:17:23|       27570.85|         81006289.45|        100357.59|
2018/05/10T07:17:24|       27708.92|         87422717.77|        105274.97|
2018/05/10T07:17:25|       28358.91|         98303531.06|        113764.79|
2018/05/10T07:17:26|       27580.11|        105056152.03|        117938.39|
2018/05/10T07:17:27|       27844.52|        100389351.26|        115272.43|
2018/05/10T07:17:28|       28466.89|         87950545.62|        107244.20|
2018/05/10T07:17:29|       27398.04|         87707846.77|        105565.53|
2018/05/10T07:17:30|       27508.81|         88854690.11|        106364.78|
2018/05/10T07:17:31|       28334.40|        123271045.12|        129978.47|
2018/05/10T07:17:32|       27479.67|         90207310.63|        107673.32|
2018/05/10T07:17:33|       27845.50|         85243366.00|        104490.30|
2018/05/10T07:17:34|       28678.02|         84554082.63|        104693.69|
2018/05/10T07:17:35|       27211.40|         83309945.37|        102556.86|
2018/05/10T07:17:36|       27827.89|         79919469.66|        101283.96|
2018/05/10T07:17:37|       28558.31|         83110384.33|        105707.54|
2018/05/10T07:17:38|       27100.98|         79072497.41|         99105.24|
2018/05/10T07:17:39|       27615.87|         78798988.76|         98873.07|
2018/05/10T07:17:40|       28468.36|         76399280.16|         98455.85|
2018/05/10T07:17:41|       27172.41|         75027779.64|         95833.63|
2018/05/10T07:17:42|       29735.64|         77219488.94|         99701.62|
2018/05/10T07:17:43|       28189.84|         80864004.26|        100901.64|
2018/05/10T07:17:44|       27805.51|         81060497.18|        100836.44|
2018/05/10T07:17:45|       27931.09|         81012918.47|        101859.06|
2018/05/10T07:17:46|       28761.13|         79317667.67|        101292.34|
2018/05/10T07:17:47|       27479.35|         84363062.69|        102594.31|
2018/05/10T07:17:48|       27764.14|         76724009.26|         97507.83|
2018/05/10T07:17:49|       28489.56|         77803778.51|         99206.57|
2018/05/10T07:17:50|       27231.23|         77247152.12|         98051.90|
2018/05/10T07:17:51|       27812.15|         83418992.19|        102640.14|
2018/05/10T07:17:52|       28680.27|         81476254.25|        102029.62|
2018/05/10T07:17:53|       27818.66|         80731588.56|        100922.36|
2018/05/10T07:17:54|       27938.89|         78532430.10|        100257.59|
2018/05/10T07:17:55|       28679.97|         80181866.04|        102144.83|
2018/05/10T07:17:56|       27743.82|         78479435.27|        101215.57|
2018/05/10T07:17:57|       27920.14|         74632684.20|         98024.93|
2018/05/10T07:17:58|       28329.89|         73251370.31|         97429.96|
2018/05/10T07:17:59|       27427.23|         76734631.21|         98975.72|
2018/05/10T07:18:00|       27428.78|         76715555.01|         99620.49|
2018/05/10T07:18:01|       28563.41|         79647402.89|        104428.74|
2018/05/10T07:18:02|       27484.53|         79646004.43|        103342.48|
2018/05/10T07:18:03|       28150.63|         77530454.21|        102501.29|
2018/05/10T07:18:04|       28808.88|         76539340.26|        101901.31|
2018/05/10T07:18:05|       27399.21|         79801986.05|        102838.66|
2018/05/10T07:18:06|       27668.78|         79273365.02|        103128.84|
2018/05/10T07:18:07|       28145.46|         78377353.58|        103371.08|
2018/05/10T07:18:08|       27518.67|         76633926.59|        101750.42|
2018/05/10T07:18:09|       27874.73|         75385893.97|        101108.31|
2018/05/10T07:18:10|       28219.58|         68171456.97|         95685.98|
2018/05/10T07:18:11|       27457.31|         74921054.48|         98262.80|
2018/05/10T07:18:12|       27756.06|         73913085.10|         97749.04|
2018/05/10T07:18:13|       28878.29|         72424082.18|         97613.23|
2018/05/10T07:18:14|       27405.90|         74813746.69|         98119.40|
2018/05/10T07:18:15|       27853.18|         74507586.82|         99586.28|
2018/05/10T07:18:16|       28413.19|         71380869.45|         97833.96|
2018/05/10T07:18:17|       27604.02|         75297998.47|        100620.41|
2018/05/10T07:18:18|       28132.35|         80641573.10|        105885.26|
2018/05/10T07:18:19|       28398.91|         82865708.11|        109203.69|
2018/05/10T07:18:20|       27148.98|         83801745.98|        109228.96|
2018/05/10T07:18:21|       27665.82|         80573087.25|        105455.21|
2018/05/10T07:18:22|       29034.35|         82634800.21|        107460.07|
2018/05/10T07:18:23|       27832.87|         84462876.28|        109176.21|
2018/05/10T07:18:24|       28596.86|         81006565.50|        106749.05|
2018/05/10T07:18:25|       28856.88|         81234277.87|        107549.05|
2018/05/10T07:18:26|       27674.38|         85187325.26|        109068.29|
2018/05/10T07:18:27|       28192.81|         81632656.06|        106325.61|
2018/05/10T07:18:28|       28111.02|         82403368.72|        106895.56|
2018/05/10T07:18:29|       29409.10|         81768937.18|        107279.78|
2018/05/10T07:18:30|       32429.21|         81724789.40|        110499.17|
2018/05/10T07:18:31|       33616.68|         81930378.15|        112897.04|
2018/05/10T07:18:32|       30564.23|         79206154.86|        107572.97|
2018/05/10T07:18:33|       27554.48|         76714803.86|        102367.67|
2018/05/10T07:18:34|       29021.60|         75971804.51|        103977.14|
2018/05/10T07:18:35|       27179.95|         77416175.34|        103156.39|
2018/05/10T07:18:36|       27681.43|         77320010.27|        102949.62|
2018/05/10T07:18:37|       28405.08|         82610604.07|        109929.35|
2018/05/10T07:18:38|       27084.52|         85385120.08|        109948.51|
2018/05/10T07:18:39|       27635.98|         85700508.97|        109371.95|
2018/05/10T07:18:40|       27927.06|         84700894.22|        109212.07|
2018/05/10T07:18:41|       27352.36|         83515613.15|        107863.31|
2018/05/10T07:18:42|       27592.51|         83409879.89|        108431.13|
2018/05/10T07:18:43|       28243.87|         83179385.02|        109406.77|
2018/05/10T07:18:44|       27168.63|         82455755.17|        107253.49|
2018/05/10T07:18:45|       27474.91|         75957033.91|        102171.68|
2018/05/10T07:18:46|       28349.97|         74386621.56|        101129.94|
2018/05/10T07:18:47|       27307.17|         75812830.30|        101105.85|
2018/05/10T07:18:48|       27551.95|         75609366.74|        101669.69|
2018/05/10T07:18:49|       27888.28|         87738770.18|        113414.34|
2018/05/10T07:18:50|       27309.23|         87691465.71|        112623.42|
2018/05/10T07:18:51|       27747.26|         83400833.40|        108062.59|
2018/05/10T07:18:52|       28238.42|         77019433.69|        102803.96|
2018/05/10T07:18:53|       27088.42|         78181983.52|        102021.63|
2018/05/10T07:18:54|       27456.53|         78638198.78|        102984.67|
2018/05/10T07:18:55|       28105.43|         75241618.58|        101060.21|
2018/05/10T07:18:56|       26952.93|         76201643.35|        100651.93|
2018/05/10T07:18:57|       27470.14|         77896238.88|        102478.83|
2018/05/10T07:18:58|       28422.00|         81773430.42|        106319.14|
2018/05/10T07:18:59|       26783.80|         81274280.56|        104337.72|
2018/05/10T07:19:00|       27371.93|         80607539.14|        104502.87|
2018/05/10T07:19:01|       27929.40|         78901513.38|        103624.69|
2018/05/10T07:19:02|       26985.62|         81986203.97|        105734.34|
2018/05/10T07:19:03|       27823.05|         87377299.21|        110429.08|
2018/05/10T07:19:04|       27882.67|         84388792.55|        108222.05|
2018/05/10T07:19:05|       27123.15|         80150239.18|        104857.21|
2018/05/10T07:19:06|       27671.42|         81644999.66|        106496.38|
2018/05/10T07:19:07|       27584.51|         85118106.69|        108482.53|
2018/05/10T07:19:08|       27748.87|         74242751.19|        100689.44|
2018/05/10T07:19:09|       27692.10|         71399443.49|         98249.79|
2018/05/10T07:19:10|       27770.12|         79258330.32|        104402.66|
2018/05/10T07:19:11|       26754.94|         69352895.97|         96615.55|
2018/05/10T07:19:12|       27322.85|         67079093.49|         96295.41|
2018/05/10T07:19:13|       27771.92|         66577008.42|         96149.79|
2018/05/10T07:19:14|       26740.42|         67475048.07|         95197.32|
2018/05/10T07:19:15|       27472.74|         65997871.04|         94411.00|
2018/05/10T07:19:16|       28576.15|         77813650.67|        102962.07|
2018/05/10T07:19:17|       26546.22|         65154186.49|         93113.95|
2018/05/10T07:19:18|       27533.39|         77803952.63|        105705.23|
2018/05/10T07:19:19|       28152.63|         82695292.55|        109568.65|
2018/05/10T07:19:20|       26915.99|         82595128.15|        108671.02|
2018/05/10T07:19:21|       27484.08|         78736855.24|        110362.35|
2018/05/10T07:19:22|       27832.36|         80470146.87|        109780.02|
2018/05/10T07:19:23|       27008.82|         91660504.23|        120377.99|
2018/05/10T07:19:24|       28068.18|         83829590.95|        112935.30|
2018/05/10T07:19:25|       31393.47|         70935271.86|        102822.86|
2018/05/10T07:19:26|       29626.81|         68160567.53|         98934.60|
2018/05/10T07:19:27|       29393.31|         67075288.76|         97972.33|
2018/05/10T07:19:28|       30229.26|         70994144.05|        103888.89|
2018/05/10T07:19:29|       29086.89|         70000820.68|        104024.62|
2018/05/10T07:19:30|       29894.27|         72282317.36|        108187.54|
2018/05/10T07:19:31|       30232.04|         71318984.13|        106017.62|
2018/05/10T07:19:32|       28927.08|         67752382.12|        101852.17|
2018/05/10T07:19:33|       29400.58|         70643253.24|        105244.16|
2018/05/10T07:19:34|       29994.61|         70144668.30|        106023.97|
2018/05/10T07:19:35|       28779.85|         71033070.13|        105394.42|
2018/05/10T07:19:36|       29565.78|         72688379.25|        108060.24|
2018/05/10T07:19:37|       29987.33|         69512257.50|        106474.80|
2018/05/10T07:19:38|       29054.71|         71950830.23|        107295.72|
2018/05/10T07:19:39|       29333.63|         78386555.90|        111840.03|
2018/05/10T07:19:40|       29790.36|         78973821.62|        113161.34|
2018/05/10T07:19:41|       26993.92|         81900915.05|        112995.58|
2018/05/10T07:19:42|       27945.41|         82172726.13|        114396.37|
2018/05/10T07:19:43|       27957.38|         81345521.00|        113645.85|
2018/05/10T07:19:44|       26939.88|         85016736.49|        114388.41|
2018/05/10T07:19:45|       27433.71|         85510601.30|        116409.47|
2018/05/10T07:19:46|       28544.20|         80726103.33|        115551.39|
2018/05/10T07:19:47|       26770.81|         80678306.98|        113987.64|
2018/05/10T07:19:48|       27886.34|         82573042.13|        116506.92|
2018/05/10T07:19:49|       27588.97|         82869463.26|        116358.88|
2018/05/10T07:19:50|       26707.70|         82929480.86|        116752.00|
2018/05/10T07:19:51|       27441.88|         83742974.49|        117997.62|
2018/05/10T07:19:52|       28216.80|         85010833.35|        119529.31|
2018/05/10T07:19:53|       27371.66|         82742776.23|        117561.59|
2018/05/10T07:19:54|       27432.45|         83990317.37|        118059.28|
2018/05/10T07:19:55|       27759.03|         76999157.85|        112745.92|
2018/05/10T07:19:56|       26705.69|         94853774.04|        129562.53|
2018/05/10T07:19:57|       27291.92|         94621541.51|        129354.27|
2018/05/10T07:19:58|       27987.38|         89638997.93|        125839.86|
2018/05/10T07:19:59|       27525.51|         76893598.70|        113699.95|
2018/05/10T07:20:00|       27571.93|         78766431.47|        115669.67|
2018/05/10T07:20:01|       27968.85|         81908970.65|        117270.45|
2018/05/10T07:20:02|       27147.64|         84547356.39|        116654.37|
2018/05/10T07:20:03|       27757.66|         81518917.96|        112934.90|
2018/05/10T07:20:04|       28033.66|         80191507.12|        112465.59|
2018/05/10T07:20:05|       27041.56|         81291725.25|        112814.50|
2018/05/10T07:20:06|       27661.57|         71940886.76|        105019.60|
2018/05/10T07:20:07|       28168.89|         67064851.58|        101094.45|
2018/05/10T07:20:08|       27521.00|         71169614.17|        105907.54|
2018/05/10T07:20:09|       27317.30|         72152490.40|        106352.24|
2018/05/10T07:20:10|       28038.50|         70964626.82|        106095.99|
2018/05/10T07:20:11|       27183.05|         68693476.37|        102735.65|
2018/05/10T07:20:12|       27666.69|         66474622.46|        101375.21|
2018/05/10T07:20:13|       27872.93|         71437004.37|        105049.08|
2018/05/10T07:20:14|       26892.50|         75241122.52|        107171.74|
2018/05/10T07:20:15|       27512.85|         72991091.10|        105002.94|
2018/05/10T07:20:16|       28370.56|         76011425.65|        110783.36|
2018/05/10T07:20:17|       27133.38|         79054607.66|        112987.80|
2018/05/10T07:20:18|       27341.99|         76830645.71|        109916.87|
2018/05/10T07:20:19|       27943.12|         78848184.89|        110448.24|
2018/05/10T07:20:20|       26854.55|         75201260.66|        106244.33|
2018/05/10T07:20:21|       27212.29|         71102097.12|        103085.24|
2018/05/10T07:20:22|       27539.11|         70728632.93|        103164.71|
2018/05/10T07:20:23|       26952.79|         69966693.90|        101348.15|
2018/05/10T07:20:24|       27290.59|         68333197.23|        101689.08|
2018/05/10T07:20:25|       28483.60|         71304209.14|        104130.88|
2018/05/10T07:20:26|       27032.27|         72348559.69|        100419.85|
2018/05/10T07:20:27|       27434.18|         72550897.56|        100748.07|
2018/05/10T07:20:28|       28288.14|         71659011.83|         99563.53|
2018/05/10T07:20:29|       27015.79|         75686371.16|        101739.70|
2018/05/10T07:20:30|       27537.48|         75189877.32|        101726.12|
2018/05/10T07:20:31|       28615.36|         75361716.12|        103393.67|
2018/05/10T07:20:32|       27281.73|         70083737.72|         98267.41|
2018/05/10T07:20:33|       27614.03|         73868908.85|        101493.34|
2018/05/10T07:20:34|       27929.45|         78824009.79|        104478.10|
2018/05/10T07:20:35|       27055.09|         81831079.14|        107133.32|
2018/05/10T07:20:36|       27482.95|         79507860.58|        105517.71|
2018/05/10T07:20:37|       28356.92|         75269428.27|        103217.92|
2018/05/10T07:20:38|       26944.68|         73411256.12|        100265.76|
2018/05/10T07:20:39|       27155.58|         74029744.54|        101179.38|
2018/05/10T07:20:40|       27926.69|         72280202.84|        102528.68|
2018/05/10T07:20:41|       27264.57|         69742720.21|         99356.33|
2018/05/10T07:20:42|       27457.70|         69723243.90|         98722.55|
2018/05/10T07:20:43|       28333.47|         72484953.23|        101730.93|
2018/05/10T07:20:44|       26772.79|         75415102.15|        102236.95|
2018/05/10T07:20:45|       27402.05|         75838539.52|        103345.82|
2018/05/10T07:20:46|       27887.10|         73013653.49|        101698.32|
2018/05/10T07:20:47|       27453.52|         72056596.56|        100217.79|
2018/05/10T07:20:48|       27410.56|         77227143.37|        104551.81|
2018/05/10T07:20:49|       28268.23|         82756845.57|        109984.91|
2018/05/10T07:20:50|       27086.61|         84837495.41|        110018.41|
2018/05/10T07:20:51|       27267.40|         80113600.10|        106909.97|
2018/05/10T07:20:52|       27784.34|         74436403.23|        102668.57|
2018/05/10T07:20:53|       27162.72|         77263823.03|        104281.52|
2018/05/10T07:20:54|       27241.46|         77399347.39|        103929.15|
2018/05/10T07:20:55|       28088.56|         72605791.29|        101719.06|
2018/05/10T07:20:56|       27174.56|         72313519.25|        101157.34|
2018/05/10T07:20:57|       27247.72|         71904777.52|        100507.34|
2018/05/10T07:20:58|       28019.09|         69580233.89|         99230.68|
2018/05/10T07:20:59|       26796.60|         71474418.40|         99013.06|
2018/05/10T07:21:00|       28823.65|         71476077.54|        100130.94|
2018/05/10T07:21:01|       28092.40|         73371148.15|        101660.75|
2018/05/10T07:21:02|       27259.43|         78184163.83|        103649.08|
2018/05/10T07:21:03|       27664.06|         74928331.25|        102411.16|
2018/05/10T07:21:04|       27945.34|         74548691.60|        102842.15|
2018/05/10T07:21:05|       26870.37|         72657330.51|         99361.70|
2018/05/10T07:21:06|       27465.24|         74606308.38|        101447.54|
2018/05/10T07:21:07|       27949.41|         78684122.74|        105231.68|
2018/05/10T07:21:08|       27025.93|        113959134.76|        128434.96|
2018/05/10T07:21:09|       27353.61|        110686841.70|        126803.67|
2018/05/10T07:21:10|       28119.05|         93590938.06|        116244.76|
2018/05/10T07:21:11|       28078.97|         79961083.08|        107124.30|
2018/05/10T07:21:12|       27197.13|         77875948.63|        103868.80|
2018/05/10T07:21:13|       28205.61|         79068662.93|        105851.84|
2018/05/10T07:21:14|       26934.93|         84230941.94|        107539.28|
2018/05/10T07:21:15|       26972.13|         81336888.36|        105090.43|
2018/05/10T07:21:16|       28271.33|         81329508.24|        106050.94|
2018/05/10T07:21:17|       27151.93|         84357373.90|        108319.51|
2018/05/10T07:21:18|       27468.33|         85571992.91|        109920.13|
2018/05/10T07:21:19|       28246.95|         81194821.45|        105467.66|
2018/05/10T07:21:20|       28347.84|         80652567.72|        106052.77|
2018/05/10T07:21:21|       28066.37|         80535563.71|        105248.92|
2018/05/10T07:21:22|       28209.63|         83004648.48|        108175.03|
2018/05/10T07:21:23|       27415.98|         81412931.62|        105775.33|
2018/05/10T07:21:24|       27904.37|         78024152.83|        103354.70|
2018/05/10T07:21:25|       28562.81|         76873288.61|        102863.03|
2018/05/10T07:21:26|       27858.59|         74917906.14|        104397.70|
2018/05/10T07:21:27|       27358.32|         73774360.07|        102155.12|
2018/05/10T07:21:28|       28364.16|         74481176.12|        100486.17|
2018/05/10T07:21:29|       27080.10|         78365081.79|        102044.85|
2018/05/10T07:21:30|       27549.90|         68998855.99|         94968.28|
2018/05/10T07:21:31|       28195.41|         67174682.67|         94150.34|
2018/05/10T07:21:32|       27443.54|         68398495.65|         94057.56|
2018/05/10T07:21:33|       35585.09|         73918773.32|        107992.80|
2018/05/10T07:21:34|       36310.20|         77019285.52|        111564.15|
2018/05/10T07:21:35|       36037.21|         76970050.58|        111186.25|
2018/05/10T07:21:36|       36095.81|         75226449.17|        110045.07|
2018/05/10T07:21:37|       35995.00|         73252657.71|        108388.90|
2018/05/10T07:21:38|       34799.59|         75257518.80|        109902.16|
2018/05/10T07:21:39|       29246.29|         82831611.73|        110247.81|
2018/05/10T07:21:40|       32718.83|         78723666.18|        110410.28|
2018/05/10T07:21:41|       27155.10|         78118317.05|        106308.13|
2018/05/10T07:21:42|       27733.21|         71772630.37|        102330.53|
2018/05/10T07:21:43|       29934.63|         74995460.15|        108105.78|
2018/05/10T07:21:44|       30972.75|         67578395.11|        101050.38|
2018/05/10T07:21:45|       30938.13|         59080257.86|         94051.78|
2018/05/10T07:21:46|       31850.46|         61568657.12|         97621.80|
2018/05/10T07:21:47|       30137.67|         62481050.71|         96558.44|
2018/05/10T07:21:48|       29809.42|         63143082.18|         96609.00|
2018/05/10T07:21:49|       28192.90|         64433923.87|         96156.48|
2018/05/10T07:21:50|       27091.26|         70522411.42|         99135.87|
2018/05/10T07:21:51|       27694.25|         65469593.13|         96102.09|
2018/05/10T07:21:52|       28042.19|         62436897.21|         94667.92|
2018/05/10T07:21:53|       27133.03|         62472711.03|         93059.29|
2018/05/10T07:21:54|       27824.27|         64303517.04|         95811.97|
2018/05/10T07:21:55|       29014.75|         67278363.15|         98735.99|
2018/05/10T07:21:56|       27442.98|         71538976.89|        100649.16|
2018/05/10T07:21:57|       27845.96|         83735753.33|        109780.98|
2018/05/10T07:21:58|       29659.23|         76021124.61|        106688.28|
2018/05/10T07:21:59|       27332.58|         79763756.10|        107539.70|
2018/05/10T07:22:00|       27728.84|         79797798.60|        108841.83|
2018/05/10T07:22:01|       28493.07|         78955197.32|        108840.10|
2018/05/10T07:22:02|       27176.99|         78747681.86|        108272.12|
2018/05/10T07:22:03|       27627.04|         84374908.95|        114568.76|
2018/05/10T07:22:04|       28112.16|         86858824.57|        117215.27|
2018/05/10T07:22:05|       27131.67|         90408446.06|        118679.02|
2018/05/10T07:22:06|       27643.85|         95198401.89|        122724.02|
2018/05/10T07:22:07|       28141.17|         86167981.66|        115741.02|
2018/05/10T07:22:08|       27239.58|         88527655.86|        116645.41|
2018/05/10T07:22:09|       27445.03|         72435254.74|        101609.35|
2018/05/10T07:22:10|       28206.77|         65404305.87|         96203.66|
2018/05/10T07:22:11|       27252.98|         65542063.68|         95251.15|
2018/05/10T07:22:12|       27620.23|         67210112.63|         97105.39|
2018/05/10T07:22:13|       28423.49|         70042609.29|         99994.13|
2018/05/10T07:22:14|       27848.80|         84918522.07|        109270.24|
2018/05/10T07:22:15|       27919.28|         65525378.31|         96974.51|
2018/05/10T07:22:16|       28167.72|         67125969.89|         96910.75|
2018/05/10T07:22:17|       27343.59|         64489632.63|         93467.14|
2018/05/10T07:22:18|       27495.87|         64295060.31|         93643.12|
2018/05/10T07:22:19|       28204.43|         65334397.90|         94766.31|
2018/05/10T07:22:20|       27305.68|         64251362.35|         92872.23|
2018/05/10T07:22:21|       27541.35|         63391232.03|         92551.53|
2018/05/10T07:22:22|       27834.37|         62409867.50|         92164.59|
2018/05/10T07:22:23|       27269.44|         63186446.34|         93261.94|
2018/05/10T07:22:24|       27474.74|         67093178.33|         97071.88|
2018/05/10T07:22:25|       28353.62|         62233079.54|         94312.70|
2018/05/10T07:22:26|       26902.55|         61346428.79|         92403.53|
2018/05/10T07:22:27|       27528.95|         63892378.45|         95341.70|
2018/05/10T07:22:28|       28479.42|         62024475.66|         94357.73|
2018/05/10T07:22:29|       27224.34|         63837502.36|         94142.92|
2018/05/10T07:22:30|       27406.22|         61725907.47|         92862.86|
2018/05/10T07:22:31|       27806.41|         63410090.77|         94418.47|
2018/05/10T07:22:32|       27004.35|         69313005.97|         98436.00|
2018/05/10T07:22:33|       27294.94|         67148206.97|         96508.10|
2018/05/10T07:22:34|       27791.52|         76392130.55|        103583.94|
2018/05/10T07:22:35|       27383.44|         70403290.20|         98033.98|
2018/05/10T07:22:36|       27406.72|         67834046.96|         95719.17|
2018/05/10T07:22:37|       27860.52|         72694217.43|        100074.80|
2018/05/10T07:22:38|       26628.98|         73092352.37|         99063.45|
2018/05/10T07:22:39|       27281.99|         74267691.87|        100694.11|
2018/05/10T07:22:40|       27773.40|         71871560.39|         99880.37|
2018/05/10T07:22:41|       27327.80|         70367215.82|         98580.43|
2018/05/10T07:22:42|       27774.33|         73341794.88|        101344.93|
2018/05/10T07:22:43|       27838.10|         74540163.89|        102161.44|
2018/05/10T07:22:44|       27051.23|         74501729.37|        100922.24|
2018/05/10T07:22:45|       27498.62|         72420483.84|        100239.37|
2018/05/10T07:22:46|       28270.77|         72612426.90|        101330.00|
2018/05/10T07:22:47|       26996.80|         63389071.67|         93425.25|
2018/05/10T07:22:48|       27569.85|         64486518.61|         94898.15|
2018/05/10T07:22:49|       28094.04|         61873789.14|         93678.74|
2018/05/10T07:22:50|       27279.89|         59959517.35|         92094.73|
2018/05/10T07:22:51|       31422.58|         59794297.31|         94907.25|
2018/05/10T07:22:52|       31993.74|         61107066.03|         96075.24|
2018/05/10T07:22:53|       30521.20|         65389536.16|         97965.03|
2018/05/10T07:22:54|       30685.97|         63723273.85|         96917.57|
2018/05/10T07:22:55|       31272.10|         64028998.10|         98043.45|
2018/05/10T07:22:56|       30606.62|         63111447.68|         96399.57|
2018/05/10T07:22:57|       31126.53|         61860826.97|         96473.34|
2018/05/10T07:22:58|       31712.86|         63759241.91|        102336.24|
2018/05/10T07:22:59|       31060.98|         69195673.55|        108303.81|
2018/05/10T07:23:00|       30796.87|         64737658.20|        104372.78|
2018/05/10T07:23:01|       31777.07|         66904928.43|        105493.01|
2018/05/10T07:23:02|       31098.67|         89450010.64|        115716.94|
2018/05/10T07:23:03|       31141.29|         81038201.35|        111780.85|
2018/05/10T07:23:04|       31405.98|         67567531.00|        106144.95|
2018/05/10T07:23:05|       30717.97|         64933583.81|        104753.81|
2018/05/10T07:23:06|       30908.05|         64675443.16|        104624.44|
2018/05/10T07:23:07|       31652.97|         63557051.20|        104149.18|
2018/05/10T07:23:08|       30929.11|         62727356.02|        101780.91|
2018/05/10T07:23:09|       30973.34|         67474291.15|        105094.24|
2018/05/10T07:23:10|       29550.85|         63555336.20|        100593.08|
2018/05/10T07:23:11|       27341.61|         62036028.03|         97865.17|
2018/05/10T07:23:12|       27402.03|         70857871.63|        104575.01|
2018/05/10T07:23:13|       28277.33|         65194750.48|        101645.32|
2018/05/10T07:23:14|       27350.88|         63103485.36|         98853.31|
2018/05/10T07:23:15|       27852.15|         63793281.80|         94494.69|
2018/05/10T07:23:16|       28127.82|         63603194.53|         93257.79|
2018/05/10T07:23:17|       27161.71|         68949470.80|         95980.97|
2018/05/10T07:23:18|       27586.80|         75566748.88|        101059.37|
2018/05/10T07:23:19|       28325.34|         67547860.89|         97030.64|
2018/05/10T07:23:20|       28854.60|         72775960.57|        102573.17|
2018/05/10T07:23:21|       27646.61|         68389927.54|         97686.56|
2018/05/10T07:23:22|       28302.25|         69226826.95|         97897.60|
2018/05/10T07:23:23|       27205.85|         74451548.46|         99907.30|
2018/05/10T07:23:24|       27597.63|         68428291.05|         96153.68|
2018/05/10T07:23:25|       28146.08|         67619742.66|         96893.47|
2018/05/10T07:23:26|       27455.18|         70603666.90|         98844.22|
2018/05/10T07:23:27|       27653.37|         66315328.44|         96105.47|
2018/05/10T07:23:28|       27967.16|         66999197.76|         96700.65|
2018/05/10T07:23:29|       27346.28|         67733567.61|         96834.67|
2018/05/10T07:23:30|       27343.48|         80088378.27|        105401.17|
2018/05/10T07:23:31|       28237.77|         88450222.15|        112667.89|
2018/05/10T07:23:32|       27106.43|         93279244.95|        115388.37|
2018/05/10T07:23:33|       27128.27|         96119448.38|        116233.75|
2018/05/10T07:23:34|       29140.01|         82804299.38|        108018.12|
2018/05/10T07:23:35|       27190.35|         84463319.58|        107372.93|
2018/05/10T07:23:36|       27479.99|         84470586.26|        108375.88|
2018/05/10T07:23:37|       27931.41|         79603979.69|        105153.04|
2018/05/10T07:23:38|       27114.42|         78157912.78|        102765.58|
2018/05/10T07:23:39|       27546.24|         80392195.49|        105137.83|
2018/05/10T07:23:40|       28408.42|         88801375.22|        114058.34|
2018/05/10T07:23:41|       27485.68|         88723788.04|        113112.24|
2018/05/10T07:23:42|       27335.33|         92655698.12|        115497.45|
2018/05/10T07:23:43|       28241.18|         89000207.49|        113305.93|
2018/05/10T07:23:44|       27288.96|         88342518.54|        113068.01|
2018/05/10T07:23:45|       27593.16|         86564388.94|        112683.93|
2018/05/10T07:23:46|       28194.40|         86953913.58|        113011.50|
2018/05/10T07:23:47|       27253.17|         79078128.26|        103280.01|
2018/05/10T07:23:48|       24015.94|         75933306.37|         97552.26|
2018/05/10T07:23:49|       16142.52|         77388385.14|         90808.98|
2018/05/10T07:23:50|        5140.78|         74562964.57|         78020.79|
2018/05/10T07:23:51|       21514.57|         81257172.60|         99156.08|
2018/05/10T07:23:52|       32252.39|         82605740.22|        110399.99|
2018/05/10T07:23:53|       34150.86|         74160318.32|        106280.25|
2018/05/10T07:23:54|       30974.75|         76697694.90|        105135.00|
2018/05/10T07:23:55|       29962.74|         83588615.00|        108487.24|
2018/05/10T07:23:56|       29812.75|         83674156.49|        109315.16|
2018/05/10T07:23:57|       28953.95|         80059147.09|        106342.45|
2018/05/10T07:23:58|       29184.67|         75600920.77|        101758.39|
2018/05/10T07:23:59|       28862.08|         72636208.21|         98827.37|
2018/05/10T07:24:00|       28267.04|         70730592.78|         97031.01|
2018/05/10T07:24:01|       28779.03|         78764973.45|        103661.79|
2018/05/10T07:24:02|       28455.97|         84743757.13|        108381.10|
2018/05/10T07:24:03|       28127.55|         92196592.50|        113618.14|
2018/05/10T07:24:04|       29211.18|         88075299.93|        111032.38|
2018/05/10T07:24:05|       27820.23|         88447963.56|        109763.83|
2018/05/10T07:24:06|       27867.57|         90554409.19|        110380.19|
2018/05/10T07:24:07|       28916.97|         88012184.23|        109827.46|
2018/05/10T07:24:08|       27972.54|         89061382.09|        110591.71|
2018/05/10T07:24:09|       27522.76|         87444636.67|        107214.44|
2018/05/10T07:24:10|       28597.47|         88198625.91|        108388.04|
2018/05/10T07:24:11|       27737.65|         86103620.28|        106060.50|
2018/05/10T07:24:12|       27707.66|         85270773.63|        105622.16|
2018/05/10T07:24:13|       28492.75|         89197339.96|        112388.87|
2018/05/10T07:24:14|       27639.07|         94233508.06|        115655.13|
2018/05/10T07:24:15|       28259.08|         93688584.14|        115140.20|
2018/05/10T07:24:16|       28412.69|         92431741.83|        114291.19|
2018/05/10T07:24:17|       27282.39|         93490825.65|        113832.00|
2018/05/10T07:24:18|       27345.06|         96433053.43|        116263.90|
2018/05/10T07:24:19|       28431.91|        101112779.40|        120919.37|
2018/05/10T07:24:20|       27951.35|        111112009.34|        128859.18|
2018/05/10T07:24:21|       27889.16|        109725762.66|        127327.06|
2018/05/10T07:24:22|       27855.80|        105385414.81|        123565.26|
2018/05/10T07:24:23|       27348.41|        104455886.72|        121945.45|
2018/05/10T07:24:24|       27779.37|        104158393.69|        122016.40|
2018/05/10T07:24:25|       28294.44|        103496618.27|        121783.50|
2018/05/10T07:24:26|       27377.88|         92895309.91|        110654.01|
2018/05/10T07:24:27|       27503.41|         84241189.78|        103271.43|
2018/05/10T07:24:28|       28378.06|         79055906.43|         99865.73|
2018/05/10T07:24:29|       27421.37|         83751741.65|        103073.39|
2018/05/10T07:24:30|       27474.18|         87732286.50|        108483.53|
2018/05/10T07:24:31|       28391.13|         86260682.29|        106764.06|
2018/05/10T07:24:32|       27039.88|         85195724.76|        105090.72|
2018/05/10T07:24:33|       27604.52|         83695726.71|        104094.16|
2018/05/10T07:24:34|       28153.75|         81418840.11|        103162.18|
2018/05/10T07:24:35|       26967.51|        100300513.70|        118689.27|
2018/05/10T07:24:36|       27251.79|        101071482.39|        117604.10|
2018/05/10T07:24:37|       27637.38|         93075215.33|        110744.41|
2018/05/10T07:24:38|       26996.44|         93200428.12|        110703.77|
2018/05/10T07:24:39|       27505.37|         91521484.69|        108853.41|
2018/05/10T07:24:40|       27646.84|         84887872.54|        103035.87|
2018/05/10T07:24:41|       27079.57|         85421116.06|        117045.18|
2018/05/10T07:24:42|       27124.34|         83764831.13|        119225.07|
2018/05/10T07:24:43|       28047.08|         82695320.28|        103035.24|
2018/05/10T07:24:44|       26984.15|         84660045.70|        102725.55|
2018/05/10T07:24:45|       27287.18|         85414326.04|        103222.21|
2018/05/10T07:24:46|       27634.87|         81400999.50|        100503.40|
2018/05/10T07:24:47|       27344.30|         82438370.98|        102447.13|
2018/05/10T07:24:48|       27065.50|         79291087.90|        100952.22|
2018/05/10T07:24:49|       27994.71|         80489740.40|        102782.24|
2018/05/10T07:24:50|       26929.03|         77033481.45|         99307.25|
2018/05/10T07:24:51|       27295.50|         81079978.29|        102041.09|
2018/05/10T07:24:52|       27639.18|         80565987.23|        101749.60|
2018/05/10T07:24:53|       26946.51|         79763393.83|        100940.54|
2018/05/10T07:24:54|       27388.50|         81028369.52|        101714.98|
2018/05/10T07:24:55|       27680.21|         73618660.14|         96699.56|
2018/05/10T07:24:56|       26982.28|         75902856.30|         97621.32|
2018/05/10T07:24:57|       27957.70|         74744199.90|         97886.51|
2018/05/10T07:24:58|       27606.66|         75058669.54|         97556.06|
2018/05/10T07:24:59|       27091.35|         75536115.79|         97892.02|
2018/05/10T07:25:00|       27902.21|         73901422.86|         96607.34|
2018/05/10T07:25:01|       28230.56|         75161994.75|         98194.98|
2018/05/10T07:25:02|       27086.13|         88386983.93|        105677.06|
2018/05/10T07:25:03|       27519.41|         90634767.88|        107714.11|
2018/05/10T07:25:04|       27725.34|         93744093.88|        110264.95|
2018/05/10T07:25:05|       27046.27|         91209123.40|        107823.42|
2018/05/10T07:25:06|       27803.97|         92288304.20|        109361.61|
2018/05/10T07:25:07|       28118.76|         79839172.82|        100812.00|
2018/05/10T07:25:08|       27135.31|         79745268.74|        100605.50|
2018/05/10T07:25:09|       27815.61|         82371212.60|        103779.67|
2018/05/10T07:25:10|       27902.74|         76223485.05|        102989.59|
2018/05/10T07:25:11|       27177.13|         80700667.07|        107434.53|
2018/05/10T07:25:12|       27461.79|         76282857.80|        104330.09|
2018/05/10T07:25:13|       27807.92|         74295889.82|        102966.54|
2018/05/10T07:25:14|       26775.04|         77833285.34|        104661.61|
2018/05/10T07:25:15|       27212.23|         82335396.14|        108898.51|
2018/05/10T07:25:16|       27852.13|         86044685.76|        111945.84|
2018/05/10T07:25:17|       26829.78|         83995861.09|        109524.94|
2018/05/10T07:25:18|       27348.99|         80603255.87|        107559.32|
2018/05/10T07:25:19|       27841.41|         82144286.57|        109406.50|
2018/05/10T07:25:20|       28070.77|         76864270.07|        104010.35|
2018/05/10T07:25:21|       27462.29|         73407742.52|         96898.52|
2018/05/10T07:25:22|       27868.21|         78483817.38|        100565.11|
2018/05/10T07:25:23|       27002.59|         85901456.38|        105112.51|
2018/05/10T07:25:24|       27417.77|         85365684.49|        105203.56|
2018/05/10T07:25:25|       27788.10|         85084673.01|        105329.43|
2018/05/10T07:25:26|       26637.05|         88381457.86|        104787.63|
2018/05/10T07:25:27|       27346.82|         89390345.31|        106361.58|
2018/05/10T07:25:28|       28517.12|         87925134.54|        106576.90|
2018/05/10T07:25:29|       26755.21|         84164801.56|        101283.21|
2018/05/10T07:25:30|       27594.05|         83021980.05|        100911.50|
2018/05/10T07:25:31|       28030.11|         84237421.69|        101544.34|
2018/05/10T07:25:32|       27049.76|         84546133.89|        100925.02|
2018/05/10T07:25:33|       26974.45|         83334226.13|         99797.63|
2018/05/10T07:25:34|       28101.40|         81048630.08|         99573.09|
2018/05/10T07:25:35|       26678.04|         75906633.49|         95264.38|
2018/05/10T07:25:36|       27812.29|         76170383.76|         96538.95|
2018/05/10T07:25:37|       27856.97|         77361397.61|         97439.71|
2018/05/10T07:25:38|       27082.73|         79740334.34|         99201.09|
2018/05/10T07:25:39|       27403.23|         78605496.82|         99335.71|
2018/05/10T07:25:40|       28175.06|         76354213.63|         99104.63|
2018/05/10T07:25:41|       26873.97|         76081247.63|         97238.53|
2018/05/10T07:25:42|       27297.69|         81955642.51|        100679.86|
2018/05/10T07:25:43|       27820.59|         84798604.22|        103338.04|
2018/05/10T07:25:44|       27185.24|         87145217.19|        104768.74|
2018/05/10T07:25:45|       27397.79|         83732227.25|        102543.31|
2018/05/10T07:25:46|       28155.48|         92010432.40|        108515.59|
2018/05/10T07:25:47|       26883.12|         91844256.51|        106816.83|
2018/05/10T07:25:48|       27303.63|        107229053.88|        118186.26|
2018/05/10T07:25:49|       27991.71|         93208654.15|        110969.96|
2018/05/10T07:25:50|       26743.29|         94935908.55|        114451.78|
2018/05/10T07:25:51|       27067.53|         93973751.92|        114154.30|
2018/05/10T07:25:52|       28018.18|         94820794.42|        115777.88|
2018/05/10T07:25:53|       26930.21|         91516012.08|        111913.21|
2018/05/10T07:25:54|       27199.95|         89728271.12|        111312.37|
2018/05/10T07:25:55|       28301.84|         92633372.51|        114444.98|
2018/05/10T07:25:56|       26613.42|         91486289.87|        113733.67|
2018/05/10T07:25:57|       27232.76|         92778367.23|        116453.23|
2018/05/10T07:25:58|       27762.71|         97193446.49|        119476.70|
2018/05/10T07:25:59|       26682.04|         97487316.12|        118443.22|
2018/05/10T07:26:00|       28378.76|        100147739.19|        118332.60|
2018/05/10T07:26:01|       27985.37|        105964305.79|        121598.77|
2018/05/10T07:26:02|       27475.52|        105165407.17|        121364.91|
2018/05/10T07:26:03|       27532.93|        101728359.78|        117866.60|
2018/05/10T07:26:04|       27806.41|         94184900.63|        110823.96|
2018/05/10T07:26:05|       27046.07|         90329260.11|        108063.14|
2018/05/10T07:26:06|       27493.78|         84015532.71|        104716.09|
2018/05/10T07:26:07|       28084.18|         85061137.12|        105367.53|
2018/05/10T07:26:08|       27066.79|         87322613.42|        106226.92|
2018/05/10T07:26:09|       27237.01|         89779161.55|        108210.60|
2018/05/10T07:26:10|       28225.30|         87685173.58|        107555.02|
2018/05/10T07:26:11|       26808.06|         86945539.65|        105305.59|
2018/05/10T07:26:12|       27260.61|         89229558.02|        107397.60|
2018/05/10T07:26:13|       28082.40|         89017322.00|        107766.65|
2018/05/10T07:26:14|       26921.72|         81759977.04|        101688.06|
2018/05/10T07:26:15|       27382.36|         79555099.19|         99856.92|
2018/05/10T07:26:16|       27999.88|         83723295.74|        102599.47|
2018/05/10T07:26:17|       26672.96|         98247431.27|        110963.12|
2018/05/10T07:26:18|       27280.62|         95166728.85|        109315.27|
2018/05/10T07:26:19|       27762.70|         93398739.77|        108324.03|
2018/05/10T07:26:20|       26916.32|         95350938.52|        109152.00|
2018/05/10T07:26:21|       27334.14|         96774919.60|        111270.54|
2018/05/10T07:26:22|       27637.63|         91786745.43|        107496.86|
2018/05/10T07:26:23|       26977.28|         88130544.65|        103708.72|
2018/05/10T07:26:24|       27054.78|         86711971.81|        102994.41|
2018/05/10T07:26:25|       28101.27|         84625158.62|        102561.21|
2018/05/10T07:26:26|       27096.34|         85012842.86|        101467.38|
2018/05/10T07:26:27|       27391.62|         84931831.66|        101713.62|
2018/05/10T07:26:28|       28170.92|         85477971.53|        103008.11|
2018/05/10T07:26:29|       27007.79|         84870942.83|        106977.94|
2018/05/10T07:26:30|       27511.18|         75755819.66|         97043.96|
2018/05/10T07:26:31|       28210.38|         77299817.28|         99199.47|
2018/05/10T07:26:32|       26973.43|         75255034.65|         95412.98|
2018/05/10T07:26:33|       27491.27|         68695565.71|         90727.98|
2018/05/10T07:26:34|       27726.38|         77207463.74|         97081.04|
2018/05/10T07:26:35|       27058.58|         70888195.19|         93040.25|
2018/05/10T07:26:36|       26920.10|         68274041.93|         97679.85|
2018/05/10T07:26:37|       27993.41|         72230581.36|        101392.72|
2018/05/10T07:26:38|       26867.06|         69564865.15|         98476.65|
2018/05/10T07:26:39|       27142.33|         68299978.92|         97673.32|
2018/05/10T07:26:40|       27586.72|         69388882.87|         99402.05|
2018/05/10T07:26:41|       27225.07|         72458430.41|        101458.46|
2018/05/10T07:26:42|       27521.53|         69687092.95|         99313.33|
2018/05/10T07:26:43|       27875.85|         67255549.61|         97467.13|
2018/05/10T07:26:44|       27200.70|         58646244.08|         91778.17|
2018/05/10T07:26:45|       27361.82|         59203438.02|         92511.67|
2018/05/10T07:26:46|       27597.59|         55928444.42|         85711.31|
2018/05/10T07:26:47|       26971.52|         63456182.57|         87234.54|
2018/05/10T07:26:48|       27374.54|         64978513.06|         88032.53|
2018/05/10T07:26:49|       28417.94|         65161714.91|         89638.11|
2018/05/10T07:26:50|       26949.64|         66673752.49|         89195.27|
2018/05/10T07:26:51|       27287.78|         64146808.89|         87406.91|
2018/05/10T07:26:52|       27569.64|         65303693.68|         88780.75|
2018/05/10T07:26:53|       27032.46|         69699300.30|         92796.39|
2018/05/10T07:26:54|       27335.07|         68628219.07|         93330.50|
2018/05/10T07:26:55|       27851.76|         66146367.58|         91785.03|
2018/05/10T07:26:56|       26799.65|         63465541.53|         88795.11|
2018/05/10T07:26:57|       27032.62|         64460607.33|         90008.80|
2018/05/10T07:26:58|       28003.14|         64199341.95|         90383.85|
2018/05/10T07:26:59|       27108.91|         71176332.98|         94762.25|
2018/05/10T07:27:00|       27140.08|         71583727.31|         95419.47|
2018/05/10T07:27:01|       27846.42|         81440459.36|        103248.35|
2018/05/10T07:27:02|       26916.25|         85545665.83|        104740.90|
2018/05/10T07:27:03|       28281.20|         72184507.96|         95475.51|
2018/05/10T07:27:04|       27662.09|         79570595.41|         99396.02|
2018/05/10T07:27:05|       26924.34|         81025591.54|         99559.28|
2018/05/10T07:27:06|       27202.94|         79570254.05|         98677.72|
2018/05/10T07:27:07|       27952.74|         82672983.46|        101694.32|
2018/05/10T07:27:08|       26801.20|         85511081.99|        102437.04|
2018/05/10T07:27:09|       27220.17|         82249259.51|        100902.56|
2018/05/10T07:27:10|       28011.50|         83395083.81|        102193.81|
2018/05/10T07:27:11|       27045.13|         80837769.94|         99481.49|
2018/05/10T07:27:12|       27388.78|         81941871.97|        101241.77|
2018/05/10T07:27:13|       28029.81|         83138250.37|        103488.20|
2018/05/10T07:27:14|       26966.27|         80585273.47|        102434.93|
2018/05/10T07:27:15|       27585.55|         82198352.14|        108939.03|
2018/05/10T07:27:16|       28537.55|         85237768.50|        112494.28|
2018/05/10T07:27:17|       26797.38|         78736385.40|        104975.81|
2018/05/10T07:27:18|       27650.30|         77542559.72|        104989.04|
2018/05/10T07:27:19|       27908.79|         75837199.04|        104099.67|
2018/05/10T07:27:20|       39178.30|         77192512.24|        115727.63|
2018/05/10T07:27:21|       27336.73|         76308199.88|        103933.19|
2018/05/10T07:27:22|       27928.53|         74890468.52|        104805.01|
2018/05/10T07:27:23|       26989.96|         76639696.72|        103933.39|
2018/05/10T07:27:24|       27184.95|         72575431.18|        100858.70|
2018/05/10T07:27:25|       27901.06|         70109842.19|         93373.40|
2018/05/10T07:27:26|       27092.53|         76818242.55|         97207.99|
2018/05/10T07:27:27|       27657.24|         79729902.28|         98896.83|
2018/05/10T07:27:28|       28030.98|         86007146.03|        103620.27|
2018/05/10T07:27:29|       27006.94|         82592123.12|         99878.51|
2018/05/10T07:27:30|       27324.97|         83575332.71|        102476.06|
2018/05/10T07:27:31|       27687.34|         82965450.45|        102269.53|
2018/05/10T07:27:32|       26985.15|         84345671.93|        102362.46|
2018/05/10T07:27:33|       27415.17|         78887586.19|         99160.83|
2018/05/10T07:27:34|       27671.71|         76816610.31|         97933.09|
2018/05/10T07:27:35|       26845.28|         77451476.80|         96369.13|
2018/05/10T07:27:36|       26987.80|         83942969.33|        100831.31|
2018/05/10T07:27:37|       27940.00|         87870088.51|        104564.67|
2018/05/10T07:27:38|       26787.53|         88916643.05|        104779.61|
2018/05/10T07:27:39|       27206.85|         89344937.66|        105663.87|
2018/05/10T07:27:40|       27805.82|         88169424.47|        106080.64|
2018/05/10T07:27:41|       28112.34|         86810253.24|        105230.59|
2018/05/10T07:27:42|       27320.97|         78807859.05|         98712.23|
2018/05/10T07:27:43|       27844.91|         77556547.16|         98316.96|
2018/05/10T07:27:44|       27045.51|         80667305.08|         99695.14|
2018/05/10T07:27:45|       28394.74|         83036672.03|        102902.72|
2018/05/10T07:27:46|       27840.59|         76136195.75|         97307.38|
2018/05/10T07:27:47|       26875.69|         72840663.07|         94246.86|
2018/05/10T07:27:48|       26957.86|         71865437.38|         93176.33|
2018/05/10T07:27:49|       27332.71|         70605837.45|         92531.72|
2018/05/10T07:27:50|       26878.36|         72618202.63|         93622.33|
2018/05/10T07:27:51|       27107.55|         78315689.21|         98329.83|
2018/05/10T07:27:52|       27753.08|         78437308.12|         98470.14|
2018/05/10T07:27:53|       27233.41|         81479226.76|        100460.41|
2018/05/10T07:27:54|       27089.55|         85452275.32|        103192.18|
2018/05/10T07:27:55|       27845.26|         81458492.40|        100693.37|
2018/05/10T07:27:56|       27285.47|         77490085.58|         97358.70|
2018/05/10T07:27:57|       27295.07|         86874152.23|        105814.12|
2018/05/10T07:27:58|       27903.03|         86789591.02|        107030.33|
2018/05/10T07:27:59|       27016.28|         87516529.12|        106565.25|
2018/05/10T07:28:00|       27591.33|         85449597.18|        105807.47|
2018/05/10T07:28:01|       27969.81|         86434328.06|        106873.41|
2018/05/10T07:28:02|       27188.99|         87289352.74|        107779.12|
2018/05/10T07:28:03|       27418.96|         88242423.93|        108497.72|
2018/05/10T07:28:04|       28100.16|         86650782.67|        107801.62|
2018/05/10T07:28:05|       27663.32|         77738636.07|        101055.91|
2018/05/10T07:28:06|       27913.60|         76563592.24|        102352.49|
2018/05/10T07:28:07|       28267.31|         79172717.90|        104948.45|
2018/05/10T07:28:08|       26971.27|         74010774.58|        100172.44|
2018/05/10T07:28:09|       27711.46|         75820271.46|        102867.42|
2018/05/10T07:28:10|       28306.17|         67641443.04|         97632.59|
2018/05/10T07:28:11|       27383.37|         64080876.65|         93968.97|
2018/05/10T07:28:12|       27705.54|         73527522.49|         96622.76|
2018/05/10T07:28:13|       27898.24|         77292931.71|         98477.39|
2018/05/10T07:28:14|       27445.16|         78360897.94|         98801.36|
2018/05/10T07:28:15|       27798.62|         83630302.20|        103103.15|
2018/05/10T07:28:16|       28403.62|         80951638.17|        101392.29|
2018/05/10T07:28:17|       27251.74|         79729036.04|         99229.94|
2018/05/10T07:28:18|       27756.36|         78472217.62|         98744.95|
2018/05/10T07:28:19|       28378.09|         81112234.16|        101447.49|
2018/05/10T07:28:20|       27598.36|         82397221.72|        102280.01|
2018/05/10T07:28:21|       28009.03|         81832054.35|        109421.07|
2018/05/10T07:28:22|       28503.32|         77321834.18|         98724.02|
2018/05/10T07:28:23|       28794.03|         77083638.31|         98986.21|
2018/05/10T07:28:24|       28112.43|         79142820.35|         99517.27|
2018/05/10T07:28:25|       28312.57|         80718630.48|        101413.44|
2018/05/10T07:28:26|       27557.70|         79372739.63|         99252.50|
2018/05/10T07:28:27|       27541.09|         73705100.28|         95268.72|
2018/05/10T07:28:28|       28231.49|         74898442.48|         96404.06|
2018/05/10T07:28:29|       27600.91|         75473006.31|         96087.08|
2018/05/10T07:28:30|       27484.96|         76983781.48|         97664.64|
2018/05/10T07:28:31|       28632.86|         78552196.66|         99968.73|
2018/05/10T07:28:32|       27752.80|         80297975.34|        100651.82|
2018/05/10T07:28:33|       27849.05|         81206700.46|        101496.98|
2018/05/10T07:28:34|       27992.15|         81651942.23|        101699.48|
2018/05/10T07:28:35|       28836.45|         76840481.57|         98929.63|
2018/05/10T07:28:36|       29401.18|         79080359.75|        100927.20|
2018/05/10T07:28:37|       29674.37|         78945964.34|        101526.38|
2018/05/10T07:28:38|       28737.70|         80715477.51|        101912.39|
2018/05/10T07:28:39|       30318.73|         83076838.72|        105121.63|
2018/05/10T07:28:40|       31416.49|         92573186.96|        115686.74|
2018/05/10T07:28:41|       30275.59|         83071187.25|        108191.04|
2018/05/10T07:28:42|       30113.61|         79521479.87|        105075.13|
2018/05/10T07:28:43|       31054.72|         80381956.71|        106846.76|
2018/05/10T07:28:44|       29938.69|         78109401.51|        104839.95|
2018/05/10T07:28:45|       30318.70|         79424631.63|        106863.79|
2018/05/10T07:28:46|       30634.91|         81925674.11|        110132.36|
2018/05/10T07:28:47|       30967.90|         79576348.32|        107249.09|
2018/05/10T07:28:48|       32496.02|         86818616.87|        113180.24|
2018/05/10T07:28:49|       33037.83|         83279661.01|        111647.01|
2018/05/10T07:28:50|       31929.70|         78320562.13|        105099.93|
2018/05/10T07:28:51|       32905.05|         77624305.06|        105391.24|
2018/05/10T07:28:52|       32389.00|         78556032.06|        106109.74|
2018/05/10T07:28:53|       30729.08|         74661672.26|        100299.54|
2018/05/10T07:28:54|       28441.00|         74595971.36|         97662.49|
2018/05/10T07:28:55|       29022.94|         75619815.39|         98935.02|
2018/05/10T07:28:56|       28178.95|         72722299.32|         96352.14|
2018/05/10T07:28:57|       27799.92|         72121711.21|         95792.27|
2018/05/10T07:28:58|       29055.31|         75077219.31|         99154.43|
2018/05/10T07:28:59|       28019.21|         72841683.08|         96882.57|
2018/05/10T07:29:00|       28304.52|         71003977.96|         94364.80|
2018/05/10T07:29:01|       28769.53|         69125048.20|         93525.39|
2018/05/10T07:29:02|       27964.93|         69166094.93|         93092.33|
2018/05/10T07:29:03|       74411.93|         73856455.71|        141247.89|
2018/05/10T07:29:04|       29183.60|         70375752.56|         94701.95|
2018/05/10T07:29:05|       28037.09|         69294151.89|         92316.48|
2018/05/10T07:29:06|       28541.34|         72669495.19|         95129.95|
2018/05/10T07:29:07|       28797.22|         68027307.02|         91841.18|
2018/05/10T07:29:08|       28169.94|         72010854.92|         93771.35|
2018/05/10T07:29:09|       28404.39|         87674020.14|        105024.10|
2018/05/10T07:29:10|       28882.41|         87304515.33|        105548.54|
2018/05/10T07:29:11|       28267.01|         85946612.99|        103352.75|
2018/05/10T07:29:12|       28228.95|         88718796.12|        105858.71|
2018/05/10T07:29:13|       29035.04|         87644749.49|        105002.84|
2018/05/10T07:29:14|       28280.61|         84915213.71|        102820.92|
2018/05/10T07:29:15|       28277.73|         97431801.61|        111300.06|
2018/05/10T07:29:16|       28925.52|         85134404.33|        103626.43|
2018/05/10T07:29:17|       28440.28|         82154041.37|        101006.71|
2018/05/10T07:29:18|       28161.09|         85475208.42|        103478.39|
2018/05/10T07:29:19|       28963.93|         82615539.03|        102690.77|
2018/05/10T07:29:20|       28177.01|         79472063.09|         99234.91|
2018/05/10T07:29:21|       28342.87|         79344085.05|         98939.82|
2018/05/10T07:29:22|       29281.75|         79852904.66|        100666.53|
2018/05/10T07:29:23|       28249.83|         87273935.49|        104585.51|
2018/05/10T07:29:24|       28692.11|         85688928.11|        104979.82|
2018/05/10T07:29:25|       29447.80|         87108641.76|        106803.23|
2018/05/10T07:29:26|       28608.49|         80784197.72|        100802.86|
2018/05/10T07:29:27|       28758.73|         81493844.86|        101636.26|
2018/05/10T07:29:28|       28983.10|         81318802.78|        101234.48|
2018/05/10T07:29:29|       28347.66|         85358288.06|        103261.24|
2018/05/10T07:29:30|       28511.46|         82599456.57|        101455.82|
2018/05/10T07:29:31|       28758.66|         76328983.83|         97965.39|
2018/05/10T07:29:32|       28052.02|         81462877.54|        100922.65|
2018/05/10T07:29:33|       28314.12|         83353627.54|        101502.90|
2018/05/10T07:29:34|       28868.26|         78552661.77|         97968.01|
2018/05/10T07:29:35|       28293.22|         78707471.66|         97485.36|
2018/05/10T07:29:36|       29102.18|         84321738.74|        102538.30|
2018/05/10T07:29:37|       29239.98|         83429069.64|        102577.35|
2018/05/10T07:29:38|       28577.39|         84818843.30|        103655.55|
2018/05/10T07:29:39|       28785.98|        105678548.85|        120479.78|
2018/05/10T07:29:40|       29416.62|        104922342.01|        119781.69|
2018/05/10T07:29:41|       28510.68|        103875876.42|        118856.35|
2018/05/10T07:29:42|       28609.09|        105929273.02|        120045.99|
2018/05/10T07:29:43|       28875.65|        106621962.73|        120023.39|
2018/05/10T07:29:44|       28275.01|        110858646.39|        121918.58|
2018/05/10T07:29:45|       29629.68|        103082566.45|        118364.82|
2018/05/10T07:29:46|       29492.45|        119059875.78|        128859.14|
2018/05/10T07:29:47|       28313.04|        131683914.42|        136067.89|
2018/05/10T07:29:48|       28995.82|        101667356.07|        115666.37|
2018/05/10T07:29:49|       29017.60|         92361386.25|        110137.68|
2018/05/10T07:29:50|       28150.09|         93956604.41|        112707.06|
2018/05/10T07:29:51|       28687.07|         91511114.90|        111303.63|
2018/05/10T07:29:52|       29440.01|         96975282.84|        116059.63|
2018/05/10T07:29:53|       28845.33|        142439367.80|        150646.74|
2018/05/10T07:29:54|       29376.67|        142251092.48|        151008.73|
2018/05/10T07:29:55|       30291.65|        133901071.65|        145896.99|
2018/05/10T07:29:56|       28718.97|        139288443.85|        147098.79|
2018/05/10T07:29:57|       29602.74|        132779397.46|        145164.13|
2018/05/10T07:29:58|       28400.50|        126274949.15|        139073.29|
2018/05/10T07:29:59|       26867.43|        106782500.85|        120969.78|
2018/05/10T07:30:00|        1357.87|          3400463.41|          4325.50|
