0;1;107.24126843467386
1;1;84.68161129491203
24;1;80.42759345479138
168;1;70.40818143333917
0;12;71.17161103002621
1;12;68.23950282484594
24;12;84.08632025990578
168;12;67.82026837537217
0;24;64.20686499758955
1;24;62.021128901916775
24;24;84.39400340816198
168;24;72.1175566092437
0;48;62.46542185710437
1;48;54.640013985852306
24;48;76.69405480661256
168;48;65.15442642340729
0;168;58.5523879857503
1;168;50.018748069700436
24;168;62.42109131644206
168;168;51.5341298017803
