0;1;158.7434384567225
1;1;115.60282273340431
24;1;109.2700757793301
168;1;60.157846263371944
0;12;158.79490826182365
1;12;115.60282062390131
24;12;109.81668490394983
168;12;61.444748693842584
0;24;155.33090660422036
1;24;108.01834779815435
24;24;109.90628377017082
168;24;62.01669219904217
0;48;154.66650027966548
1;48;107.97769002545279
24;48;109.29953486853377
168;48;62.132321880512436
0;168;145.9715587375885
1;168;101.09850637950173
24;168;108.71712452580013
168;168;60.93979798644217
