0;1;87.53525407013865
1;1;96.55193221189
24;1;76.41652390584045
168;1;52.431305672412854
0;12;74.76334354505848
1;12;75.52762419138352
24;12;69.11668692559893
168;12;52.577809489714696
0;24;67.51473203435712
1;24;65.47267755071252
24;24;68.50950452295986
168;24;52.509140439790244
0;48;63.83039689544939
1;48;63.49191406614294
24;48;62.75494959684449
168;48;53.17276104406695
0;168;53.16633231270289
1;168;50.13179226617737
24;168;48.38240399769355
168;168;54.954304076750034
