0;1;87.34174981090601
1;1;96.55070489746205
24;1;78.05796740744519
168;1;52.2411745989167
0;12;74.55162292623672
1;12;75.47668303963565
24;12;70.576461143279
168;12;52.48317739794495
0;24;67.187916795459
1;24;66.13549519019475
24;24;69.63242126099212
168;24;52.414874816517184
0;48;63.42625465378483
1;48;65.15601103914499
24;48;63.16449104106528
168;48;53.10023388168513
0;168;61.44820025928016
1;168;52.0295523551808
24;168;48.09961992651774
168;168;54.18515570561829
