0;1;96.66637762968868
1;1;100.7912752933562
24;1;79.38078905843196
168;1;51.06797547535975
0;12;83.06092333236664
1;12;81.41702498097051
24;12;72.61284874960388
168;12;51.593534474460476
0;24;72.55012821944077
1;24;66.047125262796
24;24;72.7538456244506
168;24;51.49716890544766
0;48;67.20754444820689
1;48;65.47221995302911
24;48;68.53880341041516
168;48;52.70465735036246
0;168;57.89726719813918
1;168;50.485657868206594
24;168;55.777473270448475
168;168;55.10898935291613
