0;1;91.36387465404796
1;1;97.54408442899944
24;1;75.57668512454906
168;1;50.91578023960252
0;12;63.63105865008005
1;12;61.4139139387249
24;12;65.00249191442089
168;12;53.04150012606625
0;24;52.164060114340764
1;24;52.78411073600266
24;24;65.19444583143748
168;24;54.897911845120355
0;48;52.19481824362084
1;48;51.67699206022463
24;48;56.364582783980495
168;48;56.04593443016708
0;168;39.187530806827795
1;168;41.2503724412626
24;168;56.320721343415805
168;168;54.49752759897394
