0;1;93.58111107479183
1;1;97.37235788020472
24;1;76.70593184500221
168;1;51.063945097907855
0;12;65.57978960177267
1;12;60.84630157949004
24;12;66.5138758163882
168;12;53.32603993219522
0;24;55.20004320613672
1;24;55.44719105025434
24;24;67.50634577995353
168;24;55.40661491694468
0;48;54.90052609683796
1;48;53.420631420941525
24;48;57.381232008913315
168;48;56.425870213794596
0;168;39.447406712260474
1;168;41.40418999131188
24;168;56.59744432702541
168;168;54.965163143754665
