0;1;90.90215325734741
1;1;97.8785856992658
24;1;75.23315466947243
168;1;53.51676262444438
0;12;37.829933564276665
1;12;47.51656779272267
24;12;59.37394331285954
168;12;52.023223359300566
0;24;36.5516951258939
1;24;47.71280738808086
24;24;56.29755962478949
168;24;52.377052618416656
0;48;37.177049373502825
1;48;48.43220459023201
24;48;53.35981355756562
168;48;55.877827943447436
0;168;36.20357527515416
1;168;37.867618834754154
24;168;45.91544148199513
168;168;42.67623194693697
