               Date|        Records|               Bytes|          Packets|
2018/05/09T14:00:00|       29698.24|         28651078.08|         57958.33|
2018/05/09T14:00:01|       30155.47|         45812455.86|         76075.69|
2018/05/09T14:00:02|       30431.69|         50227323.44|         80695.36|
2018/05/09T14:00:03|       29863.89|         63501862.63|         89925.50|
2018/05/09T14:00:04|       29848.53|         59335188.71|         87281.62|
2018/05/09T14:00:05|       30066.59|         63260690.10|         90071.10|
2018/05/09T14:00:06|       29757.75|         61061441.96|         88682.51|
2018/05/09T14:00:07|       30373.22|         78508478.46|        107479.54|
2018/05/09T14:00:08|       30151.99|         78088344.29|        106756.53|
2018/05/09T14:00:09|       29977.49|         78491573.38|        107392.39|
2018/05/09T14:00:10|       29681.38|         77425780.10|        106512.95|
2018/05/09T14:00:11|       29646.10|         75479076.88|        103511.58|
2018/05/09T14:00:12|       29302.68|         77546999.57|        104970.92|
2018/05/09T14:00:13|       29313.74|         78030558.04|        105336.96|
2018/05/09T14:00:14|       29422.51|         76749711.46|        104969.93|
2018/05/09T14:00:15|       29138.40|         79129117.83|        106075.96|
2018/05/09T14:00:16|       30791.46|         75463397.43|        103795.80|
2018/05/09T14:00:17|       29285.47|         74970159.96|        101628.60|
2018/05/09T14:00:18|       29327.41|         74560156.49|        101507.97|
2018/05/09T14:00:19|       29349.39|         73634903.84|        100804.87|
2018/05/09T14:00:20|       29773.08|         67770138.45|         93823.42|
2018/05/09T14:00:21|       28871.20|         56916729.23|         82332.44|
2018/05/09T14:00:22|       29180.84|         57909253.65|         83716.40|
2018/05/09T14:00:23|       29073.54|         65283350.59|         93963.70|
2018/05/09T14:00:24|       29283.51|         68838929.53|         99104.15|
2018/05/09T14:00:25|       28925.39|         66730542.10|         98285.12|
2018/05/09T14:00:26|       29194.58|         66097280.66|         97650.33|
2018/05/09T14:00:27|       31880.78|         69306630.88|        102504.91|
2018/05/09T14:00:28|       33316.42|         71948052.07|        105503.17|
2018/05/09T14:00:29|       30664.65|         76971368.57|        102204.69|
2018/05/09T14:00:30|       28691.67|         81731286.60|        103075.78|
2018/05/09T14:00:31|       29094.35|         74600865.00|         98407.49|
2018/05/09T14:00:32|       29399.41|         78802475.20|        101099.10|
2018/05/09T14:00:33|       28632.11|         75065289.48|         97502.26|
2018/05/09T14:00:34|       28945.08|         69473528.12|         93786.70|
2018/05/09T14:00:35|       29044.45|         67303317.55|         92412.71|
2018/05/09T14:00:36|       28862.16|         63313832.64|         89016.97|
2018/05/09T14:00:37|       29039.74|         64764368.81|         90026.76|
2018/05/09T14:00:38|       29733.04|         56528466.15|         82480.89|
2018/05/09T14:00:39|       29981.13|         54863008.87|         80956.68|
2018/05/09T14:00:40|       29131.89|         49286810.40|         76104.99|
2018/05/09T14:00:41|       29511.09|         45163160.17|         73738.23|
2018/05/09T14:00:42|       29243.12|         47711098.03|         75207.46|
2018/05/09T14:00:43|       29802.81|         50436982.64|         78696.64|
2018/05/09T14:00:44|       30234.18|         49582389.09|         77997.37|
2018/05/09T14:00:45|       28887.79|         56052846.26|         81318.63|
2018/05/09T14:00:46|       30130.54|         51776306.76|         80464.49|
2018/05/09T14:00:47|       30738.77|         61988351.05|         90653.01|
2018/05/09T14:00:48|       29266.49|         66806855.78|         93294.44|
2018/05/09T14:00:49|       29800.02|         65505815.23|         92885.50|
2018/05/09T14:00:50|       29991.76|         66991567.78|         94862.95|
2018/05/09T14:00:51|       29728.25|         69698380.48|         96136.53|
2018/05/09T14:00:52|       29640.03|         68761553.77|         95232.60|
2018/05/09T14:00:53|       30228.80|         72279842.17|         97973.23|
2018/05/09T14:00:54|       28745.05|         72844953.78|         97088.60|
2018/05/09T14:00:55|       29931.69|         73998271.53|         98946.65|
2018/05/09T14:00:56|       30175.43|         73539164.31|        100057.99|
2018/05/09T14:00:57|       29561.87|         69994685.05|         97571.95|
2018/05/09T14:00:58|       31055.83|         68431584.97|         97474.93|
2018/05/09T14:00:59|       30893.26|         67589663.94|         96543.18|
2018/05/09T14:01:00|       29798.21|         69107858.88|         96533.29|
2018/05/09T14:01:01|       29068.52|         76050640.55|        100595.13|
2018/05/09T14:01:02|       29761.67|         71682190.00|         97981.48|
2018/05/09T14:01:03|       28692.27|         71215011.70|         96557.35|
2018/05/09T14:01:04|       28420.69|         69963817.95|         95733.66|
2018/05/09T14:01:05|       28955.03|         69857446.85|        100532.50|
2018/05/09T14:01:06|       28145.18|         74302454.11|        103203.16|
2018/05/09T14:01:07|       27954.89|         80680090.64|        107339.50|
2018/05/09T14:01:08|       29239.44|         76740517.78|        101740.45|
2018/05/09T14:01:09|       28080.95|         74139613.64|         98508.51|
2018/05/09T14:01:10|       28126.36|         68209424.96|         93687.55|
2018/05/09T14:01:11|       28036.77|         67500089.94|         92690.59|
2018/05/09T14:01:12|       27904.05|         66013603.79|         91154.71|
2018/05/09T14:01:13|       28079.99|         71645367.42|         95761.84|
2018/05/09T14:01:14|       28889.24|         70752406.64|         95880.83|
2018/05/09T14:01:15|       27754.00|         73597538.87|         98471.31|
2018/05/09T14:01:16|       28216.34|         79411560.42|        102287.46|
2018/05/09T14:01:17|       28541.72|         92507373.92|        114875.69|
2018/05/09T14:01:18|       27700.86|         93150928.74|        115112.61|
2018/05/09T14:01:19|       28135.17|         98902464.25|        121686.02|
2018/05/09T14:01:20|       28491.53|         99913253.34|        124172.36|
2018/05/09T14:01:21|       28054.78|        102779970.98|        125997.73|
2018/05/09T14:01:22|       28081.58|         98386391.23|        122518.46|
2018/05/09T14:01:23|       28697.16|        101853150.89|        124576.55|
2018/05/09T14:01:24|       27820.58|        101419324.36|        123674.99|
2018/05/09T14:01:25|       28076.00|        104377679.48|        126330.04|
2018/05/09T14:01:26|       28483.81|        103094748.91|        126167.59|
2018/05/09T14:01:27|       27418.52|        101002553.25|        124651.23|
2018/05/09T14:01:28|       27920.26|         97234260.45|        122031.93|
2018/05/09T14:01:29|       28132.05|         92889736.80|        119481.63|
2018/05/09T14:01:30|       28358.05|         87313140.69|        111451.16|
2018/05/09T14:01:31|       29128.16|         80219888.95|        106018.14|
2018/05/09T14:01:32|       29484.83|         82553815.48|        107532.09|
2018/05/09T14:01:33|       28099.13|         77873768.39|        100777.85|
2018/05/09T14:01:34|       28066.59|         70702308.90|         94675.36|
2018/05/09T14:01:35|       28208.23|         71721345.24|         95319.91|
2018/05/09T14:01:36|       27739.41|         77083348.71|         98436.06|
2018/05/09T14:01:37|       27788.97|         81834376.38|        101587.06|
2018/05/09T14:01:38|       28578.01|         72822736.24|         96216.52|
2018/05/09T14:01:39|       27761.70|         71564714.84|         94083.81|
2018/05/09T14:01:40|       28228.87|         72982844.49|         95666.52|
2018/05/09T14:01:41|       28706.19|         72358782.09|         95607.86|
2018/05/09T14:01:42|       28224.15|         70835147.83|         94022.30|
2018/05/09T14:01:43|       29175.31|         70765657.64|         95050.84|
2018/05/09T14:01:44|       29255.23|         68505046.53|         93387.25|
2018/05/09T14:01:45|       29355.83|         72046647.93|         97850.30|
2018/05/09T14:01:46|       28719.53|         73362064.68|         96436.22|
2018/05/09T14:01:47|       29194.91|         75789405.81|         98278.39|
2018/05/09T14:01:48|       28283.29|         76387846.92|        100862.28|
2018/05/09T14:01:49|       29269.58|         74381274.23|         97688.38|
2018/05/09T14:01:50|       29248.15|         74006215.84|         97760.26|
2018/05/09T14:01:51|       28634.22|         76882815.16|         99391.31|
2018/05/09T14:01:52|       28818.39|         77798998.57|        100428.49|
2018/05/09T14:01:53|       29535.36|         77815628.92|        101297.28|
2018/05/09T14:01:54|       28670.88|         76704937.82|         99825.34|
2018/05/09T14:01:55|       29422.67|         76743330.90|        101019.89|
2018/05/09T14:01:56|       29389.54|         77864895.65|        101516.50|
2018/05/09T14:01:57|       28648.34|         80667525.71|        103616.32|
2018/05/09T14:01:58|       29264.55|         80849667.47|        104474.24|
2018/05/09T14:01:59|       29128.12|         79050825.78|        102562.23|
2018/05/09T14:02:00|       28768.35|         79127536.21|        101785.29|
2018/05/09T14:02:01|       29088.79|         78632831.31|        103828.64|
2018/05/09T14:02:02|       29552.87|         79823034.77|        105587.42|
2018/05/09T14:02:03|       29226.13|         81866926.04|        106427.03|
2018/05/09T14:02:04|       30461.92|         81423197.57|        107567.26|
2018/05/09T14:02:05|       31009.11|         81432093.97|        108119.77|
2018/05/09T14:02:06|       29310.67|         77165759.00|        103810.37|
2018/05/09T14:02:07|       29602.77|         80241306.18|        106098.74|
2018/05/09T14:02:08|       29802.28|         84135933.96|        108990.08|
2018/05/09T14:02:09|       29248.87|         83877186.35|        108016.28|
2018/05/09T14:02:10|       29608.70|         79323346.36|        105081.81|
2018/05/09T14:02:11|       30234.86|         77870479.91|        104040.24|
2018/05/09T14:02:12|       29085.24|         80565841.46|        105150.10|
2018/05/09T14:02:13|       29662.72|         82339329.24|        107588.39|
2018/05/09T14:02:14|       30144.41|         80594344.20|        106357.34|
2018/05/09T14:02:15|       29049.55|         90048682.30|        109246.42|
2018/05/09T14:02:16|       29321.74|         92372638.30|        108637.20|
2018/05/09T14:02:17|       29955.86|         94468147.90|        110962.52|
2018/05/09T14:02:18|       29052.51|         98653034.82|        112869.51|
2018/05/09T14:02:19|       28861.90|        105909314.39|        119030.20|
2018/05/09T14:02:20|       29637.21|        106863603.67|        120509.06|
2018/05/09T14:02:21|       28610.72|        102631320.55|        116180.86|
2018/05/09T14:02:22|       28935.01|        100088295.14|        114552.57|
2018/05/09T14:02:23|       28926.81|         99849883.87|        114651.97|
2018/05/09T14:02:24|       28257.38|        100404226.63|        113795.54|
2018/05/09T14:02:25|       29086.91|        107488568.55|        119483.82|
2018/05/09T14:02:26|       29399.70|         96458947.83|        112091.52|
2018/05/09T14:02:27|       28451.96|        100352831.41|        113893.14|
2018/05/09T14:02:28|       28868.96|         92877335.83|        109041.31|
2018/05/09T14:02:29|       29165.70|         63312770.65|         89569.80|
2018/05/09T14:02:30|       28591.81|         65939223.34|         91893.07|
2018/05/09T14:02:31|       29119.08|         66863373.71|         92914.77|
2018/05/09T14:02:32|       29126.44|         65849019.94|         92398.25|
2018/05/09T14:02:33|       28472.02|         64903826.21|         91216.05|
2018/05/09T14:02:34|       28675.84|         64948371.80|         91414.47|
2018/05/09T14:02:35|       29095.78|         91459376.19|        111434.62|
2018/05/09T14:02:36|       28319.60|        107267926.93|        121638.47|
2018/05/09T14:02:37|       28440.87|        111231407.28|        124205.57|
2018/05/09T14:02:38|       29363.77|        107272535.45|        122079.22|
2018/05/09T14:02:39|       28286.71|        107606861.49|        121993.65|
2018/05/09T14:02:40|       28983.47|        111264397.96|        125193.50|
2018/05/09T14:02:41|       28963.79|        110821603.57|        124957.56|
2018/05/09T14:02:42|       28471.26|        132869291.99|        139796.45|
2018/05/09T14:02:43|       29490.49|        147246513.51|        150240.18|
2018/05/09T14:02:44|       29145.43|        143058515.56|        145721.20|
2018/05/09T14:02:45|       33569.75|        125467237.50|        133752.23|
2018/05/09T14:02:46|       40154.51|        109466524.36|        122280.12|
2018/05/09T14:02:47|       32819.95|         98207438.00|        115399.86|
2018/05/09T14:02:48|       28678.68|         95893830.11|        111933.42|
2018/05/09T14:02:49|       29078.47|         95656964.37|        112244.86|
2018/05/09T14:02:50|       29524.19|         93115860.09|        110869.25|
2018/05/09T14:02:51|       28487.93|        105189106.20|        123191.42|
2018/05/09T14:02:52|       29031.19|        110314867.10|        128618.62|
2018/05/09T14:02:53|       29740.01|        114671237.62|        132723.77|
2018/05/09T14:02:54|       28944.72|        113165189.64|        131012.79|
2018/05/09T14:02:55|       29466.20|        111604357.55|        130591.46|
2018/05/09T14:02:56|       29628.91|        110737496.45|        130296.29|
2018/05/09T14:02:57|       28871.74|        112115095.59|        130644.50|
2018/05/09T14:02:58|       29659.48|        113284806.18|        131731.24|
2018/05/09T14:02:59|       29764.11|        115620559.12|        132883.55|
2018/05/09T14:03:00|       29387.70|        120952239.17|        137388.88|
2018/05/09T14:03:01|       95176.19|        126741219.03|        205033.36|
2018/05/09T14:03:02|       30868.17|        123573976.78|        140805.80|
2018/05/09T14:03:03|       29153.35|        121617101.96|        136377.45|
2018/05/09T14:03:04|       29397.16|        109021555.06|        124547.56|
2018/05/09T14:03:05|       29685.41|        103878678.53|        119188.39|
2018/05/09T14:03:06|       28927.48|        103580292.15|        117752.09|
2018/05/09T14:03:07|       29476.14|        104149844.76|        119043.93|
2018/05/09T14:03:08|       30102.49|        100688834.63|        116852.61|
2018/05/09T14:03:09|       28866.08|         97553325.08|        113392.83|
2018/05/09T14:03:10|       29344.37|         97964678.50|        113973.66|
2018/05/09T14:03:11|       30036.96|        101706443.44|        116958.04|
2018/05/09T14:03:12|       29791.93|        101438450.21|        116886.59|
2018/05/09T14:03:13|       29823.06|         98939486.78|        114592.70|
2018/05/09T14:03:14|       30351.40|         92046601.56|        108694.59|
2018/05/09T14:03:15|       28820.30|         91688566.83|        106712.24|
2018/05/09T14:03:16|       29590.22|         95801463.03|        110626.81|
2018/05/09T14:03:17|       30570.30|         96914648.35|        112407.42|
2018/05/09T14:03:18|       29359.05|        106598014.56|        118174.81|
2018/05/09T14:03:19|       29844.85|         98793858.55|        113129.34|
2018/05/09T14:03:20|       29831.98|         96142624.00|        111379.65|
2018/05/09T14:03:21|       29204.16|         97924662.39|        112274.16|
2018/05/09T14:03:22|       29144.96|         92742879.20|        109692.01|
2018/05/09T14:03:23|       29171.90|         94039912.81|        110840.00|
2018/05/09T14:03:24|       28390.66|         94187774.24|        109845.94|
2018/05/09T14:03:25|       29409.53|         96615886.11|        112238.80|
2018/05/09T14:03:26|       30496.67|         93365158.13|        110510.50|
2018/05/09T14:03:27|       29599.34|         94844759.82|        110978.53|
2018/05/09T14:03:28|       29402.50|        104916877.42|        119997.63|
2018/05/09T14:03:29|       28982.33|        102552669.87|        117805.11|
2018/05/09T14:03:30|       28212.87|         95365923.57|        112700.68|
2018/05/09T14:03:31|       28362.35|         96617950.99|        113042.19|
2018/05/09T14:03:32|       28375.45|         94586934.82|        112068.12|
2018/05/09T14:03:33|       28765.40|         95963073.11|        113466.34|
2018/05/09T14:03:34|       28328.35|         96258551.35|        113622.09|
2018/05/09T14:03:35|       28581.52|         96154062.75|        114397.90|
2018/05/09T14:03:36|       27757.34|         98486835.19|        115606.73|
2018/05/09T14:03:37|       28115.84|         96659159.97|        114799.61|
2018/05/09T14:03:38|       28814.99|         94303105.99|        113229.91|
2018/05/09T14:03:39|       27598.95|         94838883.94|        112594.59|
2018/05/09T14:03:40|       27850.85|         92424854.11|        110705.83|
2018/05/09T14:03:41|       28413.33|         93091870.93|        111776.84|
2018/05/09T14:03:42|       27260.60|         89548696.13|        107402.21|
2018/05/09T14:03:43|       28189.25|         92088472.92|        110177.20|
2018/05/09T14:03:44|       28158.20|         91547486.10|        109699.37|
2018/05/09T14:03:45|       27333.90|         90554616.70|        108156.79|
2018/05/09T14:03:46|       28004.80|         94049640.40|        111921.56|
2018/05/09T14:03:47|       28897.12|         95252147.93|        114016.62|
2018/05/09T14:03:48|       27949.08|        102489062.88|        120977.78|
2018/05/09T14:03:49|       28077.61|        104257833.72|        122781.93|
2018/05/09T14:03:50|       28178.69|        104460899.36|        122241.53|
2018/05/09T14:03:51|       27430.92|        103151906.42|        120967.51|
2018/05/09T14:03:52|       27902.07|        103000269.58|        120865.95|
2018/05/09T14:03:53|       28129.44|        101645385.60|        120244.25|
2018/05/09T14:03:54|       27655.60|         99885871.14|        117831.63|
2018/05/09T14:03:55|       28110.85|         97935047.09|        116250.31|
2018/05/09T14:03:56|       28361.26|         95680018.34|        116541.78|
2018/05/09T14:03:57|       27156.08|         90280375.91|        112072.07|
2018/05/09T14:03:58|       27754.61|         92694885.66|        115278.95|
2018/05/09T14:03:59|       28393.11|         88067835.89|        111714.27|
2018/05/09T14:04:00|       27092.13|         85966072.73|        108485.36|
2018/05/09T14:04:01|       28533.27|         78812655.77|        101403.56|
2018/05/09T14:04:02|       28396.01|         74102862.89|         94972.44|
2018/05/09T14:04:03|       27083.29|         80177218.80|         98983.35|
2018/05/09T14:04:04|       28058.40|         71907870.59|         93702.76|
2018/05/09T14:04:05|       28129.61|         73397294.18|         94656.56|
2018/05/09T14:04:06|       27378.32|         70350576.09|         91738.65|
2018/05/09T14:04:07|       27830.74|         77968189.28|        100231.55|
2018/05/09T14:04:08|       28155.81|         78741948.22|        100883.15|
2018/05/09T14:04:09|       27089.29|         77875752.53|         99184.03|
2018/05/09T14:04:10|       27854.53|         77823736.17|         99843.73|
2018/05/09T14:04:11|       28930.13|         78958268.04|        102402.69|
2018/05/09T14:04:12|       27249.62|         77077117.06|        104958.88|
2018/05/09T14:04:13|       27696.02|         79191908.96|        105429.33|
2018/05/09T14:04:14|       28154.68|         79894759.79|        106632.72|
2018/05/09T14:04:15|       27265.58|         83562443.20|        108527.91|
2018/05/09T14:04:16|       28120.74|         87353768.21|        112504.31|
2018/05/09T14:04:17|       28247.37|         84857018.49|        113045.82|
2018/05/09T14:04:18|       27298.15|         85705620.11|        112569.29|
2018/05/09T14:04:19|       27968.66|         82213141.26|        110751.42|
2018/05/09T14:04:20|       28548.58|         78885740.29|        108372.32|
2018/05/09T14:04:21|       27508.28|         74043958.58|        101961.47|
2018/05/09T14:04:22|       28064.71|         75251910.75|        103456.59|
2018/05/09T14:04:23|       28673.78|         72960423.21|        102650.77|
2018/05/09T14:04:24|       27819.20|         76253005.51|        105460.89|
2018/05/09T14:04:25|       28717.66|         81065211.15|        110738.54|
2018/05/09T14:04:26|       28871.80|         80899211.20|        110674.64|
2018/05/09T14:04:27|       27987.54|         83289050.68|        108695.24|
2018/05/09T14:04:28|       28468.51|        106478684.64|        124602.83|
2018/05/09T14:04:29|       28719.33|        121828989.11|        137741.36|
2018/05/09T14:04:30|       28060.30|        119569229.66|        134218.99|
2018/05/09T14:04:31|       29975.30|        118782458.84|        135323.40|
2018/05/09T14:04:32|       28908.82|        119667355.62|        131893.23|
2018/05/09T14:04:33|       28431.93|        117488235.88|        128995.87|
2018/05/09T14:04:34|       28801.38|        116571214.47|        128783.87|
2018/05/09T14:04:35|       29380.69|        112814829.23|        128364.90|
2018/05/09T14:04:36|       28519.54|        111598351.62|        124298.96|
2018/05/09T14:04:37|       30033.44|        109275491.35|        123803.33|
2018/05/09T14:04:38|       29249.71|        104209576.70|        120727.99|
2018/05/09T14:04:39|       28661.48|        104579003.93|        125691.91|
2018/05/09T14:04:40|       29188.01|        107128154.62|        128032.33|
2018/05/09T14:04:41|       29702.70|         97306628.18|        121887.64|
2018/05/09T14:04:42|       29065.63|         67355477.34|        101511.01|
2018/05/09T14:04:43|       29753.21|         70745988.30|        104551.27|
2018/05/09T14:04:44|       29650.47|         68556633.95|        102643.39|
2018/05/09T14:04:45|       28881.52|         67692953.94|        101391.90|
2018/05/09T14:04:46|       29224.24|         73500454.33|        104881.10|
2018/05/09T14:04:47|       29215.68|         68745996.79|        101502.68|
2018/05/09T14:04:48|       28539.01|         70244827.94|        101648.58|
2018/05/09T14:04:49|       29352.47|         93548510.48|        112355.84|
2018/05/09T14:04:50|       29510.75|        108258475.47|        121787.65|
2018/05/09T14:04:51|       28886.22|        109046771.87|        121764.28|
2018/05/09T14:04:52|       29315.09|        117466191.59|        127822.82|
2018/05/09T14:04:53|       29895.33|        111639607.91|        124383.40|
2018/05/09T14:04:54|       28528.75|        113207336.59|        124411.23|
2018/05/09T14:04:55|       29122.94|        116432617.23|        127012.28|
2018/05/09T14:04:56|       29535.25|        115456147.23|        126624.40|
2018/05/09T14:04:57|       28312.99|        112821383.97|        123421.98|
2018/05/09T14:04:58|       28710.83|        113780519.22|        124424.27|
2018/05/09T14:04:59|       29626.35|        112526336.58|        124344.27|
2018/05/09T14:05:00|       28648.01|        116505719.97|        126046.02|
2018/05/09T14:05:01|       29071.76|        119087442.93|        128053.85|
2018/05/09T14:05:02|       29446.63|        101525071.26|        116825.92|
2018/05/09T14:05:03|       28395.56|         76911843.72|         99104.14|
2018/05/09T14:05:04|       29048.44|         74420321.46|         98193.45|
2018/05/09T14:05:05|       29543.60|         76956885.86|        100320.68|
2018/05/09T14:05:06|       28780.69|         75061713.73|         98115.14|
2018/05/09T14:05:07|       29035.39|         68731998.64|         94236.47|
2018/05/09T14:05:08|       29497.20|         74654017.94|        100500.38|
2018/05/09T14:05:09|       28515.08|         75589222.53|        101131.77|
2018/05/09T14:05:10|       28995.43|         76847192.12|        102546.78|
2018/05/09T14:05:11|       29920.90|         80727441.36|        106306.88|
2018/05/09T14:05:12|       28894.16|         80769398.76|        105509.93|
2018/05/09T14:05:13|       29155.90|         82796692.47|        107092.38|
2018/05/09T14:05:14|       29061.64|         81656047.30|        106481.90|
2018/05/09T14:05:15|       28375.86|         82216137.18|        106601.14|
2018/05/09T14:05:16|       29120.76|         81417611.23|        107466.68|
2018/05/09T14:05:17|       28931.33|         80656498.33|        106882.70|
2018/05/09T14:05:18|       28655.77|         80301016.32|        106503.62|
2018/05/09T14:05:19|       29140.00|         81313205.09|        107936.32|
2018/05/09T14:05:20|       32092.52|         81374913.72|        110986.79|
2018/05/09T14:05:21|       42219.04|         79958592.99|        118977.34|
2018/05/09T14:05:22|       42681.55|         72648653.69|        113064.39|
2018/05/09T14:05:23|       41979.41|         73921662.58|        112992.27|
2018/05/09T14:05:24|       41682.58|         73438935.75|        113136.98|
2018/05/09T14:05:25|       38602.88|         83937577.88|        117550.87|
2018/05/09T14:05:26|       29181.72|         94265247.55|        114284.42|
2018/05/09T14:05:27|       28225.98|         96948636.62|        115332.36|
2018/05/09T14:05:28|       28628.74|         97095568.13|        113963.52|
2018/05/09T14:05:29|       28721.24|        103316099.15|        113941.87|
2018/05/09T14:05:30|       28008.42|         99863073.28|        110920.04|
2018/05/09T14:05:31|       29638.27|         92491972.00|        107421.46|
2018/05/09T14:05:32|       29242.00|         90561459.24|        106376.20|
2018/05/09T14:05:33|       28059.04|         94690245.16|        108878.69|
2018/05/09T14:05:34|       28369.45|         90051523.43|        105310.40|
2018/05/09T14:05:35|       28733.45|         92249975.98|        107083.15|
2018/05/09T14:05:36|       27938.66|         93836201.33|        107703.30|
2018/05/09T14:05:37|       28185.92|         92753212.40|        107024.78|
2018/05/09T14:05:38|       28675.10|         83260093.74|        100910.86|
2018/05/09T14:05:39|       27935.83|         72285413.12|         92320.51|
2018/05/09T14:05:40|       28335.62|         68839201.95|         90432.41|
2018/05/09T14:05:41|       28886.30|         66293961.60|         89041.78|
2018/05/09T14:05:42|       28167.61|         65172382.86|         87095.86|
2018/05/09T14:05:43|       28135.29|         68146009.11|         89366.92|
2018/05/09T14:05:44|       28842.37|         65496191.01|         88554.58|
2018/05/09T14:05:45|       28116.83|         66617711.26|         88157.30|
2018/05/09T14:05:46|       28217.17|         66676477.09|         88072.78|
2018/05/09T14:05:47|       29027.84|         66762730.01|         88853.19|
2018/05/09T14:05:48|       28347.60|         68144570.34|         89083.58|
2018/05/09T14:05:49|       28600.45|         65997652.06|         87702.27|
2018/05/09T14:05:50|       29760.79|         65402450.74|         88191.21|
2018/05/09T14:05:51|       29074.42|         66648847.71|         88499.98|
2018/05/09T14:05:52|       28433.64|         65751981.63|         88073.85|
2018/05/09T14:05:53|       29371.13|         66938318.22|         91103.42|
2018/05/09T14:05:54|       28119.92|         68227694.96|         91154.16|
2018/05/09T14:05:55|       28807.00|         70288057.83|         93244.08|
2018/05/09T14:05:56|       29060.49|         73126457.81|         95478.52|
2018/05/09T14:05:57|       28097.59|         70634767.00|         92722.67|
2018/05/09T14:05:58|       28394.59|         73062409.25|         94864.45|
2018/05/09T14:05:59|       29093.16|         71477297.65|         94175.60|
2018/05/09T14:06:00|       28376.06|         72688218.29|         94359.84|
2018/05/09T14:06:01|       28762.14|         75205196.11|         96414.55|
2018/05/09T14:06:02|       29118.64|         74364918.12|         96081.26|
2018/05/09T14:06:03|       28153.33|         73149330.76|         94725.10|
2018/05/09T14:06:04|       28696.07|         66839506.41|         90421.14|
2018/05/09T14:06:05|       29631.15|         69664631.86|         93279.43|
2018/05/09T14:06:06|       28176.08|         73819758.71|         96302.64|
2018/05/09T14:06:07|       28599.71|         71332589.61|         94641.92|
2018/05/09T14:06:08|       29279.27|         73175240.94|         96609.38|
2018/05/09T14:06:09|       28224.22|         75766756.56|         98318.43|
2018/05/09T14:06:10|       28885.31|         76965163.88|         96688.07|
2018/05/09T14:06:11|       29318.02|         75327140.53|         95992.25|
2018/05/09T14:06:12|       28151.46|         71248480.84|         92283.68|
2018/05/09T14:06:13|       28510.80|         72051978.04|         93108.61|
2018/05/09T14:06:14|       28970.14|         71051904.72|         92375.97|
2018/05/09T14:06:15|       28084.88|         71313587.41|         91606.66|
2018/05/09T14:06:16|       28656.91|         74056505.64|         94279.79|
2018/05/09T14:06:17|       29090.54|         73467205.09|         94229.75|
2018/05/09T14:06:18|       28011.45|         72913810.32|         92975.63|
2018/05/09T14:06:19|       29637.83|         69316996.74|         91828.87|
2018/05/09T14:06:20|       28696.57|         69765493.59|         91072.72|
2018/05/09T14:06:21|       28178.59|         71192032.01|         91442.69|
2018/05/09T14:06:22|       30043.28|         65027385.00|         88792.26|
2018/05/09T14:06:23|       29278.42|         67424112.08|         89672.84|
2018/05/09T14:06:24|       28036.03|         66326872.80|         88022.89|
2018/05/09T14:06:25|       28860.24|         58706209.18|         83837.29|
2018/05/09T14:06:26|       29153.82|         60415619.36|         85223.84|
2018/05/09T14:06:27|       28317.70|         61914805.58|         85633.08|
2018/05/09T14:06:28|       28903.46|         60934055.49|         85646.12|
2018/05/09T14:06:29|       28985.86|         61692137.26|         86320.67|
2018/05/09T14:06:30|       28084.97|         63501749.11|         86520.37|
2018/05/09T14:06:31|       28657.73|         61403759.71|         85860.99|
2018/05/09T14:06:32|       29071.52|         58070027.83|         84275.50|
2018/05/09T14:06:33|       28085.94|         62193421.67|         85996.32|
2018/05/09T14:06:34|       28703.59|         65302365.18|         88513.70|
2018/05/09T14:06:35|       29229.93|         61627688.44|         86530.73|
2018/05/09T14:06:36|       28243.48|         62780266.63|         85674.48|
2018/05/09T14:06:37|       28718.45|         62846526.98|         86407.98|
2018/05/09T14:06:38|       29178.35|         67672548.24|         90534.08|
2018/05/09T14:06:39|       28263.07|         70171522.17|         91802.30|
2018/05/09T14:06:40|       28605.10|         66624324.97|         89578.15|
2018/05/09T14:06:41|       29302.66|         67876879.35|         91177.63|
2018/05/09T14:06:42|       27930.75|         63185419.35|         86749.70|
2018/05/09T14:06:43|       28791.82|         63115246.85|         87805.25|
2018/05/09T14:06:44|       29359.43|         64698463.77|         89382.25|
2018/05/09T14:06:45|       28897.92|         64050153.66|         87931.49|
2018/05/09T14:06:46|       29046.18|         65551056.74|         88432.73|
2018/05/09T14:06:47|       29261.73|         64041286.09|         87345.58|
2018/05/09T14:06:48|       28626.77|         66412117.88|         88089.36|
2018/05/09T14:06:49|       28613.00|         61220706.08|         85083.91|
2018/05/09T14:06:50|       29230.19|         60964093.24|         86613.66|
2018/05/09T14:06:51|       28259.55|         63134633.70|         87856.75|
2018/05/09T14:06:52|       28640.04|         67178222.27|         90175.53|
2018/05/09T14:06:53|       29335.71|         66985616.69|         90932.94|
2018/05/09T14:06:54|       28582.05|         66209768.03|         89950.70|
2018/05/09T14:06:55|       28652.94|         65310919.04|         89459.38|
2018/05/09T14:06:56|       29288.62|         64828720.92|         89959.04|
2018/05/09T14:06:57|       27924.20|         65571264.36|         90246.46|
2018/05/09T14:06:58|       28542.44|         67610485.46|         92398.61|
2018/05/09T14:06:59|       29054.02|         63302642.95|         89613.39|
2018/05/09T14:07:00|       28209.00|         62389749.13|         87286.03|
2018/05/09T14:07:01|       28890.77|         69565358.12|         92685.01|
2018/05/09T14:07:02|       29034.57|         76582784.28|         97839.77|
2018/05/09T14:07:03|       28223.08|         82814881.59|        101446.25|
2018/05/09T14:07:04|       28688.38|         67931941.36|         91592.37|
2018/05/09T14:07:05|       29093.38|         68430464.32|         92980.05|
2018/05/09T14:07:06|       28214.02|         69601736.60|         93038.67|
2018/05/09T14:07:07|       28622.37|         67123476.45|         91617.84|
2018/05/09T14:07:08|       29122.17|         65656580.01|         91020.87|
2018/05/09T14:07:09|       28197.64|         65252176.22|         90045.59|
2018/05/09T14:07:10|       28858.01|         65717131.34|         90885.43|
2018/05/09T14:07:11|       30730.54|         67982760.18|         93014.32|
2018/05/09T14:07:12|       28168.31|         64916130.43|         88970.74|
2018/05/09T14:07:13|       28495.63|         66943216.69|         90865.45|
2018/05/09T14:07:14|       29221.25|         59684188.98|         86638.06|
2018/05/09T14:07:15|       27784.52|         54866499.10|         81473.75|
2018/05/09T14:07:16|       28758.87|         48309498.91|         78049.49|
2018/05/09T14:07:17|       29202.95|         47763574.25|         77979.10|
2018/05/09T14:07:18|       28226.56|         54103708.73|         81447.29|
2018/05/09T14:07:19|       28832.20|         54919505.30|         81909.99|
2018/05/09T14:07:20|       28948.27|         55300363.07|         81821.53|
2018/05/09T14:07:21|       28180.06|         44562381.31|         73457.83|
2018/05/09T14:07:22|       28779.44|         43215052.89|         73003.12|
2018/05/09T14:07:23|       29193.03|         45240569.00|         74842.71|
2018/05/09T14:07:24|       28377.99|         41941232.53|         72054.07|
2018/05/09T14:07:25|       28617.68|         39918467.09|         70446.23|
2018/05/09T14:07:26|       29550.07|         42507980.02|         73364.56|
2018/05/09T14:07:27|       30952.43|         42190308.40|         74432.78|
2018/05/09T14:07:28|       31431.87|         43275457.43|         75691.42|
2018/05/09T14:07:29|       31157.50|         41529981.07|         74061.60|
2018/05/09T14:07:30|       30307.23|         43150410.86|         73929.82|
2018/05/09T14:07:31|       31982.46|         42990204.13|         75251.52|
2018/05/09T14:07:32|       30863.71|         41664115.60|         73220.11|
2018/05/09T14:07:33|       30012.50|         44352153.15|         74615.60|
2018/05/09T14:07:34|       30535.27|         42987103.49|         74782.99|
2018/05/09T14:07:35|       32217.82|         44046560.13|         77392.67|
2018/05/09T14:07:36|       30272.66|         45551571.60|         76783.30|
2018/05/09T14:07:37|       30724.07|         45003999.96|         76889.09|
2018/05/09T14:07:38|       30883.55|         45974809.03|         77574.44|
2018/05/09T14:07:39|       30308.37|         46558941.51|         78070.19|
2018/05/09T14:07:40|       30631.98|         51020215.39|         82070.67|
2018/05/09T14:07:41|       31169.19|         55749370.61|         85622.04|
2018/05/09T14:07:42|       29963.13|         50011685.98|         79631.88|
2018/05/09T14:07:43|       28799.23|         50764513.68|         78957.50|
2018/05/09T14:07:44|       29076.21|         47949155.60|         77490.89|
2018/05/09T14:07:45|       30101.30|         47632603.81|         78369.93|
2018/05/09T14:07:46|       28948.40|         47390557.70|         77012.45|
2018/05/09T14:07:47|       28994.52|         50293026.21|         78323.28|
2018/05/09T14:07:48|       28776.30|         53159867.40|         79626.68|
2018/05/09T14:07:49|       29143.74|         46556585.19|         75118.76|
2018/05/09T14:07:50|       28926.68|         49828334.06|         77944.54|
2018/05/09T14:07:51|       28259.72|         47652535.87|         75612.50|
2018/05/09T14:07:52|       28521.57|         46223592.32|         74760.79|
2018/05/09T14:07:53|       28927.76|         46650487.30|         75470.98|
2018/05/09T14:07:54|       27964.09|         46118519.51|         74121.38|
2018/05/09T14:07:55|       28620.57|         47788400.89|         76019.10|
2018/05/09T14:07:56|       28860.73|         47827837.71|         76205.01|
2018/05/09T14:07:57|       28106.88|         44233617.98|         73005.47|
2018/05/09T14:07:58|       28898.80|         43928491.41|         73562.75|
2018/05/09T14:07:59|       29102.44|         46564650.76|         75313.75|
2018/05/09T14:08:00|       28174.63|         49783840.65|         77008.79|
2018/05/09T14:08:01|       28914.70|         57401958.49|         83009.49|
2018/05/09T14:08:02|       28682.73|         61027282.06|         84935.10|
2018/05/09T14:08:03|       28292.59|         57009065.27|         81998.74|
2018/05/09T14:08:04|       28746.63|         52017045.65|         79147.63|
2018/05/09T14:08:05|       28979.60|         51060469.31|         78878.45|
2018/05/09T14:08:06|       29539.33|         53121010.51|         80691.05|
2018/05/09T14:08:07|       30197.00|         58065581.08|         85398.21|
2018/05/09T14:08:08|       30060.47|         58719558.47|         86249.34|
2018/05/09T14:08:09|       27822.37|         63972188.05|         87844.26|
2018/05/09T14:08:10|       28388.17|         64907153.26|         89169.82|
2018/05/09T14:08:11|       28822.30|         66946998.25|         90793.94|
2018/05/09T14:08:12|       27104.52|         67916582.07|         90117.86|
2018/05/09T14:08:13|       27815.73|         67803408.00|         90964.02|
2018/05/09T14:08:14|       28290.31|         69036189.15|         92837.17|
2018/05/09T14:08:15|       26995.06|         72381808.12|         94315.40|
2018/05/09T14:08:16|       27787.05|         74409325.89|         96510.19|
2018/05/09T14:08:17|       27839.18|         74210549.61|         96668.07|
2018/05/09T14:08:18|       27076.61|         74401727.33|         95949.79|
2018/05/09T14:08:19|       27454.82|         75098501.64|         98279.61|
2018/05/09T14:08:20|       28182.67|         75732096.07|         99427.70|
2018/05/09T14:08:21|       26807.34|         70568984.73|         92741.00|
2018/05/09T14:08:22|       27359.87|         66991172.98|         90874.60|
2018/05/09T14:08:23|       27797.68|         67522962.02|         91967.83|
2018/05/09T14:08:24|       27035.65|         71254137.11|         93624.21|
2018/05/09T14:08:25|       27535.78|         72973371.21|         95437.74|
2018/05/09T14:08:26|       28023.01|         70964579.29|         96028.21|
2018/05/09T14:08:27|       27446.80|         75499317.65|        100098.33|
2018/05/09T14:08:28|       27501.48|         72764515.94|         96005.72|
2018/05/09T14:08:29|       27700.88|         75827452.95|         99567.86|
2018/05/09T14:08:30|       26844.86|         77338578.80|        100644.90|
2018/05/09T14:08:31|       26952.56|         79925793.35|        102121.97|
2018/05/09T14:08:32|       44434.75|         79056400.75|        115685.47|
2018/05/09T14:08:33|       27252.22|         75384485.72|         96178.02|
2018/05/09T14:08:34|       27353.50|         74663061.24|         97162.97|
2018/05/09T14:08:35|       27446.00|         75488056.82|         97830.88|
2018/05/09T14:08:36|       26841.37|         74887636.18|         96882.55|
2018/05/09T14:08:37|       27275.91|         73840952.32|         96625.52|
2018/05/09T14:08:38|       27695.53|         74207391.39|         97596.26|
2018/05/09T14:08:39|       26566.31|         73835447.72|         96290.94|
2018/05/09T14:08:40|       27070.28|         75143236.00|         97800.69|
2018/05/09T14:08:41|       27410.77|         81951280.89|        102894.60|
2018/05/09T14:08:42|       27147.93|         74197286.73|         97188.29|
2018/05/09T14:08:43|       27634.84|         68058137.03|         91318.33|
2018/05/09T14:08:44|       27344.49|         65177484.68|         88167.18|
2018/05/09T14:08:45|       26821.27|         63160028.63|         85356.87|
2018/05/09T14:08:46|       27178.30|         56502130.02|         81127.32|
2018/05/09T14:08:47|       28186.54|         55722346.50|         81583.68|
2018/05/09T14:08:48|       26807.12|         56403105.56|         80663.78|
2018/05/09T14:08:49|       27234.76|         57833203.45|         82329.98|
2018/05/09T14:08:50|       27656.78|         60251849.95|         84972.66|
2018/05/09T14:08:51|       26676.60|         62077606.45|         88764.66|
2018/05/09T14:08:52|       27069.13|         63080698.05|         90420.13|
2018/05/09T14:08:53|       27387.57|         62561657.83|         88765.74|
2018/05/09T14:08:54|       26854.67|         60287702.28|         84531.44|
2018/05/09T14:08:55|       27376.11|         61100018.04|         85373.74|
2018/05/09T14:08:56|       27459.32|         60697486.34|         84824.50|
2018/05/09T14:08:57|       26763.98|         64032735.10|         86464.75|
2018/05/09T14:08:58|       26962.80|         62743336.01|         85608.83|
2018/05/09T14:08:59|       27733.48|         61376795.20|         86272.30|
2018/05/09T14:09:00|       27311.54|         54741529.02|         81348.61|
2018/05/09T14:09:01|       27179.37|         52614469.20|         79184.04|
2018/05/09T14:09:02|       27478.94|         52492117.61|         79402.35|
2018/05/09T14:09:03|       26654.91|         54433759.77|         80395.95|
2018/05/09T14:09:04|       27097.08|         52352167.34|         79872.41|
2018/05/09T14:09:05|       27442.34|         53659145.38|         81528.75|
2018/05/09T14:09:06|       26993.20|         53531477.95|         80910.59|
2018/05/09T14:09:07|       27243.87|         56305400.44|         83332.89|
2018/05/09T14:09:08|       27849.05|         63677362.30|         88770.66|
2018/05/09T14:09:09|       27018.30|         61850817.15|         88596.37|
2018/05/09T14:09:10|       27157.45|         62569807.66|         88690.29|
2018/05/09T14:09:11|       27737.73|         69295458.81|         93424.12|
2018/05/09T14:09:12|       27166.96|         59644839.24|         85984.60|
2018/05/09T14:09:13|       27130.71|         60262727.91|         86341.03|
2018/05/09T14:09:14|       27788.39|         62077413.00|         86887.84|
2018/05/09T14:09:15|       26467.13|         63505978.65|         87627.41|
2018/05/09T14:09:16|       27291.47|         62100180.13|         87405.97|
2018/05/09T14:09:17|       27679.39|         63116471.28|         89019.53|
2018/05/09T14:09:18|       26775.27|         64656366.22|         89952.52|
2018/05/09T14:09:19|       26962.74|         64361775.73|         89590.69|
2018/05/09T14:09:20|       27551.21|         64245200.59|         88702.31|
2018/05/09T14:09:21|       26863.09|         62959798.75|         87334.03|
2018/05/09T14:09:22|       27187.65|         63432487.62|         87996.91|
2018/05/09T14:09:23|       27260.70|         63540233.62|         87974.49|
2018/05/09T14:09:24|       26527.82|         64086391.93|         87697.40|
2018/05/09T14:09:25|       27504.41|         65391797.25|         89534.07|
2018/05/09T14:09:26|       27730.80|         68024553.07|         92505.80|
2018/05/09T14:09:27|       26606.93|         69149394.21|         91111.92|
2018/05/09T14:09:28|       68414.26|         69081411.88|        129814.25|
2018/05/09T14:09:29|       51944.65|         65681935.67|        111113.05|
2018/05/09T14:09:30|       26580.81|         78702693.20|         96368.38|
2018/05/09T14:09:31|       27401.02|         78511531.97|         96824.25|
2018/05/09T14:09:32|       27558.72|         79455255.11|         97376.89|
2018/05/09T14:09:33|       26644.81|         71846340.01|         90846.88|
2018/05/09T14:09:34|       27475.05|         69453028.05|         90061.27|
2018/05/09T14:09:35|       27207.23|         73571177.96|         92533.89|
2018/05/09T14:09:36|       26597.66|         70550939.96|         89694.96|
2018/05/09T14:09:37|       27408.49|         68463687.53|         89462.04|
2018/05/09T14:09:38|       27685.53|         72620832.11|         94762.24|
2018/05/09T14:09:39|       26582.38|         78487834.09|        102496.69|
2018/05/09T14:09:40|       27012.65|         64181961.03|         93528.73|
2018/05/09T14:09:41|       27561.46|         65324905.11|         94606.33|
2018/05/09T14:09:42|       26711.03|         65593940.03|         93559.20|
2018/05/09T14:09:43|       27164.08|         65075187.00|         93844.50|
2018/05/09T14:09:44|       27478.40|         63646920.64|         93274.64|
2018/05/09T14:09:45|       26406.02|         65748474.34|         93672.84|
2018/05/09T14:09:46|       27071.13|         65660576.61|         94177.44|
2018/05/09T14:09:47|       27439.24|         64439496.46|         93675.41|
2018/05/09T14:09:48|       26742.50|         66171383.45|         94663.57|
2018/05/09T14:09:49|       27320.65|         66420983.08|         95316.75|
2018/05/09T14:09:50|       27461.02|         67278948.52|         91450.91|
2018/05/09T14:09:51|       26780.50|         60724353.91|         84051.86|
2018/05/09T14:09:52|       28132.32|         54789228.55|         79930.47|
2018/05/09T14:09:53|       31975.69|         59619217.50|         86892.98|
2018/05/09T14:09:54|       30679.07|         53840973.24|         81812.97|
2018/05/09T14:09:55|       30736.10|         53127140.78|         81393.90|
2018/05/09T14:09:56|       31472.74|         54259208.33|         82993.52|
2018/05/09T14:09:57|       30311.37|         53411580.62|         81257.20|
2018/05/09T14:09:58|       31362.08|         53531934.82|         82161.48|
2018/05/09T14:09:59|       27603.98|         53405176.41|         78498.32|
2018/05/09T14:10:00|       26704.35|         56828818.03|         79907.45|
2018/05/09T14:10:01|       27114.28|         56512376.54|         80063.54|
2018/05/09T14:10:02|       27659.88|         59204169.11|         82576.67|
2018/05/09T14:10:03|       26929.07|         58423978.28|         81443.22|
2018/05/09T14:10:04|       27131.90|         59119312.94|         82681.32|
2018/05/09T14:10:05|       27575.02|         63883942.47|         86818.33|
2018/05/09T14:10:06|       26651.02|         61016651.63|         85348.07|
2018/05/09T14:10:07|       27221.71|         62891993.45|         87158.25|
2018/05/09T14:10:08|       27588.42|         62206353.20|         86856.43|
2018/05/09T14:10:09|       26596.64|         61796677.73|         85525.11|
2018/05/09T14:10:10|       27257.62|         60297366.08|         85324.75|
2018/05/09T14:10:11|       27491.29|         62713478.21|         87232.67|
2018/05/09T14:10:12|       26231.48|         64960806.88|         87216.26|
2018/05/09T14:10:13|       27302.33|         66825436.63|         89741.95|
2018/05/09T14:10:14|       27385.57|         70851879.18|         93053.45|
2018/05/09T14:10:15|       26656.36|         70712329.84|         92649.72|
2018/05/09T14:10:16|       26847.29|         68824499.31|         91843.52|
2018/05/09T14:10:17|       27567.56|         65396239.50|         89911.97|
2018/05/09T14:10:18|       26790.33|         60246065.26|         85909.44|
2018/05/09T14:10:19|       27510.67|         53848634.24|         80360.93|
2018/05/09T14:10:20|       27539.13|         56801431.20|         83124.02|
2018/05/09T14:10:21|       26368.04|         57282720.97|         82666.18|
2018/05/09T14:10:22|       26808.37|         59416933.79|         84245.60|
2018/05/09T14:10:23|       27861.93|         60017951.98|         85556.32|
2018/05/09T14:10:24|       27928.83|         62815078.91|         88143.61|
2018/05/09T14:10:25|       27171.85|         67236989.37|         90453.37|
2018/05/09T14:10:26|       27572.08|         66482353.39|         90184.51|
2018/05/09T14:10:27|       26473.07|         66018426.04|         88859.57|
2018/05/09T14:10:28|       27339.59|         73656057.67|         94945.35|
2018/05/09T14:10:29|       27272.03|         62435096.57|         87265.88|
2018/05/09T14:10:30|       26364.94|         64230791.83|         87326.37|
2018/05/09T14:10:31|       27103.10|         64249941.86|         88257.95|
2018/05/09T14:10:32|       27427.60|         60866389.86|         86135.13|
2018/05/09T14:10:33|       26612.75|         61129343.79|         85569.86|
2018/05/09T14:10:34|       27273.35|         61757764.07|         86812.66|
2018/05/09T14:10:35|       27418.33|         62421860.47|         87075.10|
2018/05/09T14:10:36|       26578.33|         63963023.29|         87823.22|
2018/05/09T14:10:37|       26955.84|         62324503.53|         86942.02|
2018/05/09T14:10:38|       27608.16|         60266046.68|         86756.26|
2018/05/09T14:10:39|       26268.43|         57833464.73|         84098.72|
2018/05/09T14:10:40|       27231.17|         53008760.57|         81653.20|
2018/05/09T14:10:41|       27545.79|         60844574.74|         86693.18|
2018/05/09T14:10:42|       26392.61|         63309989.86|         87155.81|
2018/05/09T14:10:43|       26936.65|         68035212.24|         91368.62|
2018/05/09T14:10:44|       29707.24|         64309973.72|         91574.91|
2018/05/09T14:10:45|       29756.96|         62976147.01|         90623.87|
2018/05/09T14:10:46|       28788.44|         61918436.98|         88982.57|
2018/05/09T14:10:47|       29131.07|         60021717.30|         89767.01|
2018/05/09T14:10:48|       28464.12|         58575388.65|         86858.78|
2018/05/09T14:10:49|       29281.62|         52550720.97|         81672.35|
2018/05/09T14:10:50|       29172.65|         60236212.25|         88598.89|
2018/05/09T14:10:51|       28587.97|         65438558.35|         92382.94|
2018/05/09T14:10:52|       28515.48|         67887777.64|         93663.37|
2018/05/09T14:10:53|       29255.88|         70192238.75|         95837.85|
2018/05/09T14:10:54|       29225.32|         70730739.05|         96916.95|
2018/05/09T14:10:55|       28681.89|         70893461.81|         96630.88|
2018/05/09T14:10:56|       29704.07|         67747423.80|         95433.00|
2018/05/09T14:10:57|       35750.49|         70786758.34|        103225.13|
2018/05/09T14:10:58|       43812.68|         71422009.10|        111101.90|
2018/05/09T14:10:59|       36661.44|         71355727.93|        104226.64|
2018/05/09T14:11:00|       28624.75|         77329501.24|        100025.28|
2018/05/09T14:11:01|       29318.59|         76762225.14|        100670.21|
2018/05/09T14:11:02|       29182.12|         75879937.21|        100402.24|
2018/05/09T14:11:03|       28844.99|         69545915.54|         93094.35|
2018/05/09T14:11:04|       29317.20|         66415061.26|         89768.63|
2018/05/09T14:11:05|       29419.09|         60004706.97|         84429.66|
2018/05/09T14:11:06|       28648.60|         59199614.29|         83601.46|
2018/05/09T14:11:07|       28996.02|         58527040.23|         83599.53|
2018/05/09T14:11:08|       28972.00|         56857192.66|         82943.59|
2018/05/09T14:11:09|       29090.46|         56917709.11|         83225.95|
2018/05/09T14:11:10|       29044.12|        120928893.27|        125548.68|
2018/05/09T14:11:11|       29493.54|         86588612.50|        104649.03|
2018/05/09T14:11:12|       28565.76|         61027063.81|         89345.33|
2018/05/09T14:11:13|       29061.29|         62222261.25|         90804.71|
2018/05/09T14:11:14|       29692.46|         65621746.22|         93298.05|
2018/05/09T14:11:15|       28485.89|         60220373.27|         88661.29|
2018/05/09T14:11:16|       28732.05|         68725194.05|         94562.17|
2018/05/09T14:11:17|       27548.31|         70885939.54|         94783.42|
2018/05/09T14:11:18|       27356.87|         67474368.71|         92299.33|
2018/05/09T14:11:19|       27310.33|         69291986.75|         93811.56|
2018/05/09T14:11:20|       27306.70|         64675623.56|         90782.45|
2018/05/09T14:11:21|       26937.18|         59567920.07|         87387.31|
2018/05/09T14:11:22|       26918.78|         60908431.16|         88179.01|
2018/05/09T14:11:23|       27118.93|         60794006.69|         88340.95|
2018/05/09T14:11:24|       27162.81|         60664405.84|         87125.79|
2018/05/09T14:11:25|       26926.87|         62212665.11|         85625.58|
2018/05/09T14:11:26|       27156.68|         63448008.46|         86570.92|
2018/05/09T14:11:27|       26502.24|         67546146.83|         93044.52|
2018/05/09T14:11:28|       27798.29|         61167526.73|         91377.09|
2018/05/09T14:11:29|       27501.39|         59723916.97|         89670.80|
2018/05/09T14:11:30|       26756.87|         60126323.22|         89236.76|
2018/05/09T14:11:31|       26845.67|         58836297.22|         88106.50|
2018/05/09T14:11:32|       27276.83|         58360178.27|         87899.29|
2018/05/09T14:11:33|       26400.14|         60102477.14|         88653.86|
2018/05/09T14:11:34|       26896.71|         66468181.24|         94169.50|
2018/05/09T14:11:35|       27189.57|         70368311.86|         97437.70|
2018/05/09T14:11:36|       26408.53|         72553235.67|         99164.10|
2018/05/09T14:11:37|       27048.97|         71670105.62|         97298.43|
2018/05/09T14:11:38|       27860.01|         70428177.82|         93064.47|
2018/05/09T14:11:39|       26576.26|         70354111.74|         91711.95|
2018/05/09T14:11:40|       27045.88|         72304390.23|         94183.23|
2018/05/09T14:11:41|       27287.37|         71132040.45|         94109.59|
2018/05/09T14:11:42|       26550.67|         71217380.85|         93229.76|
2018/05/09T14:11:43|       27191.23|         77509557.75|         99444.19|
2018/05/09T14:11:44|       27619.12|         74277942.84|         98055.35|
2018/05/09T14:11:45|       26941.62|         74483622.81|         97912.13|
2018/05/09T14:11:46|       27016.90|         82001354.94|        104817.04|
2018/05/09T14:11:47|       27662.22|         81490280.51|        104906.34|
2018/05/09T14:11:48|       26795.11|         78562854.20|        100307.73|
2018/05/09T14:11:49|       27050.63|         73816149.49|         97127.33|
2018/05/09T14:11:50|       27164.15|         68737717.04|         92872.81|
2018/05/09T14:11:51|       26492.68|         69322364.24|         92668.78|
2018/05/09T14:11:52|       27542.93|         75504142.81|         98396.33|
2018/05/09T14:11:53|       27281.58|         75847289.18|         98520.26|
2018/05/09T14:11:54|       26861.95|         82745009.57|        103301.00|
2018/05/09T14:11:55|       26851.82|         85091417.32|        104717.20|
2018/05/09T14:11:56|       27315.51|         78688724.02|        101540.00|
2018/05/09T14:11:57|       26600.93|         80727192.39|        103331.92|
2018/05/09T14:11:58|       27222.71|         81959051.67|        105861.78|
2018/05/09T14:11:59|       27716.89|         78557471.35|        102821.30|
2018/05/09T14:12:00|       26968.49|         73379733.16|         96698.06|
2018/05/09T14:12:01|       27477.26|         76117584.90|         99702.34|
2018/05/09T14:12:02|       27718.18|         77164681.05|        100106.83|
2018/05/09T14:12:03|       26823.99|         78034646.30|        101522.49|
2018/05/09T14:12:04|       27021.45|         81364435.18|        104937.23|
2018/05/09T14:12:05|       27288.71|         82494039.27|        106245.41|
2018/05/09T14:12:06|       26913.76|         80367470.60|        104470.56|
2018/05/09T14:12:07|       26874.09|         79328035.18|        103879.13|
2018/05/09T14:12:08|       27627.35|         77622763.70|        103553.70|
2018/05/09T14:12:09|       26722.90|         81437092.30|        105766.12|
2018/05/09T14:12:10|       27361.60|         85362870.44|        107096.92|
2018/05/09T14:12:11|       27330.00|         89145251.42|        109488.31|
2018/05/09T14:12:12|       27078.92|         94287826.36|        112759.33|
2018/05/09T14:12:13|       27361.28|         95967853.24|        114141.87|
2018/05/09T14:12:14|       27461.75|         96444255.85|        114093.96|
2018/05/09T14:12:15|       26642.97|         96780931.20|        113893.99|
2018/05/09T14:12:16|       27197.54|        101398348.53|        119635.73|
2018/05/09T14:12:17|       27280.39|         93396138.76|        111683.31|
2018/05/09T14:12:18|       26784.96|         99325999.47|        116254.99|
2018/05/09T14:12:19|       26884.52|        102063737.27|        119314.33|
2018/05/09T14:12:20|       27378.26|         93439063.28|        113710.81|
2018/05/09T14:12:21|       26478.94|         82493263.13|        105042.06|
2018/05/09T14:12:22|       27200.35|         88431317.84|        112860.00|
2018/05/09T14:12:23|       27346.25|         87736778.91|        111289.80|
2018/05/09T14:12:24|       26686.57|         91955849.43|        115135.90|
2018/05/09T14:12:25|       26699.00|         99093655.07|        120617.47|
2018/05/09T14:12:26|       27065.66|         91267125.54|        115839.50|
2018/05/09T14:12:27|       26534.01|         94409125.12|        117363.93|
2018/05/09T14:12:28|       35179.21|         93291728.62|        124772.58|
2018/05/09T14:12:29|       59801.87|         92784816.61|        146247.71|
2018/05/09T14:12:30|       52678.72|         84813029.67|        132626.53|
2018/05/09T14:12:31|       27025.64|         84528881.12|        107561.85|
2018/05/09T14:12:32|       27245.58|         82590976.87|        112901.49|
2018/05/09T14:12:33|       26207.73|         76789309.56|         99367.77|
2018/05/09T14:12:34|       27080.86|         79643167.92|        103325.76|
2018/05/09T14:12:35|       27675.34|         82451711.07|        106046.54|
2018/05/09T14:12:36|       26549.04|         80231940.35|        101627.81|
2018/05/09T14:12:37|       27117.68|         83428884.54|        104018.73|
2018/05/09T14:12:38|       27572.97|         76547888.56|         97821.04|
2018/05/09T14:12:39|       27034.80|         90226677.48|        106569.07|
2018/05/09T14:12:40|       26673.60|         86994042.07|        103932.39|
2018/05/09T14:12:41|       27597.24|         70949442.73|         94136.20|
2018/05/09T14:12:42|       26632.73|         69170931.53|         91860.85|
2018/05/09T14:12:43|       27003.20|         67169996.97|         91034.98|
2018/05/09T14:12:44|       27496.35|         69480146.20|         93837.87|
2018/05/09T14:12:45|       26610.69|         76738212.59|         99269.49|
2018/05/09T14:12:46|       27106.05|         82201711.45|        104570.04|
2018/05/09T14:12:47|       27663.37|         88645360.73|        109403.01|
2018/05/09T14:12:48|       26378.29|         82296797.69|        102225.44|
2018/05/09T14:12:49|       27113.11|         85589209.43|        105422.72|
2018/05/09T14:12:50|       27451.53|         86968819.96|        106776.39|
2018/05/09T14:12:51|       26514.38|         87505755.52|        106211.71|
2018/05/09T14:12:52|       27149.39|         88802535.06|        107546.79|
2018/05/09T14:12:53|       26746.80|         85608465.95|        104874.78|
2018/05/09T14:12:54|       26433.73|         87574441.12|        105774.54|
2018/05/09T14:12:55|       26993.52|         87874597.11|        106489.96|
2018/05/09T14:12:56|       27272.17|         81408096.86|        102121.28|
2018/05/09T14:12:57|       26492.97|         77724485.93|         98604.91|
2018/05/09T14:12:58|       27003.84|         77832780.12|         99672.57|
2018/05/09T14:12:59|       27157.82|         79434686.24|        101229.89|
2018/05/09T14:13:00|       26447.40|         73904741.24|         96205.79|
2018/05/09T14:13:01|       27605.49|         71821661.97|         96504.49|
2018/05/09T14:13:02|       28105.13|         77123130.89|        100469.90|
2018/05/09T14:13:03|       26497.29|         74734975.21|         96602.63|
2018/05/09T14:13:04|       26973.43|         73156253.15|         95511.72|
2018/05/09T14:13:05|       27361.95|         71717682.92|         94624.81|
2018/05/09T14:13:06|       26266.94|         71424642.29|         93903.13|
2018/05/09T14:13:07|       26749.56|         73013997.93|         95825.38|
2018/05/09T14:13:08|       35270.75|         73498191.11|        104107.91|
2018/05/09T14:13:09|       34293.75|         74291660.11|        104410.15|
2018/05/09T14:13:10|       46183.44|         73724152.42|        112649.67|
2018/05/09T14:13:11|       38307.62|         73309667.35|        105507.86|
2018/05/09T14:13:12|       38539.64|         69685181.89|        103446.05|
2018/05/09T14:13:13|       35244.84|         68174944.04|         99730.89|
2018/05/09T14:13:14|       27863.84|         71119516.56|         95446.10|
2018/05/09T14:13:15|       26572.89|         72748488.64|         95729.51|
2018/05/09T14:13:16|       27155.32|         71335780.42|         95404.13|
2018/05/09T14:13:17|       27281.28|         73667117.40|         97467.06|
2018/05/09T14:13:18|       27623.68|         72825971.53|         97664.29|
2018/05/09T14:13:19|       31690.14|         75676375.15|        103541.15|
2018/05/09T14:13:20|       32558.63|         72834441.03|        102455.12|
2018/05/09T14:13:21|       31588.93|         76232142.74|        104315.20|
2018/05/09T14:13:22|       27113.57|         74316796.56|         98625.09|
2018/05/09T14:13:23|       27360.56|         70159425.08|         96476.16|
2018/05/09T14:13:24|       26583.93|         74066079.65|         98245.81|
2018/05/09T14:13:25|       27089.21|         71993075.26|         96672.53|
2018/05/09T14:13:26|       27331.72|         74971233.52|         98819.16|
2018/05/09T14:13:27|       26547.78|         79324558.76|        101484.45|
2018/05/09T14:13:28|       27092.18|         79780037.09|        102031.97|
2018/05/09T14:13:29|       27334.46|         84074309.22|        105150.11|
2018/05/09T14:13:30|       26461.58|         79823124.71|        101452.66|
2018/05/09T14:13:31|       27078.55|         77757526.72|         99421.47|
2018/05/09T14:13:32|       27303.24|         77026930.27|         98482.52|
2018/05/09T14:13:33|       26360.52|         74681718.76|         95913.89|
2018/05/09T14:13:34|       27117.19|         78535652.39|         99604.65|
2018/05/09T14:13:35|       27670.65|         76941853.28|         98452.99|
2018/05/09T14:13:36|       26482.26|         82379194.75|        101399.76|
2018/05/09T14:13:37|       26886.47|         81147078.29|        100325.69|
2018/05/09T14:13:38|       27538.05|         69386096.88|         92367.43|
2018/05/09T14:13:39|       26800.16|         65108697.35|         89227.27|
2018/05/09T14:13:40|       27330.14|         59946639.23|         85364.00|
2018/05/09T14:13:41|       27425.15|         59314281.64|         86120.93|
2018/05/09T14:13:42|       26510.20|         63803563.53|         88442.65|
2018/05/09T14:13:43|       27149.10|         68745872.70|         92832.59|
2018/05/09T14:13:44|       27438.53|         65518893.19|         90735.67|
2018/05/09T14:13:45|       26652.39|         64756354.93|         89645.04|
2018/05/09T14:13:46|       27248.72|         65542644.83|         91485.23|
2018/05/09T14:13:47|       27521.52|         66413488.47|         93287.44|
2018/05/09T14:13:48|       27002.39|         72544409.37|         96749.30|
2018/05/09T14:13:49|       28410.30|         69616061.46|         95374.83|
2018/05/09T14:13:50|       27355.76|         67839546.17|         93542.62|
2018/05/09T14:13:51|       26491.72|         71043742.33|         95054.01|
2018/05/09T14:13:52|       26892.82|         68332226.80|         93530.90|
2018/05/09T14:13:53|       27212.07|         63348823.85|         90405.83|
2018/05/09T14:13:54|       26507.22|         63423736.09|         90092.88|
2018/05/09T14:13:55|       27515.93|         60463843.86|         88710.10|
2018/05/09T14:13:56|       27379.24|         66163125.76|         91934.78|
2018/05/09T14:13:57|       26589.35|         62791496.32|         89755.78|
2018/05/09T14:13:58|       27238.50|         67681431.75|         93942.62|
2018/05/09T14:13:59|       27188.57|         69990794.04|         93927.35|
2018/05/09T14:14:00|       26628.05|         70105650.29|         92890.94|
2018/05/09T14:14:01|       27125.57|         73801005.24|         96171.77|
2018/05/09T14:14:02|       27425.88|         71399396.68|         94673.36|
2018/05/09T14:14:03|       26357.36|         77099859.08|         98836.40|
2018/05/09T14:14:04|       26975.96|         75923534.30|         98446.12|
2018/05/09T14:14:05|       27267.93|         71611237.60|         95660.41|
2018/05/09T14:14:06|       26999.16|         71572849.47|         95598.96|
2018/05/09T14:14:07|       27651.79|         71507084.52|         96487.56|
2018/05/09T14:14:08|       27631.84|         72997503.64|         96758.75|
2018/05/09T14:14:09|       26418.43|         68428790.95|         92236.07|
2018/05/09T14:14:10|       27125.84|         68791347.04|         93749.06|
2018/05/09T14:14:11|       27243.00|         70915923.69|         95723.41|
2018/05/09T14:14:12|       26715.94|         63851882.06|         89992.43|
2018/05/09T14:14:13|       27270.85|         62674326.29|         89945.11|
2018/05/09T14:14:14|       27409.22|         61608205.05|         88246.47|
2018/05/09T14:14:15|       26746.30|         69823276.37|         92904.94|
2018/05/09T14:14:16|       27107.48|         58788795.61|         85352.87|
2018/05/09T14:14:17|       27017.93|         58199016.96|         85046.77|
2018/05/09T14:14:18|       26496.22|         78938309.37|        102241.71|
2018/05/09T14:14:19|       27895.52|         79795000.53|        104143.59|
2018/05/09T14:14:20|       27341.59|         77944221.34|        102110.33|
2018/05/09T14:14:21|       26522.34|         79481276.39|        102120.36|
2018/05/09T14:14:22|       26695.96|         78484373.63|        101322.62|
2018/05/09T14:14:23|       27314.37|         83117229.30|        105192.76|
2018/05/09T14:14:24|       26739.76|         81758755.49|        103855.58|
2018/05/09T14:14:25|       27022.89|         83656331.17|        105463.73|
2018/05/09T14:14:26|       27345.35|         83198029.77|        105692.79|
2018/05/09T14:14:27|       26543.14|         79702503.14|        102465.81|
2018/05/09T14:14:28|       27286.46|         78723634.01|        102295.46|
2018/05/09T14:14:29|       27582.88|         76845615.67|        100832.22|
2018/05/09T14:14:30|       26863.32|         75448364.12|         98888.88|
2018/05/09T14:14:31|       27118.47|         60081261.61|         86881.84|
2018/05/09T14:14:32|       27546.82|         54353892.35|         82568.12|
2018/05/09T14:14:33|       26915.75|         59479983.19|         85471.63|
2018/05/09T14:14:34|       27188.13|         62330076.25|         87903.95|
2018/05/09T14:14:35|       27272.07|         64598409.22|         89050.40|
2018/05/09T14:14:36|       26511.46|         60698953.72|         85821.09|
2018/05/09T14:14:37|       27074.63|         62304850.01|         87406.67|
2018/05/09T14:14:38|       28022.58|         61900982.36|         88066.30|
2018/05/09T14:14:39|       26593.86|         67378462.15|         90433.54|
2018/05/09T14:14:40|       27120.51|         67605594.65|         92075.64|
2018/05/09T14:14:41|       27190.19|         70620509.92|         94958.16|
2018/05/09T14:14:42|       26320.56|         69582224.99|         93344.90|
2018/05/09T14:14:43|       27153.87|         71497200.85|         95351.50|
2018/05/09T14:14:44|       27419.21|         69435737.19|         94868.85|
2018/05/09T14:14:45|       26585.20|         71179353.71|         96003.48|
2018/05/09T14:14:46|       26950.66|         72033080.87|         96612.89|
2018/05/09T14:14:47|       27463.53|         90154074.42|        108941.04|
2018/05/09T14:14:48|       26396.26|         69600459.28|         94668.09|
2018/05/09T14:14:49|       26963.35|         69164214.49|         94713.95|
2018/05/09T14:14:50|       27354.31|         66283910.29|         92286.42|
2018/05/09T14:14:51|       26235.30|         69598762.45|         93225.79|
2018/05/09T14:14:52|       26631.28|         62884661.93|         88476.61|
2018/05/09T14:14:53|       27547.07|         66559135.89|         90981.47|
2018/05/09T14:14:54|       26686.28|         75690404.31|         94591.01|
2018/05/09T14:14:55|       27372.12|         74917342.53|         94576.46|
2018/05/09T14:14:56|       27777.34|         69411257.99|         91243.00|
2018/05/09T14:14:57|       26666.28|         56234021.61|         80696.14|
2018/05/09T14:14:58|       27112.84|         47238243.65|         74113.02|
2018/05/09T14:14:59|       27562.25|         41489108.61|         68315.04|
2018/05/09T14:15:00|        1801.84|          2027580.31|          3592.91|
