               Date|        Records|               Bytes|          Packets|
2018/05/09T06:45:00|       28097.37|         73809490.38|         91473.47|
2018/05/09T06:45:01|       30385.85|         88522553.99|        106786.93|
2018/05/09T06:45:02|       30904.34|         91670474.39|        110377.68|
2018/05/09T06:45:03|       29853.41|         98251452.13|        114381.51|
2018/05/09T06:45:04|       30314.11|        106368383.91|        120113.14|
2018/05/09T06:45:05|       30306.78|        109005368.19|        121716.68|
2018/05/09T06:45:06|       29375.03|        103476128.04|        117260.00|
2018/05/09T06:45:07|       29742.26|        101272972.93|        116421.48|
2018/05/09T06:45:08|       30618.45|         94879370.66|        111778.54|
2018/05/09T06:45:09|       29217.86|        107552889.12|        119074.96|
2018/05/09T06:45:10|       29245.70|        102210346.33|        116283.14|
2018/05/09T06:45:11|       29941.99|        104579240.91|        118680.31|
2018/05/09T06:45:12|       28784.91|        106600346.51|        118805.08|
2018/05/09T06:45:13|       29492.41|        104625005.09|        118421.14|
2018/05/09T06:45:14|       30645.78|        107363376.70|        121329.64|
2018/05/09T06:45:15|       28505.38|        105396255.26|        117814.16|
2018/05/09T06:45:16|       29928.40|        104783968.62|        118366.85|
2018/05/09T06:45:17|       29533.59|        110351151.55|        122156.32|
2018/05/09T06:45:18|       29002.54|        107959023.06|        120432.02|
2018/05/09T06:45:19|       30075.57|        108970068.75|        123340.14|
2018/05/09T06:45:20|       29149.45|        107669177.96|        120247.91|
2018/05/09T06:45:21|       28991.00|        108104410.58|        120254.87|
2018/05/09T06:45:22|       29796.56|        109031495.31|        122479.69|
2018/05/09T06:45:23|       29714.89|        112715246.15|        125047.29|
2018/05/09T06:45:24|       29456.95|        115998435.12|        126962.86|
2018/05/09T06:45:25|       30003.41|        114732222.78|        127440.60|
2018/05/09T06:45:26|       30027.05|        109524629.95|        123899.77|
2018/05/09T06:45:27|       29594.89|        111453676.71|        124629.97|
2018/05/09T06:45:28|       30109.95|        109668811.91|        123348.13|
2018/05/09T06:45:29|       29748.77|        111491307.98|        126493.30|
2018/05/09T06:45:30|       29385.77|        117691234.94|        130353.18|
2018/05/09T06:45:31|       29982.57|        110202013.03|        131204.36|
2018/05/09T06:45:32|       30360.72|        111766797.84|        137447.76|
2018/05/09T06:45:33|       29319.54|        108905738.06|        130381.72|
2018/05/09T06:45:34|       30156.55|        109652263.54|        127189.75|
2018/05/09T06:45:35|       29856.56|        112194014.59|        126584.09|
2018/05/09T06:45:36|       29736.81|        111292431.79|        125124.29|
2018/05/09T06:45:37|       29816.79|        111961740.46|        125540.27|
2018/05/09T06:45:38|       30222.36|        109940940.45|        124753.65|
2018/05/09T06:45:39|       29927.68|        111112937.65|        126081.68|
2018/05/09T06:45:40|       30942.25|        111927595.94|        126921.99|
2018/05/09T06:45:41|       31051.01|        110505205.49|        125931.13|
2018/05/09T06:45:42|       30531.14|        109379314.11|        124606.87|
2018/05/09T06:45:43|       30966.56|        110501743.33|        125774.00|
2018/05/09T06:45:44|       30005.71|        110141726.37|        124094.31|
2018/05/09T06:45:45|       29502.64|        110376037.65|        123712.93|
2018/05/09T06:45:46|       30016.36|        110524199.51|        125205.18|
2018/05/09T06:45:47|       29575.20|        111723215.91|        125806.21|
2018/05/09T06:45:48|       29323.61|        112199151.74|        125891.00|
2018/05/09T06:45:49|       29419.87|        111555429.97|        125166.75|
2018/05/09T06:45:50|       29934.08|        111004002.68|        125802.09|
2018/05/09T06:45:51|       29254.82|        110903999.84|        125068.04|
2018/05/09T06:45:52|       30151.24|        110507856.99|        125772.40|
2018/05/09T06:45:53|       30303.58|        110075340.90|        125242.61|
2018/05/09T06:45:54|       29690.06|        111166267.56|        125465.06|
2018/05/09T06:45:55|       30401.47|        113725234.55|        127993.34|
2018/05/09T06:45:56|       31097.36|        108574183.76|        125011.67|
2018/05/09T06:45:57|       29598.39|        109939987.94|        124140.41|
2018/05/09T06:45:58|       29969.80|        109814893.17|        124364.75|
2018/05/09T06:45:59|       29889.47|        110763966.77|        126481.06|
2018/05/09T06:46:00|       29429.81|        112983045.24|        127385.71|
2018/05/09T06:46:01|       30267.81|        109135590.79|        124087.21|
2018/05/09T06:46:02|       30370.39|        107812521.69|        123647.65|
2018/05/09T06:46:03|       29477.28|        108382204.86|        123216.14|
2018/05/09T06:46:04|       30478.70|        107468825.43|        124163.04|
2018/05/09T06:46:05|       30201.34|        107450816.77|        123744.74|
2018/05/09T06:46:06|       29029.36|        107522056.22|        121928.67|
2018/05/09T06:46:07|       30188.97|        107749329.76|        126922.70|
2018/05/09T06:46:08|       30262.22|        108539913.68|        126341.38|
2018/05/09T06:46:09|       33362.44|        109051841.01|        129729.64|
2018/05/09T06:46:10|       32281.87|        106954732.15|        126425.41|
2018/05/09T06:46:11|       30205.69|        120904973.24|        138039.34|
2018/05/09T06:46:12|       29115.00|        117984767.42|        135593.31|
2018/05/09T06:46:13|       29973.29|        119261533.32|        136305.76|
2018/05/09T06:46:14|       30238.02|        120194486.00|        136514.38|
2018/05/09T06:46:15|       29713.55|        121503446.60|        136333.45|
2018/05/09T06:46:16|       30037.10|        120767083.48|        136476.96|
2018/05/09T06:46:17|       30202.05|        121398482.22|        136475.72|
2018/05/09T06:46:18|       29825.65|        122081690.81|        136255.38|
2018/05/09T06:46:19|       29911.01|        120462227.67|        135157.12|
2018/05/09T06:46:20|       29947.34|        128709965.47|        140839.74|
2018/05/09T06:46:21|       29070.22|        135315850.75|        145264.78|
2018/05/09T06:46:22|       29891.39|        131827339.14|        143428.15|
2018/05/09T06:46:23|       30015.09|        131575690.77|        142858.82|
2018/05/09T06:46:24|       29387.03|        124495683.74|        135309.91|
2018/05/09T06:46:25|       30118.34|        121901325.59|        133116.84|
2018/05/09T06:46:26|       29766.03|        116769074.87|        129371.79|
2018/05/09T06:46:27|       29469.94|        118389056.03|        130615.80|
2018/05/09T06:46:28|       30119.82|        115531353.09|        129126.82|
2018/05/09T06:46:29|       30003.66|        113908460.48|        128587.24|
2018/05/09T06:46:30|       29280.12|        113079505.48|        127495.57|
2018/05/09T06:46:31|       30492.68|        114301484.97|        129338.23|
2018/05/09T06:46:32|       30421.83|        113628008.35|        128974.57|
2018/05/09T06:46:33|       29252.52|        113042257.24|        127326.13|
2018/05/09T06:46:34|       30286.15|        113986250.98|        128537.33|
2018/05/09T06:46:35|       29979.89|        109172609.23|        124685.34|
2018/05/09T06:46:36|       29378.99|        108200048.43|        122641.82|
2018/05/09T06:46:37|       29984.64|        109136772.01|        123898.68|
2018/05/09T06:46:38|       29790.14|        107599502.18|        122350.41|
2018/05/09T06:46:39|       28956.96|        106514047.95|        120775.15|
2018/05/09T06:46:40|       29786.02|        105979373.50|        121488.22|
2018/05/09T06:46:41|       30072.13|        106823889.89|        122511.32|
2018/05/09T06:46:42|       29030.69|        112461573.99|        125484.63|
2018/05/09T06:46:43|       30271.32|        111442376.16|        126080.26|
2018/05/09T06:46:44|       30002.19|        106159147.68|        121755.72|
2018/05/09T06:46:45|       30767.52|        115860388.30|        129054.87|
2018/05/09T06:46:46|       30137.63|        124907118.77|        135072.48|
2018/05/09T06:46:47|       30091.42|        127021671.10|        137570.90|
2018/05/09T06:46:48|       29518.78|        125898211.53|        135431.49|
2018/05/09T06:46:49|       27996.28|        133442455.40|        141210.37|
2018/05/09T06:46:50|       23397.18|        136092673.54|        139062.25|
2018/05/09T06:46:51|       35678.95|        131470861.71|        148116.44|
2018/05/09T06:46:52|       30932.11|        130369810.89|        142060.38|
2018/05/09T06:46:53|       27413.31|        130184548.66|        138945.27|
2018/05/09T06:46:54|       31626.17|        130257087.89|        143348.57|
2018/05/09T06:46:55|       29055.82|        123738877.87|        135615.14|
2018/05/09T06:46:56|       27534.57|        117865902.04|        131561.46|
2018/05/09T06:46:57|       31493.72|        118766113.72|        135916.17|
2018/05/09T06:46:58|       29241.60|        123396609.85|        137509.09|
2018/05/09T06:46:59|       27980.04|        128786554.38|        139795.27|
2018/05/09T06:47:00|       30506.11|        133962125.80|        145759.53|
2018/05/09T06:47:01|       31029.94|        132902173.56|        145758.35|
2018/05/09T06:47:02|       28629.14|        127584502.20|        139374.78|
2018/05/09T06:47:03|       30854.40|        126456623.07|        140777.79|
2018/05/09T06:47:04|       29446.10|        128656004.94|        141339.02|
2018/05/09T06:47:05|       29103.57|        134310739.01|        145087.72|
2018/05/09T06:47:06|       30686.46|        128792086.38|        142895.75|
2018/05/09T06:47:07|       29482.34|        134615302.69|        144334.92|
2018/05/09T06:47:08|       28651.51|        134334737.09|        143904.70|
2018/05/09T06:47:09|       30125.93|        147469727.00|        154766.98|
2018/05/09T06:47:10|       29544.05|        159412582.33|        162476.64|
2018/05/09T06:47:11|       28873.54|        160920356.50|        164681.68|
2018/05/09T06:47:12|       30723.49|        162126334.14|        165966.15|
2018/05/09T06:47:13|       28930.52|        165423838.48|        166196.94|
2018/05/09T06:47:14|       28584.77|        158383187.78|        161390.72|
2018/05/09T06:47:15|       29079.02|        156196759.41|        160326.47|
2018/05/09T06:47:16|       29840.33|        157509406.74|        162275.45|
2018/05/09T06:47:17|       29104.76|        156170860.69|        161027.82|
2018/05/09T06:47:18|       30083.29|        157485429.37|        162616.82|
2018/05/09T06:47:19|       30068.15|        153537098.71|        159405.45|
2018/05/09T06:47:20|       31104.62|        134914434.88|        147159.94|
2018/05/09T06:47:21|       29361.60|        125457830.98|        138184.62|
2018/05/09T06:47:22|       31531.70|        128224160.71|        140645.08|
2018/05/09T06:47:23|       29179.59|        124617673.39|        134156.76|
2018/05/09T06:47:24|       29260.26|        118595547.60|        129430.47|
2018/05/09T06:47:25|       29135.62|        121695806.56|        131118.20|
2018/05/09T06:47:26|       28791.87|        112379421.87|        124923.89|
2018/05/09T06:47:27|       28928.99|        115545357.55|        127393.96|
2018/05/09T06:47:28|       29016.00|        113922008.26|        126083.79|
2018/05/09T06:47:29|       29578.90|        114245528.00|        126437.99|
2018/05/09T06:47:30|       29136.89|        116139628.89|        127241.80|
2018/05/09T06:47:31|       29037.10|        116123314.69|        129543.91|
2018/05/09T06:47:32|       29382.41|        114085855.93|        130357.13|
2018/05/09T06:47:33|       29369.24|        116394608.98|        128506.47|
2018/05/09T06:47:34|       28908.04|        116869940.80|        126738.28|
2018/05/09T06:47:35|       28519.11|        112184493.99|        122995.71|
2018/05/09T06:47:36|       28287.62|        110223680.54|        121516.71|
2018/05/09T06:47:37|       29498.54|        110905375.29|        123423.95|
2018/05/09T06:47:38|       28872.37|        111856914.81|        123075.28|
2018/05/09T06:47:39|       28201.78|        110989741.55|        122188.51|
2018/05/09T06:47:40|       28967.33|        117200344.85|        127661.54|
2018/05/09T06:47:41|       28598.69|        112211113.77|        123392.96|
2018/05/09T06:47:42|       28430.41|        108858903.81|        121969.10|
2018/05/09T06:47:43|       29013.71|        108804932.34|        122027.21|
2018/05/09T06:47:44|       28589.51|        109221572.06|        123123.89|
2018/05/09T06:47:45|       28342.09|        107770278.72|        122533.59|
2018/05/09T06:47:46|       28762.13|        106880395.03|        120890.10|
2018/05/09T06:47:47|       29082.86|        110606952.92|        123431.91|
2018/05/09T06:47:48|       28624.46|        106346213.20|        120144.76|
2018/05/09T06:47:49|       28566.29|        117831995.61|        127955.15|
2018/05/09T06:47:50|       28868.04|        107484748.07|        121683.51|
2018/05/09T06:47:51|       28215.73|        101686448.84|        116616.07|
2018/05/09T06:47:52|       29319.42|        104037018.91|        119085.37|
2018/05/09T06:47:53|       29434.27|        108332293.35|        122067.09|
2018/05/09T06:47:54|       28454.73|        115390904.07|        126156.52|
2018/05/09T06:47:55|       29371.59|        113451749.99|        126344.07|
2018/05/09T06:47:56|       29258.98|        121626021.95|        132870.31|
2018/05/09T06:47:57|       28588.78|        122944585.21|        133339.16|
2018/05/09T06:47:58|       29119.39|        128666571.59|        137679.46|
2018/05/09T06:47:59|       28932.82|        131208361.40|        139139.02|
2018/05/09T06:48:00|       27923.62|        134926597.09|        141852.39|
2018/05/09T06:48:01|       28929.00|        137723488.56|        146546.54|
2018/05/09T06:48:02|       30500.44|        132646297.94|        144681.73|
2018/05/09T06:48:03|       29112.35|        128074188.16|        139198.96|
2018/05/09T06:48:04|       28850.34|        130628008.88|        141092.18|
2018/05/09T06:48:05|       29004.71|        125392224.93|        137363.92|
2018/05/09T06:48:06|       28450.44|        121078542.94|        134025.37|
2018/05/09T06:48:07|       29162.69|        122433838.37|        137377.52|
2018/05/09T06:48:08|       29028.90|        119582148.03|        133174.69|
2018/05/09T06:48:09|       28442.42|        119389504.79|        133510.51|
2018/05/09T06:48:10|       28858.50|        119691173.61|        133626.08|
2018/05/09T06:48:11|       29373.95|        117381428.46|        131479.29|
2018/05/09T06:48:12|       29999.07|        121212219.74|        132590.05|
2018/05/09T06:48:13|       30857.53|        120245835.55|        132759.39|
2018/05/09T06:48:14|       31134.38|        118283510.73|        132172.43|
2018/05/09T06:48:15|       29678.99|        118112401.91|        130559.33|
2018/05/09T06:48:16|       30983.46|        118881636.63|        135769.75|
2018/05/09T06:48:17|       31133.06|        121778629.62|        136103.87|
2018/05/09T06:48:18|       30258.81|        124449844.48|        137655.32|
2018/05/09T06:48:19|       30492.04|        126310723.37|        138945.88|
2018/05/09T06:48:20|       28743.29|        118123465.55|        130580.18|
2018/05/09T06:48:21|       28178.06|        120087162.34|        131001.78|
2018/05/09T06:48:22|       29581.79|        119450192.56|        132404.96|
2018/05/09T06:48:23|       29030.53|        116757281.89|        128920.96|
2018/05/09T06:48:24|       27940.21|        125722520.41|        134771.81|
2018/05/09T06:48:25|       28209.74|        123002293.70|        132675.52|
2018/05/09T06:48:26|       28812.84|        123428626.45|        132749.61|
2018/05/09T06:48:27|       28193.94|        120919059.26|        130453.05|
2018/05/09T06:48:28|       28875.87|        122364232.38|        135181.57|
2018/05/09T06:48:29|       28756.93|        122446494.64|        135429.16|
2018/05/09T06:48:30|       27982.31|        125556189.20|        136817.66|
2018/05/09T06:48:31|       28818.01|        131649238.41|        145555.94|
2018/05/09T06:48:32|       30312.59|        125684560.18|        141804.07|
2018/05/09T06:48:33|       28574.18|        122432317.59|        138069.94|
2018/05/09T06:48:34|       28697.37|        123991881.32|        138955.23|
2018/05/09T06:48:35|       28953.72|        121305136.67|        137012.65|
2018/05/09T06:48:36|       28154.96|        119541786.90|        134909.43|
2018/05/09T06:48:37|       29184.40|        117314871.56|        134673.66|
2018/05/09T06:48:38|       29018.42|        117813674.11|        134583.28|
2018/05/09T06:48:39|       28129.79|        121368468.74|        137666.05|
2018/05/09T06:48:40|       28403.50|        121994209.80|        133231.82|
2018/05/09T06:48:41|       29179.70|        119669491.86|        131135.94|
2018/05/09T06:48:42|       28617.26|        122032326.87|        131202.28|
2018/05/09T06:48:43|       28915.95|        119270253.89|        128809.60|
2018/05/09T06:48:44|       29313.30|        119742997.33|        129552.45|
2018/05/09T06:48:45|       28159.06|        120618505.97|        129472.98|
2018/05/09T06:48:46|       28701.41|        122609735.28|        132265.80|
2018/05/09T06:48:47|       29378.46|        121655853.29|        131888.55|
2018/05/09T06:48:48|       28351.61|        124147287.57|        132679.92|
2018/05/09T06:48:49|       28880.20|        126226264.87|        134993.20|
2018/05/09T06:48:50|       29064.94|        128774215.68|        137854.72|
2018/05/09T06:48:51|       28270.57|        131659268.03|        138839.01|
2018/05/09T06:48:52|       29078.82|        128207613.77|        137753.27|
2018/05/09T06:48:53|       30578.97|        128873164.46|        140012.41|
2018/05/09T06:48:54|       28791.32|        130899090.38|        140685.58|
2018/05/09T06:48:55|       29189.78|        127423291.89|        136242.76|
2018/05/09T06:48:56|       29361.45|        126134560.56|        135887.55|
2018/05/09T06:48:57|       32179.52|        128278960.32|        141264.54|
2018/05/09T06:48:58|       28986.80|        130563758.66|        141260.22|
2018/05/09T06:48:59|       29331.69|        136536814.41|        146109.84|
2018/05/09T06:49:00|       28057.24|        137411389.56|        144056.64|
2018/05/09T06:49:01|       29111.71|        138334411.87|        142639.40|
2018/05/09T06:49:02|       28472.94|        135019169.11|        139717.27|
2018/05/09T06:49:03|       13391.53|        127145256.41|        119973.11|
2018/05/09T06:49:04|       17554.95|        122645363.08|        120865.69|
2018/05/09T06:49:05|       56665.02|        122056762.47|        158018.57|
2018/05/09T06:49:06|       21200.86|        119468532.54|        121679.00|
2018/05/09T06:49:07|       23605.85|        120929311.42|        124701.74|
2018/05/09T06:49:08|       42380.93|        122086092.00|        143907.85|
2018/05/09T06:49:09|       22551.90|        123017889.20|        125667.37|
2018/05/09T06:49:10|       24868.61|        122696854.73|        128336.04|
2018/05/09T06:49:11|       39245.40|        125517728.31|        144412.99|
2018/05/09T06:49:12|       23783.96|        129049289.12|        131383.11|
2018/05/09T06:49:13|       25960.14|        135913526.04|        138452.38|
2018/05/09T06:49:14|       37572.46|        135728748.99|        150074.16|
2018/05/09T06:49:15|       24351.78|        130286196.49|        133383.47|
2018/05/09T06:49:16|       26208.08|        128805115.28|        134615.04|
2018/05/09T06:49:17|       35429.77|        135937266.99|        148260.64|
2018/05/09T06:49:18|       24591.23|        137955529.48|        138963.48|
2018/05/09T06:49:19|       26037.37|        137589024.09|        140241.64|
2018/05/09T06:49:20|       33970.97|        136189053.56|        146913.21|
2018/05/09T06:49:21|       25419.74|        133896216.59|        136827.58|
2018/05/09T06:49:22|       23335.21|        131429681.89|        132220.28|
2018/05/09T06:49:23|       36084.62|        131146450.09|        144823.23|
2018/05/09T06:49:24|       26502.54|        131116197.01|        136130.66|
2018/05/09T06:49:25|       26001.64|        133043916.85|        136477.30|
2018/05/09T06:49:26|       34740.71|        132763671.85|        145563.33|
2018/05/09T06:49:27|       26803.40|        134276131.45|        138654.70|
2018/05/09T06:49:28|       26242.34|        132623435.84|        136374.06|
2018/05/09T06:49:29|       33132.98|        131299939.01|        142277.91|
2018/05/09T06:49:30|       26422.74|        136184518.59|        139164.64|
2018/05/09T06:49:31|       26256.78|        136392868.30|        139715.17|
2018/05/09T06:49:32|       43811.62|        140064816.52|        159876.34|
2018/05/09T06:49:33|       27574.14|        137410871.44|        144338.65|
2018/05/09T06:49:34|       27775.99|        138807392.17|        144052.22|
2018/05/09T06:49:35|       32040.68|        138047734.66|        148263.47|
2018/05/09T06:49:36|       28429.06|        134584808.11|        142301.97|
2018/05/09T06:49:37|       28989.16|        134360173.77|        144241.53|
2018/05/09T06:49:38|       32192.22|        135961210.50|        149727.92|
2018/05/09T06:49:39|       28563.07|        137570866.61|        144648.31|
2018/05/09T06:49:40|       28434.54|        134011790.92|        141552.74|
2018/05/09T06:49:41|       31141.62|        122957526.13|        135868.67|
2018/05/09T06:49:42|       28052.23|        121769303.01|        132371.12|
2018/05/09T06:49:43|       27671.93|        118027149.44|        128960.88|
2018/05/09T06:49:44|       29611.91|        121132162.21|        133068.08|
2018/05/09T06:49:45|       27490.06|        129616160.39|        136430.88|
2018/05/09T06:49:46|       28133.07|        129291743.90|        136349.01|
2018/05/09T06:49:47|       33798.08|        133934269.78|        145105.32|
2018/05/09T06:49:48|       28887.31|        129893291.17|        137385.90|
2018/05/09T06:49:49|       29369.45|        125924704.73|        135088.77|
2018/05/09T06:49:50|       29923.47|        126163384.91|        136844.73|
2018/05/09T06:49:51|       28240.92|        127654898.68|        135102.55|
2018/05/09T06:49:52|       29813.01|        125279894.82|        134761.66|
2018/05/09T06:49:53|       29819.46|        121582776.43|        132277.76|
2018/05/09T06:49:54|       28380.83|        119905323.10|        130354.29|
2018/05/09T06:49:55|       29189.62|        120621431.78|        132130.23|
2018/05/09T06:49:56|       29564.75|        119459013.90|        131156.49|
2018/05/09T06:49:57|       29291.18|        118843175.39|        130277.12|
2018/05/09T06:49:58|       28847.39|        123906976.65|        133261.79|
2018/05/09T06:49:59|       29307.79|        121932466.22|        132297.96|
2018/05/09T06:50:00|       28464.21|        149403986.21|        151874.14|
2018/05/09T06:50:01|       29400.24|        137689914.46|        144686.62|
2018/05/09T06:50:02|       30609.08|        134805831.95|        143104.02|
2018/05/09T06:50:03|       28768.24|        137757110.58|        143767.73|
2018/05/09T06:50:04|       29261.93|        133591829.47|        140835.87|
2018/05/09T06:50:05|       29498.69|        127093077.89|        135902.83|
2018/05/09T06:50:06|       28772.83|        124209716.88|        132969.58|
2018/05/09T06:50:07|       29577.69|        122208682.61|        132416.11|
2018/05/09T06:50:08|       29674.53|        122757347.94|        133628.81|
2018/05/09T06:50:09|       28319.48|        120362899.91|        129575.86|
2018/05/09T06:50:10|       29533.24|        119968166.54|        129696.08|
2018/05/09T06:50:11|       29309.46|        119612650.19|        128548.27|
2018/05/09T06:50:12|       29439.84|        119027385.06|        127939.61|
2018/05/09T06:50:13|       29543.81|        116501302.07|        126903.49|
2018/05/09T06:50:14|       29525.42|        118911557.30|        128827.89|
2018/05/09T06:50:15|       28878.68|        116885055.27|        126709.73|
2018/05/09T06:50:16|       29540.15|        119201376.90|        128802.57|
2018/05/09T06:50:17|       30019.83|        124254066.00|        132943.50|
2018/05/09T06:50:18|       28830.27|        122812838.20|        130884.14|
2018/05/09T06:50:19|       29256.46|        126919030.94|        133898.70|
2018/05/09T06:50:20|       29260.53|        128565958.37|        135218.41|
2018/05/09T06:50:21|       28647.80|        126896186.13|        133651.62|
2018/05/09T06:50:22|       29788.81|        128333333.39|        137056.46|
2018/05/09T06:50:23|       30025.49|        127945648.57|        137316.96|
2018/05/09T06:50:24|       28572.20|        135029525.63|        140984.08|
2018/05/09T06:50:25|       29571.39|        141358504.34|        146493.41|
2018/05/09T06:50:26|       30559.11|        135890286.96|        143685.96|
2018/05/09T06:50:27|       29610.48|        132806019.63|        141237.40|
2018/05/09T06:50:28|       30091.20|        134787482.31|        143593.69|
2018/05/09T06:50:29|       29670.19|        128691169.72|        137217.06|
2018/05/09T06:50:30|       29112.23|        128241722.79|        135831.88|
2018/05/09T06:50:31|       29714.51|        129659378.89|        137371.38|
2018/05/09T06:50:32|       30616.47|        128881647.63|        138039.43|
2018/05/09T06:50:33|       29194.23|        139105874.27|        143982.53|
2018/05/09T06:50:34|       29535.48|        142610872.68|        146738.54|
2018/05/09T06:50:35|       30186.85|        145341709.53|        149888.93|
2018/05/09T06:50:36|       28577.89|        139761418.85|        143623.29|
2018/05/09T06:50:37|       29771.73|        139337496.89|        144730.51|
2018/05/09T06:50:38|       29957.70|        132877883.92|        147401.70|
2018/05/09T06:50:39|       28842.82|        132301973.02|        142100.82|
2018/05/09T06:50:40|       29367.97|        132809182.00|        138665.16|
2018/05/09T06:50:41|       29820.88|        128458550.97|        136407.90|
2018/05/09T06:50:42|       29122.89|        129314717.16|        136240.51|
2018/05/09T06:50:43|       29686.88|        134783093.11|        140797.20|
2018/05/09T06:50:44|       29983.08|        136644712.38|        142433.97|
2018/05/09T06:50:45|       28649.44|        134415071.66|        139939.58|
2018/05/09T06:50:46|       29182.31|        130545631.09|        136854.48|
2018/05/09T06:50:47|       30235.35|        133317006.85|        140680.42|
2018/05/09T06:50:48|       29430.14|        138278370.08|        144412.26|
2018/05/09T06:50:49|       29445.32|        134345609.94|        141160.45|
2018/05/09T06:50:50|       29916.19|        140793483.46|        146931.05|
2018/05/09T06:50:51|       29926.45|        140575719.54|        146247.42|
2018/05/09T06:50:52|       29889.98|        136722455.58|        144855.68|
2018/05/09T06:50:53|       30065.47|        137864380.65|        149033.18|
2018/05/09T06:50:54|       29285.63|        137675177.70|        149287.09|
2018/05/09T06:50:55|       28906.77|        142505506.35|        151198.72|
2018/05/09T06:50:56|       29713.34|        149155076.70|        155128.07|
2018/05/09T06:50:57|       29240.49|        141552521.58|        147826.60|
2018/05/09T06:50:58|       29876.10|        141541013.24|        148373.33|
2018/05/09T06:50:59|       30040.71|        142382671.39|        148311.29|
2018/05/09T06:51:00|       28078.92|        140903511.92|        145589.67|
2018/05/09T06:51:01|       30074.52|        140214978.73|        146770.54|
2018/05/09T06:51:02|       30461.39|        139556730.95|        146183.16|
2018/05/09T06:51:03|       28539.69|        139799817.83|        144000.48|
2018/05/09T06:51:04|       28029.74|        146309992.13|        147128.43|
2018/05/09T06:51:05|       28698.93|        150602212.70|        150772.21|
2018/05/09T06:51:06|       28100.20|        151673016.19|        151066.15|
2018/05/09T06:51:07|       29019.85|        155784466.89|        155253.90|
2018/05/09T06:51:08|       28800.70|        155312961.10|        154969.99|
2018/05/09T06:51:09|       28309.23|        155281716.20|        156357.85|
2018/05/09T06:51:10|       28750.26|        156776213.22|        157932.49|
2018/05/09T06:51:11|       28733.24|        146982367.15|        151060.23|
2018/05/09T06:51:12|       28733.90|        143652500.09|        147819.38|
2018/05/09T06:51:13|       28629.64|        143766480.05|        148333.13|
2018/05/09T06:51:14|       28995.40|        140091187.10|        145499.31|
2018/05/09T06:51:15|       28217.82|        140113050.75|        145046.90|
2018/05/09T06:51:16|       29910.83|        136825818.49|        143464.94|
2018/05/09T06:51:17|       29111.12|        136514613.91|        142577.66|
2018/05/09T06:51:18|       29099.62|        136672167.96|        143576.13|
2018/05/09T06:51:19|       28559.17|        135589007.08|        142013.74|
2018/05/09T06:51:20|       28848.51|        130207970.91|        136493.23|
2018/05/09T06:51:21|       29495.20|        131720884.94|        138440.16|
2018/05/09T06:51:22|       28693.22|        133978616.62|        138812.22|
2018/05/09T06:51:23|       29070.35|        139887260.11|        144112.04|
2018/05/09T06:51:24|       27958.27|        139792003.32|        143301.59|
2018/05/09T06:51:25|       28787.54|        137056403.43|        142770.46|
2018/05/09T06:51:26|       28993.36|        136971823.26|        142453.38|
2018/05/09T06:51:27|       28495.70|        135916656.25|        141348.33|
2018/05/09T06:51:28|       29013.09|        136616583.11|        142281.34|
2018/05/09T06:51:29|       29075.04|        135085656.32|        141392.26|
2018/05/09T06:51:30|       28045.89|        135076126.86|        140400.78|
2018/05/09T06:51:31|       28913.23|        135293878.83|        140967.95|
2018/05/09T06:51:32|       29108.02|        138969045.14|        144239.96|
2018/05/09T06:51:33|       28354.82|        139445299.95|        144370.09|
2018/05/09T06:51:34|       28748.95|        140308912.06|        146003.94|
2018/05/09T06:51:35|       29294.58|        141456119.77|        147584.65|
2018/05/09T06:51:36|       28738.53|        141831719.44|        148707.13|
2018/05/09T06:51:37|       29388.84|        145255143.63|        150829.01|
2018/05/09T06:51:38|       29688.21|        144814670.32|        150574.62|
2018/05/09T06:51:39|       28175.26|        141306718.63|        146140.33|
2018/05/09T06:51:40|       28543.16|        138426535.58|        143708.12|
2018/05/09T06:51:41|       28786.65|        143166388.86|        147814.00|
2018/05/09T06:51:42|       37165.29|        138872088.50|        152481.17|
2018/05/09T06:51:43|       30567.20|        133404321.66|        142112.66|
2018/05/09T06:51:44|       28512.92|        133313626.86|        139312.60|
2018/05/09T06:51:45|       27916.00|        136764960.56|        140735.62|
2018/05/09T06:51:46|       29540.55|        141565989.47|        145977.65|
2018/05/09T06:51:47|       28891.66|        147791516.15|        150745.91|
2018/05/09T06:51:48|       28356.35|        153972214.21|        154824.35|
2018/05/09T06:51:49|       28167.02|        157970815.42|        157064.75|
2018/05/09T06:51:50|       30331.28|        151001842.73|        153602.13|
2018/05/09T06:51:51|       29011.54|        141660919.96|        147049.09|
2018/05/09T06:51:52|       29727.32|        139890388.22|        144810.47|
2018/05/09T06:51:53|       29204.74|        138496670.32|        143431.35|
2018/05/09T06:51:54|       28517.99|        140472275.46|        144374.17|
2018/05/09T06:51:55|       28683.56|        144235687.76|        147456.87|
2018/05/09T06:51:56|       28905.08|        143384077.68|        146774.05|
2018/05/09T06:51:57|       28585.03|        137077382.49|        142325.95|
2018/05/09T06:51:58|       29185.61|        140424165.58|        146117.17|
2018/05/09T06:51:59|       28350.77|        140027383.04|        145461.01|
2018/05/09T06:52:00|       28342.59|        139848203.41|        144884.68|
2018/05/09T06:52:01|       28505.17|        142821084.97|        147144.45|
2018/05/09T06:52:02|       29074.21|        145176670.40|        150072.47|
2018/05/09T06:52:03|       29048.99|        149650539.72|        153593.66|
2018/05/09T06:52:04|       29119.42|        147415746.53|        151563.18|
2018/05/09T06:52:05|       29173.53|        141292571.84|        147309.98|
2018/05/09T06:52:06|       28308.57|        136608552.69|        143190.11|
2018/05/09T06:52:07|       28736.17|        136717892.63|        143636.12|
2018/05/09T06:52:08|       29996.34|        135049715.63|        143523.72|
2018/05/09T06:52:09|       28253.29|        134782913.58|        141918.62|
2018/05/09T06:52:10|       28749.78|        138743043.83|        144961.51|
2018/05/09T06:52:11|       28935.40|        146299838.76|        149801.69|
2018/05/09T06:52:12|       28484.04|        135239150.17|        141197.83|
2018/05/09T06:52:13|       29063.28|        130305353.32|        140807.76|
2018/05/09T06:52:14|       29383.67|        125216208.55|        139156.28|
2018/05/09T06:52:15|       28156.56|        124607307.88|        136019.70|
2018/05/09T06:52:16|       28629.53|        120227497.71|        131671.91|
2018/05/09T06:52:17|       29059.00|        122650812.55|        132948.05|
2018/05/09T06:52:18|       28746.30|        117449728.30|        130690.96|
2018/05/09T06:52:19|       28688.24|        114320539.14|        128080.64|
2018/05/09T06:52:20|       29101.84|        113560606.44|        126166.19|
2018/05/09T06:52:21|       28014.30|        114018367.06|        124927.21|
2018/05/09T06:52:22|       28455.56|        116688511.91|        127930.71|
2018/05/09T06:52:23|       29732.95|        115566960.61|        128429.36|
2018/05/09T06:52:24|       28380.23|        114757809.35|        126469.57|
2018/05/09T06:52:25|       28555.36|        119272823.81|        129392.62|
2018/05/09T06:52:26|       29204.94|        120024571.03|        131183.55|
2018/05/09T06:52:27|       28468.86|        121512053.49|        131499.88|
2018/05/09T06:52:28|       35018.99|        125807811.19|        141024.40|
2018/05/09T06:52:29|       58474.26|        133795067.12|        169716.97|
2018/05/09T06:52:30|       28550.32|        129367064.71|        137402.16|
2018/05/09T06:52:31|       28841.10|        128241146.32|        136111.72|
2018/05/09T06:52:32|       29043.42|        139288108.55|        144473.92|
2018/05/09T06:52:33|       28907.51|        134934290.70|        142348.24|
2018/05/09T06:52:34|       28872.78|        129842095.10|        138567.34|
2018/05/09T06:52:35|       28857.62|        125528676.79|        134841.64|
2018/05/09T06:52:36|       28281.51|        113429487.38|        125789.18|
2018/05/09T06:52:37|       30454.94|        111635051.08|        126877.54|
2018/05/09T06:52:38|       30824.28|        113279620.83|        128448.13|
2018/05/09T06:52:39|       30009.26|        119270819.01|        131932.15|
2018/05/09T06:52:40|       29915.05|        120750892.98|        132588.72|
2018/05/09T06:52:41|       30554.84|        119312461.99|        132244.98|
2018/05/09T06:52:42|       31159.56|        116918766.52|        131468.12|
2018/05/09T06:52:43|       31492.42|        120592955.66|        134294.36|
2018/05/09T06:52:44|       31422.66|        120332641.28|        134922.08|
2018/05/09T06:52:45|       30255.07|        116253781.08|        130137.55|
2018/05/09T06:52:46|       30765.08|        121337157.63|        135749.15|
2018/05/09T06:52:47|       31658.54|        128956035.78|        142314.21|
2018/05/09T06:52:48|       29548.14|        119887436.91|        133471.64|
2018/05/09T06:52:49|       30495.99|        111462930.65|        127204.09|
2018/05/09T06:52:50|       30219.31|        111040191.68|        126541.08|
2018/05/09T06:52:51|       29353.49|        108594949.83|        124730.85|
2018/05/09T06:52:52|       29752.40|        107089643.97|        123528.72|
2018/05/09T06:52:53|       30071.94|        108563433.50|        123695.90|
2018/05/09T06:52:54|       29463.27|        119712862.78|        130264.53|
2018/05/09T06:52:55|       29602.69|        118795506.94|        129922.05|
2018/05/09T06:52:56|       30143.33|        116525963.23|        128541.79|
2018/05/09T06:52:57|       28756.84|        127900600.92|        134588.67|
2018/05/09T06:52:58|       29826.23|        137258314.43|        141690.04|
2018/05/09T06:52:59|       29889.95|        143065622.81|        145914.60|
2018/05/09T06:53:00|       29688.66|        142268548.33|        144903.18|
2018/05/09T06:53:01|       30135.95|        142682738.34|        144654.74|
2018/05/09T06:53:02|       30986.23|        143602115.01|        146918.46|
2018/05/09T06:53:03|       29439.04|        160882529.37|        156937.82|
2018/05/09T06:53:04|       30066.55|        165988298.21|        161019.34|
2018/05/09T06:53:05|       29929.89|        160420885.45|        156504.72|
2018/05/09T06:53:06|       29823.04|        161826600.52|        157345.15|
2018/05/09T06:53:07|       30065.89|        162833462.35|        158251.68|
2018/05/09T06:53:08|       31740.48|        156010803.50|        155531.28|
2018/05/09T06:53:09|       33796.83|        152946016.76|        155835.45|
2018/05/09T06:53:10|       33334.10|        149838030.21|        154052.49|
2018/05/09T06:53:11|       35012.73|        151696929.27|        156551.58|
2018/05/09T06:53:12|       30183.78|        152947628.07|        152379.89|
2018/05/09T06:53:13|       30839.57|        152465767.52|        152078.03|
2018/05/09T06:53:14|       30071.25|        147070236.06|        147720.95|
2018/05/09T06:53:15|       29560.68|        147210096.59|        147945.97|
2018/05/09T06:53:16|       30137.16|        144546255.40|        146406.30|
2018/05/09T06:53:17|       30325.71|        147161727.11|        148102.34|
2018/05/09T06:53:18|       29891.64|        151679638.24|        151043.53|
2018/05/09T06:53:19|       29921.41|        148793402.09|        148626.01|
2018/05/09T06:53:20|       28650.31|        146575700.10|        145725.18|
2018/05/09T06:53:21|       27873.07|        144719776.40|        143630.97|
2018/05/09T06:53:22|       28795.14|        145187805.04|        145523.11|
2018/05/09T06:53:23|       29290.19|        146672200.84|        146496.36|
2018/05/09T06:53:24|       27795.96|        145073021.95|        143697.66|
2018/05/09T06:53:25|       28504.29|        149360102.23|        147351.09|
2018/05/09T06:53:26|       28329.89|        149593486.03|        146979.91|
2018/05/09T06:53:27|       27999.87|        146068069.65|        144642.29|
2018/05/09T06:53:28|       29104.13|        140824581.89|        142276.70|
2018/05/09T06:53:29|       28713.68|        138029643.88|        139827.36|
2018/05/09T06:53:30|       27878.89|        138802453.81|        139900.21|
2018/05/09T06:53:31|       28110.73|        137674191.51|        139104.81|
2018/05/09T06:53:32|       28525.96|        135304860.56|        137978.91|
2018/05/09T06:53:33|       28500.81|        138643490.04|        140819.86|
2018/05/09T06:53:34|       28321.22|        139778433.48|        141018.62|
2018/05/09T06:53:35|       29389.64|        142421489.39|        143873.63|
2018/05/09T06:53:36|       27823.16|        142567899.00|        142649.44|
2018/05/09T06:53:37|       28458.08|        143200899.17|        143987.15|
2018/05/09T06:53:38|       29254.74|        141084932.19|        143524.77|
2018/05/09T06:53:39|       27818.67|        143995247.47|        143873.94|
2018/05/09T06:53:40|       28410.03|        148307086.45|        147654.75|
2018/05/09T06:53:41|       28941.23|        145238557.03|        146110.36|
2018/05/09T06:53:42|       29278.86|        143724484.81|        145429.68|
2018/05/09T06:53:43|       29495.87|        142995538.05|        145005.60|
2018/05/09T06:53:44|       28974.15|        139914326.56|        142057.86|
2018/05/09T06:53:45|       27879.50|        142404951.73|        142704.54|
2018/05/09T06:53:46|       30493.56|        146170896.34|        148251.99|
2018/05/09T06:53:47|       28825.90|        142675075.75|        144321.29|
2018/05/09T06:53:48|       28082.34|        143673094.70|        144570.50|
2018/05/09T06:53:49|       28178.77|        143503401.41|        144552.92|
2018/05/09T06:53:50|       28786.33|        145935335.72|        146964.50|
2018/05/09T06:53:51|       28014.22|        151109983.10|        150275.36|
2018/05/09T06:53:52|       28389.78|        151249490.73|        150693.04|
2018/05/09T06:53:53|       29198.03|        151259916.44|        152038.35|
2018/05/09T06:53:54|       27785.49|        140879785.92|        143573.74|
2018/05/09T06:53:55|       28386.99|        140799278.60|        144369.96|
2018/05/09T06:53:56|       29585.04|        139767756.74|        145429.68|
2018/05/09T06:53:57|       28124.06|        141110183.80|        152710.64|
2018/05/09T06:53:58|       28830.69|        141480543.78|        153013.55|
2018/05/09T06:53:59|       28599.11|        139445644.44|        151122.47|
2018/05/09T06:54:00|       27893.11|        140197878.25|        151044.03|
2018/05/09T06:54:01|       28401.47|        145701537.26|        155644.97|
2018/05/09T06:54:02|       28574.01|        151393194.26|        159691.69|
2018/05/09T06:54:03|       28487.28|        148469560.34|        158067.27|
2018/05/09T06:54:04|       28723.95|        147681196.23|        156745.84|
2018/05/09T06:54:05|       28377.68|        149533890.64|        157934.55|
2018/05/09T06:54:06|       28152.24|        151937702.18|        159966.25|
2018/05/09T06:54:07|       28275.17|        149406144.19|        150462.15|
2018/05/09T06:54:08|       31580.24|        148168141.18|        151241.29|
2018/05/09T06:54:09|       78330.73|        148218574.56|        196782.48|
2018/05/09T06:54:10|       40129.14|        145740112.54|        157341.92|
2018/05/09T06:54:11|       28191.27|        147191239.13|        147352.97|
2018/05/09T06:54:12|       27612.89|        148059942.76|        150906.21|
2018/05/09T06:54:13|       28400.82|        144456947.10|        145764.74|
2018/05/09T06:54:14|       28641.01|        142346338.40|        143974.16|
2018/05/09T06:54:15|       28041.92|        142215018.47|        143316.28|
2018/05/09T06:54:16|       28351.82|        145388055.60|        145801.47|
2018/05/09T06:54:17|       28819.42|        145746495.13|        147044.32|
2018/05/09T06:54:18|       27941.05|        164781801.66|        158605.73|
2018/05/09T06:54:19|       28743.95|        146187180.39|        146992.63|
2018/05/09T06:54:20|       28521.24|        134330872.88|        138808.61|
2018/05/09T06:54:21|       28099.94|        135655728.54|        140320.86|
2018/05/09T06:54:22|       28189.55|        133799290.54|        139042.77|
2018/05/09T06:54:23|       28787.68|        129756022.32|        136749.03|
2018/05/09T06:54:24|       28005.82|        128611707.64|        135142.26|
2018/05/09T06:54:25|       28450.09|        126826037.56|        134128.36|
2018/05/09T06:54:26|       28874.70|        125898417.37|        133876.04|
2018/05/09T06:54:27|       27969.80|        124556702.53|        131759.22|
2018/05/09T06:54:28|       28764.81|        122722619.00|        131245.28|
2018/05/09T06:54:29|       28976.31|        120464019.24|        130469.33|
2018/05/09T06:54:30|       27548.31|        123240718.11|        131096.28|
2018/05/09T06:54:31|       28425.13|        127852366.49|        135644.75|
2018/05/09T06:54:32|       28754.02|        131152492.95|        138117.88|
2018/05/09T06:54:33|       27795.20|        124614762.17|        132065.55|
2018/05/09T06:54:34|       28235.90|        122384148.68|        130886.35|
2018/05/09T06:54:35|       29078.27|        119981618.04|        130065.37|
2018/05/09T06:54:36|       27675.00|        121933145.27|        130018.66|
2018/05/09T06:54:37|       28086.87|        123649868.93|        131089.02|
2018/05/09T06:54:38|       28714.35|        119502861.31|        129135.65|
2018/05/09T06:54:39|       27827.27|        119086781.83|        127105.11|
2018/05/09T06:54:40|       28245.67|        116302426.11|        125440.76|
2018/05/09T06:54:41|       28763.35|        131565018.89|        136538.61|
2018/05/09T06:54:42|       28052.74|        133131098.62|        136134.54|
2018/05/09T06:54:43|       28679.02|        123134673.28|        129947.72|
2018/05/09T06:54:44|       28661.19|        121382566.20|        128229.19|
2018/05/09T06:54:45|       28312.30|        122225580.31|        128410.67|
2018/05/09T06:54:46|       28666.77|        118252777.38|        126268.42|
2018/05/09T06:54:47|       28844.28|        120643177.36|        128704.43|
2018/05/09T06:54:48|       28811.88|        121434806.08|        129217.95|
2018/05/09T06:54:49|       29081.19|        121857874.63|        129642.19|
2018/05/09T06:54:50|       28818.23|        118630640.08|        127093.21|
2018/05/09T06:54:51|       27572.09|        120460022.70|        127700.50|
2018/05/09T06:54:52|       27993.48|        122200542.93|        129932.22|
2018/05/09T06:54:53|       28900.34|        122821527.08|        131569.92|
2018/05/09T06:54:54|       27984.79|        120928256.80|        129345.12|
2018/05/09T06:54:55|       28014.10|        116336731.43|        125901.37|
2018/05/09T06:54:56|       28545.29|        121915619.62|        130451.23|
2018/05/09T06:54:57|       27575.49|        125143931.10|        132077.89|
2018/05/09T06:54:58|       28154.34|        124431894.24|        132742.42|
2018/05/09T06:54:59|       28612.00|        121372228.39|        130782.55|
2018/05/09T06:55:00|       27725.00|        124652992.39|        132161.56|
2018/05/09T06:55:01|       28477.46|        113195741.32|        125469.66|
2018/05/09T06:55:02|       28645.12|        114118949.13|        126124.38|
2018/05/09T06:55:03|       27388.61|        112491169.98|        123618.60|
2018/05/09T06:55:04|       28398.11|        113150248.89|        124774.60|
2018/05/09T06:55:05|       28294.80|        121817644.55|        131013.54|
2018/05/09T06:55:06|       27771.29|        126382502.32|        133550.87|
2018/05/09T06:55:07|       28135.15|        123495767.43|        132249.32|
2018/05/09T06:55:08|       28877.96|        118885089.32|        129425.28|
2018/05/09T06:55:09|       27933.27|        113659493.83|        124610.93|
2018/05/09T06:55:10|       28250.46|        111146595.93|        123285.85|
2018/05/09T06:55:11|       28492.58|        114713736.40|        126387.15|
2018/05/09T06:55:12|       27453.20|        112835112.83|        123430.60|
2018/05/09T06:55:13|       28366.90|        112491529.98|        123699.73|
2018/05/09T06:55:14|       28583.13|        112275906.48|        123890.21|
2018/05/09T06:55:15|       27651.44|        112420550.65|        122891.33|
2018/05/09T06:55:16|       28365.19|        114065990.20|        124784.18|
2018/05/09T06:55:17|       28914.11|        128139728.55|        140155.82|
2018/05/09T06:55:18|       27505.85|        125645018.20|        138138.04|
2018/05/09T06:55:19|       28472.55|        124850167.77|        138096.47|
2018/05/09T06:55:20|       28496.43|        124009473.32|        137031.03|
2018/05/09T06:55:21|       27448.29|        126654789.75|        137665.62|
2018/05/09T06:55:22|       28253.95|        134598685.03|        144591.74|
2018/05/09T06:55:23|       30033.82|        127551785.39|        141328.33|
2018/05/09T06:55:24|       29500.16|        120575199.80|        136481.62|
2018/05/09T06:55:25|       30006.80|        109391339.73|        124400.16|
2018/05/09T06:55:26|       30337.84|        111654074.14|        126023.41|
2018/05/09T06:55:27|       29731.39|        107018013.23|        122041.57|
2018/05/09T06:55:28|       30551.34|        107328766.97|        123312.00|
2018/05/09T06:55:29|       30678.27|        104560900.82|        120962.26|
2018/05/09T06:55:30|       29364.13|        101294721.36|        116547.73|
2018/05/09T06:55:31|       28719.20|        102761545.05|        116924.97|
2018/05/09T06:55:32|       28741.38|         99226021.72|        114410.94|
2018/05/09T06:55:33|       27888.73|         97319442.04|        112132.93|
2018/05/09T06:55:34|       28350.87|         98727454.90|        113956.04|
2018/05/09T06:55:35|       28431.44|        101731361.14|        116400.83|
2018/05/09T06:55:36|       27463.26|        128668503.61|        133590.17|
2018/05/09T06:55:37|       28448.81|        108431939.28|        122089.41|
2018/05/09T06:55:38|       28629.86|        108821727.93|        121618.48|
2018/05/09T06:55:39|       28151.14|        111187852.12|        123512.50|
2018/05/09T06:55:40|       28616.61|        111816379.59|        124763.51|
2018/05/09T06:55:41|       28460.99|        112898006.92|        125312.90|
2018/05/09T06:55:42|       28208.77|        114959808.00|        125702.91|
2018/05/09T06:55:43|       28937.00|        116646501.12|        127458.78|
2018/05/09T06:55:44|       28946.86|        111674051.00|        123504.28|
2018/05/09T06:55:45|       27643.88|        110258317.95|        120720.04|
2018/05/09T06:55:46|       28289.13|        112492674.18|        123488.47|
2018/05/09T06:55:47|       28759.81|        107029270.62|        120156.80|
2018/05/09T06:55:48|       27674.75|        102155486.40|        115914.16|
2018/05/09T06:55:49|       28365.00|        103335012.57|        116924.50|
2018/05/09T06:55:50|       28371.22|        106915962.68|        119557.05|
2018/05/09T06:55:51|       27786.25|        113720406.43|        124976.94|
2018/05/09T06:55:52|       28614.59|        103862582.66|        117572.54|
2018/05/09T06:55:53|       28500.14|        108639372.48|        119844.65|
2018/05/09T06:55:54|       28441.36|        103008262.89|        116579.31|
2018/05/09T06:55:55|       28688.27|        101354674.56|        115882.70|
2018/05/09T06:55:56|       28372.85|        104601559.50|        118012.88|
2018/05/09T06:55:57|       28017.35|        111393057.80|        122418.43|
2018/05/09T06:55:58|       28963.28|        111915207.42|        123015.12|
2018/05/09T06:55:59|       29097.19|        107599666.10|        120277.05|
2018/05/09T06:56:00|       27670.74|        100452103.38|        114004.70|
2018/05/09T06:56:01|       28470.02|        107342779.06|        119840.43|
2018/05/09T06:56:02|       29219.22|        103195929.55|        117761.28|
2018/05/09T06:56:03|       28052.31|        110925009.14|        122586.07|
2018/05/09T06:56:04|       28815.71|        114803937.78|        125975.43|
2018/05/09T06:56:05|       28858.89|        114192434.03|        125812.27|
2018/05/09T06:56:06|       28180.77|        109203474.30|        121554.53|
2018/05/09T06:56:07|       28149.73|        100959812.98|        116058.20|
2018/05/09T06:56:08|       29066.94|        108023904.24|        121945.95|
2018/05/09T06:56:09|       28363.58|         98940363.28|        114922.11|
2018/05/09T06:56:10|       28803.36|        105999201.13|        120203.48|
2018/05/09T06:56:11|       28809.41|         99019547.47|        115310.11|
2018/05/09T06:56:12|       27810.21|        101317278.81|        116227.04|
2018/05/09T06:56:13|       28608.76|        106974083.72|        120403.10|
2018/05/09T06:56:14|       28889.82|        107049605.39|        120717.89|
2018/05/09T06:56:15|       27706.05|        104252707.38|        117844.91|
2018/05/09T06:56:16|       28964.06|        110409831.19|        123778.19|
2018/05/09T06:56:17|       28983.14|        117408152.09|        128952.55|
2018/05/09T06:56:18|       28061.58|        113146406.39|        125247.49|
2018/05/09T06:56:19|       28534.91|        110590016.29|        123951.18|
2018/05/09T06:56:20|       29005.41|        113929527.93|        126867.31|
2018/05/09T06:56:21|       28159.77|        112089418.47|        125061.65|
2018/05/09T06:56:22|       28619.56|        118066652.02|        130669.10|
2018/05/09T06:56:23|       29335.65|        122411914.77|        134751.60|
2018/05/09T06:56:24|       28085.45|        131966425.76|        140947.91|
2018/05/09T06:56:25|       28802.25|        131411200.52|        140845.59|
2018/05/09T06:56:26|       29110.53|        126429079.14|        137333.87|
2018/05/09T06:56:27|       28078.74|        125837843.90|        136717.22|
2018/05/09T06:56:28|       28946.84|        125873375.77|        138242.36|
2018/05/09T06:56:29|       29070.62|        131335267.58|        143222.02|
2018/05/09T06:56:30|       28191.49|        127145531.10|        139163.22|
2018/05/09T06:56:31|       28448.53|        123382058.82|        135910.42|
2018/05/09T06:56:32|       29071.11|        127302927.93|        138889.60|
2018/05/09T06:56:33|       28280.53|        124570706.48|        136322.73|
2018/05/09T06:56:34|       28656.46|        131957715.70|        141737.50|
2018/05/09T06:56:35|       29399.05|        136974425.21|        146124.62|
2018/05/09T06:56:36|       27974.97|        131620914.70|        140768.92|
2018/05/09T06:56:37|       28734.62|        129840483.37|        140487.51|
2018/05/09T06:56:38|       28694.67|        125270841.81|        136065.84|
2018/05/09T06:56:39|       28288.66|        117712980.55|        129341.24|
2018/05/09T06:56:40|       28408.49|        129742474.07|        138331.93|
2018/05/09T06:56:41|       29027.54|        125932752.97|        136261.04|
2018/05/09T06:56:42|       28693.72|        128315468.28|        137256.04|
2018/05/09T06:56:43|       28945.68|        119589704.65|        131444.03|
2018/05/09T06:56:44|       29231.77|        121903735.56|        133233.09|
2018/05/09T06:56:45|       28867.55|        121447407.68|        131914.67|
2018/05/09T06:56:46|       28048.52|        126570568.50|        135095.90|
2018/05/09T06:56:47|       29251.81|        132438070.16|        143790.97|
2018/05/09T06:56:48|       28051.27|        120799611.89|        130649.42|
2018/05/09T06:56:49|       28663.29|        118496304.62|        129245.53|
2018/05/09T06:56:50|       28815.40|        122510947.98|        132357.18|
2018/05/09T06:56:51|       28079.23|        120201435.21|        130636.87|
2018/05/09T06:56:52|       28971.81|        117176589.49|        129097.68|
2018/05/09T06:56:53|       29246.27|        114501209.26|        127193.43|
2018/05/09T06:56:54|       28572.31|        111553202.96|        123180.75|
2018/05/09T06:56:55|       29460.62|        115694291.71|        126702.69|
2018/05/09T06:56:56|       28916.37|        117791858.92|        127737.52|
2018/05/09T06:56:57|       28437.63|        114941209.47|        125848.56|
2018/05/09T06:56:58|       28745.85|        113274942.53|        123992.24|
2018/05/09T06:56:59|       30319.10|        113265241.45|        125776.98|
2018/05/09T06:57:00|       28236.97|        114389185.14|        124371.64|
2018/05/09T06:57:01|       28634.79|        115083662.64|        125568.31|
2018/05/09T06:57:02|       29281.82|        117020537.30|        127683.94|
2018/05/09T06:57:03|       28247.27|        114888416.69|        130301.62|
2018/05/09T06:57:04|       28631.70|        113445569.74|        124742.99|
2018/05/09T06:57:05|       29261.51|        111849332.92|        124859.94|
2018/05/09T06:57:06|       28025.37|        113463503.40|        125255.66|
2018/05/09T06:57:07|       28937.52|        111113310.58|        124420.85|
2018/05/09T06:57:08|       29638.30|        105051704.31|        125237.86|
2018/05/09T06:57:09|       28284.51|        102890176.09|        120991.27|
2018/05/09T06:57:10|       28810.21|        105072538.36|        119180.28|
2018/05/09T06:57:11|       29198.64|        107319040.51|        121177.58|
2018/05/09T06:57:12|       28013.74|        108423511.93|        120542.21|
2018/05/09T06:57:13|       28793.27|        114360801.50|        125538.97|
2018/05/09T06:57:14|       29334.37|        104292677.77|        118881.74|
2018/05/09T06:57:15|       27832.84|        103347913.55|        116371.95|
2018/05/09T06:57:16|       28913.09|        106260971.24|        119893.90|
2018/05/09T06:57:17|       29275.61|        103398315.48|        117532.17|
2018/05/09T06:57:18|       28274.83|        102170966.60|        116066.79|
2018/05/09T06:57:19|       29177.71|        103787601.84|        118149.70|
2018/05/09T06:57:20|       29346.80|        103106777.25|        117874.77|
2018/05/09T06:57:21|       28444.47|        110191190.14|        121471.45|
2018/05/09T06:57:22|       29083.96|        110112870.13|        121759.72|
2018/05/09T06:57:23|       29297.31|        105102010.38|        118706.17|
2018/05/09T06:57:24|       28921.75|        103134895.65|        117063.39|
2018/05/09T06:57:25|       30194.89|        107386682.64|        121602.39|
2018/05/09T06:57:26|       29078.88|        103637876.57|        117365.73|
2018/05/09T06:57:27|       28356.00|        106629683.69|        119030.95|
2018/05/09T06:57:28|       28929.40|        105891487.28|        118984.69|
2018/05/09T06:57:29|       30327.10|        102217912.80|        117743.08|
2018/05/09T06:57:30|       28435.05|        105467017.93|        118037.92|
2018/05/09T06:57:31|       28862.73|        105858750.86|        118457.64|
2018/05/09T06:57:32|       29330.64|        112340772.68|        123637.59|
2018/05/09T06:57:33|       28242.34|        108753872.17|        119471.36|
2018/05/09T06:57:34|       29475.98|        103483832.71|        116839.59|
2018/05/09T06:57:35|       29487.35|        132241108.81|        137422.42|
2018/05/09T06:57:36|       28299.58|        150793977.13|        148653.24|
2018/05/09T06:57:37|       28831.11|        138007257.47|        142410.63|
2018/05/09T06:57:38|       29060.79|        133558491.79|        137876.21|
2018/05/09T06:57:39|       28295.93|        131886965.57|        136057.24|
2018/05/09T06:57:40|       29451.05|        135931172.59|        140066.19|
2018/05/09T06:57:41|       28873.77|        137768355.12|        141046.49|
2018/05/09T06:57:42|       28221.81|        139101694.57|        141571.79|
2018/05/09T06:57:43|       29232.79|        136553361.93|        140724.96|
2018/05/09T06:57:44|       29135.20|        133102847.43|        138283.93|
2018/05/09T06:57:45|       28431.82|        132473642.58|        137409.94|
2018/05/09T06:57:46|       28825.02|        133528710.89|        138799.11|
2018/05/09T06:57:47|       29368.02|        138131853.26|        142883.63|
2018/05/09T06:57:48|       28201.62|        138109392.04|        143005.34|
2018/05/09T06:57:49|       29053.01|        139255096.77|        146606.63|
2018/05/09T06:57:50|       28900.03|        142400674.30|        148332.85|
2018/05/09T06:57:51|       28005.52|        138406762.69|        144531.74|
2018/05/09T06:57:52|       28903.46|        117496924.77|        130250.33|
2018/05/09T06:57:53|       28938.07|        118151032.61|        130786.78|
2018/05/09T06:57:54|       28317.73|        110654602.10|        121942.27|
2018/05/09T06:57:55|       28665.59|        109145473.18|        121497.03|
2018/05/09T06:57:56|       29303.38|        106511256.10|        120523.76|
2018/05/09T06:57:57|       27991.18|        113261261.02|        124510.96|
2018/05/09T06:57:58|       28954.00|        114800183.48|        128691.19|
2018/05/09T06:57:59|       28971.97|        109742873.99|        124655.56|
2018/05/09T06:58:00|       28550.34|        114919396.65|        127792.66|
2018/05/09T06:58:01|       28790.07|        116087755.42|        128276.47|
2018/05/09T06:58:02|       28850.71|        110841716.22|        124358.13|
2018/05/09T06:58:03|       29883.29|        104636880.18|        121576.47|
2018/05/09T06:58:04|       28767.74|        103927991.37|        120033.03|
2018/05/09T06:58:05|       29640.06|        100630359.56|        118583.65|
2018/05/09T06:58:06|       28233.14|        101099289.14|        117512.27|
2018/05/09T06:58:07|       28740.71|        107881982.99|        123547.23|
2018/05/09T06:58:08|       29102.14|        107893876.81|        123581.10|
2018/05/09T06:58:09|       28374.50|        114705804.45|        129322.67|
2018/05/09T06:58:10|       28861.36|        115407818.59|        130022.59|
2018/05/09T06:58:11|       29265.09|        113034910.02|        127900.86|
2018/05/09T06:58:12|       28751.38|        112606953.19|        126192.32|
2018/05/09T06:58:13|       28545.11|        116794374.97|        130496.26|
2018/05/09T06:58:14|       29191.33|        140098356.12|        146144.96|
2018/05/09T06:58:15|       28221.94|        119101881.55|        131013.79|
2018/05/09T06:58:16|       28856.58|        114091598.98|        128068.23|
2018/05/09T06:58:17|       29311.32|        117483384.79|        130883.41|
2018/05/09T06:58:18|       28175.85|        118434355.84|        131802.79|
2018/05/09T06:58:19|       28806.73|        116909319.77|        131144.93|
2018/05/09T06:58:20|       29233.09|        120416573.09|        134760.53|
2018/05/09T06:58:21|       28141.74|        112019141.63|        127081.72|
2018/05/09T06:58:22|       29134.71|        112830973.76|        131684.57|
2018/05/09T06:58:23|       29077.97|        121876601.90|        138312.03|
2018/05/09T06:58:24|       29146.72|        112054932.35|        130477.98|
2018/05/09T06:58:25|       29269.32|        119720674.86|        134457.79|
2018/05/09T06:58:26|       29191.09|        120111894.10|        134492.17|
2018/05/09T06:58:27|       28933.56|        124842355.79|        137447.65|
2018/05/09T06:58:28|       29592.86|        117499252.64|        131987.00|
2018/05/09T06:58:29|       29853.21|        115999002.77|        131244.72|
2018/05/09T06:58:30|       28541.14|        114331720.28|        130111.58|
2018/05/09T06:58:31|       29319.43|        116439886.29|        131792.13|
2018/05/09T06:58:32|       30066.59|        117953956.16|        133346.65|
2018/05/09T06:58:33|       28802.08|        117958599.64|        132163.40|
2018/05/09T06:58:34|       29421.46|        117616803.98|        132857.88|
2018/05/09T06:58:35|       29758.87|        116345494.30|        132168.91|
2018/05/09T06:58:36|       28649.30|        115472930.32|        130481.67|
2018/05/09T06:58:37|       29500.21|        114662813.92|        131701.71|
2018/05/09T06:58:38|       29570.85|        119886678.79|        134419.11|
2018/05/09T06:58:39|       28814.62|        128232049.47|        138862.76|
2018/05/09T06:58:40|       29683.26|        113270584.58|        129400.44|
2018/05/09T06:58:41|       29191.06|        112396673.74|        127863.82|
2018/05/09T06:58:42|       28927.67|        113013013.65|        127932.67|
2018/05/09T06:58:43|       30617.57|        115138739.36|        131079.33|
2018/05/09T06:58:44|       29859.99|        116685711.13|        132196.63|
2018/05/09T06:58:45|       29007.69|        111877716.96|        127629.48|
2018/05/09T06:58:46|       29895.70|        112228198.11|        128335.40|
2018/05/09T06:58:47|       29535.27|        119406750.98|        132962.00|
2018/05/09T06:58:48|       28655.21|        113890415.01|        127870.67|
2018/05/09T06:58:49|       29832.68|        113454249.02|        129955.48|
2018/05/09T06:58:50|       29430.16|        112540345.88|        129064.46|
2018/05/09T06:58:51|       28952.80|        116278428.50|        131131.43|
2018/05/09T06:58:52|       29411.63|        113220586.75|        128413.79|
2018/05/09T06:58:53|       29939.09|        115108174.33|        130535.91|
2018/05/09T06:58:54|       29553.06|        117201729.46|        131276.80|
2018/05/09T06:58:55|       30192.41|        114416683.23|        130023.98|
2018/05/09T06:58:56|       30470.26|        114355749.24|        129578.77|
2018/05/09T06:58:57|       29656.59|        117860066.76|        131088.91|
2018/05/09T06:58:58|       30611.70|        117608679.39|        132139.05|
2018/05/09T06:58:59|       30653.31|        117803585.59|        132698.90|
2018/05/09T06:59:00|       30219.73|        111651512.77|        129341.87|
2018/05/09T06:59:01|       30557.35|        112321966.57|        130517.47|
2018/05/09T06:59:02|       31248.17|        112534021.01|        130841.55|
2018/05/09T06:59:03|       30013.35|        118153323.13|        134711.16|
2018/05/09T06:59:04|       30965.55|        116915049.57|        134632.82|
2018/05/09T06:59:05|       30357.86|        112398077.53|        129927.48|
2018/05/09T06:59:06|       29755.78|        116164239.80|        131952.91|
2018/05/09T06:59:07|       30223.31|        116490545.25|        132792.58|
2018/05/09T06:59:08|       30600.61|        114377852.54|        131542.57|
2018/05/09T06:59:09|       29189.15|        114122793.79|        129388.32|
2018/05/09T06:59:10|       29829.04|        113952766.64|        129930.67|
2018/05/09T06:59:11|       30046.57|        113709584.99|        130988.13|
2018/05/09T06:59:12|       29938.86|        111293098.46|        129199.61|
2018/05/09T06:59:13|       30224.44|        119610798.03|        134870.22|
2018/05/09T06:59:14|       30261.45|        116358347.81|        133018.48|
2018/05/09T06:59:15|       29554.20|        111738864.52|        129430.37|
2018/05/09T06:59:16|       30278.21|        111241056.33|        129494.74|
2018/05/09T06:59:17|       30645.54|        117940744.52|        133510.45|
2018/05/09T06:59:18|       29536.39|        119429403.87|        133280.13|
2018/05/09T06:59:19|       30220.27|        118381987.98|        132389.18|
2018/05/09T06:59:20|       31324.80|        116146577.45|        132047.67|
2018/05/09T06:59:21|       29423.34|        110350344.25|        125846.83|
2018/05/09T06:59:22|       30204.26|        113883607.58|        128546.69|
2018/05/09T06:59:23|       30697.92|        117027255.51|        131600.77|
2018/05/09T06:59:24|       29653.30|        117529136.35|        130699.05|
2018/05/09T06:59:25|       30364.71|        128589736.73|        138593.85|
2018/05/09T06:59:26|       30491.78|        130533121.38|        140008.40|
2018/05/09T06:59:27|       29894.16|        126500356.10|        136821.09|
2018/05/09T06:59:28|       31386.79|        131581768.31|        141975.07|
2018/05/09T06:59:29|       30295.06|        136049695.88|        144282.48|
2018/05/09T06:59:30|       29591.35|        142818134.47|        148648.85|
2018/05/09T06:59:31|       30757.12|        147007964.25|        152923.04|
2018/05/09T06:59:32|       30539.02|        141071547.18|        148350.99|
2018/05/09T06:59:33|       29641.80|        137019853.16|        144996.39|
2018/05/09T06:59:34|       30368.99|        138363856.97|        146617.17|
2018/05/09T06:59:35|       30644.65|        129303061.75|        140328.94|
2018/05/09T06:59:36|       29666.28|        129662204.43|        140147.84|
2018/05/09T06:59:37|       30554.41|        128991031.94|        140654.07|
2018/05/09T06:59:38|       30596.68|        126177633.79|        138134.01|
2018/05/09T06:59:39|       29712.83|        127132199.10|        138088.55|
2018/05/09T06:59:40|       33996.52|        126562092.86|        141727.46|
2018/05/09T06:59:41|       41864.55|        125608044.31|        148505.27|
2018/05/09T06:59:42|       31651.43|        124846321.69|        138574.86|
2018/05/09T06:59:43|       31287.30|        125295041.46|        138923.57|
2018/05/09T06:59:44|       30734.87|        133457464.58|        143325.88|
2018/05/09T06:59:45|       29503.23|        135795754.65|        143679.87|
2018/05/09T06:59:46|       30767.16|        126450468.99|        138163.17|
2018/05/09T06:59:47|       30351.78|        113921964.08|        128924.56|
2018/05/09T06:59:48|       29629.06|        116609631.62|        129965.45|
2018/05/09T06:59:49|       30525.96|        116841689.71|        130560.52|
2018/05/09T06:59:50|       30631.26|        118119606.86|        131280.79|
2018/05/09T06:59:51|       29728.49|        115119734.05|        128405.90|
2018/05/09T06:59:52|       30519.42|        108504022.09|        124347.47|
2018/05/09T06:59:53|       30748.20|        104106673.83|        121940.53|
2018/05/09T06:59:54|       29998.99|        105035049.20|        121320.43|
2018/05/09T06:59:55|       30629.74|         99747982.74|        119258.00|
2018/05/09T06:59:56|       30859.37|        101344997.59|        120814.89|
2018/05/09T06:59:57|       30210.55|         99669855.02|        117421.83|
2018/05/09T06:59:58|       30275.38|         83789239.98|        105411.23|
2018/05/09T06:59:59|       31065.70|         77742142.76|         99747.81|
2018/05/09T07:00:00|        1330.50|          1793252.10|          2879.68|
