               Date|        Records|               Bytes|          Packets|
2018/05/09T13:00:00|       26875.98|         24354809.53|         54894.59|
2018/05/09T13:00:01|       28303.25|         37383070.83|         68224.61|
2018/05/09T13:00:02|       27811.72|         61109611.04|         86158.48|
2018/05/09T13:00:03|       27609.73|         65538890.00|         89129.24|
2018/05/09T13:00:04|       27522.24|         66788624.89|         92528.06|
2018/05/09T13:00:05|       27720.97|         70051439.58|         95136.72|
2018/05/09T13:00:06|       27080.45|         73876873.56|         97861.52|
2018/05/09T13:00:07|       27488.25|         70075370.33|         94267.33|
2018/05/09T13:00:08|       28192.33|         70537898.50|         95417.85|
2018/05/09T13:00:09|       26788.84|         70877645.29|         95238.76|
2018/05/09T13:00:10|       27608.72|         81593636.24|        106582.41|
2018/05/09T13:00:11|       27679.73|         80766319.41|        107865.56|
2018/05/09T13:00:12|       27242.17|         76641570.95|        103488.57|
2018/05/09T13:00:13|       28760.63|         77878650.13|        105854.64|
2018/05/09T13:00:14|       27564.79|         76247721.78|        103474.77|
2018/05/09T13:00:15|       26883.01|         77530663.09|        103351.65|
2018/05/09T13:00:16|       27387.39|         67178268.01|         96649.67|
2018/05/09T13:00:17|       27927.51|         58459870.83|         89651.70|
2018/05/09T13:00:18|       27014.02|         55033758.90|         86046.03|
2018/05/09T13:00:19|       27378.52|         54563628.12|         86778.11|
2018/05/09T13:00:20|       27291.86|         59562671.90|         89424.05|
2018/05/09T13:00:21|       26736.67|         59062459.90|         87625.55|
2018/05/09T13:00:22|       27604.01|         54628216.27|         84508.25|
2018/05/09T13:00:23|       27175.66|         51523927.44|         80952.89|
2018/05/09T13:00:24|       26456.87|         51033982.40|         78814.32|
2018/05/09T13:00:25|       27421.01|         56895762.67|         83178.80|
2018/05/09T13:00:26|       27174.26|         56729223.82|         83124.98|
2018/05/09T13:00:27|       26339.26|         46224729.34|         75064.09|
2018/05/09T13:00:28|       27560.75|         49095546.40|         78223.55|
2018/05/09T13:00:29|       27197.15|         49696655.48|         77924.86|
2018/05/09T13:00:30|       26508.95|         57902921.86|         81894.39|
2018/05/09T13:00:31|       27112.14|         55582534.84|         81080.12|
2018/05/09T13:00:32|       27118.08|         51216634.47|         78424.43|
2018/05/09T13:00:33|       26794.77|         49679836.99|         77053.73|
2018/05/09T13:00:34|       27480.27|         48377447.02|         77105.40|
2018/05/09T13:00:35|       27180.30|         52260528.87|         79039.91|
2018/05/09T13:00:36|       26731.04|         53514186.72|         79222.89|
2018/05/09T13:00:37|       27438.01|         50469860.30|         77811.80|
2018/05/09T13:00:38|       27284.34|         55291323.97|         81900.03|
2018/05/09T13:00:39|       26439.04|         60683944.86|         85506.40|
2018/05/09T13:00:40|       27361.28|         67680579.56|         92009.37|
2018/05/09T13:00:41|       26983.16|         64086225.70|         89678.11|
2018/05/09T13:00:42|       26504.23|         62581766.18|         88415.25|
2018/05/09T13:00:43|       27592.61|         64982022.26|         91071.44|
2018/05/09T13:00:44|       28490.74|         72589243.37|         97233.38|
2018/05/09T13:00:45|       26761.19|         71763343.16|         97287.05|
2018/05/09T13:00:46|       27502.50|         72472068.30|         98749.61|
2018/05/09T13:00:47|       27350.09|         69359874.85|         96409.71|
2018/05/09T13:00:48|       26585.56|         69239027.69|         95463.76|
2018/05/09T13:00:49|       27280.74|         69660753.09|         97172.09|
2018/05/09T13:00:50|       28131.81|         83594216.55|        108484.20|
2018/05/09T13:00:51|       27337.17|         81113356.07|        105554.28|
2018/05/09T13:00:52|       29090.17|         71296039.45|         98975.10|
2018/05/09T13:00:53|       28248.08|         64805479.07|         93576.68|
2018/05/09T13:00:54|       26928.54|         63320266.45|         90231.48|
2018/05/09T13:00:55|       27401.95|         65739405.94|         92455.32|
2018/05/09T13:00:56|       27763.10|         59210002.86|         88265.84|
2018/05/09T13:00:57|       26863.33|         57529030.13|         86784.91|
2018/05/09T13:00:58|       27732.46|         57048959.17|         86213.14|
2018/05/09T13:00:59|       27685.81|         51950208.57|         81428.46|
2018/05/09T13:01:00|       26858.56|         58140256.15|         84975.58|
2018/05/09T13:01:01|       27910.45|         52603917.07|         82390.87|
2018/05/09T13:01:02|       27494.07|         54375145.47|         83016.96|
2018/05/09T13:01:03|       27581.44|         68338343.56|         95435.03|
2018/05/09T13:01:04|       27693.53|         66860935.46|         96097.85|
2018/05/09T13:01:05|       27445.85|         71284781.96|         99101.45|
2018/05/09T13:01:06|       26845.80|         67568048.39|         96537.35|
2018/05/09T13:01:07|       27072.99|         71034737.93|         99638.38|
2018/05/09T13:01:08|       27373.01|         76687221.38|        103567.76|
2018/05/09T13:01:09|       27086.27|         71961487.24|         99897.81|
2018/05/09T13:01:10|       27570.23|         74308610.07|        102137.74|
2018/05/09T13:01:11|       27586.46|         76742220.60|        103604.32|
2018/05/09T13:01:12|       26935.94|         74253638.15|        101856.22|
2018/05/09T13:01:13|       27899.73|         74888127.21|        103065.12|
2018/05/09T13:01:14|       27830.71|         72349241.68|        101246.83|
2018/05/09T13:01:15|       27097.99|         74204731.84|        101318.39|
2018/05/09T13:01:16|       28013.96|         68935143.30|         95528.79|
2018/05/09T13:01:17|       28767.82|         61696651.08|         88179.74|
2018/05/09T13:01:18|       27059.19|         57936456.30|         84184.87|
2018/05/09T13:01:19|       27614.46|         57654468.35|         85320.38|
2018/05/09T13:01:20|       28558.62|         65499497.38|         90766.22|
2018/05/09T13:01:21|       26981.37|         70285292.51|         92556.29|
2018/05/09T13:01:22|       27700.30|         63233854.10|         88571.11|
2018/05/09T13:01:23|       27905.81|         61896878.20|         88257.48|
2018/05/09T13:01:24|       27157.53|         63730948.69|         89691.98|
2018/05/09T13:01:25|       27301.81|         71321605.71|         94637.42|
2018/05/09T13:01:26|       27650.08|         69466750.23|         93464.99|
2018/05/09T13:01:27|       26591.28|         61476845.67|         87161.27|
2018/05/09T13:01:28|       27307.21|         65154576.12|         90510.84|
2018/05/09T13:01:29|       27679.96|         63967461.24|         89992.70|
2018/05/09T13:01:30|       26873.77|         74422521.45|         96418.62|
2018/05/09T13:01:31|       27670.68|         74693946.40|         98807.00|
2018/05/09T13:01:32|       27659.86|         75061042.04|         99638.19|
2018/05/09T13:01:33|       26613.40|         67218910.59|         94033.05|
2018/05/09T13:01:34|       27331.88|         69082431.96|         96643.44|
2018/05/09T13:01:35|       27386.30|         71254279.72|         96647.24|
2018/05/09T13:01:36|       26798.90|         72237309.62|         97055.04|
2018/05/09T13:01:37|       52288.46|         75834856.00|        125434.89|
2018/05/09T13:01:38|       67768.66|         84446603.45|        146593.59|
2018/05/09T13:01:39|       26608.12|         82547988.92|        106223.35|
2018/05/09T13:01:40|       27522.27|         91917128.74|        114598.35|
2018/05/09T13:01:41|       27363.46|         86312186.47|        110546.39|
2018/05/09T13:01:42|       27131.89|         80311569.46|        106432.83|
2018/05/09T13:01:43|       27489.69|         84628260.50|        111455.81|
2018/05/09T13:01:44|       27661.96|         78452723.18|        106200.94|
2018/05/09T13:01:45|       26938.18|         68671886.24|         95178.72|
2018/05/09T13:01:46|       27504.02|         65705235.72|         93432.50|
2018/05/09T13:01:47|       27141.78|         62729259.60|         91027.19|
2018/05/09T13:01:48|       26947.22|         65407413.76|         92881.31|
2018/05/09T13:01:49|       27423.54|         71908869.08|         97543.21|
2018/05/09T13:01:50|       27397.44|         71002791.22|         95752.49|
2018/05/09T13:01:51|       26757.08|         64757351.83|         90067.88|
2018/05/09T13:01:52|       27391.11|         61425897.16|         89350.24|
2018/05/09T13:01:53|       27710.03|         62655025.16|         91462.68|
2018/05/09T13:01:54|       27014.92|         67400653.24|         93839.82|
2018/05/09T13:01:55|       27327.52|         63394898.82|         91453.20|
2018/05/09T13:01:56|       27110.01|         55255692.60|         85114.23|
2018/05/09T13:01:57|       26827.42|         56925742.20|         85839.07|
2018/05/09T13:01:58|       27667.82|         61914275.47|         89801.38|
2018/05/09T13:01:59|       28350.41|         53544949.61|         84191.47|
2018/05/09T13:02:00|       27134.75|         56790000.13|         85456.96|
2018/05/09T13:02:01|       27500.30|         59115853.73|         88531.97|
2018/05/09T13:02:02|       27249.19|         70358334.57|         96497.60|
2018/05/09T13:02:03|       26972.55|         71332930.43|         96213.63|
2018/05/09T13:02:04|       28736.97|         61427408.01|         90432.49|
2018/05/09T13:02:05|       27653.50|         63790424.44|         90243.54|
2018/05/09T13:02:06|       27299.83|         71795311.25|         95799.68|
2018/05/09T13:02:07|       27581.50|         62831209.76|         89364.96|
2018/05/09T13:02:08|       27282.83|         60017080.90|         87492.85|
2018/05/09T13:02:09|       26816.63|         59924138.41|         87136.69|
2018/05/09T13:02:10|       27296.96|         63493798.65|         90396.85|
2018/05/09T13:02:11|       27139.33|         66122241.36|         91656.25|
2018/05/09T13:02:12|       26778.06|         73753131.15|         96989.25|
2018/05/09T13:02:13|       27284.06|         73895908.49|         97373.42|
2018/05/09T13:02:14|       27329.57|         66036695.88|         92166.15|
2018/05/09T13:02:15|       26494.38|         62552926.18|         88233.31|
2018/05/09T13:02:16|       27392.42|         62989292.68|         89674.67|
2018/05/09T13:02:17|       27206.83|         60957151.86|         88359.66|
2018/05/09T13:02:18|       26569.57|         64640370.51|         91118.63|
2018/05/09T13:02:19|       27325.36|         65318881.31|         92332.16|
2018/05/09T13:02:20|       27199.48|         69262964.18|         97381.49|
2018/05/09T13:02:21|       27523.07|         70064181.10|         99029.50|
2018/05/09T13:02:22|       28792.74|         68530797.36|         98787.31|
2018/05/09T13:02:23|       27445.58|         69459881.09|         97780.86|
2018/05/09T13:02:24|       26771.67|         67060297.39|         95920.90|
2018/05/09T13:02:25|       28155.26|         63970681.36|         95353.30|
2018/05/09T13:02:26|       27153.43|         69038210.31|         98553.12|
2018/05/09T13:02:27|       27355.08|         75800385.62|        103116.84|
2018/05/09T13:02:28|       27090.76|         81027981.80|        105435.95|
2018/05/09T13:02:29|       30203.72|         82291289.67|        108497.29|
2018/05/09T13:02:30|       30190.03|         82178585.60|        108743.73|
2018/05/09T13:02:31|       30641.78|         87378160.59|        112648.44|
2018/05/09T13:02:32|       31397.27|         87709537.39|        113149.81|
2018/05/09T13:02:33|       29254.89|         84318419.67|        108548.50|
2018/05/09T13:02:34|       27284.16|         76582943.00|        100586.32|
2018/05/09T13:02:35|       27104.99|         85721318.88|        107402.06|
2018/05/09T13:02:36|       26875.86|         90201949.72|        111029.74|
2018/05/09T13:02:37|       27449.49|         88892832.83|        110789.68|
2018/05/09T13:02:38|       27478.40|         86439368.89|        109243.77|
2018/05/09T13:02:39|       27051.21|         78206886.84|        101736.60|
2018/05/09T13:02:40|       27361.89|         78863410.61|        102339.50|
2018/05/09T13:02:41|       27514.18|         79267084.89|        102333.92|
2018/05/09T13:02:42|       26829.47|         72312082.76|         97399.68|
2018/05/09T13:02:43|       27600.92|         68787915.47|         95922.86|
2018/05/09T13:02:44|       27239.02|         71803575.82|         97279.34|
2018/05/09T13:02:45|       26899.82|         66985821.54|         95146.06|
2018/05/09T13:02:46|       27165.88|         73108633.10|         99460.26|
2018/05/09T13:02:47|       27766.34|         67726995.35|         96192.27|
2018/05/09T13:02:48|       27067.46|         69211450.14|         96455.60|
2018/05/09T13:02:49|       27189.34|         64649379.60|         93976.29|
2018/05/09T13:02:50|       27586.69|         65978798.03|         95017.82|
2018/05/09T13:02:51|       27010.60|         65117069.02|         93206.65|
2018/05/09T13:02:52|       27287.57|         65980088.12|         93888.77|
2018/05/09T13:02:53|       27668.60|         65107631.74|         93239.04|
2018/05/09T13:02:54|       26879.50|         61061823.53|         91151.65|
2018/05/09T13:02:55|       27439.58|         63249640.15|         94045.21|
2018/05/09T13:02:56|       27320.99|         65104651.21|         93961.49|
2018/05/09T13:02:57|       26728.68|         66092856.54|         94380.72|
2018/05/09T13:02:58|       27142.72|         71290714.04|         99006.85|
2018/05/09T13:02:59|       27191.67|         70969016.93|         98571.81|
2018/05/09T13:03:00|       26632.67|         61575672.24|         89748.89|
2018/05/09T13:03:01|       27644.37|         70600420.03|         98681.95|
2018/05/09T13:03:02|       27428.38|         66639027.60|         94554.86|
2018/05/09T13:03:03|       26978.68|         67471842.83|         94614.24|
2018/05/09T13:03:04|       27393.34|         63917255.26|         92478.48|
2018/05/09T13:03:05|       27467.61|         66255960.10|         95325.53|
2018/05/09T13:03:06|       27101.01|         71795960.03|         97048.57|
2018/05/09T13:03:07|       27274.38|         64662042.51|         92761.20|
2018/05/09T13:03:08|       27512.12|         63607528.47|         92650.46|
2018/05/09T13:03:09|       26654.34|         64003260.94|         92318.11|
2018/05/09T13:03:10|       27457.37|         69416071.42|         97807.59|
2018/05/09T13:03:11|       27294.89|         73787186.29|        102790.24|
2018/05/09T13:03:12|       26924.70|         76765276.18|        106715.77|
2018/05/09T13:03:13|       27574.67|         77381592.52|        107344.40|
2018/05/09T13:03:14|       27650.10|         85267283.51|        113242.63|
2018/05/09T13:03:15|       28350.26|         76271548.42|        105688.03|
2018/05/09T13:03:16|       27535.24|         69968708.61|        100462.57|
2018/05/09T13:03:17|       27361.88|         71404513.14|        101022.71|
2018/05/09T13:03:18|       26932.76|         84226126.94|        108606.48|
2018/05/09T13:03:19|       27569.80|         76946173.75|        104386.62|
2018/05/09T13:03:20|       27386.63|         77361289.20|        104061.00|
2018/05/09T13:03:21|       27148.20|         75518416.63|        102822.72|
2018/05/09T13:03:22|       27277.24|         75009058.34|        102592.06|
2018/05/09T13:03:23|       27282.47|         78083654.29|        104846.17|
2018/05/09T13:03:24|       27098.57|         75241157.39|        102742.50|
2018/05/09T13:03:25|       28114.04|         73823296.33|         99441.56|
2018/05/09T13:03:26|       27454.27|         75315353.74|        100417.89|
2018/05/09T13:03:27|       26801.72|         73668025.95|         98573.66|
2018/05/09T13:03:28|       27401.18|         70815197.21|         97704.35|
2018/05/09T13:03:29|       27081.01|         70546099.59|         97772.18|
2018/05/09T13:03:30|       26704.90|         73858550.97|         99852.67|
2018/05/09T13:03:31|       27272.65|         71742390.46|         98961.59|
2018/05/09T13:03:32|       27101.34|         74089596.59|        100828.65|
2018/05/09T13:03:33|       26859.30|         74576301.44|        101877.70|
2018/05/09T13:03:34|       27127.22|         78687296.21|        104703.23|
2018/05/09T13:03:35|       27388.04|         77179387.88|        103967.22|
2018/05/09T13:03:36|       26937.02|         77493513.66|        105028.11|
2018/05/09T13:03:37|       27571.48|         83236147.00|        109518.69|
2018/05/09T13:03:38|       27552.06|         78300296.23|        106266.67|
2018/05/09T13:03:39|       26848.45|         72688942.92|        101062.29|
2018/05/09T13:03:40|       27362.22|         73568196.32|        101069.14|
2018/05/09T13:03:41|       27737.56|         68487908.14|         95918.11|
2018/05/09T13:03:42|       26515.68|         73004307.18|         97782.06|
2018/05/09T13:03:43|       27346.97|         75503500.05|        100346.76|
2018/05/09T13:03:44|       27199.94|         75172028.09|         99945.01|
2018/05/09T13:03:45|       26435.19|         79938869.30|        105323.09|
2018/05/09T13:03:46|       27482.37|         79412657.64|        105131.27|
2018/05/09T13:03:47|       27935.29|         77220214.78|        102831.47|
2018/05/09T13:03:48|       26694.89|         76965642.45|        101785.09|
2018/05/09T13:03:49|       27418.45|         74016935.87|        100388.72|
2018/05/09T13:03:50|       28080.48|         73188911.69|        100263.17|
2018/05/09T13:03:51|       26969.31|         68197152.37|         95447.81|
2018/05/09T13:03:52|       27174.32|         79807399.98|        103788.33|
2018/05/09T13:03:53|       27520.99|         82315805.38|        105484.41|
2018/05/09T13:03:54|       26940.81|         78184482.68|        102366.16|
2018/05/09T13:03:55|       27030.16|         77888122.37|        102277.51|
2018/05/09T13:03:56|       27296.70|         75692259.74|        101164.86|
2018/05/09T13:03:57|       26722.03|         74810164.29|        100868.48|
2018/05/09T13:03:58|       27213.19|         73801977.33|        100244.55|
2018/05/09T13:03:59|       27124.99|         65887056.39|         92896.35|
2018/05/09T13:04:00|       27199.33|         68399955.16|         96044.64|
2018/05/09T13:04:01|       27310.07|         68402302.69|         98005.43|
2018/05/09T13:04:02|       27940.46|         75344464.14|        112893.90|
2018/05/09T13:04:03|       26699.28|         71825845.20|        100154.73|
2018/05/09T13:04:04|       27290.86|         66827660.16|         97667.61|
2018/05/09T13:04:05|       28136.52|         63980395.73|         96379.84|
2018/05/09T13:04:06|       26727.71|         58125107.12|         90733.74|
2018/05/09T13:04:07|       28556.58|         56999979.54|         90973.53|
2018/05/09T13:04:08|       27068.32|         56761687.21|         88977.18|
2018/05/09T13:04:09|       26896.88|         62751386.26|         93804.37|
2018/05/09T13:04:10|       27458.22|         72268235.10|         96403.52|
2018/05/09T13:04:11|       27419.04|         65154278.57|         91354.45|
2018/05/09T13:04:12|       26554.03|         71033461.37|         94835.30|
2018/05/09T13:04:13|       27207.86|         72204526.04|         96535.80|
2018/05/09T13:04:14|       27443.43|         60954633.56|         88807.56|
2018/05/09T13:04:15|       27705.29|         61592970.57|         89409.65|
2018/05/09T13:04:16|       27312.88|         61788972.03|         89225.12|
2018/05/09T13:04:17|       27377.75|         63237134.10|         90294.06|
2018/05/09T13:04:18|       26770.31|         61500094.91|         88634.82|
2018/05/09T13:04:19|       27420.30|         61082898.47|         89559.30|
2018/05/09T13:04:20|       27544.03|         63970383.66|         91301.52|
2018/05/09T13:04:21|       26975.66|         64392472.11|         90955.89|
2018/05/09T13:04:22|       27464.03|         72730677.80|         97502.41|
2018/05/09T13:04:23|       27537.39|         59101662.07|         87283.25|
2018/05/09T13:04:24|       26900.96|         58924400.03|         86563.76|
2018/05/09T13:04:25|       27501.71|         59039609.79|         87201.93|
2018/05/09T13:04:26|       27599.45|         60856302.46|         88772.00|
2018/05/09T13:04:27|       26967.02|         59917635.57|         87819.87|
2018/05/09T13:04:28|       27534.38|         59639987.64|         88165.04|
2018/05/09T13:04:29|       27775.48|         69500382.59|         97323.66|
2018/05/09T13:04:30|       27012.57|         68752803.72|         96122.83|
2018/05/09T13:04:31|       27412.38|         70762150.55|         99362.53|
2018/05/09T13:04:32|       27547.26|         81389639.37|        110163.94|
2018/05/09T13:04:33|       27089.70|         78853548.02|        107717.46|
2018/05/09T13:04:34|       27804.71|         81541978.46|        109897.05|
2018/05/09T13:04:35|       27800.59|         82183978.96|        110514.29|
2018/05/09T13:04:36|       27111.56|         80604443.40|        108723.35|
2018/05/09T13:04:37|       27982.84|         86635960.65|        113725.95|
2018/05/09T13:04:38|       28149.75|         80651187.17|        109852.25|
2018/05/09T13:04:39|       27888.04|         79305737.55|        108446.99|
2018/05/09T13:04:40|       28217.28|         81024849.73|        110134.89|
2018/05/09T13:04:41|       28702.90|         84540790.42|        112636.12|
2018/05/09T13:04:42|       27762.18|         88949379.39|        114272.63|
2018/05/09T13:04:43|       27943.08|         71458872.77|        111800.63|
2018/05/09T13:04:44|       27754.93|         72399905.41|        100368.83|
2018/05/09T13:04:45|       26916.20|         69300063.92|         97002.80|
2018/05/09T13:04:46|       27844.99|         66641137.17|         96764.68|
2018/05/09T13:04:47|       27710.06|         65177156.42|         95752.04|
2018/05/09T13:04:48|       26741.33|         59433507.23|         91942.45|
2018/05/09T13:04:49|       27612.78|         62929209.91|         96279.61|
2018/05/09T13:04:50|       27634.46|         69435499.36|        102997.51|
2018/05/09T13:04:51|       27077.57|         69699811.89|        102798.71|
2018/05/09T13:04:52|       27809.79|         78800833.79|        109166.66|
2018/05/09T13:04:53|       27637.23|         72948016.12|        105594.28|
2018/05/09T13:04:54|       27325.73|         72575033.59|        105950.26|
2018/05/09T13:04:55|       27516.95|         70128613.16|        105099.91|
2018/05/09T13:04:56|       28160.88|         71073908.06|        104470.59|
2018/05/09T13:04:57|       27228.01|         67003202.86|        100143.76|
2018/05/09T13:04:58|       27370.11|         71385464.47|        103787.37|
2018/05/09T13:04:59|       27900.65|         68716971.26|        102189.51|
2018/05/09T13:05:00|       27049.33|         78298072.51|        107673.61|
2018/05/09T13:05:01|       27734.86|         69603108.45|        102262.72|
2018/05/09T13:05:02|       27603.25|         64827659.64|         96890.09|
2018/05/09T13:05:03|       27419.62|         61029683.24|         93309.39|
2018/05/09T13:05:04|       27389.91|         60025810.59|         90720.78|
2018/05/09T13:05:05|       27195.41|         57298855.17|         88871.57|
2018/05/09T13:05:06|       27179.17|         56663574.42|         88746.01|
2018/05/09T13:05:07|       27440.00|         57056428.28|         89331.96|
2018/05/09T13:05:08|       27543.71|         62206973.62|         92535.70|
2018/05/09T13:05:09|       26815.19|         56234131.94|         88310.42|
2018/05/09T13:05:10|       27829.85|         70147062.73|         98861.53|
2018/05/09T13:05:11|       27695.09|         92740846.97|        114445.34|
2018/05/09T13:05:12|       27142.64|         93071363.49|        114776.02|
2018/05/09T13:05:13|       27375.76|         92299504.91|        114582.23|
2018/05/09T13:05:14|       27888.44|         75814136.74|        104121.67|
2018/05/09T13:05:15|       27108.43|         64565358.14|         95808.05|
2018/05/09T13:05:16|       29600.10|         66422844.34|         99722.17|
2018/05/09T13:05:17|       28587.01|         68398304.23|        100960.86|
2018/05/09T13:05:18|       27589.75|         65257114.40|         97908.36|
2018/05/09T13:05:19|       27778.53|         65189254.82|         97738.46|
2018/05/09T13:05:20|       28142.16|         73426985.44|        104108.31|
2018/05/09T13:05:21|       28178.65|         67355858.20|         99895.68|
2018/05/09T13:05:22|       27661.60|         71435488.73|        104214.52|
2018/05/09T13:05:23|       27594.66|         76239463.16|        108145.82|
2018/05/09T13:05:24|       27300.28|         74828011.04|        106499.52|
2018/05/09T13:05:25|       27611.95|         72597585.67|        105765.07|
2018/05/09T13:05:26|       27772.20|         75147874.68|        107452.38|
2018/05/09T13:05:27|       27600.64|         74156577.40|        105998.30|
2018/05/09T13:05:28|       27717.49|         73305597.82|        105178.69|
2018/05/09T13:05:29|       27443.51|         76248127.84|        107115.90|
2018/05/09T13:05:30|       27005.02|         80044633.79|        108759.51|
2018/05/09T13:05:31|       27802.17|         78478656.07|        108916.61|
2018/05/09T13:05:32|       27739.51|         81751438.01|        111643.56|
2018/05/09T13:05:33|       27462.51|         75215796.76|        107345.16|
2018/05/09T13:05:34|       27934.75|         70884307.47|        104551.00|
2018/05/09T13:05:35|       28105.77|         71809506.30|        104256.85|
2018/05/09T13:05:36|       27272.03|         67542877.09|         97984.52|
2018/05/09T13:05:37|       27764.96|         63221023.79|         95599.52|
2018/05/09T13:05:38|       27975.99|         64900254.48|         97936.07|
2018/05/09T13:05:39|       27242.29|         61846219.27|         94260.84|
2018/05/09T13:05:40|       28459.68|         62165364.06|         91335.06|
2018/05/09T13:05:41|       27924.79|         64360479.01|         93060.83|
2018/05/09T13:05:42|       27692.21|         76218010.86|        103730.35|
2018/05/09T13:05:43|       27898.86|         73756170.82|        102766.20|
2018/05/09T13:05:44|       28165.33|         78248866.10|        107948.20|
2018/05/09T13:05:45|       27163.45|         81248143.57|        108587.06|
2018/05/09T13:05:46|       27712.61|         82575238.60|        110305.34|
2018/05/09T13:05:47|       28060.71|         85935141.79|        113853.14|
2018/05/09T13:05:48|       40917.56|         85836475.40|        126208.34|
2018/05/09T13:05:49|       30929.87|         82807877.41|        114688.88|
2018/05/09T13:05:50|       27852.96|         87229243.36|        114556.43|
2018/05/09T13:05:51|       27104.22|         84579565.43|        111955.00|
2018/05/09T13:05:52|       28220.38|         86065995.29|        113752.67|
2018/05/09T13:05:53|       27697.59|         80151897.53|        108101.18|
2018/05/09T13:05:54|       27021.39|         79450443.87|        106195.99|
2018/05/09T13:05:55|       27944.89|         70269178.72|         97188.00|
2018/05/09T13:05:56|       28209.32|         75659597.76|        100909.07|
2018/05/09T13:05:57|       26912.36|         75578903.47|         99458.21|
2018/05/09T13:05:58|       27828.11|         72714993.68|         98001.63|
2018/05/09T13:05:59|       27883.99|         67898379.00|         92352.89|
2018/05/09T13:06:00|       27302.89|         67586216.38|         90397.26|
2018/05/09T13:06:01|       27682.38|         65879992.87|         89106.26|
2018/05/09T13:06:02|       28463.95|         61943259.07|         87382.70|
2018/05/09T13:06:03|       27203.19|         63505401.77|         87543.88|
2018/05/09T13:06:04|       27897.86|         65513254.30|         89028.13|
2018/05/09T13:06:05|       28560.50|         65954029.77|         89964.55|
2018/05/09T13:06:06|       27619.39|         63263044.83|         86628.23|
2018/05/09T13:06:07|       28285.38|         57861785.51|         83727.08|
2018/05/09T13:06:08|       27909.60|         55456804.30|         81306.54|
2018/05/09T13:06:09|       27249.64|         55522629.13|         80568.03|
2018/05/09T13:06:10|       27931.65|         55824673.35|         81347.86|
2018/05/09T13:06:11|       27746.01|         58797617.57|         83358.47|
2018/05/09T13:06:12|       27396.78|         59114297.15|         83330.76|
2018/05/09T13:06:13|       27841.03|         58307652.33|         83194.54|
2018/05/09T13:06:14|       27818.83|         66453160.05|         89668.02|
2018/05/09T13:06:15|       27346.94|         57680799.08|         82912.58|
2018/05/09T13:06:16|       27716.07|         61243154.02|         86361.09|
2018/05/09T13:06:17|       28041.70|         59721076.15|         86178.13|
2018/05/09T13:06:18|       27169.24|         52667554.65|         78834.42|
2018/05/09T13:06:19|       28044.37|         58429565.53|         83452.00|
2018/05/09T13:06:20|       27733.26|         53576134.08|         80137.10|
2018/05/09T13:06:21|       27546.78|         55262908.26|         82292.15|
2018/05/09T13:06:22|       27608.06|         64165008.59|         89337.72|
2018/05/09T13:06:23|       27644.92|         58915806.96|         85733.81|
2018/05/09T13:06:24|       27528.56|         60445566.89|         86574.33|
2018/05/09T13:06:25|       27694.72|         60805786.90|         86864.39|
2018/05/09T13:06:26|       27800.44|         57214885.73|         84684.11|
2018/05/09T13:06:27|       27466.28|         65402284.23|         89819.61|
2018/05/09T13:06:28|       28165.91|         61925291.13|         88122.27|
2018/05/09T13:06:29|       28450.30|         60264891.50|         87936.46|
2018/05/09T13:06:30|       27524.38|         63478732.06|         89636.11|
2018/05/09T13:06:31|       28271.53|         64120895.36|         91427.80|
2018/05/09T13:06:32|       28516.53|         69607391.41|         96110.28|
2018/05/09T13:06:33|       27410.98|         66090899.93|         93050.71|
2018/05/09T13:06:34|       27636.87|         66636786.24|         99674.25|
2018/05/09T13:06:35|       28105.28|         66836080.75|         99971.09|
2018/05/09T13:06:36|       27578.73|         66388081.81|         99043.19|
2018/05/09T13:06:37|       27622.94|         72702705.02|        103322.07|
2018/05/09T13:06:38|       27834.93|         65003817.81|         98153.35|
2018/05/09T13:06:39|       27455.88|         66366214.85|         98736.48|
2018/05/09T13:06:40|       27924.86|         70070920.93|        101345.94|
2018/05/09T13:06:41|       28137.69|         73071962.91|        103418.97|
2018/05/09T13:06:42|       27316.17|         72138172.20|        101976.16|
2018/05/09T13:06:43|       27881.33|         75886190.58|        105006.54|
2018/05/09T13:06:44|       28466.17|         91437818.92|        111047.10|
2018/05/09T13:06:45|       27426.98|        105748871.66|        118531.57|
2018/05/09T13:06:46|       28615.49|        108930149.65|        121034.53|
2018/05/09T13:06:47|       28380.11|        109867994.34|        119156.24|
2018/05/09T13:06:48|       27177.69|        101236193.26|        111906.96|
2018/05/09T13:06:49|       27890.25|         97302976.83|        110124.53|
2018/05/09T13:06:50|       28049.32|         96864691.58|        109871.23|
2018/05/09T13:06:51|       27779.99|         98920717.28|        110901.68|
2018/05/09T13:06:52|       28231.65|         97964703.47|        110852.29|
2018/05/09T13:06:53|       28098.29|        101236770.07|        113289.11|
2018/05/09T13:06:54|       27612.11|         99029801.01|        112073.43|
2018/05/09T13:06:55|       28255.93|        104608550.60|        116819.03|
2018/05/09T13:06:56|       28130.28|         99727882.05|        114188.96|
2018/05/09T13:06:57|       27310.46|         94924985.37|        109771.78|
2018/05/09T13:06:58|       27717.35|         62427893.10|         88245.60|
2018/05/09T13:06:59|       28050.34|         55964169.70|         83262.33|
2018/05/09T13:07:00|       27247.29|         64198232.79|         88844.72|
2018/05/09T13:07:01|       28125.86|         62561774.18|         89697.10|
2018/05/09T13:07:02|       28300.27|         62320537.01|         89762.56|
2018/05/09T13:07:03|       27167.04|         67151850.27|         94228.51|
2018/05/09T13:07:04|       27926.32|         68011492.06|         95490.51|
2018/05/09T13:07:05|       27942.20|         64629815.16|         93422.69|
2018/05/09T13:07:06|       27098.44|         64257269.52|         92369.47|
2018/05/09T13:07:07|       27949.94|         63653626.14|         93310.60|
2018/05/09T13:07:08|       27870.81|         68766399.06|         95749.53|
2018/05/09T13:07:09|       26976.13|         60861372.76|         89344.84|
2018/05/09T13:07:10|       27823.44|         61316036.12|         88484.98|
2018/05/09T13:07:11|       27534.03|         62592461.41|         89000.88|
2018/05/09T13:07:12|       27227.36|         62426323.80|         88407.80|
2018/05/09T13:07:13|       27728.05|         65830916.50|         91287.28|
2018/05/09T13:07:14|       28341.43|         63077425.75|         88284.28|
2018/05/09T13:07:15|       27399.35|         55489247.89|         81935.50|
2018/05/09T13:07:16|       27895.26|         58198201.44|         84965.27|
2018/05/09T13:07:17|       27916.93|         58731682.71|         85761.99|
2018/05/09T13:07:18|       27344.68|         65021550.24|         89006.24|
2018/05/09T13:07:19|       28481.90|         57232329.96|         85175.61|
2018/05/09T13:07:20|       28080.05|         59122629.13|         85990.69|
2018/05/09T13:07:21|       27711.32|         59725190.72|         86952.43|
2018/05/09T13:07:22|       27996.57|         62521936.14|         90820.19|
2018/05/09T13:07:23|       27746.00|         61479335.16|         89119.85|
2018/05/09T13:07:24|       27122.48|         58899761.34|         85600.94|
2018/05/09T13:07:25|       27584.48|         65081169.67|         92022.04|
2018/05/09T13:07:26|       27625.99|         79788877.04|        100094.22|
2018/05/09T13:07:27|       27376.87|         77326615.41|         98149.08|
2018/05/09T13:07:28|       27878.84|         78053856.50|         99145.29|
2018/05/09T13:07:29|       61644.19|         75516497.74|        130207.59|
2018/05/09T13:07:30|       59447.66|         77373553.31|        129694.42|
2018/05/09T13:07:31|       27746.75|         86054711.84|        105111.80|
2018/05/09T13:07:32|       28154.74|         80580648.64|        101684.11|
2018/05/09T13:07:33|       27816.62|         78972980.62|        101173.53|
2018/05/09T13:07:34|       28259.46|         80635834.83|        103845.54|
2018/05/09T13:07:35|       28115.98|         82361745.19|        105207.89|
2018/05/09T13:07:36|       27574.70|         87656311.26|        109328.41|
2018/05/09T13:07:37|       28165.08|         89856427.63|        113412.13|
2018/05/09T13:07:38|       28137.67|         85004758.48|        109686.87|
2018/05/09T13:07:39|       27254.47|         82814089.36|        107141.01|
2018/05/09T13:07:40|       28056.19|         76225395.38|        103299.25|
2018/05/09T13:07:41|       28200.42|         81312742.30|        106765.19|
2018/05/09T13:07:42|       27244.14|         77379415.69|        103653.03|
2018/05/09T13:07:43|       28295.69|         76918611.13|        104086.14|
2018/05/09T13:07:44|       27848.74|         79371298.13|        105712.86|
2018/05/09T13:07:45|       27213.18|         80078149.79|        105573.73|
2018/05/09T13:07:46|       28361.15|         84444745.73|        109541.10|
2018/05/09T13:07:47|       28290.99|         76277614.08|        101784.50|
2018/05/09T13:07:48|       27329.86|         73701629.27|         99029.26|
2018/05/09T13:07:49|       27996.75|         71218085.50|         97943.70|
2018/05/09T13:07:50|       27973.45|         71596451.75|         97806.55|
2018/05/09T13:07:51|       27317.92|         72789821.14|         98020.13|
2018/05/09T13:07:52|       27701.96|         71236997.59|         96251.57|
2018/05/09T13:07:53|       28655.25|         71445026.02|         96879.26|
2018/05/09T13:07:54|       27196.85|         65409922.06|         91042.40|
2018/05/09T13:07:55|       27932.42|         69323134.97|         95233.89|
2018/05/09T13:07:56|       27840.20|         79101640.11|        104145.08|
2018/05/09T13:07:57|       27137.43|         73117927.27|        100410.46|
2018/05/09T13:07:58|       28164.10|         74414766.15|        101594.22|
2018/05/09T13:07:59|       28075.01|         70016834.91|         98668.56|
2018/05/09T13:08:00|       27276.82|         76485659.61|        102522.94|
2018/05/09T13:08:01|       27897.69|         71120025.49|        108388.12|
2018/05/09T13:08:02|       27961.59|         73072675.19|        108157.55|
2018/05/09T13:08:03|       27889.34|         74437421.92|        101865.16|
2018/05/09T13:08:04|       28148.77|         77071333.67|        100587.46|
2018/05/09T13:08:05|       27711.59|         71086023.79|         96201.76|
2018/05/09T13:08:06|       27784.46|         69468384.70|         95315.23|
2018/05/09T13:08:07|       27956.47|         70925861.10|         96438.59|
2018/05/09T13:08:08|       28088.13|         77612072.79|        101419.90|
2018/05/09T13:08:09|       27678.28|         71986842.73|         97852.22|
2018/05/09T13:08:10|       28105.10|         77325982.74|        102256.43|
2018/05/09T13:08:11|       28068.41|         76334323.56|        101942.09|
2018/05/09T13:08:12|       27537.69|         81199265.67|        104694.46|
2018/05/09T13:08:13|       28218.47|         79552546.94|        103929.48|
2018/05/09T13:08:14|       28029.83|         75046181.73|        100314.38|
2018/05/09T13:08:15|       27096.71|         74993047.57|         99626.72|
2018/05/09T13:08:16|       27881.95|         89496262.76|        111072.64|
2018/05/09T13:08:17|       27795.31|         88812409.29|        110036.04|
2018/05/09T13:08:18|       27282.73|         88356898.31|        109492.16|
2018/05/09T13:08:19|       27612.35|         89038448.51|        110939.83|
2018/05/09T13:08:20|       27940.93|         87255492.90|        109963.75|
2018/05/09T13:08:21|       27198.56|         88333926.95|        110286.41|
2018/05/09T13:08:22|       28196.90|         85222777.08|        107625.72|
2018/05/09T13:08:23|       28209.13|         82562086.68|        106426.29|
2018/05/09T13:08:24|       27153.71|         75967353.13|         99580.89|
2018/05/09T13:08:25|       27677.56|         74034576.44|         98886.78|
2018/05/09T13:08:26|       28225.33|         78226890.16|        101776.25|
2018/05/09T13:08:27|       27545.67|         86768169.69|        110526.51|
2018/05/09T13:08:28|       27880.94|         81706698.31|        108707.97|
2018/05/09T13:08:29|       28277.20|         86114039.45|        112209.85|
2018/05/09T13:08:30|       26994.06|         87671879.01|        112981.51|
2018/05/09T13:08:31|       28027.99|         92434502.20|        117083.53|
2018/05/09T13:08:32|       28561.15|         90637075.53|        114956.37|
2018/05/09T13:08:33|       27410.49|         83406450.32|        109101.58|
2018/05/09T13:08:34|       27681.89|         90356355.42|        114792.34|
2018/05/09T13:08:35|       28386.73|         95019850.63|        118504.58|
2018/05/09T13:08:36|       27294.95|         98792962.28|        121130.77|
2018/05/09T13:08:37|       27791.76|         99087839.51|        121949.80|
2018/05/09T13:08:38|       27835.42|        104970990.39|        125840.33|
2018/05/09T13:08:39|       27288.58|        100035668.58|        121933.70|
2018/05/09T13:08:40|       28126.49|         94901803.87|        118314.46|
2018/05/09T13:08:41|       27815.95|         83908186.40|        107063.31|
2018/05/09T13:08:42|       26915.20|         89265511.09|        109675.16|
2018/05/09T13:08:43|       28170.35|         83892430.66|        106879.74|
2018/05/09T13:08:44|       28360.78|         78474863.13|        103791.68|
2018/05/09T13:08:45|       26907.49|         79720210.60|        103384.95|
2018/05/09T13:08:46|       27813.55|         81404788.13|        105062.89|
2018/05/09T13:08:47|       28099.99|         79162484.64|        103100.37|
2018/05/09T13:08:48|       27129.63|         73344965.22|         97806.73|
2018/05/09T13:08:49|       27735.62|         69938390.28|         95461.82|
2018/05/09T13:08:50|       27759.12|         67997995.03|         93974.40|
2018/05/09T13:08:51|       27389.82|         73429820.12|         99342.15|
2018/05/09T13:08:52|       27690.21|         82352600.57|        106339.39|
2018/05/09T13:08:53|       28047.31|         82504993.85|        106939.92|
2018/05/09T13:08:54|       27230.60|         81294148.34|        105538.80|
2018/05/09T13:08:55|       28057.17|         82419362.76|        105436.79|
2018/05/09T13:08:56|       28170.18|         87209827.53|        109121.06|
2018/05/09T13:08:57|       27417.88|         89732949.50|        110046.53|
2018/05/09T13:08:58|       27911.46|         86632766.55|        108585.24|
2018/05/09T13:08:59|       28438.88|         85779980.96|        108101.61|
2018/05/09T13:09:00|       27757.21|         90401199.59|        110626.92|
2018/05/09T13:09:01|       28389.29|         90207741.28|        110896.60|
2018/05/09T13:09:02|       28269.47|         87297987.20|        109853.38|
2018/05/09T13:09:03|       27650.88|         89079993.00|        110575.12|
2018/05/09T13:09:04|       28642.85|         77058534.01|        100184.04|
2018/05/09T13:09:05|       28212.88|         84043243.71|        103519.96|
2018/05/09T13:09:06|       27869.63|         80646998.17|        100219.77|
2018/05/09T13:09:07|       28157.87|         76058624.64|         97441.62|
2018/05/09T13:09:08|       28354.58|         81656773.02|        101430.29|
2018/05/09T13:09:09|       27390.93|         73220931.87|         94901.88|
2018/05/09T13:09:10|       28255.49|         72913891.52|         95325.95|
2018/05/09T13:09:11|       28069.02|         75201038.97|         96601.87|
2018/05/09T13:09:12|       27122.64|         77571720.47|         97410.33|
2018/05/09T13:09:13|       28016.47|         74135086.93|         95945.55|
2018/05/09T13:09:14|       28008.21|         74227106.15|         96163.75|
2018/05/09T13:09:15|       27168.05|         75066968.55|         95267.62|
2018/05/09T13:09:16|       27562.08|         80177642.40|        100737.34|
2018/05/09T13:09:17|       28032.38|         75036708.95|         97963.83|
2018/05/09T13:09:18|       27060.98|         75332544.40|         97540.82|
2018/05/09T13:09:19|       27642.91|         84114290.85|        104285.95|
2018/05/09T13:09:20|       27869.66|         81426414.15|        102821.03|
2018/05/09T13:09:21|       26993.29|         77393181.93|         98992.65|
2018/05/09T13:09:22|       27770.48|         76618143.98|         98830.79|
2018/05/09T13:09:23|       27752.50|         76906254.59|         98777.25|
2018/05/09T13:09:24|       27465.92|         79572446.92|        100418.99|
2018/05/09T13:09:25|       27506.88|         77232358.75|         98568.92|
2018/05/09T13:09:26|       27899.75|         85709310.39|        104808.07|
2018/05/09T13:09:27|       27744.80|         80557438.18|        101575.34|
2018/05/09T13:09:28|       29640.85|         74844195.11|        100328.45|
2018/05/09T13:09:29|       28531.07|         70064688.99|         95342.19|
2018/05/09T13:09:30|       27483.92|         68735387.73|         91408.27|
2018/05/09T13:09:31|       28119.64|         65139962.47|         89550.51|
2018/05/09T13:09:32|       28360.97|         65522724.42|         89822.44|
2018/05/09T13:09:33|       27692.62|         65487700.77|         89267.61|
2018/05/09T13:09:34|       28027.47|         67954044.76|         91336.70|
2018/05/09T13:09:35|       28231.32|         69275700.77|         92667.97|
2018/05/09T13:09:36|       27608.67|         73546446.53|         95930.31|
2018/05/09T13:09:37|       28708.15|         71471712.66|         94096.97|
2018/05/09T13:09:38|       28083.89|         69116303.02|         91833.85|
2018/05/09T13:09:39|       27574.87|         64255423.12|         88290.86|
2018/05/09T13:09:40|       28580.87|         79365717.69|         99028.61|
2018/05/09T13:09:41|       28497.27|         71679568.22|         94181.62|
2018/05/09T13:09:42|       28636.71|         65105171.61|         89721.36|
2018/05/09T13:09:43|       28407.08|         60608566.56|         85194.17|
2018/05/09T13:09:44|       27963.13|         61173243.81|         85268.65|
2018/05/09T13:09:45|       27800.79|         63258388.50|         86304.63|
2018/05/09T13:09:46|       28671.72|         68800332.11|         91381.22|
2018/05/09T13:09:47|       28453.04|         66618168.12|         89868.05|
2018/05/09T13:09:48|       27735.64|         62956564.96|         86730.85|
2018/05/09T13:09:49|       28359.34|         62970539.85|         87917.23|
2018/05/09T13:09:50|       28156.55|         65645085.51|         90032.41|
2018/05/09T13:09:51|       27804.04|         64565789.69|         88165.02|
2018/05/09T13:09:52|       28633.83|         63380860.62|         87483.20|
2018/05/09T13:09:53|       28272.86|         63503380.37|         86835.55|
2018/05/09T13:09:54|       27572.42|         69281630.40|         90082.00|
2018/05/09T13:09:55|       28747.94|         77519942.27|         97510.44|
2018/05/09T13:09:56|       28300.05|         59894325.81|         84852.15|
2018/05/09T13:09:57|       27633.60|         64487495.35|         87031.50|
2018/05/09T13:09:58|       28386.85|         61146119.65|         85447.51|
2018/05/09T13:09:59|       28131.11|         64672478.78|         88243.01|
2018/05/09T13:10:00|       27564.20|         70481486.91|         91483.10|
2018/05/09T13:10:01|       28130.83|         64262816.29|         87538.05|
2018/05/09T13:10:02|       28577.68|         63092128.32|         88305.61|
2018/05/09T13:10:03|       28177.94|         64067734.95|         88932.13|
2018/05/09T13:10:04|       28899.69|         71790225.95|         94936.77|
2018/05/09T13:10:05|       28624.95|         74211169.34|         97878.81|
2018/05/09T13:10:06|       28131.92|         74577420.26|         98461.84|
2018/05/09T13:10:07|       28651.61|         76514813.04|         99988.23|
2018/05/09T13:10:08|       28912.47|         70926682.91|         96396.78|
2018/05/09T13:10:09|       28129.27|         66133875.00|         92262.53|
2018/05/09T13:10:10|       28616.15|         65326165.54|         92286.78|
2018/05/09T13:10:11|       28298.44|         63001282.28|         90992.80|
2018/05/09T13:10:12|       27843.91|         63805273.15|         91053.22|
2018/05/09T13:10:13|       28235.50|         62105055.38|         90338.07|
2018/05/09T13:10:14|       28121.86|         63864008.26|         90784.97|
2018/05/09T13:10:15|       27431.41|         61786284.86|         87806.25|
2018/05/09T13:10:16|       28329.53|         63657754.90|         89934.26|
2018/05/09T13:10:17|       28011.49|         61357595.75|         87673.89|
2018/05/09T13:10:18|       27945.28|         57504187.37|         84120.08|
2018/05/09T13:10:19|       28139.88|         58526286.01|         85228.18|
2018/05/09T13:10:20|       27995.46|         61614490.40|         87324.77|
2018/05/09T13:10:21|       27342.10|         63483862.49|         87785.12|
2018/05/09T13:10:22|       28522.82|         67137759.74|         92568.12|
2018/05/09T13:10:23|       28173.41|         64428175.24|         90686.55|
2018/05/09T13:10:24|       27713.93|         60828226.48|         87220.91|
2018/05/09T13:10:25|       27743.00|         60438496.70|         86878.45|
2018/05/09T13:10:26|       28475.61|         62713582.12|         88985.49|
2018/05/09T13:10:27|       27503.85|         70934229.99|         94751.04|
2018/05/09T13:10:28|       27970.53|         63500708.36|         90378.47|
2018/05/09T13:10:29|       28490.72|         62661174.12|         90614.07|
2018/05/09T13:10:30|       28294.58|         62571446.45|         90327.78|
2018/05/09T13:10:31|       28358.52|         63073791.09|         90837.88|
2018/05/09T13:10:32|       28150.20|         69387016.73|         94984.31|
2018/05/09T13:10:33|       27520.78|         92324205.64|        112501.94|
2018/05/09T13:10:34|       28162.47|         93725358.20|        113466.02|
2018/05/09T13:10:35|       28055.74|         92663789.90|        112663.12|
2018/05/09T13:10:36|       27628.50|         98563828.70|        116345.89|
2018/05/09T13:10:37|       27920.57|         97374623.80|        115425.40|
2018/05/09T13:10:38|       27870.47|         92021821.24|        111525.39|
2018/05/09T13:10:39|       27802.84|         93931383.84|        112738.18|
2018/05/09T13:10:40|       28245.76|         94103658.05|        113263.77|
2018/05/09T13:10:41|       28577.83|         89034134.64|        109161.69|
2018/05/09T13:10:42|       27703.80|         95207487.36|        112241.72|
2018/05/09T13:10:43|       28123.53|         92276260.72|        110807.68|
2018/05/09T13:10:44|       28182.35|         95379239.65|        112639.01|
2018/05/09T13:10:45|       27567.26|         90961462.53|        109006.25|
2018/05/09T13:10:46|       28997.64|         82872749.01|        104215.32|
2018/05/09T13:10:47|       28074.93|         58648528.06|         84076.64|
2018/05/09T13:10:48|       27733.53|         57761882.95|         83079.74|
2018/05/09T13:10:49|       28496.96|         60443414.66|         86058.03|
2018/05/09T13:10:50|       28192.49|         61510560.68|         86142.13|
2018/05/09T13:10:51|       27597.41|         61535106.22|         85948.90|
2018/05/09T13:10:52|       28239.14|         64866630.34|         89056.72|
2018/05/09T13:10:53|       28202.15|         63259103.70|         88141.90|
2018/05/09T13:10:54|       27671.46|         62418947.84|         86810.58|
2018/05/09T13:10:55|       27756.81|         59549136.09|         84875.50|
2018/05/09T13:10:56|       27917.37|         58359701.52|         84266.20|
2018/05/09T13:10:57|       27409.78|         59873737.31|         84582.96|
2018/05/09T13:10:58|       28658.69|         65317842.99|         89836.63|
2018/05/09T13:10:59|       29866.92|         58513272.82|         86310.09|
2018/05/09T13:11:00|       29564.37|         59487015.38|         86437.14|
2018/05/09T13:11:01|       30077.54|         59517309.51|         87179.12|
2018/05/09T13:11:02|       30069.29|         61475013.52|         88613.57|
2018/05/09T13:11:03|       29996.56|         64569567.29|         90877.36|
2018/05/09T13:11:04|       30088.07|         66107875.30|         91854.35|
2018/05/09T13:11:05|       30177.96|         62234054.13|         89804.51|
2018/05/09T13:11:06|       29731.10|         60960839.62|         88627.16|
2018/05/09T13:11:07|       30639.39|         63904669.44|         91326.44|
2018/05/09T13:11:08|       30535.29|         62601717.51|         90009.48|
2018/05/09T13:11:09|       29478.36|         58064865.63|         86412.75|
2018/05/09T13:11:10|       30109.92|         60305649.18|         89253.72|
2018/05/09T13:11:11|       30354.88|         64752892.73|         92845.86|
2018/05/09T13:11:12|       29755.72|         65224644.53|         93594.40|
2018/05/09T13:11:13|       30186.69|         76482813.68|        102656.80|
2018/05/09T13:11:14|       29775.52|         68799436.27|         97340.52|
2018/05/09T13:11:15|       29696.83|         67864911.77|         96591.06|
2018/05/09T13:11:16|       30408.81|         67303097.67|         96719.67|
2018/05/09T13:11:17|       30066.03|         69244573.66|         97377.44|
2018/05/09T13:11:18|       29527.88|         77861088.71|        103004.39|
2018/05/09T13:11:19|       30216.01|         79185771.79|        106194.50|
2018/05/09T13:11:20|       30180.90|         82465219.42|        107789.01|
2018/05/09T13:11:21|       29320.05|         85138982.40|        109886.45|
2018/05/09T13:11:22|       29714.86|        100876458.09|        123598.93|
2018/05/09T13:11:23|       29752.77|        111056485.87|        130456.86|
2018/05/09T13:11:24|       29204.97|        102546468.34|        124116.23|
2018/05/09T13:11:25|       29898.81|        104405779.41|        125867.34|
2018/05/09T13:11:26|       29883.27|         95356199.01|        117403.31|
2018/05/09T13:11:27|       29139.50|         98595170.16|        118561.70|
2018/05/09T13:11:28|       29930.04|         92976955.76|        115551.37|
2018/05/09T13:11:29|       29386.83|         91348326.97|        114026.53|
2018/05/09T13:11:30|       29634.31|         76167910.24|        102001.96|
2018/05/09T13:11:31|       27458.45|         72487453.03|         97153.70|
2018/05/09T13:11:32|       27591.49|         73935771.21|         96471.62|
2018/05/09T13:11:33|       26864.19|         69760676.62|         92400.98|
2018/05/09T13:11:34|       27137.76|         66195854.26|         90742.98|
2018/05/09T13:11:35|       27635.19|         70993300.68|         94630.80|
2018/05/09T13:11:36|       26638.66|         67338201.84|         90776.96|
2018/05/09T13:11:37|       27476.88|         63915680.50|         89479.24|
2018/05/09T13:11:38|       27674.34|         66371860.31|         91242.42|
2018/05/09T13:11:39|       26595.93|         62537389.72|         86575.73|
2018/05/09T13:11:40|       27629.06|         62113995.29|         87050.18|
2018/05/09T13:11:41|       27452.19|         60878796.88|         85969.51|
2018/05/09T13:11:42|       26723.68|         65055220.49|         88638.89|
2018/05/09T13:11:43|       27485.46|         65375501.75|         90168.39|
2018/05/09T13:11:44|       27387.88|         65223756.97|         89750.46|
2018/05/09T13:11:45|       27460.14|         77438292.80|         98409.83|
2018/05/09T13:11:46|       27429.65|         70228296.96|         93808.68|
2018/05/09T13:11:47|       27225.47|         69536264.99|         93286.75|
2018/05/09T13:11:48|       26738.74|         69539815.22|         92380.06|
2018/05/09T13:11:49|       27324.83|         77453278.13|         98137.76|
2018/05/09T13:11:50|       27322.15|         83783963.64|        102261.48|
2018/05/09T13:11:51|       27052.43|         75738352.21|         96650.49|
2018/05/09T13:11:52|       27250.23|         77615665.70|         98408.14|
2018/05/09T13:11:53|       27519.48|         78572317.27|         99217.66|
2018/05/09T13:11:54|       27300.78|         78928997.14|        102356.98|
2018/05/09T13:11:55|       27645.09|         80005076.96|        103605.11|
2018/05/09T13:11:56|       27369.47|         78089858.06|        101984.68|
2018/05/09T13:11:57|       26792.85|         78817268.98|        102496.87|
2018/05/09T13:11:58|       27492.91|         92880431.28|        107995.66|
2018/05/09T13:11:59|       27175.22|         83413823.78|        101419.53|
2018/05/09T13:12:00|       27059.70|         73423009.52|         94824.34|
2018/05/09T13:12:01|       27611.97|         73823479.73|         95926.43|
2018/05/09T13:12:02|       27333.00|         76199104.61|         97534.41|
2018/05/09T13:12:03|       27065.30|         76287270.77|         97037.92|
2018/05/09T13:12:04|       27366.08|         72644158.05|         94487.67|
2018/05/09T13:12:05|       27763.06|         69776670.45|         92726.41|
2018/05/09T13:12:06|       27736.81|         76772032.00|         97794.61|
2018/05/09T13:12:07|       29288.99|         77759590.40|        100623.05|
2018/05/09T13:12:08|       29487.52|         73162026.87|         97423.19|
2018/05/09T13:12:09|       30291.31|         73116121.36|         97650.81|
2018/05/09T13:12:10|       30563.70|         75777882.71|         99983.65|
2018/05/09T13:12:11|       28695.26|         70130703.98|         94198.19|
2018/05/09T13:12:12|       31044.31|         72370461.92|         97739.13|
2018/05/09T13:12:13|       29916.54|         73651939.72|         97658.94|
2018/05/09T13:12:14|       29522.96|         76800420.73|         99243.69|
2018/05/09T13:12:15|       29641.43|         71647764.83|         96257.14|
2018/05/09T13:12:16|       29311.44|         75329123.77|         98718.79|
2018/05/09T13:12:17|       29473.44|         78429590.39|        101579.72|
2018/05/09T13:12:18|       28968.09|         80892959.85|        103497.48|
2018/05/09T13:12:19|       29535.99|         75935119.83|        100844.50|
2018/05/09T13:12:20|       29676.89|         75473916.41|        100437.36|
2018/05/09T13:12:21|       29566.80|         69354528.22|         95452.66|
2018/05/09T13:12:22|       30277.95|         73136837.68|         98593.51|
2018/05/09T13:12:23|       31022.99|         74784066.20|        101124.11|
2018/05/09T13:12:24|       29161.83|         76082904.97|        100537.56|
2018/05/09T13:12:25|       30305.39|         77775547.45|        103225.56|
2018/05/09T13:12:26|       30189.53|         79981140.06|        104648.43|
2018/05/09T13:12:27|       29608.24|         83551925.80|        105705.20|
2018/05/09T13:12:28|       30465.53|         73948070.18|         99914.16|
2018/05/09T13:12:29|       31184.30|         74797095.11|        100877.86|
2018/05/09T13:12:30|       30032.93|         75107129.03|        100265.96|
2018/05/09T13:12:31|       31051.33|         77059512.90|        103047.61|
2018/05/09T13:12:32|       28968.16|         72279400.51|         95267.27|
2018/05/09T13:12:33|       26956.58|         72474739.20|         93064.91|
2018/05/09T13:12:34|       27452.84|         74263730.77|         94858.56|
2018/05/09T13:12:35|       27703.76|         66591201.25|         89977.85|
2018/05/09T13:12:36|       26707.47|         62095967.37|         85922.59|
2018/05/09T13:12:37|       27533.72|         65593550.76|         89061.83|
2018/05/09T13:12:38|       27456.98|         64866736.36|         88482.02|
2018/05/09T13:12:39|       26693.22|         70119572.71|         92765.36|
2018/05/09T13:12:40|       27431.79|         71120914.75|         95203.13|
2018/05/09T13:12:41|       27439.49|         69708171.03|         94133.88|
2018/05/09T13:12:42|       26830.83|         80606024.09|        101456.13|
2018/05/09T13:12:43|       27448.11|         74821444.11|         98611.53|
2018/05/09T13:12:44|       27347.85|         76369217.08|        100247.09|
2018/05/09T13:12:45|       27092.87|         77562528.53|        100752.26|
2018/05/09T13:12:46|       28065.86|         75889690.79|        100517.32|
2018/05/09T13:12:47|       27323.13|         89414725.29|        109265.12|
2018/05/09T13:12:48|       26842.76|         82531827.34|        105190.95|
2018/05/09T13:12:49|       27628.68|         88578623.66|        111268.73|
2018/05/09T13:12:50|       27416.82|         99262013.65|        117546.42|
2018/05/09T13:12:51|       26943.04|         95268230.17|        113648.84|
2018/05/09T13:12:52|       27565.89|         95443110.10|        114480.59|
2018/05/09T13:12:53|       27468.50|         96198104.05|        114724.54|
2018/05/09T13:12:54|       26702.86|         95944138.12|        113975.55|
2018/05/09T13:12:55|       27689.92|         97972000.80|        116918.88|
2018/05/09T13:12:56|       27242.93|         90680066.54|        111068.31|
2018/05/09T13:12:57|       26815.93|         92783959.29|        110944.93|
2018/05/09T13:12:58|       27896.84|         90031576.49|        109560.28|
2018/05/09T13:12:59|       27409.57|         79773794.89|        101331.19|
2018/05/09T13:13:00|       26969.67|         74665798.13|         96517.92|
2018/05/09T13:13:01|       27858.78|         76814189.00|         99313.72|
2018/05/09T13:13:02|       27342.98|         78759779.74|        100868.33|
2018/05/09T13:13:03|       26805.81|         80824417.49|        101575.50|
2018/05/09T13:13:04|       33319.12|         76734065.91|         99279.93|
2018/05/09T13:13:05|       37446.92|         85203631.24|        104071.80|
2018/05/09T13:13:06|       27428.07|         68034724.45|         91964.58|
2018/05/09T13:13:07|       27578.48|         68464445.99|         92804.79|
2018/05/09T13:13:08|       27191.95|         67415381.79|         92044.85|
2018/05/09T13:13:09|       26883.18|         74550197.34|         96548.24|
2018/05/09T13:13:10|       27020.84|         68724948.27|         92933.37|
2018/05/09T13:13:11|       27223.35|         69662872.76|         94681.97|
2018/05/09T13:13:12|       26856.39|         66553632.26|         90783.82|
2018/05/09T13:13:13|       27185.18|         64552777.24|         89563.98|
2018/05/09T13:13:14|       27319.99|         68901068.73|         92589.35|
2018/05/09T13:13:15|       26804.16|         64184872.98|         88753.33|
2018/05/09T13:13:16|       27532.97|         64609405.16|         89655.98|
2018/05/09T13:13:17|       27074.44|         66579604.35|         90605.80|
2018/05/09T13:13:18|       26875.62|         65082822.37|         89544.52|
2018/05/09T13:13:19|       27316.98|         72988611.80|         95359.17|
2018/05/09T13:13:20|       27047.50|         68423551.95|         91929.58|
2018/05/09T13:13:21|       26369.17|         66233572.75|         89846.13|
2018/05/09T13:13:22|       27110.23|         68189311.80|         91488.14|
2018/05/09T13:13:23|       27347.91|         70597568.48|         93496.53|
2018/05/09T13:13:24|       26545.98|         72380877.88|         93476.36|
2018/05/09T13:13:25|       27443.87|         68639424.31|         92065.39|
2018/05/09T13:13:26|       27151.58|         69813242.11|         96501.37|
2018/05/09T13:13:27|       26813.58|         73321028.65|         97774.81|
2018/05/09T13:13:28|       27165.10|         74154234.15|         98389.07|
2018/05/09T13:13:29|       27389.75|         76404442.63|        101159.26|
2018/05/09T13:13:30|       26632.14|         77334131.25|        101586.79|
2018/05/09T13:13:31|       27307.99|         81395893.23|        104580.53|
2018/05/09T13:13:32|       27179.10|         90689833.76|        110465.37|
2018/05/09T13:13:33|       26510.21|         93496579.11|        112038.84|
2018/05/09T13:13:34|       27319.31|         95435147.45|        114387.70|
2018/05/09T13:13:35|       27116.94|         97306005.28|        116265.31|
2018/05/09T13:13:36|       28899.41|         94192776.35|        115888.78|
2018/05/09T13:13:37|       29683.97|         96343436.49|        117528.98|
2018/05/09T13:13:38|       27500.22|         96444108.28|        115114.15|
2018/05/09T13:13:39|       26771.77|         94971657.98|        111130.09|
2018/05/09T13:13:40|       27599.34|        101585910.34|        113904.28|
2018/05/09T13:13:41|       27780.27|         93567304.89|        108363.58|
2018/05/09T13:13:42|       26499.51|         96436640.99|        108668.56|
2018/05/09T13:13:43|       27688.88|         98525660.90|        111702.86|
2018/05/09T13:13:44|       27428.29|         94094367.44|        108033.62|
2018/05/09T13:13:45|       26582.72|         82008488.30|         99061.57|
2018/05/09T13:13:46|       27256.91|         73531715.10|         94127.43|
2018/05/09T13:13:47|       27263.14|         77367710.15|         96701.50|
2018/05/09T13:13:48|       26577.80|         73525803.49|         93412.75|
2018/05/09T13:13:49|       26998.48|         75020736.03|         94864.28|
2018/05/09T13:13:50|       28665.38|         84498096.13|        103862.69|
2018/05/09T13:13:51|       26392.77|         95863123.87|        110329.18|
2018/05/09T13:13:52|       27092.44|         84176925.87|        103224.09|
2018/05/09T13:13:53|       27866.93|         85982356.54|        105429.21|
2018/05/09T13:13:54|       26701.56|         80330924.86|        100774.63|
2018/05/09T13:13:55|       27200.62|         82990641.25|        103298.72|
2018/05/09T13:13:56|       27480.48|         76632699.41|         99339.12|
2018/05/09T13:13:57|       26640.23|         78572639.37|         99469.06|
2018/05/09T13:13:58|       27249.35|         89478085.57|        109294.56|
2018/05/09T13:13:59|       27259.36|         88767254.45|        108913.41|
2018/05/09T13:14:00|       26536.67|         90806834.02|        109437.02|
2018/05/09T13:14:01|       27224.53|         87063392.98|        107796.81|
2018/05/09T13:14:02|       27556.84|         88361378.54|        108881.99|
2018/05/09T13:14:03|       26959.75|         98830320.29|        115488.94|
2018/05/09T13:14:04|       27843.51|         78392272.25|         99985.75|
2018/05/09T13:14:05|       27347.55|         77597762.77|         99400.07|
2018/05/09T13:14:06|       27197.76|         80906586.21|        101818.29|
2018/05/09T13:14:07|       27442.01|         81660977.91|        102668.11|
2018/05/09T13:14:08|       27535.80|         90518003.24|        108482.81|
2018/05/09T13:14:09|       27802.42|         82860485.61|        104940.07|
2018/05/09T13:14:10|       27401.00|         82288700.44|        103824.17|
2018/05/09T13:14:11|       27518.21|         77580656.01|        100425.55|
2018/05/09T13:14:12|       27188.54|         74586862.40|         97571.08|
2018/05/09T13:14:13|       28021.35|         79142213.12|        100562.50|
2018/05/09T13:14:14|       27044.08|         70113536.46|         92562.98|
2018/05/09T13:14:15|       26606.12|         72937936.99|         94675.79|
2018/05/09T13:14:16|       27406.87|         73626394.21|         97607.01|
2018/05/09T13:14:17|       27189.60|         76069882.26|         99437.95|
2018/05/09T13:14:18|       26499.93|         82323875.36|        102766.27|
2018/05/09T13:14:19|       27375.58|         80417277.27|        102751.99|
2018/05/09T13:14:20|       27413.20|         76001093.87|         99391.28|
2018/05/09T13:14:21|       27101.11|         74489628.74|         99223.26|
2018/05/09T13:14:22|       27165.89|         85346429.97|        107646.75|
2018/05/09T13:14:23|       26980.47|         81356510.26|        104903.15|
2018/05/09T13:14:24|       27474.48|         73135120.28|         99263.73|
2018/05/09T13:14:25|       27325.80|         70088670.14|         96102.62|
2018/05/09T13:14:26|       27327.21|         75648139.09|         99652.14|
2018/05/09T13:14:27|       26678.74|         78706855.80|        101821.29|
2018/05/09T13:14:28|       27188.43|         88045663.94|        111303.38|
2018/05/09T13:14:29|       27649.75|         87381924.10|        115505.84|
2018/05/09T13:14:30|       27262.53|         86958283.27|        114489.39|
2018/05/09T13:14:31|       27431.68|         82772685.37|        111155.28|
2018/05/09T13:14:32|       27190.49|         83694446.69|        111579.40|
2018/05/09T13:14:33|       28259.50|         85056231.39|        114518.23|
2018/05/09T13:14:34|       27800.71|         78363913.66|        108430.50|
2018/05/09T13:14:35|       27258.99|         88481871.67|        113612.52|
2018/05/09T13:14:36|       26832.54|         81660568.26|        108733.60|
2018/05/09T13:14:37|       27370.96|         96482800.35|        120845.50|
2018/05/09T13:14:38|       27318.67|         98693402.82|        124884.28|
2018/05/09T13:14:39|       26698.25|         96877329.41|        122572.88|
2018/05/09T13:14:40|       27313.60|         79837304.15|        111148.98|
2018/05/09T13:14:41|       27270.89|         80328321.05|        110390.65|
2018/05/09T13:14:42|       26667.62|         77460359.20|        109443.68|
2018/05/09T13:14:43|       27284.52|         83678898.22|        114410.93|
2018/05/09T13:14:44|       27169.26|         85497685.15|        115142.87|
2018/05/09T13:14:45|       26274.13|         76893552.91|        108314.84|
2018/05/09T13:14:46|       27330.37|         76689506.59|        109309.68|
2018/05/09T13:14:47|       27253.53|         78795165.48|        110628.16|
2018/05/09T13:14:48|       26525.03|         78059944.60|        105911.15|
2018/05/09T13:14:49|       27535.78|         81458263.15|        109376.72|
2018/05/09T13:14:50|       27009.94|         77822744.82|        105356.53|
2018/05/09T13:14:51|       26489.92|         71960384.07|        100435.44|
2018/05/09T13:14:52|       27110.30|         69837612.36|         98356.83|
2018/05/09T13:14:53|       26812.81|         69473165.91|         96399.09|
2018/05/09T13:14:54|       26688.07|         63022527.71|         91555.65|
2018/05/09T13:14:55|       27224.81|         55031110.96|         86180.18|
2018/05/09T13:14:56|       26796.51|         51906195.08|         82480.53|
2018/05/09T13:14:57|       26639.77|         51991976.68|         81961.65|
2018/05/09T13:14:58|       27222.61|         58144025.35|         85576.89|
2018/05/09T13:14:59|       26626.34|         38110398.54|         68870.78|
2018/05/09T13:15:00|         267.44|           202852.37|           453.03|
