               Date|        Records|               Bytes|          Packets|
2018/05/08T18:15:00|       26172.97|         23378816.09|         50394.16|
2018/05/08T18:15:01|       29944.42|         35983861.82|         66746.36|
2018/05/08T18:15:02|       28318.13|         43768332.38|         72509.21|
2018/05/08T18:15:03|       30339.38|         53302792.16|         82340.70|
2018/05/08T18:15:04|       29070.94|         42442042.99|         71313.94|
2018/05/08T18:15:05|       29141.23|         43145110.29|         71982.67|
2018/05/08T18:15:06|       30002.39|         45395163.90|         74604.62|
2018/05/08T18:15:07|       29975.65|         44148394.18|         73629.55|
2018/05/08T18:15:08|       28258.66|         46513701.81|         74342.38|
2018/05/08T18:15:09|       29625.57|         51420232.28|         79889.95|
2018/05/08T18:15:10|       28886.76|         41724319.05|         71661.70|
2018/05/08T18:15:11|       27722.49|         38107667.09|         67627.41|
2018/05/08T18:15:12|       30014.34|         44871408.36|         73975.12|
2018/05/08T18:15:13|       29718.85|         37016874.87|         67324.90|
2018/05/08T18:15:14|       27398.85|         33574081.83|         62348.50|
2018/05/08T18:15:15|       28024.90|         32488280.14|         62005.69|
2018/05/08T18:15:16|       28094.77|         37111880.63|         65138.73|
2018/05/08T18:15:17|       27459.51|         35146944.91|         62364.82|
2018/05/08T18:15:18|       28132.86|         30511553.12|         59454.66|
2018/05/08T18:15:19|       27924.48|         31779306.52|         59609.96|
2018/05/08T18:15:20|       27306.55|         34576261.79|         61336.72|
2018/05/08T18:15:21|       28158.71|         29433672.75|         58877.37|
2018/05/08T18:15:22|       28195.38|         29218094.45|         58859.91|
2018/05/08T18:15:23|       27992.98|         29237821.27|         58813.89|
2018/05/08T18:15:24|       27742.29|         27118948.75|         56687.81|
2018/05/08T18:15:25|       27794.13|         25001818.07|         54654.70|
2018/05/08T18:15:26|       27714.59|         25517905.20|         55091.30|
2018/05/08T18:15:27|       27160.26|         32759948.60|         60903.89|
2018/05/08T18:15:28|       27972.32|         32232864.23|         61236.49|
2018/05/08T18:15:29|       28734.70|         29447203.05|         60361.93|
2018/05/08T18:15:30|       27415.17|         25761731.20|         58465.87|
2018/05/08T18:15:31|       27821.11|         32830654.06|         66292.90|
2018/05/08T18:15:32|       28057.05|         33801145.89|         67873.85|
2018/05/08T18:15:33|       28096.84|         36253358.14|         69147.21|
2018/05/08T18:15:34|       28096.84|         41974672.32|         74203.90|
2018/05/08T18:15:35|       28412.36|         50801995.06|         81099.85|
2018/05/08T18:15:36|       27549.92|         46068800.29|         77029.97|
2018/05/08T18:15:37|       27720.42|         50402005.24|         79510.34|
2018/05/08T18:15:38|       27909.10|         52695650.21|         82791.13|
2018/05/08T18:15:39|       27427.48|         52677616.75|         82399.46|
2018/05/08T18:15:40|       27649.40|         50606069.35|         80721.41|
2018/05/08T18:15:41|       27410.37|         50326368.47|         80359.22|
2018/05/08T18:15:42|       27067.91|         53513834.10|         82604.74|
2018/05/08T18:15:43|       28129.78|         54878854.47|         84575.24|
2018/05/08T18:15:44|       27571.14|         44919856.28|         76660.34|
2018/05/08T18:15:45|       27102.58|         40917729.03|         70607.73|
2018/05/08T18:15:46|       28565.37|         38435378.91|         69108.60|
2018/05/08T18:15:47|       27512.67|         38309292.99|         66225.44|
2018/05/08T18:15:48|       27596.91|         29847911.01|         60406.96|
2018/05/08T18:15:49|       27843.78|         31838233.33|         62096.81|
2018/05/08T18:15:50|       27722.89|         33469191.90|         62718.69|
2018/05/08T18:15:51|       27234.65|         24055994.37|         55732.91|
2018/05/08T18:15:52|       27891.11|         20705597.01|         54378.12|
2018/05/08T18:15:53|       28211.30|         20699874.42|         54314.30|
2018/05/08T18:15:54|       27330.54|         20427699.25|         52961.00|
2018/05/08T18:15:55|       27310.46|         22531292.92|         54358.25|
2018/05/08T18:15:56|       27714.25|         25156428.04|         57833.38|
2018/05/08T18:15:57|       27479.89|         32795936.66|         63593.61|
2018/05/08T18:15:58|       27992.90|         28353054.68|         61046.46|
2018/05/08T18:15:59|       27448.69|         28954432.75|         60623.90|
2018/05/08T18:16:00|       28552.81|         32098597.81|         63922.71|
2018/05/08T18:16:01|       27692.35|         30708393.21|         61971.23|
2018/05/08T18:16:02|       27578.82|         30564233.68|         62212.44|
2018/05/08T18:16:03|       27183.87|         30894306.96|         63227.01|
2018/05/08T18:16:04|       27292.99|         33461791.64|         64649.74|
2018/05/08T18:16:05|       27235.38|         29145332.42|         60498.16|
2018/05/08T18:16:06|       26927.78|         33904433.30|         63084.46|
2018/05/08T18:16:07|       28164.10|         34367482.40|         66001.74|
2018/05/08T18:16:08|       27615.93|         33755419.21|         63396.87|
2018/05/08T18:16:09|       26907.06|         34098737.47|         63811.35|
2018/05/08T18:16:10|       27295.67|         27865659.63|         58078.27|
2018/05/08T18:16:11|       27533.57|         32561749.58|         60470.87|
2018/05/08T18:16:12|       26851.39|         26505028.47|         55673.88|
2018/05/08T18:16:13|       27458.34|         21914028.40|         52511.73|
2018/05/08T18:16:14|       27751.90|         20070875.52|         51158.13|
2018/05/08T18:16:15|       27022.98|         20194728.86|         49503.66|
2018/05/08T18:16:16|       27489.62|         20673230.20|         50210.69|
2018/05/08T18:16:17|       27338.70|         20531330.02|         52230.13|
2018/05/08T18:16:18|       27062.85|         25426218.85|         52960.97|
2018/05/08T18:16:19|       27538.59|         20412175.53|         50429.11|
2018/05/08T18:16:20|       28297.09|         41982447.37|         65118.70|
2018/05/08T18:16:21|       28591.21|         42408041.65|         68466.09|
2018/05/08T18:16:22|       29455.71|         26795725.12|         60134.99|
2018/05/08T18:16:23|       28574.46|         23695490.09|         56957.27|
2018/05/08T18:16:24|       28030.83|         21663661.60|         55097.35|
2018/05/08T18:16:25|       28508.73|         25572980.28|         58329.51|
2018/05/08T18:16:26|       28524.15|         28092196.85|         60797.06|
2018/05/08T18:16:27|       28381.45|         27557915.84|         61520.99|
2018/05/08T18:16:28|       28859.42|         29371173.40|         63308.25|
2018/05/08T18:16:29|       28281.95|         31522718.72|         64368.62|
2018/05/08T18:16:30|       28081.01|         31828187.99|         64681.55|
2018/05/08T18:16:31|       28924.99|         31761156.96|         64381.68|
2018/05/08T18:16:32|       28650.20|         36524707.73|         65105.48|
2018/05/08T18:16:33|       28309.39|         31180705.49|         61067.20|
2018/05/08T18:16:34|       29153.67|         31347032.10|         65977.35|
2018/05/08T18:16:35|       28653.53|         31383951.77|         61558.04|
2018/05/08T18:16:36|       28386.39|         31158470.21|         61088.86|
2018/05/08T18:16:37|       28649.38|         31373379.77|         61759.89|
2018/05/08T18:16:38|       28831.05|         31277265.60|         61848.92|
2018/05/08T18:16:39|       28019.30|         33016207.58|         62187.96|
2018/05/08T18:16:40|       28581.68|         22832760.25|         54055.27|
2018/05/08T18:16:41|       29070.36|         22455544.30|         53915.81|
2018/05/08T18:16:42|       28639.33|         21616066.46|         52877.45|
2018/05/08T18:16:43|       29105.07|         21163555.58|         53112.60|
2018/05/08T18:16:44|       28483.89|         21100573.75|         52366.42|
2018/05/08T18:16:45|       28163.43|         22473319.12|         52947.30|
2018/05/08T18:16:46|       28851.48|         28529844.78|         58225.93|
2018/05/08T18:16:47|       28447.63|         23090608.01|         53585.92|
2018/05/08T18:16:48|       28735.85|         25460483.75|         55668.30|
2018/05/08T18:16:49|       29081.30|         30759785.98|         60064.01|
2018/05/08T18:16:50|       28609.28|         34136826.95|         62021.97|
2018/05/08T18:16:51|       28442.43|         33312831.85|         61111.71|
2018/05/08T18:16:52|       28993.75|         30382049.26|         59753.50|
2018/05/08T18:16:53|       28026.62|         34962638.59|         62007.28|
2018/05/08T18:16:54|       27240.52|         28834375.57|         57158.86|
2018/05/08T18:16:55|       28023.06|         29108653.18|         58172.63|
2018/05/08T18:16:56|       27287.84|         31448284.65|         59127.79|
2018/05/08T18:16:57|       27072.04|         31442630.76|         58944.25|
2018/05/08T18:16:58|       28291.25|         30799858.52|         59488.21|
2018/05/08T18:16:59|       27281.13|         29464789.36|         57380.88|
2018/05/08T18:17:00|       27052.16|         42001324.79|         68458.26|
2018/05/08T18:17:01|       27790.01|         43180690.26|         70688.60|
2018/05/08T18:17:02|       27556.35|         39220319.79|         69320.20|
2018/05/08T18:17:03|       27681.64|         37212071.51|         67813.15|
2018/05/08T18:17:04|       27877.20|         38705429.68|         69008.66|
2018/05/08T18:17:05|       27486.33|         42666534.29|         71447.78|
2018/05/08T18:17:06|       27272.82|         38614648.97|         68412.04|
2018/05/08T18:17:07|       27341.59|         39260757.97|         69387.65|
2018/05/08T18:17:08|       27614.01|         43176106.19|         72695.80|
2018/05/08T18:17:09|       27202.90|         40724712.89|         70513.45|
2018/05/08T18:17:10|       27203.93|         40285608.30|         70243.49|
2018/05/08T18:17:11|       27040.55|         42145519.97|         71669.94|
2018/05/08T18:17:12|       26975.20|         44334431.00|         74725.31|
2018/05/08T18:17:13|       27663.06|         33374286.77|         63726.27|
2018/05/08T18:17:14|       27345.90|         29267383.05|         59595.92|
2018/05/08T18:17:15|       26954.74|         27938992.10|         58713.98|
2018/05/08T18:17:16|       27311.51|         32474285.04|         61486.93|
2018/05/08T18:17:17|       27049.67|         29797328.11|         58758.49|
2018/05/08T18:17:18|       27253.96|         26612531.02|         56773.69|
2018/05/08T18:17:19|       27347.15|         25656497.62|         55789.67|
2018/05/08T18:17:20|       27171.08|         25914982.90|         57412.96|
2018/05/08T18:17:21|       27003.44|         23542049.68|         55288.29|
2018/05/08T18:17:22|       27222.43|         26907486.09|         58607.97|
2018/05/08T18:17:23|       27028.44|         22976604.62|         55572.30|
2018/05/08T18:17:24|       27095.28|         35305543.00|         64480.90|
2018/05/08T18:17:25|       27216.20|         39228938.65|         67639.30|
2018/05/08T18:17:26|       26988.68|         29679525.45|         60573.56|
2018/05/08T18:17:27|       27089.14|         28590142.62|         59618.28|
2018/05/08T18:17:28|       27442.57|         28536614.43|         59995.18|
2018/05/08T18:17:29|       27169.21|         28156676.47|         59192.09|
2018/05/08T18:17:30|       26978.46|         34408507.50|         64476.63|
2018/05/08T18:17:31|       27309.05|         27907642.92|         60156.62|
2018/05/08T18:17:32|       27577.87|         30909083.54|         61945.62|
2018/05/08T18:17:33|       27153.88|         28445653.80|         59782.94|
2018/05/08T18:17:34|       27339.79|         27419306.58|         59065.84|
2018/05/08T18:17:35|       26972.04|         29192063.73|         59562.08|
2018/05/08T18:17:36|       26982.37|         26782650.67|         57882.70|
2018/05/08T18:17:37|       27401.95|         32128259.16|         61923.91|
2018/05/08T18:17:38|       27399.77|         26549226.37|         58039.31|
2018/05/08T18:17:39|       27101.83|         26426600.69|         57828.11|
2018/05/08T18:17:40|       27051.82|         26684650.35|         57517.23|
2018/05/08T18:17:41|       27252.25|         27349845.51|         55810.76|
2018/05/08T18:17:42|       26988.53|         25209054.86|         54311.43|
2018/05/08T18:17:43|       27369.04|         27652381.35|         57299.77|
2018/05/08T18:17:44|       27060.59|         27481037.51|         57117.17|
2018/05/08T18:17:45|       26821.93|         29295236.79|         58034.39|
2018/05/08T18:17:46|       27551.62|         28947317.75|         58547.24|
2018/05/08T18:17:47|       27194.24|         26360888.34|         56477.87|
2018/05/08T18:17:48|       50991.49|         27938948.35|         80449.17|
2018/05/08T18:17:49|       68887.31|         29421318.23|         97973.33|
2018/05/08T18:17:50|       26869.64|         25943066.55|         54136.27|
2018/05/08T18:17:51|       26996.38|         25658239.35|         54099.68|
2018/05/08T18:17:52|       27376.63|         25239413.55|         54491.77|
2018/05/08T18:17:53|       27158.85|         32764300.85|         59329.83|
2018/05/08T18:17:54|       26981.56|         25537963.73|         54294.40|
2018/05/08T18:17:55|       26997.54|         21558677.78|         51521.23|
2018/05/08T18:17:56|       27268.15|         22236169.79|         52477.27|
2018/05/08T18:17:57|       26928.77|         21848948.38|         51446.58|
2018/05/08T18:17:58|       27577.08|         23278601.51|         56880.72|
2018/05/08T18:17:59|       27194.22|         23448479.79|         52924.72|
2018/05/08T18:18:00|       26940.01|         24189834.71|         54085.93|
2018/05/08T18:18:01|       26977.72|         35944506.90|         64962.29|
2018/05/08T18:18:02|       27510.11|         47342203.75|         73902.71|
2018/05/08T18:18:03|       27687.65|         47508023.59|         74644.23|
2018/05/08T18:18:04|       27167.28|         49036004.55|         73647.41|
2018/05/08T18:18:05|       27233.29|         46683088.83|         72138.13|
2018/05/08T18:18:06|       27095.24|         51368637.17|         75025.57|
2018/05/08T18:18:07|       27041.23|         51353432.89|         74974.14|
2018/05/08T18:18:08|       27159.86|         47656052.91|         72621.00|
2018/05/08T18:18:09|       26769.66|         46470350.75|         71197.39|
2018/05/08T18:18:10|       26762.46|         46809520.40|         71578.03|
2018/05/08T18:18:11|       27121.33|         46552268.08|         69735.48|
2018/05/08T18:18:12|       26891.19|         46008680.52|         70143.08|
2018/05/08T18:18:13|       27572.67|         37303140.13|         64843.52|
2018/05/08T18:18:14|       27122.07|         27589949.81|         57502.27|
2018/05/08T18:18:15|       26781.23|         23223316.42|         54319.54|
2018/05/08T18:18:16|       27598.83|         22837155.45|         55440.99|
2018/05/08T18:18:17|       26916.69|         22056776.71|         53455.35|
2018/05/08T18:18:18|       26765.63|         21539183.15|         52660.88|
2018/05/08T18:18:19|       27429.92|         21069330.99|         53700.14|
2018/05/08T18:18:20|       26850.88|         22279919.07|         54567.01|
2018/05/08T18:18:21|       26739.84|         26791980.93|         57733.94|
2018/05/08T18:18:22|       27965.35|         23139128.32|         56376.56|
2018/05/08T18:18:23|       27069.12|         23419530.49|         55636.39|
2018/05/08T18:18:24|       26673.94|         23162308.49|         54944.57|
2018/05/08T18:18:25|       27017.18|         25452696.54|         56837.47|
2018/05/08T18:18:26|       26997.55|         23615503.23|         57950.77|
2018/05/08T18:18:27|       26682.10|         23676174.74|         56671.10|
2018/05/08T18:18:28|       27305.23|         28012068.92|         59292.09|
2018/05/08T18:18:29|       26829.82|         22472450.37|         54533.62|
2018/05/08T18:18:30|       27050.95|         25050589.47|         57088.66|
2018/05/08T18:18:31|       26978.20|         25301757.94|         56263.58|
2018/05/08T18:18:32|       27144.02|         25662158.56|         55847.29|
2018/05/08T18:18:33|       26937.47|         29160785.41|         58020.11|
2018/05/08T18:18:34|       27170.72|         35927125.41|         64415.15|
2018/05/08T18:18:35|       26932.52|         40073528.95|         66542.01|
2018/05/08T18:18:36|       27178.49|         35726959.21|         63946.16|
2018/05/08T18:18:37|       27592.20|         37754843.81|         65586.13|
2018/05/08T18:18:38|       27020.95|         37702123.78|         64915.77|
2018/05/08T18:18:39|       27127.89|         37778108.59|         66740.76|
2018/05/08T18:18:40|       27543.31|         38054445.79|         67678.30|
2018/05/08T18:18:41|       26877.78|         38629346.12|         67730.80|
2018/05/08T18:18:42|       26715.68|         43150577.77|         70628.11|
2018/05/08T18:18:43|       29197.31|         36728248.64|         70170.08|
2018/05/08T18:18:44|       28013.79|         28147414.48|         59106.01|
2018/05/08T18:18:45|       26502.89|         22617220.98|         52488.41|
2018/05/08T18:18:46|       27049.48|         44280629.06|         67941.24|
2018/05/08T18:18:47|       26781.13|         72773847.92|         86851.29|
2018/05/08T18:18:48|       27056.04|         76521515.94|         89842.49|
2018/05/08T18:18:49|       27432.21|         78732808.04|         91803.77|
2018/05/08T18:18:50|       27660.52|         74418199.61|         88989.69|
2018/05/08T18:18:51|       26905.17|         74802773.15|         88683.85|
2018/05/08T18:18:52|       27106.58|         75435730.29|         89396.26|
2018/05/08T18:18:53|       27512.67|         75147388.41|         89640.40|
2018/05/08T18:18:54|       26789.69|         55921802.28|         76271.68|
2018/05/08T18:18:55|       27439.04|         25828102.43|         56260.06|
2018/05/08T18:18:56|       27434.74|         24194310.38|         54830.74|
2018/05/08T18:18:57|       26911.97|         22066637.45|         52455.23|
2018/05/08T18:18:58|       27160.75|         19783287.06|         51140.05|
2018/05/08T18:18:59|       26877.67|         21166960.12|         51883.29|
2018/05/08T18:19:00|       26795.17|         18220266.84|         49777.73|
2018/05/08T18:19:01|       27132.94|         19472512.30|         51062.82|
2018/05/08T18:19:02|       26745.20|         17677034.08|         49727.18|
2018/05/08T18:19:03|       27123.75|         18172781.46|         51047.76|
2018/05/08T18:19:04|       27271.29|         18276377.56|         51987.20|
2018/05/08T18:19:05|       27030.15|         23138080.49|         54948.34|
2018/05/08T18:19:06|       26812.47|         21387210.24|         53506.90|
2018/05/08T18:19:07|       27004.17|         18832371.67|         52113.32|
2018/05/08T18:19:08|       26909.28|         18519115.42|         51852.90|
2018/05/08T18:19:09|       26845.60|         21638337.13|         54479.99|
2018/05/08T18:19:10|       26712.27|         19524308.38|         55145.24|
2018/05/08T18:19:11|       26699.26|         18351198.74|         54384.14|
2018/05/08T18:19:12|       26865.50|         22981810.10|         57681.48|
2018/05/08T18:19:13|       27326.79|         18383134.94|         56227.61|
2018/05/08T18:19:14|       26797.31|         18440358.51|         56289.59|
2018/05/08T18:19:15|       27727.13|         18698436.69|         57499.74|
2018/05/08T18:19:16|       27126.66|         18958329.85|         57353.05|
2018/05/08T18:19:17|       26667.38|         19009351.72|         56785.97|
2018/05/08T18:19:18|       27080.72|         20640358.36|         57782.36|
2018/05/08T18:19:19|       27068.74|         23521816.29|         59893.42|
2018/05/08T18:19:20|       26716.38|         18021871.04|         55217.70|
2018/05/08T18:19:21|       27012.68|         20026320.05|         55532.70|
2018/05/08T18:19:22|       26890.99|         17346625.28|         52447.89|
2018/05/08T18:19:23|       26674.16|         16767784.18|         50902.00|
2018/05/08T18:19:24|       27203.46|         16708822.82|         51546.42|
2018/05/08T18:19:25|       27063.56|         16668292.02|         50607.44|
2018/05/08T18:19:26|       26741.40|         24369053.60|         55113.72|
2018/05/08T18:19:27|       26884.32|         19113720.31|         51949.32|
2018/05/08T18:19:28|       27313.85|         17190857.53|         50808.90|
2018/05/08T18:19:29|       26886.81|         18943836.06|         52082.52|
2018/05/08T18:19:30|       26832.29|         19522115.78|         52654.59|
2018/05/08T18:19:31|       26958.12|         19025148.19|         52211.30|
2018/05/08T18:19:32|       26728.29|         18384713.54|         51202.72|
2018/05/08T18:19:33|       26737.46|         23405042.78|         54943.16|
2018/05/08T18:19:34|       27288.45|         20386547.15|         53590.41|
2018/05/08T18:19:35|       26741.63|         20176396.47|         52668.20|
2018/05/08T18:19:36|       27291.29|         19665902.66|         52645.81|
2018/05/08T18:19:37|       27308.53|         19153246.81|         52156.10|
2018/05/08T18:19:38|       27065.32|         18887499.87|         51771.34|
2018/05/08T18:19:39|       26953.98|         18968965.35|         50110.22|
2018/05/08T18:19:40|       27682.19|         24449813.49|         54846.80|
2018/05/08T18:19:41|       26907.61|         19380560.29|         50599.96|
2018/05/08T18:19:42|       28872.90|         19198916.91|         52274.10|
2018/05/08T18:19:43|       27611.02|         18152474.79|         49998.92|
2018/05/08T18:19:44|       27142.62|         20250749.63|         51050.40|
2018/05/08T18:19:45|       27088.71|         18381522.52|         49601.80|
2018/05/08T18:19:46|       27305.11|         18407138.20|         49854.94|
2018/05/08T18:19:47|       26884.30|         22999966.84|         52592.23|
2018/05/08T18:19:48|       26926.50|         18247561.64|         49735.06|
2018/05/08T18:19:49|       27389.36|         18024625.77|         50318.07|
2018/05/08T18:19:50|       26924.22|         18052668.23|         49944.49|
2018/05/08T18:19:51|       26763.84|         18140185.60|         49777.83|
2018/05/08T18:19:52|       27120.18|         19029707.92|         51214.83|
2018/05/08T18:19:53|       26815.70|         19143003.66|         51806.09|
2018/05/08T18:19:54|       27096.26|         24344224.12|         55685.91|
2018/05/08T18:19:55|       26996.16|         21353653.59|         53781.67|
2018/05/08T18:19:56|       26602.27|         20649825.13|         53299.12|
2018/05/08T18:19:57|       27153.27|         22799314.25|         54898.80|
2018/05/08T18:19:58|       27261.80|         20304203.18|         53188.80|
2018/05/08T18:19:59|       26752.74|         23020388.16|         53919.17|
2018/05/08T18:20:00|       27058.45|         28576637.79|         57900.34|
2018/05/08T18:20:01|       27105.34|         26176416.91|         58917.79|
2018/05/08T18:20:02|       27044.69|         31423497.95|         62504.71|
2018/05/08T18:20:03|       26998.69|         28314892.51|         58450.47|
2018/05/08T18:20:04|       27258.13|         27931384.12|         58105.44|
2018/05/08T18:20:05|       26850.02|         27754094.59|         57329.84|
2018/05/08T18:20:06|       26501.12|         27158468.82|         56488.49|
2018/05/08T18:20:07|       26874.75|         31333538.34|         59902.94|
2018/05/08T18:20:08|       26813.88|         29289788.96|         58380.55|
2018/05/08T18:20:09|       26792.89|         32304298.19|         60474.57|
2018/05/08T18:20:10|       27293.20|         28507630.28|         58763.07|
2018/05/08T18:20:11|       26509.90|         25754144.53|         56163.25|
2018/05/08T18:20:12|       26620.10|         23334193.39|         54280.95|
2018/05/08T18:20:13|       28797.14|         18135669.52|         51121.21|
2018/05/08T18:20:14|       26948.73|         19350486.53|         50549.12|
2018/05/08T18:20:15|       26578.85|         20626393.62|         51057.76|
2018/05/08T18:20:16|       27067.16|         21360311.34|         51707.04|
2018/05/08T18:20:17|       26570.68|         20853339.55|         50915.63|
2018/05/08T18:20:18|       26877.76|         18368566.27|         49282.75|
2018/05/08T18:20:19|       27194.48|         18549621.92|         50945.61|
2018/05/08T18:20:20|       26596.55|         18417548.85|         50253.39|
2018/05/08T18:20:21|       26523.63|         18179311.12|         49014.27|
2018/05/08T18:20:22|       27042.31|         19271608.71|         50446.96|
2018/05/08T18:20:23|       26703.75|         22826756.11|         52435.18|
2018/05/08T18:20:24|       26659.47|         23378912.27|         52836.59|
2018/05/08T18:20:25|       27186.48|         19503539.91|         50485.05|
2018/05/08T18:20:26|       26771.10|         21855669.47|         51937.57|
2018/05/08T18:20:27|       26996.56|         24014833.50|         54110.93|
2018/05/08T18:20:28|       27017.67|         24668712.77|         54592.09|
2018/05/08T18:20:29|       26772.61|         23734232.46|         53680.87|
2018/05/08T18:20:30|       26600.36|         24040392.13|         53742.29|
2018/05/08T18:20:31|       27037.21|         30101468.38|         58273.93|
2018/05/08T18:20:32|       26875.39|         24269749.94|         54288.10|
2018/05/08T18:20:33|       26937.47|         24128572.12|         54981.42|
2018/05/08T18:20:34|       26983.20|         24092734.02|         56009.20|
2018/05/08T18:20:35|       26901.87|         23780787.97|         55736.13|
2018/05/08T18:20:36|       26771.17|         24577170.22|         56350.29|
2018/05/08T18:20:37|       26670.71|         24620875.26|         56130.05|
2018/05/08T18:20:38|       26945.78|         19038416.80|         52002.67|
2018/05/08T18:20:39|       26816.92|         19650702.01|         52651.73|
2018/05/08T18:20:40|       27055.03|         20747504.82|         54307.37|
2018/05/08T18:20:41|       26520.06|         20360664.95|         53464.70|
2018/05/08T18:20:42|       26846.31|         22618027.68|         55951.31|
2018/05/08T18:20:43|       27046.67|         21897005.21|         57842.94|
2018/05/08T18:20:44|       26910.79|         21145371.09|         57276.11|
2018/05/08T18:20:45|       26787.65|         25873662.52|         60425.48|
2018/05/08T18:20:46|       26855.03|         20566468.92|         56181.00|
2018/05/08T18:20:47|       26881.88|         20828393.49|         56153.60|
2018/05/08T18:20:48|       26925.57|         20896910.85|         55018.20|
2018/05/08T18:20:49|       26963.85|         20803273.52|         53618.21|
2018/05/08T18:20:50|       26972.05|         21453290.20|         54495.93|
2018/05/08T18:20:51|       26655.04|         20462004.51|         51631.92|
2018/05/08T18:20:52|       26892.86|         24953761.75|         56145.14|
2018/05/08T18:20:53|       26731.60|         20627095.91|         51159.43|
2018/05/08T18:20:54|       26854.45|         21023697.36|         51580.06|
2018/05/08T18:20:55|       27017.87|         23805414.41|         53596.64|
2018/05/08T18:20:56|       27288.11|         20789562.47|         51906.16|
2018/05/08T18:20:57|       26654.35|         19574166.16|         50440.07|
2018/05/08T18:20:58|       27017.52|         19298585.82|         50600.95|
2018/05/08T18:20:59|       26894.01|         30785764.29|         58256.18|
2018/05/08T18:21:00|       26906.21|         21287633.64|         51775.82|
2018/05/08T18:21:01|       27046.73|         21579414.15|         52185.03|
2018/05/08T18:21:02|       26994.84|         21499704.81|         52167.68|
2018/05/08T18:21:03|       26893.89|         21821669.74|         52078.87|
2018/05/08T18:21:04|       27113.39|         21792250.16|         52335.48|
2018/05/08T18:21:05|       26698.75|         25104102.63|         54541.79|
2018/05/08T18:21:06|       26735.44|         25645416.78|         54783.26|
2018/05/08T18:21:07|       27267.66|         22234296.24|         53076.73|
2018/05/08T18:21:08|       26950.20|         21902255.97|         52675.80|
2018/05/08T18:21:09|       26759.81|         22454519.36|         52238.56|
2018/05/08T18:21:10|       27145.52|         26159490.22|         55101.10|
2018/05/08T18:21:11|       27019.20|         22533006.59|         52822.26|
2018/05/08T18:21:12|       26760.93|         21460384.73|         51864.01|
2018/05/08T18:21:13|       27159.11|         26915626.80|         55961.80|
2018/05/08T18:21:14|       26848.68|         21672815.87|         52209.97|
2018/05/08T18:21:15|       26502.24|         22885787.22|         52700.23|
2018/05/08T18:21:16|       26969.94|         24045323.73|         53874.50|
2018/05/08T18:21:17|       26473.17|         24053002.48|         53632.38|
2018/05/08T18:21:18|       26933.06|         24192649.89|         54097.88|
2018/05/08T18:21:19|       27056.99|         24318815.64|         54247.19|
2018/05/08T18:21:20|       26674.94|         24008993.35|         53562.17|
2018/05/08T18:21:21|       26821.52|         26786325.79|         55232.84|
2018/05/08T18:21:22|       26776.42|         30007239.22|         57452.69|
2018/05/08T18:21:23|       27234.98|         28554380.09|         56834.45|
2018/05/08T18:21:24|       26638.04|         25381227.46|         54174.24|
2018/05/08T18:21:25|       27139.85|         26884746.43|         55702.58|
2018/05/08T18:21:26|       26937.47|         28120004.64|         56972.52|
2018/05/08T18:21:27|       26644.43|         90978624.79|         99136.80|
2018/05/08T18:21:28|       27019.17|         87630831.51|         97426.35|
2018/05/08T18:21:29|       26741.56|        101748566.99|        106718.95|
2018/05/08T18:21:30|       26910.02|        100497025.37|        105736.17|
2018/05/08T18:21:31|       26948.63|         95574853.08|        102757.01|
2018/05/08T18:21:32|       26299.71|         68007308.04|         83624.19|
2018/05/08T18:21:33|       26537.14|         21404775.78|         51974.70|
2018/05/08T18:21:34|       26876.91|         20787454.95|         52128.96|
2018/05/08T18:21:35|       26314.54|         23218480.84|         53593.07|
2018/05/08T18:21:36|       26097.62|         24314248.56|         54245.92|
2018/05/08T18:21:37|       27058.84|         20930888.33|         52804.53|
2018/05/08T18:21:38|       26323.07|         20545682.03|         51580.16|
2018/05/08T18:21:39|       26682.48|         21245518.03|         52386.85|
2018/05/08T18:21:40|       26817.42|         20084694.15|         51779.46|
2018/05/08T18:21:41|       26680.72|         19613788.59|         51172.28|
2018/05/08T18:21:42|       26359.62|         19219482.79|         50508.71|
2018/05/08T18:21:43|       27188.37|         22583388.25|         53759.62|
2018/05/08T18:21:44|       26768.09|         19544322.49|         50682.82|
2018/05/08T18:21:45|       26824.41|         19502057.63|         50529.74|
2018/05/08T18:21:46|       26876.40|         19446446.18|         50872.16|
2018/05/08T18:21:47|       26632.07|         20537219.52|         51405.34|
2018/05/08T18:21:48|       26636.21|         19438552.06|         50652.92|
2018/05/08T18:21:49|       26939.90|         19633014.99|         51458.99|
2018/05/08T18:21:50|       26540.45|         19484802.74|         52261.94|
2018/05/08T18:21:51|       26507.95|         19072310.50|         51948.92|
2018/05/08T18:21:52|       27206.59|         18995396.02|         51251.20|
2018/05/08T18:21:53|       26754.28|         19405357.63|         50929.17|
2018/05/08T18:21:54|       26609.63|         19642790.10|         50856.00|
2018/05/08T18:21:55|       26810.22|         18856497.58|         50859.91|
2018/05/08T18:21:56|       26516.54|         19092684.37|         50635.78|
2018/05/08T18:21:57|       26419.88|         19710428.49|         50842.98|
2018/05/08T18:21:58|       26775.07|         20133464.92|         51512.92|
2018/05/08T18:21:59|       26495.92|         20178108.85|         51239.03|
2018/05/08T18:22:00|       26732.69|         19567963.75|         51092.48|
2018/05/08T18:22:01|       26760.52|         17998532.53|         50006.15|
2018/05/08T18:22:02|       26516.78|         19683982.16|         51984.43|
2018/05/08T18:22:03|       26665.00|         19904027.48|         52370.06|
2018/05/08T18:22:04|       27095.95|         21916589.36|         53960.37|
2018/05/08T18:22:05|       26656.91|         20015928.90|         51895.61|
2018/05/08T18:22:06|       26612.92|         23154322.74|         53837.97|
2018/05/08T18:22:07|       26755.64|         28387641.32|         57516.75|
2018/05/08T18:22:08|       26599.10|         22633717.04|         53760.95|
2018/05/08T18:22:09|       26418.50|         29785198.70|         58313.64|
2018/05/08T18:22:10|       26851.30|         28593303.28|         57774.34|
2018/05/08T18:22:11|       26591.87|         30622453.57|         58941.67|
2018/05/08T18:22:12|       26362.94|         27858765.87|         56780.88|
2018/05/08T18:22:13|       27085.35|         27386360.40|         57152.10|
2018/05/08T18:22:14|       26653.79|         27278861.87|         56980.85|
2018/05/08T18:22:15|       26650.03|         30824798.35|         59255.20|
2018/05/08T18:22:16|       26991.91|         27987407.33|         57693.02|
2018/05/08T18:22:17|       26499.21|         26746391.46|         55518.44|
2018/05/08T18:22:18|       26585.61|         26079854.24|         55134.64|
2018/05/08T18:22:19|       27062.48|         26265093.80|         56018.31|
2018/05/08T18:22:20|       27195.71|         28238864.42|         58187.59|
2018/05/08T18:22:21|       26382.81|         28307967.40|         57107.20|
2018/05/08T18:22:22|       26986.81|         25214163.97|         55976.19|
2018/05/08T18:22:23|       26786.13|         24722447.87|         55589.99|
2018/05/08T18:22:24|       26489.35|         24984789.66|         55474.97|
2018/05/08T18:22:25|       26806.01|         25181695.39|         55889.29|
2018/05/08T18:22:26|       26801.44|         25293419.93|         56005.50|
2018/05/08T18:22:27|       26373.50|         25810542.44|         56126.80|
2018/05/08T18:22:28|       27075.56|         28389125.02|         58520.12|
2018/05/08T18:22:29|       26802.28|         42305930.62|         66732.49|
2018/05/08T18:22:30|       26646.32|         42156557.21|         66408.87|
2018/05/08T18:22:31|       26880.28|         39187491.55|         64735.61|
2018/05/08T18:22:32|       26404.24|         26089602.06|         56170.59|
2018/05/08T18:22:33|       26508.89|         25900132.28|         55363.83|
2018/05/08T18:22:34|       26833.83|         25376038.20|         55123.13|
2018/05/08T18:22:35|       26576.80|         25314589.22|         54819.34|
2018/05/08T18:22:36|       27047.92|         24204230.41|         54621.60|
2018/05/08T18:22:37|       26924.12|         24230199.24|         54398.62|
2018/05/08T18:22:38|       26945.17|         29014964.63|         57336.37|
2018/05/08T18:22:39|       27004.77|         24604180.44|         54356.30|
2018/05/08T18:22:40|       26607.24|         24254457.23|         53840.20|
2018/05/08T18:22:41|       26627.50|         23482404.14|         53010.90|
2018/05/08T18:22:42|       26735.83|         23394085.97|         53085.83|
2018/05/08T18:22:43|       26791.95|         23489147.34|         53424.23|
2018/05/08T18:22:44|       26708.80|         23415308.52|         53424.72|
2018/05/08T18:22:45|       26647.87|         24114514.11|         53630.26|
2018/05/08T18:22:46|       26611.78|         24008935.76|         53393.77|
2018/05/08T18:22:47|       26356.35|         24423544.49|         53174.59|
2018/05/08T18:22:48|       26676.21|         24600153.86|         53829.81|
2018/05/08T18:22:49|       26779.35|         23492155.38|         53161.86|
2018/05/08T18:22:50|       26755.91|         22395024.37|         52603.92|
2018/05/08T18:22:51|       27243.72|         20531338.41|         51815.31|
2018/05/08T18:22:52|       26787.20|         20706699.23|         51470.18|
2018/05/08T18:22:53|       26696.14|         21473934.97|         51778.81|
2018/05/08T18:22:54|       26770.94|         21422259.12|         51740.48|
2018/05/08T18:22:55|       26649.09|         23483197.64|         53028.74|
2018/05/08T18:22:56|       26701.77|         40083855.43|         64452.89|
2018/05/08T18:22:57|       26646.36|         43667345.56|         66940.75|
2018/05/08T18:22:58|       26692.21|         32370749.34|         59054.14|
2018/05/08T18:22:59|       26632.85|         22180306.99|         52024.03|
2018/05/08T18:23:00|       26768.44|         28892187.37|         56799.11|
2018/05/08T18:23:01|       27031.64|         24494704.51|         54254.61|
2018/05/08T18:23:02|       26555.51|         22164783.00|         52241.12|
2018/05/08T18:23:03|       26663.00|         24156738.02|         53773.17|
2018/05/08T18:23:04|       26791.11|         24379243.40|         53895.23|
2018/05/08T18:23:05|       26594.25|         23664763.18|         53337.33|
2018/05/08T18:23:06|       26530.49|         21712627.99|         51839.82|
2018/05/08T18:23:07|       26768.85|         21195854.72|         51763.24|
2018/05/08T18:23:08|       26502.47|         21171373.29|         51321.16|
2018/05/08T18:23:09|       26596.50|         18178206.66|         49397.45|
2018/05/08T18:23:10|       26631.71|         18370661.40|         49486.19|
2018/05/08T18:23:11|       26474.15|         21347609.10|         51632.30|
2018/05/08T18:23:12|       26445.44|         23092935.87|         53829.51|
2018/05/08T18:23:13|       26810.99|         23625775.60|         54608.78|
2018/05/08T18:23:14|       26859.71|         23717553.75|         54655.01|
2018/05/08T18:23:15|       32247.25|         24626915.11|         60619.07|
2018/05/08T18:23:16|       31713.18|         23548308.48|         59106.16|
2018/05/08T18:23:17|       30790.26|         41471007.74|         69590.24|
2018/05/08T18:23:18|       30853.83|         73632363.00|         91088.27|
2018/05/08T18:23:19|       26997.42|         79797854.25|         91499.85|
2018/05/08T18:23:20|       26664.44|         91762969.58|         99204.76|
2018/05/08T18:23:21|       26892.96|         61003778.72|         78554.80|
2018/05/08T18:23:22|       28172.33|         27028358.32|         57956.90|
2018/05/08T18:23:23|       26766.16|         21885831.95|         53465.79|
2018/05/08T18:23:24|       26809.28|         21802749.81|         52151.62|
2018/05/08T18:23:25|       27042.01|         19262599.31|         50705.25|
2018/05/08T18:23:26|       26873.99|         19016173.89|         50571.92|
2018/05/08T18:23:27|       26742.39|         22668494.64|         57938.32|
2018/05/08T18:23:28|       27177.74|         20134662.38|         59080.18|
2018/05/08T18:23:29|       26722.21|         22381871.40|         59324.09|
2018/05/08T18:23:30|       26687.51|         21248167.46|         58384.29|
2018/05/08T18:23:31|       26961.84|         19672705.10|         57595.39|
2018/05/08T18:23:32|       26618.18|         20616685.29|         58285.15|
2018/05/08T18:23:33|       26579.75|         20484435.20|         58539.67|
2018/05/08T18:23:34|       27161.57|         20825752.88|         59105.42|
2018/05/08T18:23:35|       26827.92|         19959586.27|         58122.60|
2018/05/08T18:23:36|       26944.51|         20407466.06|         58668.68|
2018/05/08T18:23:37|       27097.81|         24769363.60|         61568.47|
2018/05/08T18:23:38|       27008.12|         20008673.01|         58230.44|
2018/05/08T18:23:39|       26697.73|         20210561.69|         58050.86|
2018/05/08T18:23:40|       27446.60|         20199439.23|         58830.50|
2018/05/08T18:23:41|       26942.75|         19824096.65|         57906.66|
2018/05/08T18:23:42|       27189.75|         20416563.66|         58784.05|
2018/05/08T18:23:43|       27025.15|         19770030.03|         57930.22|
2018/05/08T18:23:44|       26932.00|         24079328.60|         53994.18|
2018/05/08T18:23:45|       27304.88|         19628707.53|         51305.81|
2018/05/08T18:23:46|       27047.71|         19957826.83|         51413.65|
2018/05/08T18:23:47|       26874.09|         20018779.54|         51615.30|
2018/05/08T18:23:48|       26684.04|         20261883.43|         51280.42|
2018/05/08T18:23:49|       27401.58|         20655439.58|         52091.24|
2018/05/08T18:23:50|       27005.91|         20183668.68|         51678.65|
2018/05/08T18:23:51|       26745.84|         25576382.09|         55284.84|
2018/05/08T18:23:52|       26908.19|         20213591.09|         51451.86|
2018/05/08T18:23:53|       26984.21|         22698111.49|         53231.16|
2018/05/08T18:23:54|       26568.29|         19967420.77|         51004.81|
2018/05/08T18:23:55|       27215.37|         22361710.28|         52913.70|
2018/05/08T18:23:56|       26930.67|         19682545.26|         50954.27|
2018/05/08T18:23:57|       26390.52|         21022758.80|         51222.46|
2018/05/08T18:23:58|       27044.99|         27079174.93|         55765.39|
2018/05/08T18:23:59|       26666.80|         23410294.68|         52952.97|
2018/05/08T18:24:00|       26852.07|         22358992.27|         52551.70|
2018/05/08T18:24:01|       27210.79|         22834943.76|         53073.14|
2018/05/08T18:24:02|       26602.95|         24048079.44|         53230.19|
2018/05/08T18:24:03|       26790.28|         22748573.03|         52673.31|
2018/05/08T18:24:04|       27106.26|         24517602.91|         54514.00|
2018/05/08T18:24:05|       26971.25|         27161528.60|         56135.17|
2018/05/08T18:24:06|       26789.41|         22050338.47|         52370.07|
2018/05/08T18:24:07|       26716.93|         22384668.63|         52593.18|
2018/05/08T18:24:08|       26640.48|         21840504.04|         51976.36|
2018/05/08T18:24:09|       26865.67|         30264711.54|         57282.27|
2018/05/08T18:24:10|       27249.77|         33610693.45|         59552.36|
2018/05/08T18:24:11|       26938.03|         34106339.59|         59728.77|
2018/05/08T18:24:12|       26247.42|         40345909.43|         63300.10|
2018/05/08T18:24:13|       27016.27|         35011586.39|         60458.46|
2018/05/08T18:24:14|       27100.79|         23030607.09|         53120.61|
2018/05/08T18:24:15|       26717.13|         23173787.59|         52875.27|
2018/05/08T18:24:16|       27226.94|         28874991.92|         57566.04|
2018/05/08T18:24:17|       26716.69|         34901016.20|         61403.82|
2018/05/08T18:24:18|       27132.11|         34805740.13|         61812.91|
2018/05/08T18:24:19|       26951.86|         39597692.39|         64792.49|
2018/05/08T18:24:20|       28043.64|         26097313.81|         56707.12|
2018/05/08T18:24:21|       26649.05|         45859819.76|         66035.05|
2018/05/08T18:24:22|       26798.27|         42985980.05|         64315.45|
2018/05/08T18:24:23|       26892.14|         31998846.38|         58467.81|
2018/05/08T18:24:24|       26854.48|         24743155.81|         54627.33|
2018/05/08T18:24:25|       27049.99|         26404369.82|         55949.93|
2018/05/08T18:24:26|       26956.28|         27872465.44|         67819.02|
2018/05/08T18:24:27|       26540.03|         24699734.65|         54886.24|
2018/05/08T18:24:28|       26856.45|         24538004.17|         54909.91|
2018/05/08T18:24:29|       27308.49|         28396930.56|         57121.12|
2018/05/08T18:24:30|       26553.28|         42789496.41|         63690.34|
2018/05/08T18:24:31|       27177.33|         43015663.30|         64123.50|
2018/05/08T18:24:32|       26877.87|         29746214.23|         57250.78|
2018/05/08T18:24:33|       26491.22|         28035134.96|         56591.05|
2018/05/08T18:24:34|       27311.33|         38016066.45|         64407.25|
2018/05/08T18:24:35|       26909.07|         39507554.50|         65012.04|
2018/05/08T18:24:36|       26590.80|         35014385.58|         61422.52|
2018/05/08T18:24:37|       27196.42|         25414672.73|         55791.89|
2018/05/08T18:24:38|       26850.44|         26568812.62|         55955.47|
2018/05/08T18:24:39|       27780.96|         31847518.92|         59601.86|
2018/05/08T18:24:40|       26692.64|         33208875.52|         59428.72|
2018/05/08T18:24:41|       26961.35|         31109550.16|         57737.23|
2018/05/08T18:24:42|       26555.27|         37174284.19|         61071.66|
2018/05/08T18:24:43|       26833.26|         30461578.86|         56567.10|
2018/05/08T18:24:44|       27042.13|         43841377.91|         66188.90|
2018/05/08T18:24:45|       27061.44|         56162985.39|         77304.85|
2018/05/08T18:24:46|       26340.69|         47477336.93|         70536.39|
2018/05/08T18:24:47|       21013.99|         52198473.49|         68956.42|
2018/05/08T18:24:48|       20563.34|         48985788.56|         66187.41|
2018/05/08T18:24:49|       20560.43|         48016050.41|         65297.84|
2018/05/08T18:24:50|       21095.87|         48614838.31|         65900.98|
2018/05/08T18:24:51|       20606.58|         47457891.48|         64609.68|
2018/05/08T18:24:52|       20543.28|         56438960.43|         70801.27|
2018/05/08T18:24:53|       20781.70|         55170517.51|         70238.69|
2018/05/08T18:24:54|       20410.03|         59611858.29|         72963.14|
2018/05/08T18:24:55|       22360.12|         57505283.49|         73450.12|
2018/05/08T18:24:56|       69087.81|         54171812.33|        118030.90|
2018/05/08T18:24:57|       24345.82|         48792084.63|         69403.60|
2018/05/08T18:24:58|       25320.75|         53103464.88|         73024.36|
2018/05/08T18:24:59|       41924.28|         54314359.58|         90178.70|
2018/05/08T18:25:00|       24895.56|         59659005.41|         77049.40|
2018/05/08T18:25:01|       26225.69|         47610831.25|         70163.17|
2018/05/08T18:25:02|       35222.03|         37658468.05|         72075.58|
2018/05/08T18:25:03|       25017.74|         39777382.60|         63440.16|
2018/05/08T18:25:04|       26219.25|         35785179.72|         61618.69|
2018/05/08T18:25:05|       33033.73|         34816018.14|         67483.96|
2018/05/08T18:25:06|       25726.12|         36292881.81|         61328.39|
2018/05/08T18:25:07|       26358.31|         39190834.52|         63852.11|
2018/05/08T18:25:08|       32195.27|         33810289.50|         65609.04|
2018/05/08T18:25:09|       25814.00|         25535878.18|         52746.52|
2018/05/08T18:25:10|       26366.22|         27572295.05|         54569.16|
2018/05/08T18:25:11|       30423.44|         31826440.80|         62053.52|
2018/05/08T18:25:12|       26081.77|         41506711.56|         65292.61|
2018/05/08T18:25:13|       26754.06|         40037746.52|         64977.51|
2018/05/08T18:25:14|       29967.98|         33224057.35|         63565.58|
2018/05/08T18:25:15|       25848.54|         27214475.18|         54719.52|
2018/05/08T18:25:16|       27078.15|         39832767.58|         65058.39|
2018/05/08T18:25:17|       29114.16|         37759476.81|         65893.88|
2018/05/08T18:25:18|       26035.82|         31040319.80|         57921.21|
2018/05/08T18:25:19|       26629.55|         32233918.23|         59014.10|
2018/05/08T18:25:20|       28580.54|         39602755.49|         66542.51|
2018/05/08T18:25:21|       27065.43|         34230140.82|         61660.44|
2018/05/08T18:25:22|       26938.82|         33197671.11|         60434.60|
2018/05/08T18:25:23|       28191.57|         35452555.54|         62753.50|
2018/05/08T18:25:24|       25875.99|         30048925.17|         56277.53|
2018/05/08T18:25:25|       27212.40|         32403157.55|         59429.34|
2018/05/08T18:25:26|       28547.37|         33772300.17|         61766.93|
2018/05/08T18:25:27|       26504.45|         35858924.46|         61483.74|
2018/05/08T18:25:28|       26823.02|         39467667.42|         64509.26|
2018/05/08T18:25:29|       28619.94|         44224198.27|         69832.23|
2018/05/08T18:25:30|       26521.53|         46498815.73|         69790.32|
2018/05/08T18:25:31|       28218.01|         47406548.97|         74017.30|
2018/05/08T18:25:32|       27633.71|         49189531.36|         72694.40|
2018/05/08T18:25:33|       26936.93|         47939913.33|         71183.80|
2018/05/08T18:25:34|       26920.30|         49092557.64|         71899.50|
2018/05/08T18:25:35|       28657.41|         47867258.58|         72983.45|
2018/05/08T18:25:36|       26796.84|         50605464.63|         73189.79|
2018/05/08T18:25:37|       27185.98|         46862506.24|         70928.81|
2018/05/08T18:25:38|       27570.44|         54048449.83|         76468.91|
2018/05/08T18:25:39|       26500.75|         64892610.20|         84445.81|
2018/05/08T18:25:40|       27320.93|         61828765.61|         82971.00|
2018/05/08T18:25:41|       27351.46|         62340066.09|         83412.80|
2018/05/08T18:25:42|       27312.31|         63313042.07|         83939.38|
2018/05/08T18:25:43|       27617.74|         65213477.99|         85661.30|
2018/05/08T18:25:44|       27240.46|         62216742.26|         83286.40|
2018/05/08T18:25:45|       27132.08|         65916446.45|         85638.97|
2018/05/08T18:25:46|       27579.33|         63225714.41|         84307.01|
2018/05/08T18:25:47|       26905.43|         62897508.63|         83514.11|
2018/05/08T18:25:48|       26611.89|         63142023.84|         83594.73|
2018/05/08T18:25:49|       27175.07|         66857885.94|         87659.95|
2018/05/08T18:25:50|       26828.55|         34687134.22|         63300.36|
2018/05/08T18:25:51|       27044.80|         33515928.81|         62754.20|
2018/05/08T18:25:52|       27150.25|         32763354.57|         62491.49|
2018/05/08T18:25:53|       26733.46|         34098251.18|         63214.97|
2018/05/08T18:25:54|       26566.77|         32126671.76|         61641.31|
2018/05/08T18:25:55|       27324.02|         32235040.51|         62575.85|
2018/05/08T18:25:56|       28570.14|         39981769.57|         72638.63|
2018/05/08T18:25:57|       26880.47|         33037193.91|         63164.10|
2018/05/08T18:25:58|       28418.70|         32831406.09|         65154.57|
2018/05/08T18:25:59|       26966.70|         31641059.06|         63425.87|
2018/05/08T18:26:00|       27071.58|         31492656.09|         63847.36|
2018/05/08T18:26:01|       27703.82|         30015997.53|         63693.39|
2018/05/08T18:26:02|       27194.23|         29757552.54|         64022.02|
2018/05/08T18:26:03|       26552.92|         35612524.84|         67402.56|
2018/05/08T18:26:04|       27337.77|         30706008.57|         64912.16|
2018/05/08T18:26:05|       26789.16|         22419073.48|         56984.56|
2018/05/08T18:26:06|       26965.65|         22710349.78|         56512.27|
2018/05/08T18:26:07|       27204.17|         20364985.40|         54836.69|
2018/05/08T18:26:08|       26978.89|         21889026.57|         55564.56|
2018/05/08T18:26:09|       26449.32|         22529064.49|         55422.50|
2018/05/08T18:26:10|       27395.75|         27128232.47|         59747.15|
2018/05/08T18:26:11|       26968.88|         23156632.47|         56690.72|
2018/05/08T18:26:12|       26580.85|         22280091.03|         55910.38|
2018/05/08T18:26:13|       27746.72|         24235854.01|         61904.66|
2018/05/08T18:26:14|       26999.84|         22702268.03|         56858.41|
2018/05/08T18:26:15|       26577.93|         22152786.90|         56410.75|
2018/05/08T18:26:16|       27888.70|         20502207.66|         56734.56|
2018/05/08T18:26:17|       26798.56|         27440181.36|         60516.25|
2018/05/08T18:26:18|       26439.51|         23800893.72|         57651.82|
2018/05/08T18:26:19|       27195.15|         25198866.18|         59325.40|
2018/05/08T18:26:20|       27113.90|         26524169.70|         60066.07|
2018/05/08T18:26:21|       26711.31|         27135316.20|         59999.88|
2018/05/08T18:26:22|       27105.93|         27028460.33|         60463.32|
2018/05/08T18:26:23|       26795.55|         27676368.67|         59927.28|
2018/05/08T18:26:24|       26514.96|         25665960.84|         57556.02|
2018/05/08T18:26:25|       27293.62|         22283744.23|         55846.44|
2018/05/08T18:26:26|       27296.95|         22923968.32|         56376.01|
2018/05/08T18:26:27|       26729.06|         20552278.31|         53412.53|
2018/05/08T18:26:28|       26633.00|         20803321.11|         53004.31|
2018/05/08T18:26:29|       26878.16|         20797029.71|         52870.19|
2018/05/08T18:26:30|       26513.42|         21648202.81|         54515.24|
2018/05/08T18:26:31|       27492.09|         27879216.63|         57706.57|
2018/05/08T18:26:32|       26977.71|         20806093.63|         51810.04|
2018/05/08T18:26:33|       26508.46|         22199357.58|         52712.90|
2018/05/08T18:26:34|       27061.36|         22571025.07|         53727.53|
2018/05/08T18:26:35|       27174.32|         22525570.57|         53853.87|
2018/05/08T18:26:36|       26373.41|         25197401.80|         55332.87|
2018/05/08T18:26:37|       27133.85|         22651698.27|         55138.45|
2018/05/08T18:26:38|       26556.15|         27382454.11|         57747.11|
2018/05/08T18:26:39|       26499.84|         26140327.67|         56252.42|
2018/05/08T18:26:40|       26988.54|         27498142.34|         57536.12|
2018/05/08T18:26:41|       27149.71|         24277083.65|         55387.26|
2018/05/08T18:26:42|       26626.09|         23785239.85|         54500.79|
2018/05/08T18:26:43|       27069.36|         22790303.47|         54007.57|
2018/05/08T18:26:44|       27050.45|         23133859.09|         54191.50|
2018/05/08T18:26:45|       26575.83|         24232962.83|         54148.74|
2018/05/08T18:26:46|       27196.76|         20246359.80|         51654.63|
2018/05/08T18:26:47|       26796.56|         19873251.89|         50907.67|
2018/05/08T18:26:48|       26280.76|         19680949.01|         50501.28|
2018/05/08T18:26:49|       27384.99|         20056533.44|         51757.86|
2018/05/08T18:26:50|       27096.63|         19879449.56|         51393.52|
2018/05/08T18:26:51|       26708.42|         20653717.25|         51363.88|
2018/05/08T18:26:52|       26743.28|         27763353.73|         56241.43|
2018/05/08T18:26:53|       27619.45|         27538152.63|         57072.94|
2018/05/08T18:26:54|       26679.37|         27574642.29|         56130.50|
2018/05/08T18:26:55|       27182.89|         27458436.46|         56542.50|
2018/05/08T18:26:56|       27036.46|         26931294.55|         56613.34|
2018/05/08T18:26:57|       26351.72|         24074638.83|         54138.84|
2018/05/08T18:26:58|       26980.54|         24300685.91|         54973.75|
2018/05/08T18:26:59|       26940.72|         28961544.02|         57095.98|
2018/05/08T18:27:00|       26499.76|         23599806.25|         52953.27|
2018/05/08T18:27:01|       27382.44|         24506772.12|         54452.85|
2018/05/08T18:27:02|       27901.90|         27507202.59|         57169.86|
2018/05/08T18:27:03|       26184.41|         27749296.28|         55757.32|
2018/05/08T18:27:04|       27302.77|         24443757.16|         54519.26|
2018/05/08T18:27:05|       26858.35|         26747218.78|         55673.02|
2018/05/08T18:27:06|       26609.56|         23557711.04|         53178.78|
2018/05/08T18:27:07|       26911.18|         27637913.88|         56298.88|
2018/05/08T18:27:08|       26631.30|         24392508.37|         53774.14|
2018/05/08T18:27:09|       26357.94|         24285894.03|         53440.03|
2018/05/08T18:27:10|       26927.58|         24403870.04|         54168.56|
2018/05/08T18:27:11|       27091.52|         24970977.14|         54222.52|
2018/05/08T18:27:12|       26676.25|         25269949.71|         54001.58|
2018/05/08T18:27:13|       26802.48|         30615470.25|         58264.72|
2018/05/08T18:27:14|       27353.52|         25325898.45|         55112.21|
2018/05/08T18:27:15|       26738.91|         24768901.45|         54228.86|
2018/05/08T18:27:16|       27487.40|         26175506.53|         55969.49|
2018/05/08T18:27:17|       27227.57|         26024038.82|         55422.08|
2018/05/08T18:27:18|       26523.50|         24729273.64|         53962.02|
2018/05/08T18:27:19|       27037.97|         27353446.76|         56058.45|
2018/05/08T18:27:20|       26834.31|         28079473.68|         56402.00|
2018/05/08T18:27:21|       26453.82|         28866778.88|         56707.19|
2018/05/08T18:27:22|       27404.39|         24666761.38|         54606.73|
2018/05/08T18:27:23|       26873.26|         24197568.55|         53781.67|
2018/05/08T18:27:24|       26597.89|         24105614.42|         53527.31|
2018/05/08T18:27:25|       27240.31|         23809313.94|         53968.55|
2018/05/08T18:27:26|       27108.77|         23293846.20|         53430.44|
2018/05/08T18:27:27|       27228.36|         23586886.30|         53871.99|
2018/05/08T18:27:28|       27056.15|         27064238.45|         65037.23|
2018/05/08T18:27:29|       26843.95|         30344172.15|         67128.81|
2018/05/08T18:27:30|       26695.77|         26060285.68|         63861.47|
2018/05/08T18:27:31|       27340.36|         26163473.36|         64645.31|
2018/05/08T18:27:32|       27116.13|         25976521.60|         64131.17|
2018/05/08T18:27:33|       26032.37|         30787476.52|         66169.25|
2018/05/08T18:27:34|       26969.39|         25575946.09|         63635.86|
2018/05/08T18:27:35|       27309.70|         27072512.80|         65057.86|
2018/05/08T18:27:36|       26606.26|         30042393.95|         66469.54|
2018/05/08T18:27:37|       27085.53|         26621350.40|         65096.02|
2018/05/08T18:27:38|       26822.66|         26583985.40|         64556.55|
2018/05/08T18:27:39|       26273.23|         26450173.03|         63581.80|
2018/05/08T18:27:40|       26964.37|         27223908.01|         64726.55|
2018/05/08T18:27:41|       26664.14|         25221358.54|         63055.80|
2018/05/08T18:27:42|       26710.06|         25012254.02|         63060.08|
2018/05/08T18:27:43|       26715.66|         30324004.33|         67143.84|
2018/05/08T18:27:44|       26702.45|         25191640.45|         63978.56|
2018/05/08T18:27:45|       27419.37|         25215060.77|         64882.50|
2018/05/08T18:27:46|       26910.20|         25901679.38|         64728.87|
2018/05/08T18:27:47|       26780.24|         25508515.07|         64268.83|
2018/05/08T18:27:48|       26393.67|         22239328.46|         61694.38|
2018/05/08T18:27:49|       26807.51|         20133450.03|         60727.99|
2018/05/08T18:27:50|       26768.01|         22283360.02|         62283.48|
2018/05/08T18:27:51|       26427.32|         23091721.85|         62474.16|
2018/05/08T18:27:52|       27132.60|         20611112.69|         61524.32|
2018/05/08T18:27:53|       26782.34|         20159045.52|         61154.87|
2018/05/08T18:27:54|       26382.98|         19933024.54|         60477.21|
2018/05/08T18:27:55|       27006.22|         19393593.02|         60705.40|
2018/05/08T18:27:56|       26737.95|         19432105.66|         60232.08|
2018/05/08T18:27:57|       27017.74|         24216606.41|         63739.32|
2018/05/08T18:27:58|       26857.47|         19199755.21|         60096.37|
2018/05/08T18:27:59|       26479.11|         18676912.35|         60080.55|
2018/05/08T18:28:00|       26492.48|         18922754.51|         61097.30|
2018/05/08T18:28:01|       26801.40|         19218226.57|         60138.87|
2018/05/08T18:28:02|       26909.68|         21450050.13|         61668.07|
2018/05/08T18:28:03|       26779.14|         23837309.12|         65284.58|
2018/05/08T18:28:04|       27124.98|         27839779.80|         70018.22|
2018/05/08T18:28:05|       26544.73|         23219982.74|         65794.48|
2018/05/08T18:28:06|       26509.17|         22987477.92|         62062.86|
2018/05/08T18:28:07|       26815.01|         25345944.68|         63974.06|
2018/05/08T18:28:08|       26513.82|         21809595.33|         61138.09|
2018/05/08T18:28:09|       26220.48|         22016619.37|         60704.41|
2018/05/08T18:28:10|       26945.57|         20550249.02|         60446.67|
2018/05/08T18:28:11|       26857.74|         21022495.81|         60833.76|
2018/05/08T18:28:12|       27069.04|         30593393.66|         67060.22|
2018/05/08T18:28:13|       26987.03|         27324460.49|         64726.28|
2018/05/08T18:28:14|       26661.14|         27267151.30|         64396.99|
2018/05/08T18:28:15|       26275.30|         27473667.25|         64156.60|
2018/05/08T18:28:16|       26900.24|         27349779.94|         64256.91|
2018/05/08T18:28:17|       27147.88|         25594670.13|         63286.29|
2018/05/08T18:28:18|       26602.22|         23173355.19|         61523.66|
2018/05/08T18:28:19|       26915.10|         21205480.58|         61062.79|
2018/05/08T18:28:20|       26600.05|         19666942.88|         60631.48|
2018/05/08T18:28:21|       26571.10|         19084325.28|         60104.42|
2018/05/08T18:28:22|       26862.82|         21564508.07|         62411.97|
2018/05/08T18:28:23|       26731.67|         19582910.00|         60611.13|
2018/05/08T18:28:24|       26280.10|         20062672.62|         60619.34|
2018/05/08T18:28:25|       26396.08|         26445178.90|         65022.27|
2018/05/08T18:28:26|       26703.50|         19116387.78|         60355.96|
2018/05/08T18:28:27|       26668.12|         19412764.79|         61050.65|
2018/05/08T18:28:28|       26572.89|         20233730.88|         61448.66|
2018/05/08T18:28:29|       26651.81|         26258611.57|         62557.52|
2018/05/08T18:28:30|       26338.36|         21337488.87|         52653.70|
2018/05/08T18:28:31|       26640.25|         25812581.59|         56886.36|
2018/05/08T18:28:32|       26831.82|         23640417.34|         54456.64|
2018/05/08T18:28:33|       26227.67|         27228789.87|         56305.00|
2018/05/08T18:28:34|       26721.13|         30857360.74|         59046.09|
2018/05/08T18:28:35|       26407.04|         24840266.79|         55194.03|
2018/05/08T18:28:36|       26850.23|         24892979.43|         57452.69|
2018/05/08T18:28:37|       27188.38|         25370923.82|         57910.43|
2018/05/08T18:28:38|       26550.98|         24750488.90|         55748.52|
2018/05/08T18:28:39|       26635.62|         24309859.70|         55503.04|
2018/05/08T18:28:40|       27310.40|         23899756.81|         55855.54|
2018/05/08T18:28:41|       26570.08|         29098495.36|         58836.57|
2018/05/08T18:28:42|       26738.94|         27422048.96|         59883.32|
2018/05/08T18:28:43|       26606.78|         33603731.47|         64634.40|
2018/05/08T18:28:44|       26653.88|         22688728.98|         57334.58|
2018/05/08T18:28:45|       26643.50|         20877534.51|         55918.62|
2018/05/08T18:28:46|       26726.79|         20663714.46|         53478.98|
2018/05/08T18:28:47|       26653.55|         21100246.52|         53284.92|
2018/05/08T18:28:48|       26198.81|         25771644.94|         56148.18|
2018/05/08T18:28:49|       26840.89|         23656600.67|         54172.93|
2018/05/08T18:28:50|       26883.98|         21913946.38|         52987.43|
2018/05/08T18:28:51|       26437.29|         20364285.81|         50614.39|
2018/05/08T18:28:52|       27097.70|         23395587.04|         53273.84|
2018/05/08T18:28:53|       26769.72|         20353445.24|         50856.61|
2018/05/08T18:28:54|       27404.52|         20497603.97|         52339.02|
2018/05/08T18:28:55|       26995.97|         20631118.51|         52191.15|
2018/05/08T18:28:56|       26741.09|         24717158.16|         54716.92|
2018/05/08T18:28:57|       28496.95|         23672866.78|         55319.98|
2018/05/08T18:28:58|       26977.37|         24044531.96|         53905.97|
2018/05/08T18:28:59|       26657.56|         24730557.84|         54419.93|
2018/05/08T18:29:00|       26864.44|         26926764.18|         60287.16|
2018/05/08T18:29:01|       27318.60|         34431406.69|         62219.52|
2018/05/08T18:29:02|       27365.22|         27807990.56|         57936.78|
2018/05/08T18:29:03|       26773.14|         28339361.51|         58183.70|
2018/05/08T18:29:04|       27682.68|         30641110.77|         60233.39|
2018/05/08T18:29:05|       27822.72|         22773994.32|         54354.97|
2018/05/08T18:29:06|       26607.30|         22795257.34|         53068.27|
2018/05/08T18:29:07|       27615.12|         22730769.92|         53896.31|
2018/05/08T18:29:08|       27752.82|         24429505.66|         57117.92|
2018/05/08T18:29:09|       26488.18|         26701282.46|         58070.83|
2018/05/08T18:29:10|       27056.43|         22286014.16|         55886.27|
2018/05/08T18:29:11|       28459.85|         25087849.41|         59069.20|
2018/05/08T18:29:12|       26866.76|         20655633.71|         60625.12|
2018/05/08T18:29:13|       27206.54|         20723077.30|         63007.53|
2018/05/08T18:29:14|       27237.00|         20864236.22|         62188.35|
2018/05/08T18:29:15|       26638.57|         20972414.34|         54615.31|
2018/05/08T18:29:16|       26913.12|         20540983.47|         54509.82|
2018/05/08T18:29:17|       27201.79|         21077760.76|         55323.13|
2018/05/08T18:29:18|       26619.79|         27296362.38|         59002.80|
2018/05/08T18:29:19|       27073.38|         23453962.85|         56703.23|
2018/05/08T18:29:20|       27292.74|         32211680.32|         64199.97|
2018/05/08T18:29:21|       26780.49|         42514508.39|         71932.29|
2018/05/08T18:29:22|       28668.07|         41994662.43|         73472.80|
2018/05/08T18:29:23|       27382.52|         54400039.49|         79429.37|
2018/05/08T18:29:24|       26694.03|         63026178.47|         82612.82|
2018/05/08T18:29:25|       28369.90|         60350378.59|         82891.65|
2018/05/08T18:29:26|       27262.07|         42319261.60|         71306.91|
2018/05/08T18:29:27|       27007.19|         48477957.63|         75600.28|
2018/05/08T18:29:28|       27239.29|         44030895.18|         72923.28|
2018/05/08T18:29:29|       26973.80|         44144994.51|         72726.07|
2018/05/08T18:29:30|       26890.37|         37509890.05|         67223.79|
2018/05/08T18:29:31|       27228.67|         23035876.22|         56034.58|
2018/05/08T18:29:32|       27303.22|         22301292.43|         54819.82|
2018/05/08T18:29:33|       26719.16|         21397276.12|         54941.95|
2018/05/08T18:29:34|       27268.63|         26981285.72|         61697.84|
2018/05/08T18:29:35|       27077.15|         22749316.10|         58114.53|
2018/05/08T18:29:36|       26664.39|         22400487.11|         56438.70|
2018/05/08T18:29:37|       27494.32|         28902512.13|         61505.70|
2018/05/08T18:29:38|       27107.44|         21568410.54|         56029.90|
2018/05/08T18:29:39|       26418.38|         21284829.21|         55436.51|
2018/05/08T18:29:40|       27407.57|         22501818.58|         57433.67|
2018/05/08T18:29:41|       27082.50|         26853739.03|         59965.67|
2018/05/08T18:29:42|       26598.40|         23165659.26|         57087.78|
2018/05/08T18:29:43|       27422.96|         24377764.29|         56985.20|
2018/05/08T18:29:44|       27878.56|         23715038.85|         56172.32|
2018/05/08T18:29:45|       26299.05|         21274603.94|         52339.34|
2018/05/08T18:29:46|       27189.66|         23038931.36|         54127.40|
2018/05/08T18:29:47|       27011.14|         22098668.91|         53365.45|
2018/05/08T18:29:48|       26793.64|         22738823.91|         53508.34|
2018/05/08T18:29:49|       26979.65|         23633928.64|         54349.51|
2018/05/08T18:29:50|       26809.46|         26538271.59|         56201.05|
2018/05/08T18:29:51|       26466.18|         23857666.25|         54142.66|
2018/05/08T18:29:52|       27454.23|         23260134.44|         54337.14|
2018/05/08T18:29:53|       27155.83|         23843518.29|         53682.36|
2018/05/08T18:29:54|       27187.39|         20595973.50|         51093.31|
2018/05/08T18:29:55|       27338.35|         43133351.73|         67726.92|
2018/05/08T18:29:56|       27399.55|         62007278.31|         82487.72|
2018/05/08T18:29:57|       27111.43|         59131538.06|         80138.58|
2018/05/08T18:29:58|       28577.19|         58774450.68|         81169.27|
2018/05/08T18:29:59|       27400.98|         58097642.84|         78789.01|
2018/05/08T18:30:00|       15967.33|         31782349.84|         43647.48|
