               Date|        Records|               Bytes|          Packets|
2018/05/09T05:00:00|       27710.36|         65848422.11|         86822.63|
2018/05/09T05:00:01|       29301.76|         85148938.29|        106251.30|
2018/05/09T05:00:02|       29690.52|         98132889.19|        120234.92|
2018/05/09T05:00:03|       29280.81|         91770005.82|        110553.85|
2018/05/09T05:00:04|       29407.15|         95416966.10|        113631.98|
2018/05/09T05:00:05|       30425.36|        104674107.37|        121216.95|
2018/05/09T05:00:06|       29127.52|        119640034.23|        130521.81|
2018/05/09T05:00:07|       29373.11|        111620445.40|        125345.91|
2018/05/09T05:00:08|       29269.45|        109719795.69|        124390.78|
2018/05/09T05:00:09|       29623.28|        111301832.64|        125048.27|
2018/05/09T05:00:10|       29679.27|        112363297.65|        125348.21|
2018/05/09T05:00:11|       29508.97|        112074600.10|        125424.83|
2018/05/09T05:00:12|       28763.79|        110749734.66|        124246.01|
2018/05/09T05:00:13|       29534.72|        106601167.46|        122815.84|
2018/05/09T05:00:14|       28950.55|        102229518.27|        119265.32|
2018/05/09T05:00:15|       29049.88|        106614650.53|        121352.79|
2018/05/09T05:00:16|       29082.68|        123038803.44|        132845.24|
2018/05/09T05:00:17|       29232.28|        115400748.13|        129781.51|
2018/05/09T05:00:18|       29174.94|        116602751.80|        133141.40|
2018/05/09T05:00:19|       29335.29|        119264041.28|        135307.00|
2018/05/09T05:00:20|       29178.83|        121877197.21|        136420.24|
2018/05/09T05:00:21|       28962.81|        116797019.73|        132861.52|
2018/05/09T05:00:22|       29628.26|        122111533.45|        136958.30|
2018/05/09T05:00:23|       29503.61|        128428866.03|        140405.53|
2018/05/09T05:00:24|       29126.05|        125379743.34|        137696.32|
2018/05/09T05:00:25|       29257.44|        124011238.51|        133745.09|
2018/05/09T05:00:26|       29180.95|        122890218.35|        132412.63|
2018/05/09T05:00:27|       28923.07|        122925753.55|        132014.02|
2018/05/09T05:00:28|       29762.20|        117054993.15|        128212.80|
2018/05/09T05:00:29|       29069.24|        114762184.18|        125925.63|
2018/05/09T05:00:30|       28738.24|        118048961.86|        127549.89|
2018/05/09T05:00:31|       29274.36|        119261253.57|        132014.42|
2018/05/09T05:00:32|       29197.68|        129524916.32|        138258.39|
2018/05/09T05:00:33|       28940.29|        128264894.70|        135701.76|
2018/05/09T05:00:34|       29063.41|        132048616.40|        138475.81|
2018/05/09T05:00:35|       29230.17|        122240243.81|        132603.21|
2018/05/09T05:00:36|       29228.08|        122507167.68|        132197.94|
2018/05/09T05:00:37|       29972.51|        122583677.58|        133230.85|
2018/05/09T05:00:38|       29703.37|        116657567.71|        128257.00|
2018/05/09T05:00:39|       29212.53|        120760052.36|        130523.14|
2018/05/09T05:00:40|       30167.74|        118698405.16|        129421.62|
2018/05/09T05:00:41|       29812.69|        113288023.09|        125455.94|
2018/05/09T05:00:42|       30129.89|        114022828.84|        126583.94|
2018/05/09T05:00:43|       29697.45|        115522514.00|        127699.95|
2018/05/09T05:00:44|       29992.83|        111352758.33|        124949.87|
2018/05/09T05:00:45|       29461.14|        111089271.20|        123787.25|
2018/05/09T05:00:46|       29563.83|        105240756.16|        119868.37|
2018/05/09T05:00:47|       29785.81|        106549272.16|        121515.33|
2018/05/09T05:00:48|       29244.81|        106826331.19|        121220.48|
2018/05/09T05:00:49|       29848.61|        110561478.35|        123983.91|
2018/05/09T05:00:50|       29587.25|        116935309.16|        127668.82|
2018/05/09T05:00:51|       29985.57|        115658777.05|        126910.57|
2018/05/09T05:00:52|       30138.25|        117471325.15|        128707.38|
2018/05/09T05:00:53|       29564.76|        115195329.60|        126006.23|
2018/05/09T05:00:54|       29352.26|        109395452.08|        122325.03|
2018/05/09T05:00:55|       29520.55|        105643975.28|        119912.85|
2018/05/09T05:00:56|       29665.76|        107005038.63|        120925.09|
2018/05/09T05:00:57|       28995.43|        103494400.19|        117893.80|
2018/05/09T05:00:58|       29613.07|        103480377.84|        119276.10|
2018/05/09T05:00:59|       29655.78|        102226245.40|        119452.05|
2018/05/09T05:01:00|       28997.88|        101745214.72|        118374.86|
2018/05/09T05:01:01|       29584.48|        105119551.69|        121076.55|
2018/05/09T05:01:02|       29693.76|        112421238.43|        126713.72|
2018/05/09T05:01:03|       29411.92|        110548227.49|        124703.70|
2018/05/09T05:01:04|       29398.19|        116374840.44|        131396.16|
2018/05/09T05:01:05|       29602.59|        119102948.59|        131078.66|
2018/05/09T05:01:06|       29272.56|        117273162.43|        128754.05|
2018/05/09T05:01:07|       29624.03|        121546469.05|        132921.72|
2018/05/09T05:01:08|       29733.53|        112478658.27|        127995.71|
2018/05/09T05:01:09|       29637.12|        114777900.47|        129731.67|
2018/05/09T05:01:10|       29737.86|        114816397.82|        130349.49|
2018/05/09T05:01:11|       29602.09|        112719438.28|        128458.10|
2018/05/09T05:01:12|       29630.86|        115325437.88|        135025.13|
2018/05/09T05:01:13|       29934.74|        114464106.01|        128171.20|
2018/05/09T05:01:14|       29619.91|        113043271.87|        127181.20|
2018/05/09T05:01:15|       29168.96|        114357686.54|        128558.61|
2018/05/09T05:01:16|       30271.75|        112851636.08|        128635.25|
2018/05/09T05:01:17|       29390.42|        110162461.66|        125662.76|
2018/05/09T05:01:18|       29869.72|        110843970.07|        126810.66|
2018/05/09T05:01:19|       30310.82|        114778524.68|        130609.33|
2018/05/09T05:01:20|       29448.95|        115629148.29|        130565.70|
2018/05/09T05:01:21|       30332.77|        115182071.66|        131099.05|
2018/05/09T05:01:22|       29733.54|        116164242.74|        131149.12|
2018/05/09T05:01:23|       29693.46|        122988020.20|        135860.84|
2018/05/09T05:01:24|       29437.48|        121384338.45|        134970.61|
2018/05/09T05:01:25|       29593.02|        120146166.88|        134736.29|
2018/05/09T05:01:26|       29364.74|        122304949.54|        135626.57|
2018/05/09T05:01:27|       29633.43|        122848181.28|        136007.79|
2018/05/09T05:01:28|       29635.03|        125261398.58|        137694.44|
2018/05/09T05:01:29|       29229.70|        121063653.92|        133959.93|
2018/05/09T05:01:30|       28981.96|        125004526.58|        136355.05|
2018/05/09T05:01:31|       29528.30|        117806675.35|        131754.87|
2018/05/09T05:01:32|       29249.48|        118911960.15|        133001.40|
2018/05/09T05:01:33|       29346.11|        117887841.81|        132658.44|
2018/05/09T05:01:34|       29471.01|        114752916.87|        130717.90|
2018/05/09T05:01:35|       30022.13|        116681335.29|        132976.18|
2018/05/09T05:01:36|       29693.60|        114902893.79|        131193.24|
2018/05/09T05:01:37|       30131.57|        117240790.64|        133350.44|
2018/05/09T05:01:38|       29841.46|        117565673.72|        132945.04|
2018/05/09T05:01:39|       29580.55|        114554369.87|        130132.28|
2018/05/09T05:01:40|       30021.94|        114903979.80|        130650.61|
2018/05/09T05:01:41|       29134.90|        121012271.12|        133657.80|
2018/05/09T05:01:42|       29573.96|        123918564.38|        135972.47|
2018/05/09T05:01:43|       30452.82|        125547595.21|        138289.45|
2018/05/09T05:01:44|       30128.74|        119565618.95|        133730.38|
2018/05/09T05:01:45|       30026.13|        115920612.07|        130232.76|
2018/05/09T05:01:46|       29983.71|        114348386.66|        129368.26|
2018/05/09T05:01:47|       29683.13|        115465055.19|        130260.30|
2018/05/09T05:01:48|       29839.05|        120961825.34|        134430.36|
2018/05/09T05:01:49|       29740.72|        121006711.42|        134879.41|
2018/05/09T05:01:50|       29342.23|        123582962.10|        135497.84|
2018/05/09T05:01:51|       29977.26|        121294584.87|        134549.50|
2018/05/09T05:01:52|       31652.85|        122143850.24|        137150.91|
2018/05/09T05:01:53|       29723.27|        121686747.67|        134722.86|
2018/05/09T05:01:54|       30029.56|        119834604.68|        133797.74|
2018/05/09T05:01:55|       30523.43|        121629583.11|        135323.90|
2018/05/09T05:01:56|       29690.55|        122649394.34|        134740.72|
2018/05/09T05:01:57|       29430.42|        123055607.32|        135199.88|
2018/05/09T05:01:58|       29665.42|        122123958.44|        134953.62|
2018/05/09T05:01:59|       29328.74|        122132355.91|        134736.87|
2018/05/09T05:02:00|       29595.87|        116554531.51|        130957.93|
2018/05/09T05:02:01|       29637.76|        115114482.97|        130204.46|
2018/05/09T05:02:02|       29528.49|        119415481.77|        133500.99|
2018/05/09T05:02:03|       30146.42|        118341177.20|        133744.11|
2018/05/09T05:02:04|       30212.21|        116650189.06|        133498.19|
2018/05/09T05:02:05|       29516.10|        115958484.98|        131908.25|
2018/05/09T05:02:06|       30012.98|        125127318.82|        137218.48|
2018/05/09T05:02:07|       29994.67|        120791688.76|        133773.10|
2018/05/09T05:02:08|       29489.86|        119963165.72|        132350.83|
2018/05/09T05:02:09|       29608.95|        130577035.39|        139380.51|
2018/05/09T05:02:10|       29876.47|        119098328.01|        132281.82|
2018/05/09T05:02:11|       29752.60|        118857698.74|        132627.04|
2018/05/09T05:02:12|       29818.85|        121125822.31|        136084.16|
2018/05/09T05:02:13|       29609.35|        119601728.69|        134609.42|
2018/05/09T05:02:14|       29661.01|        122951866.48|        136407.78|
2018/05/09T05:02:15|       29429.73|        116118696.41|        131862.04|
2018/05/09T05:02:16|       30050.31|        118855314.87|        135004.25|
2018/05/09T05:02:17|       29151.64|        121928887.91|        136488.74|
2018/05/09T05:02:18|       30372.69|        123287046.88|        138934.20|
2018/05/09T05:02:19|       30306.90|        121902257.64|        137669.96|
2018/05/09T05:02:20|       29809.79|        115240415.03|        132497.38|
2018/05/09T05:02:21|       29830.71|        120492217.42|        136352.07|
2018/05/09T05:02:22|       29623.12|        117088418.46|        134887.66|
2018/05/09T05:02:23|       29659.18|        112054025.83|        131394.97|
2018/05/09T05:02:24|       30952.84|        114576133.81|        133829.18|
2018/05/09T05:02:25|       30110.53|        117843010.96|        133705.92|
2018/05/09T05:02:26|       29160.96|        123701924.93|        136347.72|
2018/05/09T05:02:27|       29159.17|        109912503.38|        126972.13|
2018/05/09T05:02:28|       30156.98|        107086999.79|        125353.03|
2018/05/09T05:02:29|       29721.99|        108029954.92|        125536.22|
2018/05/09T05:02:30|       29970.06|        104235879.52|        123607.81|
2018/05/09T05:02:31|       30286.88|        105419945.56|        124824.70|
2018/05/09T05:02:32|       29353.13|        105923268.34|        124275.28|
2018/05/09T05:02:33|       29336.25|        111396774.11|        128218.58|
2018/05/09T05:02:34|       30056.04|        118761500.09|        133774.80|
2018/05/09T05:02:35|       29775.72|        116224557.94|        132010.02|
2018/05/09T05:02:36|       29694.53|        117299568.66|        132520.65|
2018/05/09T05:02:37|       29802.75|        118744288.25|        133732.16|
2018/05/09T05:02:38|       29022.90|        121675240.66|        134749.48|
2018/05/09T05:02:39|       28886.67|        122318311.61|        134706.39|
2018/05/09T05:02:40|       29533.50|        123134489.51|        136378.64|
2018/05/09T05:02:41|       29251.30|        123765272.56|        136350.01|
2018/05/09T05:02:42|       28980.48|        125293950.82|        137126.71|
2018/05/09T05:02:43|       29853.49|        126008814.90|        138672.83|
2018/05/09T05:02:44|       29249.37|        134220723.94|        142792.26|
2018/05/09T05:02:45|       28380.18|        133880875.82|        141224.05|
2018/05/09T05:02:46|       29496.66|        124551708.51|        136041.80|
2018/05/09T05:02:47|       29221.72|        123350321.64|        134743.75|
2018/05/09T05:02:48|       29007.90|        123588279.20|        134850.51|
2018/05/09T05:02:49|       29339.44|        134335069.10|        143508.00|
2018/05/09T05:02:50|       28738.57|        147574300.50|        151520.65|
2018/05/09T05:02:51|       28922.78|        147233897.91|        151339.46|
2018/05/09T05:02:52|       29181.65|        142271719.11|        148702.83|
2018/05/09T05:02:53|       29080.15|        152169233.67|        154409.87|
2018/05/09T05:02:54|       29462.30|        159655925.16|        158995.62|
2018/05/09T05:02:55|       29399.43|        156938757.99|        157448.18|
2018/05/09T05:02:56|       29235.12|        155643700.73|        157216.40|
2018/05/09T05:02:57|       28846.00|        146038606.58|        151487.39|
2018/05/09T05:02:58|       28934.22|        144404794.56|        150923.88|
2018/05/09T05:02:59|       29216.38|        147093831.51|        152216.24|
2018/05/09T05:03:00|       29330.60|        169804674.96|        168889.70|
2018/05/09T05:03:01|       28803.45|        175428407.10|        171496.46|
2018/05/09T05:03:02|       29005.80|        157432639.45|        159647.08|
2018/05/09T05:03:03|       29117.08|        131106409.22|        141587.09|
2018/05/09T05:03:04|       29528.34|        135945099.94|        145812.01|
2018/05/09T05:03:05|       29384.96|        136578902.00|        146064.06|
2018/05/09T05:03:06|       28692.78|        142756846.39|        149315.20|
2018/05/09T05:03:07|       29188.78|        139269501.09|        147322.48|
2018/05/09T05:03:08|       29144.95|        140965349.54|        148106.22|
2018/05/09T05:03:09|       28678.17|        139150443.10|        146403.66|
2018/05/09T05:03:10|       29309.18|        140967775.24|        148951.41|
2018/05/09T05:03:11|       28799.70|        138984704.72|        147143.91|
2018/05/09T05:03:12|       29195.71|        137823002.92|        147086.05|
2018/05/09T05:03:13|       29528.59|        139845546.57|        148393.07|
2018/05/09T05:03:14|       28515.15|        141140545.67|        147709.39|
2018/05/09T05:03:15|       28749.77|        141377609.03|        147476.29|
2018/05/09T05:03:16|       29731.39|        135706707.78|        147000.30|
2018/05/09T05:03:17|       28845.84|        133608659.09|        145561.20|
2018/05/09T05:03:18|       28872.47|        146859628.17|        155441.06|
2018/05/09T05:03:19|       29534.97|        151264812.65|        159052.35|
2018/05/09T05:03:20|       28711.02|        151337608.43|        158374.16|
2018/05/09T05:03:21|       29420.24|        150519535.69|        158572.23|
2018/05/09T05:03:22|       29505.41|        153989918.06|        161151.56|
2018/05/09T05:03:23|       29711.34|        149550301.33|        158327.33|
2018/05/09T05:03:24|       28691.87|        148238380.55|        156163.65|
2018/05/09T05:03:25|       28585.75|        182672098.30|        178506.16|
2018/05/09T05:03:26|       28910.97|        170644198.62|        169308.89|
2018/05/09T05:03:27|       28412.26|        148266280.64|        151899.33|
2018/05/09T05:03:28|       29035.85|        148133722.95|        152222.74|
2018/05/09T05:03:29|       28962.39|        146960322.44|        151164.11|
2018/05/09T05:03:30|       29172.66|        152534919.36|        156269.80|
2018/05/09T05:03:31|       29662.94|        154351497.88|        158398.28|
2018/05/09T05:03:32|       29100.63|        155695865.88|        158610.58|
2018/05/09T05:03:33|       29000.33|        150786190.59|        154887.50|
2018/05/09T05:03:34|       30024.16|        157196602.94|        160683.06|
2018/05/09T05:03:35|       29148.01|        156566885.40|        159150.05|
2018/05/09T05:03:36|       29212.68|        145779482.59|        151332.88|
2018/05/09T05:03:37|       29528.56|        144283907.41|        150676.33|
2018/05/09T05:03:38|       29068.14|        146772082.27|        151669.69|
2018/05/09T05:03:39|       28930.64|        143666420.66|        150295.63|
2018/05/09T05:03:40|       29174.32|        145991443.30|        151400.21|
2018/05/09T05:03:41|       28755.21|        143059164.75|        147402.52|
2018/05/09T05:03:42|       28656.43|        141833582.97|        146719.75|
2018/05/09T05:03:43|       29710.91|        142330866.53|        148521.10|
2018/05/09T05:03:44|       29356.26|        142697268.41|        148670.23|
2018/05/09T05:03:45|       28817.85|        143703177.11|        149701.60|
2018/05/09T05:03:46|       29872.17|        143856622.11|        150428.81|
2018/05/09T05:03:47|       29212.00|        147808601.11|        152726.92|
2018/05/09T05:03:48|       29293.93|        148627151.37|        153222.97|
2018/05/09T05:03:49|       29405.74|        147442889.06|        152181.98|
2018/05/09T05:03:50|       28928.19|        146103344.93|        150445.52|
2018/05/09T05:03:51|       29332.14|        145882546.91|        150821.42|
2018/05/09T05:03:52|       29309.55|        147115223.57|        151773.21|
2018/05/09T05:03:53|       29008.28|        149421785.92|        153127.67|
2018/05/09T05:03:54|       28953.21|        150316213.99|        153853.35|
2018/05/09T05:03:55|       29501.11|        136669309.21|        144397.59|
2018/05/09T05:03:56|       30227.48|        132964709.28|        141959.36|
2018/05/09T05:03:57|       31221.64|        128838775.97|        140016.39|
2018/05/09T05:03:58|       29239.19|        129430777.63|        138272.00|
2018/05/09T05:03:59|       29042.91|        127161783.84|        136335.40|
2018/05/09T05:04:00|       29020.81|        126562891.20|        135987.54|
2018/05/09T05:04:01|       29605.84|        125004557.82|        135802.97|
2018/05/09T05:04:02|       28675.66|        130691306.27|        139013.69|
2018/05/09T05:04:03|       29217.91|        135000790.36|        143188.90|
2018/05/09T05:04:04|       29401.32|        134785955.94|        142670.12|
2018/05/09T05:04:05|       29138.62|        137773328.77|        144578.09|
2018/05/09T05:04:06|       28809.51|        136931742.22|        143451.15|
2018/05/09T05:04:07|       29414.57|        139392188.99|        145952.31|
2018/05/09T05:04:08|       29161.09|        135994251.50|        143655.78|
2018/05/09T05:04:09|       28705.45|        138545286.91|        145593.11|
2018/05/09T05:04:10|       29481.33|        138435825.41|        146367.65|
2018/05/09T05:04:11|       28950.79|        138761408.14|        146231.40|
2018/05/09T05:04:12|       29011.18|        137765176.73|        145949.61|
2018/05/09T05:04:13|       29636.65|        138307625.00|        147255.34|
2018/05/09T05:04:14|       29139.69|        138493537.66|        146544.80|
2018/05/09T05:04:15|       28840.48|        138920026.16|        146395.06|
2018/05/09T05:04:16|       29512.30|        141104747.87|        148284.51|
2018/05/09T05:04:17|       28890.10|        149445666.95|        154319.18|
2018/05/09T05:04:18|       28832.02|        147665954.04|        153481.70|
2018/05/09T05:04:19|       29328.01|        142193534.40|        150359.83|
2018/05/09T05:04:20|       28929.84|        139846040.75|        146979.01|
2018/05/09T05:04:21|       28999.87|        139701238.41|        146460.31|
2018/05/09T05:04:22|       29288.23|        132892114.22|        142130.06|
2018/05/09T05:04:23|       29603.04|        133151733.57|        142056.81|
2018/05/09T05:04:24|       29155.21|        138406485.90|        145235.27|
2018/05/09T05:04:25|       29052.73|        139834879.87|        146300.79|
2018/05/09T05:04:26|       29828.85|        137858672.77|        145799.74|
2018/05/09T05:04:27|       29034.79|        140294517.82|        146917.96|
2018/05/09T05:04:28|       28801.01|        137088982.48|        144435.17|
2018/05/09T05:04:29|       29270.11|        136682663.53|        143944.23|
2018/05/09T05:04:30|       29092.14|        146348550.22|        150688.28|
2018/05/09T05:04:31|       29194.70|        141408216.92|        147445.09|
2018/05/09T05:04:32|       29563.58|        141011386.70|        147424.93|
2018/05/09T05:04:33|       29390.27|        142204204.12|        148426.36|
2018/05/09T05:04:34|       29694.64|        146400946.00|        152399.14|
2018/05/09T05:04:35|       29168.14|        148415411.46|        153334.51|
2018/05/09T05:04:36|       29361.71|        148094798.97|        153348.42|
2018/05/09T05:04:37|       29572.49|        149282166.36|        154780.61|
2018/05/09T05:04:38|       29401.84|        148839651.54|        154413.64|
2018/05/09T05:04:39|       29576.83|        148968194.78|        154468.08|
2018/05/09T05:04:40|       29535.49|        155385342.02|        164647.55|
2018/05/09T05:04:41|       29311.92|        162178936.55|        171242.32|
2018/05/09T05:04:42|       29172.64|        161906258.43|        171134.23|
2018/05/09T05:04:43|       29666.85|        158630892.10|        169651.88|
2018/05/09T05:04:44|       29731.16|        156264711.99|        166420.46|
2018/05/09T05:04:45|       29028.81|        146794714.09|        158624.59|
2018/05/09T05:04:46|       29551.76|        141490734.94|        152055.21|
2018/05/09T05:04:47|       28975.24|        149295779.08|        152427.49|
2018/05/09T05:04:48|       29413.20|        148212509.96|        151980.57|
2018/05/09T05:04:49|       29831.96|        147641570.67|        152605.13|
2018/05/09T05:04:50|       29060.77|        151106881.59|        154778.67|
2018/05/09T05:04:51|       29013.27|        154503453.18|        156140.89|
2018/05/09T05:04:52|       29665.43|        154661200.32|        156479.92|
2018/05/09T05:04:53|       28914.81|        150093947.84|        152237.26|
2018/05/09T05:04:54|       29396.76|        149362369.36|        151859.84|
2018/05/09T05:04:55|       29517.73|        150268786.63|        152466.39|
2018/05/09T05:04:56|       30009.08|        149272627.98|        152648.43|
2018/05/09T05:04:57|       29539.70|        147295281.36|        151065.58|
2018/05/09T05:04:58|       30335.38|        146919232.62|        153183.68|
2018/05/09T05:04:59|       29387.41|        136059074.00|        149909.71|
2018/05/09T05:05:00|       29070.68|        136442129.26|        154590.82|
2018/05/09T05:05:01|       30756.31|        138123942.13|        151638.44|
2018/05/09T05:05:02|       29704.09|        137002491.28|        149838.52|
2018/05/09T05:05:03|       29186.05|        137650278.63|        149854.00|
2018/05/09T05:05:04|       29826.90|        135663542.76|        149500.83|
2018/05/09T05:05:05|       29466.66|        138762217.26|        147292.42|
2018/05/09T05:05:06|       29578.56|        137190863.47|        144869.62|
2018/05/09T05:05:07|       29434.56|        134537711.41|        142668.72|
2018/05/09T05:05:08|       30072.19|        135028080.72|        143235.93|
2018/05/09T05:05:09|       29442.90|        136203221.44|        143443.78|
2018/05/09T05:05:10|       29865.50|        133877273.36|        143514.74|
2018/05/09T05:05:11|       29627.89|        133115737.56|        141584.13|
2018/05/09T05:05:12|       29318.14|        133734026.96|        141940.94|
2018/05/09T05:05:13|       29897.54|        133634061.12|        142681.84|
2018/05/09T05:05:14|       29790.26|        136242272.12|        144768.14|
2018/05/09T05:05:15|       29314.55|        137509381.69|        145367.61|
2018/05/09T05:05:16|       29634.28|        135315597.28|        144419.93|
2018/05/09T05:05:17|       29978.84|        136109770.38|        146374.29|
2018/05/09T05:05:18|       29216.97|        136137918.24|        145236.53|
2018/05/09T05:05:19|       30005.31|        133677796.16|        144133.98|
2018/05/09T05:05:20|       29674.23|        141305140.84|        148630.07|
2018/05/09T05:05:21|       29455.07|        138591223.45|        146724.43|
2018/05/09T05:05:22|       29925.16|        138685092.33|        147140.46|
2018/05/09T05:05:23|       29702.54|        140104243.10|        149193.15|
2018/05/09T05:05:24|       29492.11|        137590271.04|        147133.15|
2018/05/09T05:05:25|       30131.86|        140374493.45|        148306.53|
2018/05/09T05:05:26|       29602.09|        141334020.54|        148543.77|
2018/05/09T05:05:27|       29647.63|        143016053.67|        149708.75|
2018/05/09T05:05:28|       29946.23|        145198709.27|        151816.66|
2018/05/09T05:05:29|       29420.48|        147873245.38|        152852.23|
2018/05/09T05:05:30|       29269.34|        149451960.06|        153435.78|
2018/05/09T05:05:31|       30075.75|        153613245.08|        157024.96|
2018/05/09T05:05:32|       29521.74|        150458231.84|        154950.24|
2018/05/09T05:05:33|       30346.46|        153482489.21|        158198.17|
2018/05/09T05:05:34|       30335.99|        152805954.23|        157718.76|
2018/05/09T05:05:35|       29934.08|        151296630.28|        156292.81|
2018/05/09T05:05:36|       29776.63|        150856796.38|        155567.04|
2018/05/09T05:05:37|       30703.92|        145972362.19|        152504.93|
2018/05/09T05:05:38|       29988.54|        140426532.67|        147314.61|
2018/05/09T05:05:39|       29955.88|        142286977.87|        148746.39|
2018/05/09T05:05:40|       30089.61|        143944176.08|        149735.30|
2018/05/09T05:05:41|       29997.79|        142857286.68|        149100.29|
2018/05/09T05:05:42|       29764.14|        143758602.71|        149449.24|
2018/05/09T05:05:43|       30609.70|        141710066.18|        148615.64|
2018/05/09T05:05:44|       30017.30|        140270565.45|        147366.72|
2018/05/09T05:05:45|       30125.87|        140625728.39|        148299.78|
2018/05/09T05:05:46|       30379.18|        141769737.53|        149730.35|
2018/05/09T05:05:47|       30076.31|        142668302.06|        151134.07|
2018/05/09T05:05:48|       30091.21|        141373751.76|        149095.27|
2018/05/09T05:05:49|       30810.51|        138883010.12|        147687.42|
2018/05/09T05:05:50|       30167.19|        140849021.22|        150175.49|
2018/05/09T05:05:51|       30162.91|        137295077.94|        148327.50|
2018/05/09T05:05:52|       30817.81|        141431993.27|        152263.12|
2018/05/09T05:05:53|       30228.62|        137759005.95|        150409.86|
2018/05/09T05:05:54|       30315.18|        130876896.77|        145330.85|
2018/05/09T05:05:55|       30115.42|        131082619.38|        145394.74|
2018/05/09T05:05:56|       29633.71|        134351151.21|        146917.68|
2018/05/09T05:05:57|       29709.25|        133356257.35|        146268.02|
2018/05/09T05:05:58|       30498.94|        132228084.46|        145865.20|
2018/05/09T05:05:59|       29111.63|        133408978.35|        145523.35|
2018/05/09T05:06:00|       29168.28|        132791074.84|        144782.83|
2018/05/09T05:06:01|       29818.32|        130154042.25|        141615.67|
2018/05/09T05:06:02|       29455.92|        131888207.06|        142159.13|
2018/05/09T05:06:03|       29517.47|        133667570.04|        143814.12|
2018/05/09T05:06:04|       30037.14|        133293013.42|        144199.17|
2018/05/09T05:06:05|       30277.35|        137313480.06|        146721.77|
2018/05/09T05:06:06|       29807.34|        137467640.06|        145299.86|
2018/05/09T05:06:07|       30059.63|        141149032.11|        149394.45|
2018/05/09T05:06:08|       29850.75|        140429556.23|        148533.16|
2018/05/09T05:06:09|       29748.92|        139562047.88|        146464.80|
2018/05/09T05:06:10|       29497.27|        140553675.15|        146527.29|
2018/05/09T05:06:11|       29610.37|        141755461.88|        147655.03|
2018/05/09T05:06:12|       29301.11|        137563597.84|        145304.76|
2018/05/09T05:06:13|       29939.61|        138455372.07|        146243.85|
2018/05/09T05:06:14|       29504.13|        137533237.60|        144854.66|
2018/05/09T05:06:15|       29515.86|        140434879.02|        146315.18|
2018/05/09T05:06:16|       30066.32|        138690741.05|        145763.18|
2018/05/09T05:06:17|       29566.60|        137839920.29|        147145.21|
2018/05/09T05:06:18|       29727.70|        142430872.91|        152826.95|
2018/05/09T05:06:19|       30630.67|        138304038.61|        146293.32|
2018/05/09T05:06:20|       29462.72|        137894089.68|        144699.89|
2018/05/09T05:06:21|       30530.06|        135610582.14|        144351.82|
2018/05/09T05:06:22|       29956.07|        135437570.28|        143884.08|
2018/05/09T05:06:23|       29266.49|        137252386.57|        144455.62|
2018/05/09T05:06:24|       29904.45|        140329221.62|        147192.29|
2018/05/09T05:06:25|       29939.36|        146145746.59|        151208.31|
2018/05/09T05:06:26|       29842.56|        143492900.15|        149193.08|
2018/05/09T05:06:27|       29725.20|        138210709.08|        146174.64|
2018/05/09T05:06:28|       29869.31|        141899332.94|        148938.46|
2018/05/09T05:06:29|       30037.69|        143663316.22|        152033.56|
2018/05/09T05:06:30|       29662.82|        142048179.56|        152209.80|
2018/05/09T05:06:31|       29838.85|        140883638.40|        148968.49|
2018/05/09T05:06:32|       29835.90|        142310323.59|        149147.20|
2018/05/09T05:06:33|       29578.56|        144550672.75|        151120.91|
2018/05/09T05:06:34|       29963.20|        141585791.49|        149968.49|
2018/05/09T05:06:35|       29687.15|        139659143.64|        148748.18|
2018/05/09T05:06:36|       29998.52|        140897085.03|        149939.86|
2018/05/09T05:06:37|       29859.18|        141195007.76|        149754.08|
2018/05/09T05:06:38|       29765.20|        140727271.50|        149770.73|
2018/05/09T05:06:39|       29606.74|        141655953.25|        150470.23|
2018/05/09T05:06:40|       29778.40|        139805126.00|        148984.98|
2018/05/09T05:06:41|       29841.92|        143296213.29|        151432.28|
2018/05/09T05:06:42|       30009.50|        141770188.46|        150090.40|
2018/05/09T05:06:43|       30201.50|        141659432.48|        149815.07|
2018/05/09T05:06:44|       30019.51|        144382206.24|        151632.69|
2018/05/09T05:06:45|       29828.27|        142781908.99|        155164.65|
2018/05/09T05:06:46|       30080.88|        140288065.52|        148248.21|
2018/05/09T05:06:47|       29443.41|        148128877.43|        153273.53|
2018/05/09T05:06:48|       29543.38|        144020740.98|        150535.84|
2018/05/09T05:06:49|       30201.88|        138632011.56|        147273.49|
2018/05/09T05:06:50|       29906.11|        140773372.05|        148544.90|
2018/05/09T05:06:51|       29383.07|        143486216.88|        149753.14|
2018/05/09T05:06:52|       29902.98|        140300512.47|        147545.30|
2018/05/09T05:06:53|       30667.26|        141424446.51|        149114.02|
2018/05/09T05:06:54|       29956.95|        150168810.57|        154396.35|
2018/05/09T05:06:55|       31509.62|        150611201.86|        156178.55|
2018/05/09T05:06:56|       29527.30|        149879484.52|        153080.47|
2018/05/09T05:06:57|       28707.79|        154052205.15|        155093.01|
2018/05/09T05:06:58|       30600.57|        150182835.79|        154540.55|
2018/05/09T05:06:59|       30300.71|        150200888.91|        154950.35|
2018/05/09T05:07:00|       30367.38|        149553628.42|        153779.87|
2018/05/09T05:07:01|       29798.75|        145221086.20|        150155.32|
2018/05/09T05:07:02|       29310.46|        145867048.76|        150229.43|
2018/05/09T05:07:03|       29681.19|        147268305.01|        151946.24|
2018/05/09T05:07:04|       29356.27|        141583374.08|        148204.73|
2018/05/09T05:07:05|       29925.66|        140382205.39|        148541.44|
2018/05/09T05:07:06|       29442.22|        138230559.10|        146541.87|
2018/05/09T05:07:07|       29265.01|        142791458.86|        149258.27|
2018/05/09T05:07:08|       29566.68|        144183002.08|        150718.31|
2018/05/09T05:07:09|       29182.99|        145693619.86|        151224.75|
2018/05/09T05:07:10|       29572.83|        144715675.37|        150972.71|
2018/05/09T05:07:11|       28973.09|        143074661.88|        149047.99|
2018/05/09T05:07:12|       29431.81|        147777956.56|        153383.40|
2018/05/09T05:07:13|       29724.34|        146914878.48|        154333.59|
2018/05/09T05:07:14|       29687.67|        149769023.39|        156657.59|
2018/05/09T05:07:15|       28785.77|        148514228.33|        154941.03|
2018/05/09T05:07:16|       29823.89|        150906484.67|        158230.72|
2018/05/09T05:07:17|       29466.42|        150740644.74|        157847.23|
2018/05/09T05:07:18|       29273.73|        149956874.45|        157030.77|
2018/05/09T05:07:19|       29597.96|        148847648.67|        156179.54|
2018/05/09T05:07:20|       29911.88|        146074645.14|        154300.97|
2018/05/09T05:07:21|       29533.59|        145954301.71|        153573.85|
2018/05/09T05:07:22|       29841.33|        149123034.21|        155350.70|
2018/05/09T05:07:23|       29618.13|        149254134.80|        154881.16|
2018/05/09T05:07:24|       29290.46|        149728567.87|        155513.93|
2018/05/09T05:07:25|       31426.40|        144645420.50|        154268.97|
2018/05/09T05:07:26|       31336.20|        143107513.72|        151976.48|
2018/05/09T05:07:27|       31268.97|        151290433.94|        157459.93|
2018/05/09T05:07:28|       31317.41|        142816322.63|        152592.74|
2018/05/09T05:07:29|       31683.90|        146685470.72|        156056.64|
2018/05/09T05:07:30|       32191.47|        142918259.65|        154902.29|
2018/05/09T05:07:31|       32221.15|        141053285.69|        153899.73|
2018/05/09T05:07:32|       32057.28|        136049686.71|        149632.61|
2018/05/09T05:07:33|       30766.58|        138992900.59|        149273.82|
2018/05/09T05:07:34|       30078.23|        139425002.30|        149295.83|
2018/05/09T05:07:35|       29356.13|        145068431.15|        151772.56|
2018/05/09T05:07:36|       29271.35|        142446940.91|        149860.62|
2018/05/09T05:07:37|       30447.11|        139998238.12|        149441.13|
2018/05/09T05:07:38|       29687.36|        137355531.49|        147132.34|
2018/05/09T05:07:39|       29703.24|        132989892.09|        143801.86|
2018/05/09T05:07:40|       31617.78|        131838307.22|        145116.75|
2018/05/09T05:07:41|       29811.83|        132194201.43|        143574.09|
2018/05/09T05:07:42|       29493.87|        132409164.12|        143224.03|
2018/05/09T05:07:43|       29924.17|        130630877.61|        142277.64|
2018/05/09T05:07:44|       30164.07|        133495558.32|        143667.26|
2018/05/09T05:07:45|       29448.14|        140825503.17|        147948.43|
2018/05/09T05:07:46|       29949.50|        142698267.62|        149802.36|
2018/05/09T05:07:47|       29709.09|        153853814.80|        157831.70|
2018/05/09T05:07:48|       29581.19|        136825907.97|        145456.66|
2018/05/09T05:07:49|       29996.09|        138416243.33|        147329.04|
2018/05/09T05:07:50|       29361.24|        139490097.08|        147241.51|
2018/05/09T05:07:51|       29142.08|        135641757.61|        143972.15|
2018/05/09T05:07:52|       29529.72|        140026846.13|        147360.51|
2018/05/09T05:07:53|       29434.25|        136814474.10|        145472.78|
2018/05/09T05:07:54|       29231.58|        137339304.66|        145327.48|
2018/05/09T05:07:55|       29896.44|        140113411.40|        147910.64|
2018/05/09T05:07:56|       29359.04|        142711886.47|        149296.22|
2018/05/09T05:07:57|       29336.72|        141451684.04|        148197.11|
2018/05/09T05:07:58|       30058.46|        138084310.99|        147143.22|
2018/05/09T05:07:59|       29917.65|        134986900.13|        144588.85|
2018/05/09T05:08:00|       29743.32|        145798113.56|        151626.32|
2018/05/09T05:08:01|       29542.92|        148295564.03|        152195.88|
2018/05/09T05:08:02|       30090.93|        150558593.19|        154907.01|
2018/05/09T05:08:03|       29288.07|        147693444.75|        151509.56|
2018/05/09T05:08:04|       30532.46|        139427531.72|        147312.41|
2018/05/09T05:08:05|       30120.06|        138290645.18|        146399.54|
2018/05/09T05:08:06|       29590.06|        138639449.48|        146025.27|
2018/05/09T05:08:07|        9264.43|        132532796.71|        122311.98|
2018/05/09T05:08:08|        8762.35|        133607494.27|        122357.74|
2018/05/09T05:08:09|        8739.08|        136446407.15|        124179.93|
2018/05/09T05:08:10|        8767.71|        138188860.28|        125750.35|
2018/05/09T05:08:11|        8597.53|        139482473.50|        126715.65|
2018/05/09T05:08:12|        8699.92|        138480568.57|        126284.12|
2018/05/09T05:08:13|        8890.29|        138813291.70|        126809.94|
2018/05/09T05:08:14|        8909.27|        140702158.85|        128978.21|
2018/05/09T05:08:15|        8469.89|        137057756.49|        125636.95|
2018/05/09T05:08:16|        8619.46|        138665532.42|        126468.61|
2018/05/09T05:08:17|        8848.40|        139196753.84|        127917.26|
2018/05/09T05:08:18|        8538.62|        143385022.55|        131339.55|
2018/05/09T05:08:19|        9096.42|        140215043.91|        128380.09|
2018/05/09T05:08:20|      176280.20|        142975973.45|        294671.15|
2018/05/09T05:08:21|       79982.42|        139891051.20|        199657.91|
2018/05/09T05:08:22|       21461.45|        139458814.36|        142156.03|
2018/05/09T05:08:23|       86351.10|        142356280.53|        211218.39|
2018/05/09T05:08:24|       42407.95|        145649466.87|        167196.66|
2018/05/09T05:08:25|       22916.32|        146231113.79|        148338.61|
2018/05/09T05:08:26|       65543.83|        147942223.89|        192125.41|
2018/05/09T05:08:27|       33701.70|        152106170.70|        164851.72|
2018/05/09T05:08:28|       24049.50|        150238663.70|        153861.49|
2018/05/09T05:08:29|       56536.95|        143673358.20|        181450.21|
2018/05/09T05:08:30|       30845.54|        142115809.06|        155051.48|
2018/05/09T05:08:31|       25712.83|        135091567.53|        145238.34|
2018/05/09T05:08:32|       50387.00|        133774516.23|        168690.47|
2018/05/09T05:08:33|       29857.22|        134539436.07|        149644.31|
2018/05/09T05:08:34|       26047.42|        135805793.99|        147788.83|
2018/05/09T05:08:35|       46219.36|        142574250.76|        171877.05|
2018/05/09T05:08:36|       29448.30|        139873211.45|        153410.29|
2018/05/09T05:08:37|       26852.05|        136634001.26|        148564.43|
2018/05/09T05:08:38|       43342.04|        142571831.13|        170331.71|
2018/05/09T05:08:39|       29929.81|        137401616.52|        152710.50|
2018/05/09T05:08:40|       27702.36|        138385716.80|        150396.89|
2018/05/09T05:08:41|       40635.37|        139543856.38|        162456.17|
2018/05/09T05:08:42|       29443.06|        143790016.74|        155349.55|
2018/05/09T05:08:43|       27848.15|        139525057.60|        150631.13|
2018/05/09T05:08:44|       39000.08|        137021135.08|        159568.78|
2018/05/09T05:08:45|       30777.57|        137603613.83|        153168.14|
2018/05/09T05:08:46|       28125.10|        139779442.67|        151642.62|
2018/05/09T05:08:47|       37135.62|        140487982.44|        160331.27|
2018/05/09T05:08:48|       30171.86|        142366747.23|        153301.20|
2018/05/09T05:08:49|       28462.53|        141126089.69|        150819.25|
2018/05/09T05:08:50|       35543.48|        142210424.60|        158557.69|
2018/05/09T05:08:51|       29814.32|        141650958.16|        151493.78|
2018/05/09T05:08:52|       28724.01|        134691670.40|        144740.97|
2018/05/09T05:08:53|       34586.14|        138856907.77|        153678.58|
2018/05/09T05:08:54|       29782.49|        141262612.58|        151140.70|
2018/05/09T05:08:55|       29433.77|        137689247.78|        147868.55|
2018/05/09T05:08:56|       33302.18|        139966121.03|        153644.93|
2018/05/09T05:08:57|       30181.42|        142563960.57|        152652.71|
2018/05/09T05:08:58|       29636.51|        142139602.46|        151654.22|
2018/05/09T05:08:59|       33067.68|        140102191.26|        153324.99|
2018/05/09T05:09:00|       30386.98|        136982798.14|        148864.83|
2018/05/09T05:09:01|       29965.08|        138790147.74|        150396.11|
2018/05/09T05:09:02|       30183.36|        138949697.03|        150635.76|
2018/05/09T05:09:03|       29350.39|        139260760.10|        149929.07|
2018/05/09T05:09:04|       29979.59|        152121584.18|        161403.07|
2018/05/09T05:09:05|       29619.56|        144504754.79|        155464.79|
2018/05/09T05:09:06|       29442.50|        142899462.27|        154202.90|
2018/05/09T05:09:07|       29848.92|        142511269.45|        154090.91|
2018/05/09T05:09:08|       29537.15|        142252013.94|        153367.08|
2018/05/09T05:09:09|       29660.14|        140289412.03|        151823.88|
2018/05/09T05:09:10|       30399.53|        137963499.49|        151250.20|
2018/05/09T05:09:11|       30064.09|        135410034.28|        150168.75|
2018/05/09T05:09:12|       30120.52|        137267513.67|        151616.17|
2018/05/09T05:09:13|       29939.06|        142656783.82|        155545.92|
2018/05/09T05:09:14|       29882.86|        143038253.93|        155839.66|
2018/05/09T05:09:15|       29668.77|        143751515.26|        156911.02|
2018/05/09T05:09:16|       30235.36|        140843563.78|        154433.72|
2018/05/09T05:09:17|       29688.41|        143326568.55|        156264.35|
2018/05/09T05:09:18|       30111.25|        142633921.06|        155787.62|
2018/05/09T05:09:19|       30170.90|        150102755.47|        159956.04|
2018/05/09T05:09:20|       30169.28|        149806218.25|        159713.44|
2018/05/09T05:09:21|       29544.08|        153234003.71|        161268.95|
2018/05/09T05:09:22|       31753.42|        152279783.34|        163017.04|
2018/05/09T05:09:23|       29631.72|        150048735.30|        159445.83|
2018/05/09T05:09:24|       29734.82|        149905498.52|        159351.75|
2018/05/09T05:09:25|       29932.47|        149025570.89|        158312.72|
2018/05/09T05:09:26|       30241.74|        156548913.23|        163834.39|
2018/05/09T05:09:27|       29727.26|        152829074.56|        160567.75|
2018/05/09T05:09:28|       30389.69|        155308378.64|        163824.90|
2018/05/09T05:09:29|       29901.44|        142862191.44|        154803.82|
2018/05/09T05:09:30|       30420.37|        141206656.40|        153026.12|
2018/05/09T05:09:31|       30291.31|        143053430.51|        154417.32|
2018/05/09T05:09:32|       30206.77|        139715214.01|        151922.62|
2018/05/09T05:09:33|       29574.19|        140762741.33|        152102.38|
2018/05/09T05:09:34|       30146.11|        139961729.97|        152069.32|
2018/05/09T05:09:35|       29735.62|        147195608.93|        156772.42|
2018/05/09T05:09:36|       29778.53|        142945412.68|        153852.06|
2018/05/09T05:09:37|       30366.67|        138322715.42|        151192.97|
2018/05/09T05:09:38|       30057.28|        138989349.50|        151370.56|
2018/05/09T05:09:39|       29289.87|        137089614.57|        149597.15|
2018/05/09T05:09:40|       30294.33|        134567787.93|        150327.68|
2018/05/09T05:09:41|       30058.79|        135162228.48|        152148.99|
2018/05/09T05:09:42|       29928.14|        142734663.82|        157875.28|
2018/05/09T05:09:43|       30411.77|        140761365.71|        156402.62|
2018/05/09T05:09:44|       30119.81|        138083600.04|        154004.77|
2018/05/09T05:09:45|       29697.34|        137560790.59|        153812.32|
2018/05/09T05:09:46|       30256.96|        138622182.58|        154939.20|
2018/05/09T05:09:47|       29780.11|        138944131.88|        154167.42|
2018/05/09T05:09:48|       29936.48|        135252277.83|        151937.73|
2018/05/09T05:09:49|       30235.27|        131959276.94|        150665.52|
2018/05/09T05:09:50|       29874.41|        133731460.66|        150675.98|
2018/05/09T05:09:51|       29477.08|        143965263.99|        156489.57|
2018/05/09T05:09:52|       29986.06|        144488692.38|        156677.13|
2018/05/09T05:09:53|       30172.89|        140159784.18|        153948.08|
2018/05/09T05:09:54|       29448.72|        145273552.41|        156906.17|
2018/05/09T05:09:55|       30268.62|        148358308.24|        159549.42|
2018/05/09T05:09:56|       30114.16|        149749320.90|        161014.86|
2018/05/09T05:09:57|       29469.28|        146745349.08|        158568.79|
2018/05/09T05:09:58|       30362.69|        144078374.61|        156505.50|
2018/05/09T05:09:59|       29877.51|        142713063.02|        154646.44|
2018/05/09T05:10:00|       30667.42|        141280407.59|        154376.31|
2018/05/09T05:10:01|       30248.67|        140756194.44|        154476.67|
2018/05/09T05:10:02|       30525.66|        144559296.88|        158018.55|
2018/05/09T05:10:03|       30012.65|        140766021.01|        153762.14|
2018/05/09T05:10:04|       30068.52|        143358433.85|        155906.96|
2018/05/09T05:10:05|       29599.61|        143601325.50|        155722.72|
2018/05/09T05:10:06|       30158.81|        144160040.94|        156846.03|
2018/05/09T05:10:07|       29847.06|        145144445.04|        156974.89|
2018/05/09T05:10:08|       29897.16|        149942441.57|        160804.25|
2018/05/09T05:10:09|       29821.55|        144227977.12|        154472.15|
2018/05/09T05:10:10|       29967.02|        144490159.55|        154323.83|
2018/05/09T05:10:11|       29912.14|        145655423.48|        155273.06|
2018/05/09T05:10:12|       29938.14|        144108119.70|        153433.99|
2018/05/09T05:10:13|       30261.67|        146211048.56|        155511.48|
2018/05/09T05:10:14|       30134.78|        145807139.89|        154942.63|
2018/05/09T05:10:15|       29648.53|        146280015.06|        154790.08|
2018/05/09T05:10:16|       30959.35|        142418814.54|        153225.65|
2018/05/09T05:10:17|       30826.23|        140928653.99|        151172.52|
2018/05/09T05:10:18|       29855.62|        135671781.79|        146976.45|
2018/05/09T05:10:19|       30530.86|        137834755.11|        149388.30|
2018/05/09T05:10:20|       30050.96|        142218787.97|        151847.08|
2018/05/09T05:10:21|       29462.60|        139253113.23|        148888.85|
2018/05/09T05:10:22|       30392.32|        142825450.51|        151595.76|
2018/05/09T05:10:23|       29971.57|        144815180.55|        152730.56|
2018/05/09T05:10:24|       29439.45|        141885688.94|        150493.78|
2018/05/09T05:10:25|       30327.62|        138343234.98|        149452.09|
2018/05/09T05:10:26|       30503.67|        136171706.88|        147943.82|
2018/05/09T05:10:27|       29496.46|        134598418.84|        145864.65|
2018/05/09T05:10:28|       29866.32|        138722932.14|        148599.59|
2018/05/09T05:10:29|       29905.26|        142435650.64|        151548.92|
2018/05/09T05:10:30|       29709.85|        139676696.35|        149780.01|
2018/05/09T05:10:31|       30572.27|        140648381.23|        151251.21|
2018/05/09T05:10:32|       30402.28|        141114955.89|        151612.95|
2018/05/09T05:10:33|       30573.19|        143795540.21|        153511.14|
2018/05/09T05:10:34|       30777.66|        140152679.10|        151089.15|
2018/05/09T05:10:35|       30503.19|        142180454.66|        152608.26|
2018/05/09T05:10:36|       29536.13|        149857226.69|        157719.04|
2018/05/09T05:10:37|       30596.15|        152092410.22|        160351.94|
2018/05/09T05:10:38|       30073.30|        150715330.45|        159179.71|
2018/05/09T05:10:39|       29892.01|        148186197.02|        157017.37|
2018/05/09T05:10:40|       30312.07|        147633582.87|        156758.61|
2018/05/09T05:10:41|       30500.46|        147455422.12|        156323.43|
2018/05/09T05:10:42|       30172.66|        148635802.07|        156826.65|
2018/05/09T05:10:43|       30916.19|        145788271.09|        156038.62|
2018/05/09T05:10:44|       31176.13|        143955698.47|        154426.57|
2018/05/09T05:10:45|       30233.79|        146767225.04|        155594.91|
2018/05/09T05:10:46|       30866.64|        145562095.55|        155673.55|
2018/05/09T05:10:47|       30531.18|        137946467.13|        150118.02|
2018/05/09T05:10:48|       29902.20|        137595850.53|        150308.48|
2018/05/09T05:10:49|       30670.43|        143789297.45|        155276.42|
2018/05/09T05:10:50|       30423.43|        141718460.89|        153868.85|
2018/05/09T05:10:51|       29920.95|        141868159.63|        153179.86|
2018/05/09T05:10:52|       30742.75|        146402047.74|        156576.94|
2018/05/09T05:10:53|       29960.20|        145712741.04|        155034.21|
2018/05/09T05:10:54|       30233.06|        147578800.27|        156787.22|
2018/05/09T05:10:55|       30659.77|        144241322.39|        155345.98|
2018/05/09T05:10:56|       30235.48|        146580828.32|        157774.58|
2018/05/09T05:10:57|       30269.53|        156328004.41|        167911.33|
2018/05/09T05:10:58|       30778.54|        159024332.97|        170533.95|
2018/05/09T05:10:59|       30215.66|        160439313.35|        170854.54|
2018/05/09T05:11:00|       30098.33|        152483360.14|        164541.55|
2018/05/09T05:11:01|       30403.10|        155026454.55|        166077.30|
2018/05/09T05:11:02|       30289.71|        150322560.85|        171873.96|
2018/05/09T05:11:03|       30547.07|        151221065.68|        163956.30|
2018/05/09T05:11:04|       30749.59|        153606682.94|        165585.94|
2018/05/09T05:11:05|       30217.11|        153747817.23|        165265.41|
2018/05/09T05:11:06|       29983.04|        153398375.77|        164496.33|
2018/05/09T05:11:07|       30745.27|        146967843.60|        159809.08|
2018/05/09T05:11:08|       30924.37|        142972819.63|        156387.47|
2018/05/09T05:11:09|       30345.65|        148096101.58|        160550.35|
2018/05/09T05:11:10|       30804.24|        153875371.12|        165372.18|
2018/05/09T05:11:11|       30778.59|        154674652.38|        166744.44|
2018/05/09T05:11:12|       30552.62|        151263348.06|        164725.08|
2018/05/09T05:11:13|       30892.64|        151491334.75|        164882.82|
2018/05/09T05:11:14|       30471.57|        148589786.87|        162316.88|
2018/05/09T05:11:15|       30008.04|        145071083.89|        158034.12|
2018/05/09T05:11:16|       30654.54|        148020921.44|        160847.09|
2018/05/09T05:11:17|       30227.34|        149158072.76|        161447.62|
2018/05/09T05:11:18|       29420.59|        148719773.04|        160053.57|
2018/05/09T05:11:19|       30120.48|        152264430.02|        162893.59|
2018/05/09T05:11:20|       30505.34|        152310090.43|        163301.17|
2018/05/09T05:11:21|       29773.71|        156907821.24|        166566.96|
2018/05/09T05:11:22|       31306.64|        144317503.74|        158708.06|
2018/05/09T05:11:23|       31071.56|        151370935.97|        163346.57|
2018/05/09T05:11:24|       30368.37|        151184430.22|        162615.27|
2018/05/09T05:11:25|       30845.44|        151814622.68|        163681.74|
2018/05/09T05:11:26|       30346.76|        145460734.65|        158766.31|
2018/05/09T05:11:27|       29391.01|        140529718.49|        153833.03|
2018/05/09T05:11:28|       30249.98|        139172184.72|        153022.06|
2018/05/09T05:11:29|       29866.96|        135001727.86|        149961.07|
2018/05/09T05:11:30|       29469.91|        135543540.83|        149700.91|
2018/05/09T05:11:31|       30379.61|        135702876.87|        150595.45|
2018/05/09T05:11:32|       29669.81|        134975401.70|        150399.32|
2018/05/09T05:11:33|       29636.67|        138987373.32|        152997.11|
2018/05/09T05:11:34|       30259.72|        140365026.19|        154456.18|
2018/05/09T05:11:35|       30316.70|        138314388.05|        152376.35|
2018/05/09T05:11:36|       30156.24|        140424601.36|        152248.43|
2018/05/09T05:11:37|       30404.46|        138121485.11|        151393.66|
2018/05/09T05:11:38|       30036.85|        144846785.37|        155849.16|
2018/05/09T05:11:39|       30005.12|        146997313.96|        157302.86|
2018/05/09T05:11:40|       30470.61|        150480705.83|        160439.01|
2018/05/09T05:11:41|       30080.43|        149296423.75|        159715.25|
2018/05/09T05:11:42|       30615.06|        153296271.93|        163188.55|
2018/05/09T05:11:43|       31017.81|        142337605.26|        154289.02|
2018/05/09T05:11:44|       29907.19|        142977744.46|        153735.67|
2018/05/09T05:11:45|       30295.25|        142010697.66|        153327.42|
2018/05/09T05:11:46|       30583.78|        140440249.61|        153162.69|
2018/05/09T05:11:47|       30410.46|        135765394.16|        149611.40|
2018/05/09T05:11:48|       30247.22|        137315148.70|        151027.35|
2018/05/09T05:11:49|       30800.20|        138276817.38|        154301.02|
2018/05/09T05:11:50|       30381.00|        136842183.25|        154030.24|
2018/05/09T05:11:51|       30328.15|        139788727.91|        152568.77|
2018/05/09T05:11:52|       30407.00|        137730450.09|        151325.35|
2018/05/09T05:11:53|       30182.09|        135411458.61|        149845.19|
2018/05/09T05:11:54|       30266.18|        141408111.38|        154347.10|
2018/05/09T05:11:55|       30631.95|        143346625.54|        156227.59|
2018/05/09T05:11:56|       30091.72|        146954479.73|        157067.37|
2018/05/09T05:11:57|       29851.04|        146837079.18|        155822.64|
2018/05/09T05:11:58|       30538.81|        146305043.18|        156238.02|
2018/05/09T05:11:59|       30194.11|        155234722.62|        162988.59|
2018/05/09T05:12:00|       31908.31|        150832971.12|        161588.68|
2018/05/09T05:12:01|       35711.55|        156948543.23|        168701.88|
2018/05/09T05:12:02|       35625.94|        158195980.75|        169996.12|
2018/05/09T05:12:03|       35527.39|        154994034.24|        168988.18|
2018/05/09T05:12:04|       35473.20|        154508121.53|        168124.96|
2018/05/09T05:12:05|       35407.85|        154676200.16|        168729.79|
2018/05/09T05:12:06|       35221.03|        153658830.91|        168355.83|
2018/05/09T05:12:07|       33434.47|        153436860.37|        166689.53|
2018/05/09T05:12:08|       30282.15|        158045101.54|        166321.48|
2018/05/09T05:12:09|       30032.69|        152309623.32|        162561.24|
2018/05/09T05:12:10|       30636.10|        157030775.08|        166151.67|
2018/05/09T05:12:11|       30375.52|        157508913.91|        165802.73|
2018/05/09T05:12:12|       30147.29|        159913821.02|        166316.75|
2018/05/09T05:12:13|       30211.02|        159734389.69|        166576.77|
2018/05/09T05:12:14|       29875.89|        159613092.55|        166057.35|
2018/05/09T05:12:15|       29622.00|        166113665.76|        170723.03|
2018/05/09T05:12:16|       30933.97|        162090887.66|        169639.98|
2018/05/09T05:12:17|       29901.20|        158565138.07|        165607.90|
2018/05/09T05:12:18|       30774.21|        159247827.22|        167299.26|
2018/05/09T05:12:19|       30561.25|        155402772.76|        163299.20|
2018/05/09T05:12:20|       29633.86|        156843238.52|        163747.25|
2018/05/09T05:12:21|       29852.23|        162626995.79|        168436.96|
2018/05/09T05:12:22|       30153.13|        162364846.14|        168754.00|
2018/05/09T05:12:23|       29471.76|        159239138.26|        165653.56|
2018/05/09T05:12:24|       29787.85|        155172841.28|        163362.90|
2018/05/09T05:12:25|       30022.51|        162229601.01|        168566.57|
2018/05/09T05:12:26|       30140.39|        164430639.77|        169760.35|
2018/05/09T05:12:27|       30071.96|        167510949.40|        170957.99|
2018/05/09T05:12:28|       30637.60|        158004030.70|        165569.04|
2018/05/09T05:12:29|       31201.39|        172305625.98|        175710.64|
2018/05/09T05:12:30|       29910.75|        158620220.04|        164563.12|
2018/05/09T05:12:31|       29685.24|        158153885.79|        163325.39|
2018/05/09T05:12:32|       29814.51|        157783403.32|        163135.47|
2018/05/09T05:12:33|       29596.18|        160039917.71|        165145.60|
2018/05/09T05:12:34|       29934.34|        153160269.13|        160301.74|
2018/05/09T05:12:35|       29275.57|        152167111.19|        157983.24|
2018/05/09T05:12:36|       30001.47|        153678860.29|        160701.19|
2018/05/09T05:12:37|       30087.71|        149914870.38|        158068.60|
2018/05/09T05:12:38|       29708.86|        147200658.28|        156175.30|
2018/05/09T05:12:39|       29518.54|        149510729.62|        163488.52|
2018/05/09T05:12:40|       30268.04|        150633547.10|        166020.73|
2018/05/09T05:12:41|       29785.19|        148650633.11|        164006.59|
2018/05/09T05:12:42|       29244.28|        151938196.98|        165742.16|
2018/05/09T05:12:43|       30118.01|        154224858.65|        169380.56|
2018/05/09T05:12:44|       29697.98|        154340831.65|        170345.45|
2018/05/09T05:12:45|       29500.86|        154993029.43|        169753.91|
2018/05/09T05:12:46|       29930.82|        155609538.79|        168683.62|
2018/05/09T05:12:47|       29663.78|        157389398.41|        169029.37|
2018/05/09T05:12:48|       29610.65|        160112404.64|        171289.92|
2018/05/09T05:12:49|       30275.95|        160350207.76|        171049.00|
2018/05/09T05:12:50|       29614.83|        161705178.61|        170483.20|
2018/05/09T05:12:51|       29592.31|        163538819.68|        171476.06|
2018/05/09T05:12:52|       30230.07|        162929369.74|        172465.00|
2018/05/09T05:12:53|       29682.84|        163657117.06|        173586.82|
2018/05/09T05:12:54|       29341.96|        159032270.57|        170567.71|
2018/05/09T05:12:55|       29629.89|        158483033.87|        168917.59|
2018/05/09T05:12:56|       29828.25|        155775327.49|        166588.09|
2018/05/09T05:12:57|       29670.17|        156372106.07|        166516.26|
2018/05/09T05:12:58|       30167.59|        148895990.74|        161236.53|
2018/05/09T05:12:59|       29607.97|        148663301.41|        160707.31|
2018/05/09T05:13:00|       29797.74|        148605425.22|        161130.60|
2018/05/09T05:13:01|       31590.65|        146610789.04|        171389.69|
2018/05/09T05:13:02|       31814.37|        146805058.10|        171085.24|
2018/05/09T05:13:03|       31602.43|        145098515.01|        169267.20|
2018/05/09T05:13:04|       31777.67|        148988911.70|        172479.23|
2018/05/09T05:13:05|       32075.73|        151188903.91|        174839.53|
2018/05/09T05:13:06|       31628.59|        154247837.87|        176854.04|
2018/05/09T05:13:07|       32088.10|        149250335.94|        172804.08|
2018/05/09T05:13:08|       31678.63|        152614762.88|        174273.65|
2018/05/09T05:13:09|       31587.55|        149905594.03|        171925.57|
2018/05/09T05:13:10|       32797.21|        149891622.13|        173692.64|
2018/05/09T05:13:11|       31729.84|        146170977.26|        169877.12|
2018/05/09T05:13:12|       31466.36|        144920416.27|        168611.38|
2018/05/09T05:13:13|       32369.43|        144146758.64|        169324.05|
2018/05/09T05:13:14|       31397.45|        149854335.84|        171412.84|
2018/05/09T05:13:15|       31602.09|        152743121.48|        174025.26|
2018/05/09T05:13:16|       32198.90|        150921491.13|        173329.35|
2018/05/09T05:13:17|       31654.16|        149336137.93|        171989.68|
2018/05/09T05:13:18|       31208.17|        143436358.97|        164227.08|
2018/05/09T05:13:19|       31853.92|        148428995.82|        167603.25|
2018/05/09T05:13:20|       31818.14|        145341984.94|        159314.62|
2018/05/09T05:13:21|       31623.24|        143424865.42|        154543.70|
2018/05/09T05:13:22|       32043.21|        142100461.51|        153558.97|
2018/05/09T05:13:23|       31312.17|        144810768.23|        154772.13|
2018/05/09T05:13:24|       31740.49|        146563421.73|        156720.37|
2018/05/09T05:13:25|       30841.74|        145116031.82|        157208.75|
2018/05/09T05:13:26|       31497.81|        147582769.01|        159937.42|
2018/05/09T05:13:27|       31159.85|        148541644.58|        161594.97|
2018/05/09T05:13:28|       32106.65|        158120306.08|        168689.65|
2018/05/09T05:13:29|       31360.87|        147202910.17|        160224.69|
2018/05/09T05:13:30|       31745.33|        145257067.05|        158995.27|
2018/05/09T05:13:31|       31873.20|        153750769.43|        164891.04|
2018/05/09T05:13:32|       31765.49|        172920417.99|        172542.33|
2018/05/09T05:13:33|       31194.44|        169356089.14|        169160.63|
2018/05/09T05:13:34|       30755.30|        149109353.07|        159472.68|
2018/05/09T05:13:35|       30550.09|        140931404.87|        151928.61|
2018/05/09T05:13:36|       30005.27|        140667624.68|        150878.76|
2018/05/09T05:13:37|       29960.35|        155141187.08|        160971.08|
2018/05/09T05:13:38|       29685.84|        160205820.38|        164192.15|
2018/05/09T05:13:39|       29665.75|        155674833.36|        161223.07|
2018/05/09T05:13:40|       29476.54|        153168145.00|        160527.28|
2018/05/09T05:13:41|       30179.64|        151690443.73|        160233.28|
2018/05/09T05:13:42|       29394.41|        155292945.79|        162318.17|
2018/05/09T05:13:43|       29631.32|        155472224.12|        162219.25|
2018/05/09T05:13:44|       29743.81|        158628715.56|        164368.66|
2018/05/09T05:13:45|       29307.96|        157784422.66|        162983.10|
2018/05/09T05:13:46|       29655.47|        164641283.12|        168187.84|
2018/05/09T05:13:47|       29320.27|        166352151.92|        169186.34|
2018/05/09T05:13:48|       29046.54|        166696326.02|        170907.88|
2018/05/09T05:13:49|       30234.45|        165483649.92|        170942.63|
2018/05/09T05:13:50|       29566.24|        162611029.15|        168157.59|
2018/05/09T05:13:51|       29498.62|        164279206.18|        168674.88|
2018/05/09T05:13:52|       30179.12|        167901375.51|        172295.38|
2018/05/09T05:13:53|       29982.80|        157465383.10|        165069.37|
2018/05/09T05:13:54|       29446.81|        152659991.89|        161652.08|
2018/05/09T05:13:55|       30281.39|        150465064.69|        161676.70|
2018/05/09T05:13:56|       29382.65|        152766142.02|        162497.37|
2018/05/09T05:13:57|       29089.81|        167890983.27|        172024.94|
2018/05/09T05:13:58|       29698.16|        160674251.85|        167873.08|
2018/05/09T05:13:59|       29825.99|        160133604.13|        167528.28|
2018/05/09T05:14:00|       29336.29|        156842769.65|        164441.39|
2018/05/09T05:14:01|       30213.79|        150360530.12|        159950.04|
2018/05/09T05:14:02|       30213.33|        148838836.37|        158508.04|
2018/05/09T05:14:03|       30734.55|        154644349.62|        163280.47|
2018/05/09T05:14:04|       30185.38|        159848465.75|        166049.90|
2018/05/09T05:14:05|       29760.53|        156926616.23|        163429.28|
2018/05/09T05:14:06|       29418.06|        157029547.34|        163148.17|
2018/05/09T05:14:07|       30464.13|        151806001.86|        160273.04|
2018/05/09T05:14:08|       30044.57|        153199699.86|        161729.15|
2018/05/09T05:14:09|       29529.72|        152863143.79|        161122.46|
2018/05/09T05:14:10|       29952.52|        157566489.35|        163289.82|
2018/05/09T05:14:11|       29605.74|        157398853.96|        162269.08|
2018/05/09T05:14:12|       29943.37|        159981089.44|        163322.18|
2018/05/09T05:14:13|       30059.67|        166451049.98|        168689.75|
2018/05/09T05:14:14|       30720.42|        170093959.23|        172000.34|
2018/05/09T05:14:15|       29643.22|        169989448.81|        171350.07|
2018/05/09T05:14:16|       30429.88|        169136978.75|        171429.53|
2018/05/09T05:14:17|       29742.67|        170878415.52|        172123.82|
2018/05/09T05:14:18|       29352.98|        173977718.05|        173805.96|
2018/05/09T05:14:19|       29968.83|        171524945.39|        171779.31|
2018/05/09T05:14:20|       30146.33|        169207680.14|        169671.14|
2018/05/09T05:14:21|       29760.11|        169880502.60|        170310.04|
2018/05/09T05:14:22|       30157.94|        163333953.97|        165609.27|
2018/05/09T05:14:23|       29606.94|        160747601.55|        162879.69|
2018/05/09T05:14:24|       29694.65|        157235435.46|        160427.92|
2018/05/09T05:14:25|       30185.38|        153504391.64|        158460.85|
2018/05/09T05:14:26|       29822.21|        158703467.65|        163045.09|
2018/05/09T05:14:27|       29459.68|        157837235.96|        160601.62|
2018/05/09T05:14:28|       30261.14|        153623224.02|        158089.26|
2018/05/09T05:14:29|       29667.16|        149309124.57|        154747.22|
2018/05/09T05:14:30|       30174.65|        145359188.43|        153253.63|
2018/05/09T05:14:31|       30292.22|        148945039.67|        155061.26|
2018/05/09T05:14:32|       30558.05|        150450865.54|        155585.72|
2018/05/09T05:14:33|       29866.56|        151772168.22|        156246.58|
2018/05/09T05:14:34|       29965.12|        144988194.22|        152828.61|
2018/05/09T05:14:35|       29625.78|        142838482.86|        150919.76|
2018/05/09T05:14:36|       29640.82|        147011001.18|        153999.33|
2018/05/09T05:14:37|       29629.50|        141720359.05|        150350.90|
2018/05/09T05:14:38|       29695.57|        142726861.53|        150934.49|
2018/05/09T05:14:39|       29496.73|        148837958.49|        158368.60|
2018/05/09T05:14:40|       30092.00|        150868947.07|        156798.06|
2018/05/09T05:14:41|       30469.91|        154526566.49|        159467.68|
2018/05/09T05:14:42|       30228.09|        155093996.16|        159383.46|
2018/05/09T05:14:43|       30844.64|        144458508.63|        152578.64|
2018/05/09T05:14:44|       29532.63|        150707280.01|        156352.00|
2018/05/09T05:14:45|       29956.67|        150205705.33|        154614.58|
2018/05/09T05:14:46|       29872.98|        148590227.48|        153824.84|
2018/05/09T05:14:47|       29429.44|        148317012.35|        153845.34|
2018/05/09T05:14:48|       29306.35|        147825625.14|        153626.63|
2018/05/09T05:14:49|       30098.57|        146600185.12|        152837.90|
2018/05/09T05:14:50|       29354.54|        148535089.72|        153071.83|
2018/05/09T05:14:51|       29404.58|        147477484.04|        151894.33|
2018/05/09T05:14:52|       29891.03|        140773745.95|        146711.16|
2018/05/09T05:14:53|       29717.81|        138586854.44|        145484.47|
2018/05/09T05:14:54|       29204.55|        140063977.09|        147263.48|
2018/05/09T05:14:55|       30240.44|        132624617.31|        142694.78|
2018/05/09T05:14:56|       29648.92|        117150156.48|        131385.18|
2018/05/09T05:14:57|       29901.68|        115796429.89|        131479.17|
2018/05/09T05:14:58|       29929.11|        104784314.21|        123704.91|
2018/05/09T05:14:59|       29781.67|         84863427.85|        107250.10|
2018/05/09T05:15:00|        1140.39|          1590915.45|          2632.41|
