               Date|        Records|               Bytes|          Packets|
2018/05/09T05:15:00|       28414.39|         76839074.30|         97277.32|
2018/05/09T05:15:01|       30501.12|         85737064.47|        108686.44|
2018/05/09T05:15:02|       29646.11|         89640364.63|        110502.08|
2018/05/09T05:15:03|       29898.07|        102144631.65|        120250.12|
2018/05/09T05:15:04|       30141.52|        108588251.77|        125634.11|
2018/05/09T05:15:05|       29567.48|        114578468.92|        129283.32|
2018/05/09T05:15:06|       30115.82|        111062522.67|        127681.51|
2018/05/09T05:15:07|       30474.35|        103094212.31|        119780.73|
2018/05/09T05:15:08|       29981.57|        106432973.27|        121999.65|
2018/05/09T05:15:09|       29708.06|        110226540.45|        125719.62|
2018/05/09T05:15:10|       30637.63|        117102849.28|        130271.21|
2018/05/09T05:15:11|       29950.95|        120334024.62|        132089.42|
2018/05/09T05:15:12|       29431.45|        118223569.44|        130251.90|
2018/05/09T05:15:13|       29854.80|        112864318.25|        126416.06|
2018/05/09T05:15:14|       29888.41|        106765831.28|        122377.52|
2018/05/09T05:15:15|       29738.45|        105740795.48|        121985.07|
2018/05/09T05:15:16|       30069.45|        101277357.32|        119415.92|
2018/05/09T05:15:17|       29849.15|         99220476.07|        117589.23|
2018/05/09T05:15:18|       29717.09|        108386951.26|        124406.44|
2018/05/09T05:15:19|       30232.52|        114024909.86|        128956.69|
2018/05/09T05:15:20|       30269.38|        112932444.10|        128253.50|
2018/05/09T05:15:21|       29655.50|        116564509.50|        130523.32|
2018/05/09T05:15:22|       30219.33|        116329934.62|        129184.76|
2018/05/09T05:15:23|       30021.21|        114815311.43|        128238.21|
2018/05/09T05:15:24|       30095.95|        106826471.19|        122697.86|
2018/05/09T05:15:25|       29913.45|        104350396.24|        121002.77|
2018/05/09T05:15:26|       29673.69|        109842717.12|        124843.18|
2018/05/09T05:15:27|       29677.99|        113784651.92|        127956.78|
2018/05/09T05:15:28|       30160.76|        114656563.58|        128758.28|
2018/05/09T05:15:29|       29704.56|        114689552.88|        128644.74|
2018/05/09T05:15:30|       29397.90|        109550067.11|        124574.73|
2018/05/09T05:15:31|       30034.22|        111158220.60|        126277.09|
2018/05/09T05:15:32|       29664.76|        112621185.17|        126574.57|
2018/05/09T05:15:33|       29590.80|        112720433.93|        126220.01|
2018/05/09T05:15:34|       30250.22|        114232829.50|        128873.42|
2018/05/09T05:15:35|       29815.22|        110836642.05|        126625.61|
2018/05/09T05:15:36|       29640.44|        113585572.52|        128657.00|
2018/05/09T05:15:37|       29759.36|        114369713.22|        128630.08|
2018/05/09T05:15:38|       29566.94|        108579589.83|        124047.25|
2018/05/09T05:15:39|       29596.44|        109501361.77|        125310.92|
2018/05/09T05:15:40|       29952.68|        108188771.39|        124230.26|
2018/05/09T05:15:41|       29953.52|        112900024.86|        127654.17|
2018/05/09T05:15:42|       29636.36|        122022666.69|        134079.90|
2018/05/09T05:15:43|       30378.25|        123585826.09|        136812.91|
2018/05/09T05:15:44|       30089.31|        133756497.74|        144980.83|
2018/05/09T05:15:45|       29786.98|        134831767.09|        144637.93|
2018/05/09T05:15:46|       30621.96|        128504299.48|        140624.72|
2018/05/09T05:15:47|       30420.11|        125294572.91|        138658.72|
2018/05/09T05:15:48|       30164.45|        126149918.83|        139191.23|
2018/05/09T05:15:49|       30087.52|        129577243.29|        140831.19|
2018/05/09T05:15:50|       29932.99|        135404444.86|        145473.31|
2018/05/09T05:15:51|       29508.55|        127632439.45|        139597.99|
2018/05/09T05:15:52|       29144.07|        130510295.28|        141195.64|
2018/05/09T05:15:53|       29147.90|        130222838.02|        140741.97|
2018/05/09T05:15:54|       28876.97|        137945898.60|        145618.72|
2018/05/09T05:15:55|       29562.39|        141676851.94|        148685.65|
2018/05/09T05:15:56|       29595.27|        145068535.74|        150389.41|
2018/05/09T05:15:57|       28919.02|        153906912.40|        156072.48|
2018/05/09T05:15:58|       29495.26|        143529957.45|        150384.28|
2018/05/09T05:15:59|       29445.90|        134000365.25|        144081.96|
2018/05/09T05:16:00|       28888.68|        135110629.77|        143231.64|
2018/05/09T05:16:01|       29550.71|        134869114.19|        143154.69|
2018/05/09T05:16:02|       29124.72|        137163089.37|        144449.48|
2018/05/09T05:16:03|       29220.30|        130160716.67|        139544.15|
2018/05/09T05:16:04|       30071.44|        129035029.21|        140076.87|
2018/05/09T05:16:05|       29709.91|        120219840.25|        133483.18|
2018/05/09T05:16:06|       29114.65|        117617206.66|        131175.42|
2018/05/09T05:16:07|       29256.15|        124495424.20|        137228.52|
2018/05/09T05:16:08|       29554.95|        120329611.43|        135282.14|
2018/05/09T05:16:09|       29335.55|        121058934.16|        135172.49|
2018/05/09T05:16:10|       29764.00|        124723664.23|        137755.89|
2018/05/09T05:16:11|       30251.54|        120063338.08|        133131.76|
2018/05/09T05:16:12|       28954.78|        115952605.54|        128607.07|
2018/05/09T05:16:13|       29666.86|        113719518.27|        129993.57|
2018/05/09T05:16:14|       29890.98|        118196431.89|        134004.81|
2018/05/09T05:16:15|       29314.80|        118510642.07|        130293.81|
2018/05/09T05:16:16|       29867.59|        120853793.49|        132466.92|
2018/05/09T05:16:17|       30781.03|        122020681.53|        133501.20|
2018/05/09T05:16:18|       30156.20|        124755449.87|        134637.95|
2018/05/09T05:16:19|       29682.66|        132213911.32|        139349.26|
2018/05/09T05:16:20|       30536.47|        132226966.45|        140316.20|
2018/05/09T05:16:21|       29282.15|        132438031.00|        138587.64|
2018/05/09T05:16:22|       29985.32|        131412078.56|        138827.57|
2018/05/09T05:16:23|       30026.15|        132745522.26|        140058.19|
2018/05/09T05:16:24|       29396.49|        129465256.43|        137609.93|
2018/05/09T05:16:25|       30385.19|        142306805.47|        150491.90|
2018/05/09T05:16:26|       29675.95|        137078694.17|        146145.26|
2018/05/09T05:16:27|       29434.02|        137737200.08|        146278.98|
2018/05/09T05:16:28|       30812.07|        141562244.88|        151219.87|
2018/05/09T05:16:29|       29724.21|        137317808.32|        146927.89|
2018/05/09T05:16:30|       30000.16|        141276703.26|        150434.40|
2018/05/09T05:16:31|       29693.97|        145578900.59|        152842.74|
2018/05/09T05:16:32|       29631.14|        139266954.16|        148702.82|
2018/05/09T05:16:33|       29197.35|        136731188.13|        146651.16|
2018/05/09T05:16:34|       29836.62|        139892862.76|        148834.99|
2018/05/09T05:16:35|       30020.38|        138770628.90|        148376.72|
2018/05/09T05:16:36|       29830.21|        138684840.39|        148305.62|
2018/05/09T05:16:37|       29708.97|        142667915.41|        151731.91|
2018/05/09T05:16:38|       30864.85|        136097709.15|        146165.89|
2018/05/09T05:16:39|       29738.70|        130013850.55|        140430.30|
2018/05/09T05:16:40|       30378.96|        129573870.08|        140368.26|
2018/05/09T05:16:41|       29414.07|        139864137.83|        145588.52|
2018/05/09T05:16:42|       30186.23|        130441700.93|        140005.46|
2018/05/09T05:16:43|       30783.35|        130794669.23|        140585.58|
2018/05/09T05:16:44|       30023.68|        124035402.08|        135212.79|
2018/05/09T05:16:45|       30020.77|        123625925.96|        134936.10|
2018/05/09T05:16:46|       30312.84|        130376702.63|        141063.81|
2018/05/09T05:16:47|       29877.86|        135809005.67|        144275.67|
2018/05/09T05:16:48|       29733.35|        133227945.46|        142538.95|
2018/05/09T05:16:49|       30086.98|        138059218.04|        146062.59|
2018/05/09T05:16:50|       30190.77|        138684242.00|        147619.24|
2018/05/09T05:16:51|       30007.53|        137789399.73|        147087.31|
2018/05/09T05:16:52|       30588.95|        138084338.53|        147832.81|
2018/05/09T05:16:53|       30333.33|        146554044.39|        153920.31|
2018/05/09T05:16:54|       30127.39|        145060828.39|        152718.80|
2018/05/09T05:16:55|       30299.50|        142686661.29|        150936.92|
2018/05/09T05:16:56|       29823.96|        134817960.23|        145300.04|
2018/05/09T05:16:57|       29159.66|        135653592.26|        145401.83|
2018/05/09T05:16:58|       30991.15|        135263463.20|        145921.53|
2018/05/09T05:16:59|       29172.08|        131889377.77|        141252.12|
2018/05/09T05:17:00|       29671.21|        127230579.20|        138868.09|
2018/05/09T05:17:01|       29511.68|        123065230.60|        136171.90|
2018/05/09T05:17:02|       29383.68|        119829624.30|        134660.79|
2018/05/09T05:17:03|       29699.93|        123054961.52|        137107.09|
2018/05/09T05:17:04|       29858.64|        120269711.87|        134636.79|
2018/05/09T05:17:05|       29981.97|        121654444.49|        135707.11|
2018/05/09T05:17:06|       29361.02|        119604875.95|        133102.17|
2018/05/09T05:17:07|       30076.52|        122252075.86|        135708.27|
2018/05/09T05:17:08|       29433.49|        128908533.87|        141178.91|
2018/05/09T05:17:09|       29863.31|        126295866.44|        140980.18|
2018/05/09T05:17:10|       29903.11|        136713521.96|        148637.00|
2018/05/09T05:17:11|       29750.10|        130520417.46|        144175.65|
2018/05/09T05:17:12|       29302.84|        134040425.01|        147219.19|
2018/05/09T05:17:13|       29845.59|        142353625.43|        152782.08|
2018/05/09T05:17:14|       29561.03|        143862510.69|        153075.62|
2018/05/09T05:17:15|       29267.43|        151231016.38|        158205.16|
2018/05/09T05:17:16|       30285.25|        146463828.17|        155985.21|
2018/05/09T05:17:17|       29313.83|        140375560.81|        150533.79|
2018/05/09T05:17:18|       31068.31|        140844583.48|        151053.66|
2018/05/09T05:17:19|       29890.32|        140428141.48|        149243.42|
2018/05/09T05:17:20|       28979.42|        142564254.40|        150195.59|
2018/05/09T05:17:21|       29638.94|        146994432.57|        153978.16|
2018/05/09T05:17:22|       29681.05|        143877519.13|        152281.83|
2018/05/09T05:17:23|       29276.39|        139330074.98|        148417.76|
2018/05/09T05:17:24|       29893.55|        132034401.66|        142706.11|
2018/05/09T05:17:25|       29356.42|        135553929.98|        144880.45|
2018/05/09T05:17:26|       29387.86|        138449907.90|        147515.21|
2018/05/09T05:17:27|       29348.46|        137173431.27|        146506.72|
2018/05/09T05:17:28|       29781.03|        144907592.77|        153123.36|
2018/05/09T05:17:29|       29130.12|        145107265.94|        152615.53|
2018/05/09T05:17:30|       29383.99|        143773656.51|        151938.17|
2018/05/09T05:17:31|       29408.80|        143697535.57|        151725.93|
2018/05/09T05:17:32|       29034.56|        146278531.67|        153491.69|
2018/05/09T05:17:33|       28913.33|        148269863.70|        154390.15|
2018/05/09T05:17:34|       29939.67|        148525492.49|        155637.22|
2018/05/09T05:17:35|       29203.06|        144128798.83|        151655.86|
2018/05/09T05:17:36|       29615.01|        142013272.38|        150871.49|
2018/05/09T05:17:37|       29462.89|        138339766.60|        147244.34|
2018/05/09T05:17:38|       29578.32|        133882821.35|        144909.07|
2018/05/09T05:17:39|       29317.09|        138731361.40|        147655.30|
2018/05/09T05:17:40|       29907.90|        137250779.40|        147417.56|
2018/05/09T05:17:41|       29769.30|        140467578.51|        148832.24|
2018/05/09T05:17:42|       29276.83|        149502419.20|        153999.74|
2018/05/09T05:17:43|       29186.35|        138618832.70|        146026.64|
2018/05/09T05:17:44|       29711.77|        141561447.98|        148891.93|
2018/05/09T05:17:45|       29272.25|        138306897.23|        151988.46|
2018/05/09T05:17:46|       29545.70|        133568903.48|        143209.10|
2018/05/09T05:17:47|       29273.28|        132590934.53|        143270.65|
2018/05/09T05:17:48|       29202.82|        135967367.82|        145553.99|
2018/05/09T05:17:49|       29359.94|        130912527.28|        143068.94|
2018/05/09T05:17:50|       29028.46|        128906449.57|        141567.56|
2018/05/09T05:17:51|       29627.65|        131712993.46|        143904.03|
2018/05/09T05:17:52|       29676.38|        133394969.87|        145110.05|
2018/05/09T05:17:53|       29532.80|        133043033.03|        144765.26|
2018/05/09T05:17:54|       28859.25|        124253658.03|        138206.23|
2018/05/09T05:17:55|       29712.19|        126760710.27|        140108.17|
2018/05/09T05:17:56|       28864.50|        129096325.99|        140800.72|
2018/05/09T05:17:57|       29567.83|        132495938.30|        143896.25|
2018/05/09T05:17:58|       29969.47|        130479134.61|        142990.89|
2018/05/09T05:17:59|       30182.87|        133237575.74|        145261.11|
2018/05/09T05:18:00|       29672.72|        138018784.97|        149537.13|
2018/05/09T05:18:01|       29989.71|        134977683.60|        150269.04|
2018/05/09T05:18:02|       29665.36|        132176009.20|        148394.19|
2018/05/09T05:18:03|       29432.25|        131177670.92|        146678.47|
2018/05/09T05:18:04|       29535.18|        126225609.08|        144812.27|
2018/05/09T05:18:05|       29359.64|        127420398.98|        150223.37|
2018/05/09T05:18:06|       28656.33|        127807752.78|        149666.82|
2018/05/09T05:18:07|       29366.75|        128552904.30|        150318.48|
2018/05/09T05:18:08|       29505.45|        124605506.72|        147690.90|
2018/05/09T05:18:09|       29276.78|        126407168.74|        148793.67|
2018/05/09T05:18:10|       29657.36|        123403427.13|        145726.11|
2018/05/09T05:18:11|       29473.21|        116735309.16|        138424.19|
2018/05/09T05:18:12|       29171.85|        119545086.99|        140367.78|
2018/05/09T05:18:13|       29896.87|        117375474.08|        140046.87|
2018/05/09T05:18:14|       29270.78|        114526942.03|        138211.99|
2018/05/09T05:18:15|       29034.08|        116373918.22|        139155.86|
2018/05/09T05:18:16|       29583.08|        129074732.32|        147818.25|
2018/05/09T05:18:17|       29138.92|        132056977.41|        149297.12|
2018/05/09T05:18:18|       28963.86|        133272353.92|        149631.15|
2018/05/09T05:18:19|       29792.72|        133963870.03|        151101.55|
2018/05/09T05:18:20|       29665.41|        138167077.07|        154108.64|
2018/05/09T05:18:21|       28805.95|        136943185.27|        153439.26|
2018/05/09T05:18:22|       30050.26|        139769469.67|        157505.78|
2018/05/09T05:18:23|       29979.08|        140123426.10|        157848.64|
2018/05/09T05:18:24|       29087.16|        137826207.11|        159017.04|
2018/05/09T05:18:25|       29994.98|        152266816.22|        171439.42|
2018/05/09T05:18:26|       18565.80|        154690926.80|        163221.58|
2018/05/09T05:18:27|        8074.49|        150706655.82|        150747.18|
2018/05/09T05:18:28|        8084.96|        147311156.46|        143048.74|
2018/05/09T05:18:29|        8323.92|        144120963.27|        139912.52|
2018/05/09T05:18:30|        7928.81|        145419704.39|        140594.15|
2018/05/09T05:18:31|        8057.73|        149460869.34|        143392.00|
2018/05/09T05:18:32|        7886.99|        152242857.81|        144859.45|
2018/05/09T05:18:33|        8021.65|        155042297.15|        146810.65|
2018/05/09T05:18:34|        7868.75|        151825263.21|        144550.67|
2018/05/09T05:18:35|        8015.94|        146349546.44|        137572.63|
2018/05/09T05:18:36|        7747.16|        143423110.93|        132111.25|
2018/05/09T05:18:37|       43808.48|        142659791.74|        166532.48|
2018/05/09T05:18:38|      173344.61|        142871950.60|        293695.66|
2018/05/09T05:18:39|       26896.46|        138843579.09|        146910.32|
2018/05/09T05:18:40|       43031.15|        137339627.19|        161429.19|
2018/05/09T05:18:41|       98187.93|        137495850.50|        215819.27|
2018/05/09T05:18:42|       23346.66|        142479730.58|        145740.67|
2018/05/09T05:18:43|       39509.47|        137879912.12|        158422.14|
2018/05/09T05:18:44|       62800.67|        136259976.13|        180462.75|
2018/05/09T05:18:45|       23650.27|        138063749.92|        144708.37|
2018/05/09T05:18:46|       37348.08|        143941830.58|        162846.06|
2018/05/09T05:18:47|       50406.03|        149167419.13|        178950.43|
2018/05/09T05:18:48|       24672.42|        143565743.90|        149260.93|
2018/05/09T05:18:49|       35693.59|        135252846.50|        152472.81|
2018/05/09T05:18:50|       45768.96|        135748338.84|        164414.09|
2018/05/09T05:18:51|       25100.52|        137518144.51|        144139.05|
2018/05/09T05:18:52|       34522.10|        143541029.68|        156935.71|
2018/05/09T05:18:53|       41439.12|        138209618.68|        159786.23|
2018/05/09T05:18:54|       26289.06|        143829184.23|        149137.26|
2018/05/09T05:18:55|       33256.29|        130891978.43|        145760.39|
2018/05/09T05:18:56|       55558.35|        124403019.88|        162396.61|
2018/05/09T05:18:57|       53182.62|        119833436.12|        157039.67|
2018/05/09T05:18:58|       57400.45|        119303463.07|        160545.94|
2018/05/09T05:18:59|       38452.00|        117647162.88|        140499.69|
2018/05/09T05:19:00|       27845.56|        118046130.48|        130670.86|
2018/05/09T05:19:01|       33937.97|        116206587.67|        135430.98|
2018/05/09T05:19:02|       37416.55|        114976469.74|        138591.36|
2018/05/09T05:19:03|       29009.93|        114146646.67|        129439.96|
2018/05/09T05:19:04|       31871.23|        115809129.60|        133521.96|
2018/05/09T05:19:05|       35363.42|        116737799.70|        139164.40|
2018/05/09T05:19:06|       28367.13|        114612589.66|        130880.38|
2018/05/09T05:19:07|       30888.84|        113662622.96|        132111.54|
2018/05/09T05:19:08|       33922.88|        111610296.44|        132380.89|
2018/05/09T05:19:09|       28181.40|        113197880.66|        127767.96|
2018/05/09T05:19:10|       29628.67|        114854259.80|        130485.25|
2018/05/09T05:19:11|       33698.59|        113982102.56|        134008.77|
2018/05/09T05:19:12|       28160.75|        114970099.14|        129377.04|
2018/05/09T05:19:13|       29459.77|        119838454.60|        133952.43|
2018/05/09T05:19:14|       32856.64|        124688126.92|        140604.12|
2018/05/09T05:19:15|       28367.27|        130351981.29|        139950.05|
2018/05/09T05:19:16|       29603.47|        131249747.03|        142451.34|
2018/05/09T05:19:17|       32814.94|        139427515.20|        151123.91|
2018/05/09T05:19:18|       29105.44|        136304173.01|        145005.64|
2018/05/09T05:19:19|       29679.18|        145417094.65|        151911.99|
2018/05/09T05:19:20|       29468.30|        152338119.56|        156523.79|
2018/05/09T05:19:21|       29211.35|        152710204.19|        157402.35|
2018/05/09T05:19:22|       29830.80|        154560834.59|        159098.13|
2018/05/09T05:19:23|       29581.71|        156028437.41|        159044.18|
2018/05/09T05:19:24|       29043.73|        157469332.02|        159276.55|
2018/05/09T05:19:25|       29473.68|        151292353.58|        155301.68|
2018/05/09T05:19:26|       29279.97|        143024968.61|        149212.10|
2018/05/09T05:19:27|       29043.89|        144369704.20|        149817.94|
2018/05/09T05:19:28|       29023.12|        142559478.44|        148517.33|
2018/05/09T05:19:29|       30105.72|        136013965.82|        145934.16|
2018/05/09T05:19:30|       29053.11|        131454982.97|        142173.32|
2018/05/09T05:19:31|       29471.17|        137971467.04|        147617.53|
2018/05/09T05:19:32|       29378.72|        130845345.87|        141962.04|
2018/05/09T05:19:33|       28973.49|        138742545.60|        146542.33|
2018/05/09T05:19:34|       29701.56|        129950815.99|        141607.29|
2018/05/09T05:19:35|       28985.82|        134696471.39|        143731.07|
2018/05/09T05:19:36|       29637.08|        128321477.71|        140199.17|
2018/05/09T05:19:37|       29764.57|        134693048.09|        146783.63|
2018/05/09T05:19:38|       29358.74|        134815083.97|        147241.56|
2018/05/09T05:19:39|       29454.76|        134053218.94|        146562.69|
2018/05/09T05:19:40|       29339.35|        135239052.53|        146961.85|
2018/05/09T05:19:41|       29243.69|        136908286.71|        151260.60|
2018/05/09T05:19:42|       28946.66|        127658533.11|        141394.30|
2018/05/09T05:19:43|       33004.40|        132681355.27|        143938.88|
2018/05/09T05:19:44|       33142.14|        134649688.42|        145596.63|
2018/05/09T05:19:45|       28953.16|        130108791.82|        141445.56|
2018/05/09T05:19:46|       29979.79|        131420144.43|        144301.71|
2018/05/09T05:19:47|       29277.77|        136472768.74|        146889.16|
2018/05/09T05:19:48|       29191.56|        136878963.96|        146797.45|
2018/05/09T05:19:49|       29299.45|        135638943.43|        145708.78|
2018/05/09T05:19:50|       30355.68|        130514741.69|        142442.40|
2018/05/09T05:19:51|       29063.99|        137776750.54|        146419.28|
2018/05/09T05:19:52|       29244.45|        129970227.00|        141158.99|
2018/05/09T05:19:53|       29944.31|        125662316.16|        138793.61|
2018/05/09T05:19:54|       30066.56|        127834008.60|        140761.09|
2018/05/09T05:19:55|       30609.44|        123782702.17|        138652.61|
2018/05/09T05:19:56|       30384.55|        123502395.79|        138856.17|
2018/05/09T05:19:57|       30328.24|        124130836.48|        139062.42|
2018/05/09T05:19:58|       31546.60|        121073743.83|        137848.55|
2018/05/09T05:19:59|       30700.53|        120920586.79|        137461.07|
2018/05/09T05:20:00|       29747.70|        119686580.97|        135312.97|
2018/05/09T05:20:01|       30738.68|        118546274.62|        134775.06|
2018/05/09T05:20:02|       30812.08|        137278804.32|        147628.47|
2018/05/09T05:20:03|       31680.49|        136679486.07|        148294.54|
2018/05/09T05:20:04|       30733.56|        142344055.94|        152451.99|
2018/05/09T05:20:05|       29718.51|        140712474.76|        150421.03|
2018/05/09T05:20:06|       29199.10|        143127403.87|        151779.03|
2018/05/09T05:20:07|       29745.31|        151479881.34|        158424.28|
2018/05/09T05:20:08|       29454.60|        146122116.31|        154752.07|
2018/05/09T05:20:09|       29071.83|        147461217.21|        155055.69|
2018/05/09T05:20:10|       29914.71|        151943012.79|        158768.31|
2018/05/09T05:20:11|       29985.88|        137320636.01|        147581.35|
2018/05/09T05:20:12|       29652.27|        132530299.75|        146943.56|
2018/05/09T05:20:13|       29354.58|        135375147.20|        150429.18|
2018/05/09T05:20:14|       29385.73|        137192093.28|        151620.66|
2018/05/09T05:20:15|       28988.53|        135952126.96|        149916.08|
2018/05/09T05:20:16|       29379.99|        144498145.02|        155914.27|
2018/05/09T05:20:17|       29690.37|        144630796.93|        156220.77|
2018/05/09T05:20:18|       28427.41|        142868350.19|        153346.30|
2018/05/09T05:20:19|       29733.90|        142486483.78|        154230.16|
2018/05/09T05:20:20|       28854.58|        147875353.67|        157647.40|
2018/05/09T05:20:21|       29064.58|        148212078.77|        158276.51|
2018/05/09T05:20:22|       29120.28|        151065124.99|        160408.76|
2018/05/09T05:20:23|       29257.61|        153203623.43|        163213.30|
2018/05/09T05:20:24|       29545.71|        148447097.33|        159723.06|
2018/05/09T05:20:25|       29306.44|        139623015.30|        151278.15|
2018/05/09T05:20:26|       29176.43|        129589748.77|        140092.20|
2018/05/09T05:20:27|       29153.52|        134284733.33|        145094.47|
2018/05/09T05:20:28|       29089.65|        134719206.37|        145466.84|
2018/05/09T05:20:29|       29467.43|        133981513.45|        145243.58|
2018/05/09T05:20:30|       29134.16|        137142794.77|        147047.42|
2018/05/09T05:20:31|       29070.08|        141909445.35|        150590.38|
2018/05/09T05:20:32|       29545.27|        143515496.89|        152168.72|
2018/05/09T05:20:33|       29805.57|        150944879.19|        157867.12|
2018/05/09T05:20:34|       29590.44|        157278836.25|        162117.94|
2018/05/09T05:20:35|       29532.44|        158377467.04|        163105.16|
2018/05/09T05:20:36|       29270.16|        156454460.92|        161931.03|
2018/05/09T05:20:37|       29498.10|        154002545.50|        161961.71|
2018/05/09T05:20:38|       28977.36|        155406154.43|        162298.76|
2018/05/09T05:20:39|       29172.94|        150147325.85|        156683.87|
2018/05/09T05:20:40|       29154.67|        150232876.54|        156398.36|
2018/05/09T05:20:41|       29513.32|        149983713.23|        157133.78|
2018/05/09T05:20:42|       29459.83|        148105752.00|        156102.29|
2018/05/09T05:20:43|       29172.17|        143216267.83|        151984.75|
2018/05/09T05:20:44|       29415.35|        131476786.70|        144251.86|
2018/05/09T05:20:45|       28918.79|        130097321.60|        143058.42|
2018/05/09T05:20:46|       29021.91|        132620919.70|        144653.26|
2018/05/09T05:20:47|       29409.32|        132467487.66|        143794.95|
2018/05/09T05:20:48|       28984.53|        133712031.48|        145102.69|
2018/05/09T05:20:49|       29567.15|        127542418.06|        141043.04|
2018/05/09T05:20:50|       29420.41|        127611035.95|        141011.09|
2018/05/09T05:20:51|       28815.43|        127766765.02|        140655.95|
2018/05/09T05:20:52|       29373.78|        126173531.15|        139966.22|
2018/05/09T05:20:53|       29581.30|        124489224.33|        139364.37|
2018/05/09T05:20:54|       28665.41|        136262257.04|        146854.53|
2018/05/09T05:20:55|       29367.19|        145332961.76|        154077.39|
2018/05/09T05:20:56|       29458.56|        136476431.40|        147813.99|
2018/05/09T05:20:57|       29673.77|        135735820.42|        147449.75|
2018/05/09T05:20:58|       29365.82|        135849889.55|        147753.81|
2018/05/09T05:20:59|       29354.54|        136833733.07|        148097.85|
2018/05/09T05:21:00|       28492.51|        137068488.40|        147246.77|
2018/05/09T05:21:01|       29341.23|        138777884.04|        148458.30|
2018/05/09T05:21:02|       28886.38|        130463194.01|        141247.53|
2018/05/09T05:21:03|       29463.77|        130182148.48|        141133.39|
2018/05/09T05:21:04|       29800.12|        132439896.10|        143326.60|
2018/05/09T05:21:05|       30149.62|        132151841.40|        143726.17|
2018/05/09T05:21:06|       29557.49|        127928152.84|        139575.79|
2018/05/09T05:21:07|       30440.62|        133424585.44|        144214.00|
2018/05/09T05:21:08|       29799.87|        133319255.07|        143346.29|
2018/05/09T05:21:09|       30160.03|        137916539.27|        146613.52|
2018/05/09T05:21:10|       31024.09|        130911762.86|        142758.37|
2018/05/09T05:21:11|       31014.32|        132135273.84|        143777.86|
2018/05/09T05:21:12|       30665.74|        132775505.66|        143852.57|
2018/05/09T05:21:13|       31722.89|        135666991.40|        146887.66|
2018/05/09T05:21:14|       30573.77|        133988954.35|        144616.49|
2018/05/09T05:21:15|       30643.03|        129154356.23|        141103.45|
2018/05/09T05:21:16|       31541.87|        128409647.63|        141164.23|
2018/05/09T05:21:17|       31639.27|        131337141.09|        143124.26|
2018/05/09T05:21:18|       30727.55|        133588291.38|        144110.61|
2018/05/09T05:21:19|       31511.65|        135493898.54|        147306.04|
2018/05/09T05:21:20|       30863.50|        129584706.15|        142355.50|
2018/05/09T05:21:21|       30984.83|        125699252.18|        139757.52|
2018/05/09T05:21:22|       30815.72|        129594562.60|        142154.01|
2018/05/09T05:21:23|       31322.59|        137286759.83|        148556.95|
2018/05/09T05:21:24|       30344.60|        159945159.01|        165068.72|
2018/05/09T05:21:25|       30787.86|        159824731.16|        164873.72|
2018/05/09T05:21:26|       30037.34|        151344963.32|        158014.29|
2018/05/09T05:21:27|       30657.55|        154485047.88|        160718.78|
2018/05/09T05:21:28|       30195.33|        158972740.94|        164782.47|
2018/05/09T05:21:29|       30448.94|        161696988.98|        167253.52|
2018/05/09T05:21:30|       30859.84|        157972077.20|        164732.62|
2018/05/09T05:21:31|       30541.91|        155097765.30|        160639.67|
2018/05/09T05:21:32|       30078.41|        150220704.99|        156392.61|
2018/05/09T05:21:33|       30318.24|        151097845.29|        156851.80|
2018/05/09T05:21:34|       30209.90|        142058281.09|        151012.65|
2018/05/09T05:21:35|       29933.55|        139573204.63|        149158.77|
2018/05/09T05:21:36|       28739.95|        140004150.94|        148324.38|
2018/05/09T05:21:37|       29252.18|        138757414.96|        148352.99|
2018/05/09T05:21:38|       29017.63|        143322452.75|        151362.42|
2018/05/09T05:21:39|       29351.63|        141871958.73|        152051.78|
2018/05/09T05:21:40|       29339.31|        142235258.76|        152285.69|
2018/05/09T05:21:41|       29418.42|        143691306.14|        153143.22|
2018/05/09T05:21:42|       28877.77|        147065356.10|        154871.35|
2018/05/09T05:21:43|       29854.53|        146739635.72|        154655.38|
2018/05/09T05:21:44|       29234.57|        137615886.88|        147474.71|
2018/05/09T05:21:45|       28717.27|        135064953.57|        145581.29|
2018/05/09T05:21:46|       29194.69|        138018648.99|        148723.87|
2018/05/09T05:21:47|       29576.76|        136780240.42|        148114.81|
2018/05/09T05:21:48|       28938.21|        136024728.81|        146388.90|
2018/05/09T05:21:49|       29483.20|        137064714.38|        147477.44|
2018/05/09T05:21:50|       28834.66|        139451708.52|        148459.85|
2018/05/09T05:21:51|       28945.83|        138292016.64|        147924.82|
2018/05/09T05:21:52|       29761.14|        130232062.54|        140839.07|
2018/05/09T05:21:53|       29268.95|        125414571.81|        135873.83|
2018/05/09T05:21:54|       28670.60|        128602287.51|        137846.69|
2018/05/09T05:21:55|       28982.35|        132058023.62|        140781.02|
2018/05/09T05:21:56|       29253.76|        131997077.61|        140644.20|
2018/05/09T05:21:57|       28697.97|        142909732.68|        146961.07|
2018/05/09T05:21:58|       28942.62|        134502097.59|        140906.10|
2018/05/09T05:21:59|       28904.41|        124607273.65|        133920.34|
2018/05/09T05:22:00|       28877.67|        120039413.17|        131541.54|
2018/05/09T05:22:01|       29114.78|        118727008.31|        130708.01|
2018/05/09T05:22:02|       29165.51|        121737577.36|        132905.03|
2018/05/09T05:22:03|       29016.54|        122849388.32|        133401.11|
2018/05/09T05:22:04|       28955.12|        121953622.59|        132285.56|
2018/05/09T05:22:05|       28900.78|        117887094.97|        129302.65|
2018/05/09T05:22:06|       28542.01|        120306812.19|        130712.72|
2018/05/09T05:22:07|       29239.55|        114644764.14|        127531.70|
2018/05/09T05:22:08|       28982.71|        113697788.09|        126652.66|
2018/05/09T05:22:09|       28469.42|        110581899.51|        123950.47|
2018/05/09T05:22:10|       28833.03|        112882059.31|        126142.91|
2018/05/09T05:22:11|       29109.48|        115587118.19|        127839.17|
2018/05/09T05:22:12|       28595.42|        113447526.85|        125728.42|
2018/05/09T05:22:13|       29136.79|        111923841.16|        124833.06|
2018/05/09T05:22:14|       28900.31|        115322465.63|        126764.92|
2018/05/09T05:22:15|       29126.38|        121763580.60|        132587.61|
2018/05/09T05:22:16|       29311.04|        114985127.93|        128182.46|
2018/05/09T05:22:17|       29971.68|        117608210.60|        130039.52|
2018/05/09T05:22:18|       29006.30|        124134396.01|        134613.39|
2018/05/09T05:22:19|       29191.72|        128283436.27|        137418.27|
2018/05/09T05:22:20|       29427.60|        118096187.00|        130771.49|
2018/05/09T05:22:21|       28835.69|        118926433.82|        130798.63|
2018/05/09T05:22:22|       28642.15|        124159324.07|        133657.41|
2018/05/09T05:22:23|       29246.32|        116178332.87|        128088.84|
2018/05/09T05:22:24|       28748.84|        112941915.85|        125430.52|
2018/05/09T05:22:25|       29256.19|        121521168.82|        131913.08|
2018/05/09T05:22:26|       29334.37|        113003199.48|        126100.35|
2018/05/09T05:22:27|       28885.46|        111955825.14|        125119.57|
2018/05/09T05:22:28|       29109.92|        111083517.22|        124414.82|
2018/05/09T05:22:29|       29543.06|        106078290.14|        121208.49|
2018/05/09T05:22:30|       28841.18|        108317477.56|        122008.20|
2018/05/09T05:22:31|       29577.02|        119622009.73|        130028.02|
2018/05/09T05:22:32|       30243.75|        118724508.80|        130896.83|
2018/05/09T05:22:33|       29175.73|        120192397.91|        131144.02|
2018/05/09T05:22:34|       29304.62|        125651100.91|        135137.62|
2018/05/09T05:22:35|       29112.94|        126872600.88|        135721.04|
2018/05/09T05:22:36|       28377.86|        121232994.83|        131064.17|
2018/05/09T05:22:37|       29101.67|        119934004.92|        130995.33|
2018/05/09T05:22:38|       29315.71|        121475725.55|        132183.92|
2018/05/09T05:22:39|       28438.10|        121990005.88|        132673.26|
2018/05/09T05:22:40|       28638.87|        110135151.70|        124025.38|
2018/05/09T05:22:41|       29413.97|        109068188.60|        123920.26|
2018/05/09T05:22:42|       28540.29|        107658347.96|        121914.87|
2018/05/09T05:22:43|       29317.93|        110377882.02|        124640.00|
2018/05/09T05:22:44|       29289.46|        112872441.88|        129624.50|
2018/05/09T05:22:45|       28610.66|        109362791.61|        126722.14|
2018/05/09T05:22:46|       29334.75|        106846052.40|        125012.18|
2018/05/09T05:22:47|       30407.51|        110412919.09|        128773.75|
2018/05/09T05:22:48|       30648.56|        116062226.67|        133421.63|
2018/05/09T05:22:49|       30733.30|        113397158.94|        131131.94|
2018/05/09T05:22:50|       30097.09|        114991742.60|        131312.83|
2018/05/09T05:22:51|       30555.82|        120236760.32|        135977.53|
2018/05/09T05:22:52|       30783.34|        115772822.41|        132695.51|
2018/05/09T05:22:53|       30393.86|        119330530.53|        135106.05|
2018/05/09T05:22:54|       30598.78|        115785918.70|        133666.55|
2018/05/09T05:22:55|       30430.28|        112226380.50|        130900.37|
2018/05/09T05:22:56|       29311.14|        113336704.77|        130420.24|
2018/05/09T05:22:57|       29016.52|        114849383.58|        129587.72|
2018/05/09T05:22:58|       29143.29|        119853501.15|        131499.66|
2018/05/09T05:22:59|       29511.92|        119009763.13|        131060.87|
2018/05/09T05:23:00|       28914.43|        124575858.86|        134322.72|
2018/05/09T05:23:01|       28833.46|        126963937.50|        135676.16|
2018/05/09T05:23:02|       29420.12|        134835734.77|        142368.55|
2018/05/09T05:23:03|       29234.87|        136519821.11|        144141.96|
2018/05/09T05:23:04|       29128.51|        136937636.82|        144457.09|
2018/05/09T05:23:05|       29621.67|        138468753.54|        146337.15|
2018/05/09T05:23:06|       29094.18|        138442333.32|        145843.72|
2018/05/09T05:23:07|       29447.69|        132238273.43|        140647.87|
2018/05/09T05:23:08|       29221.61|        125382699.46|        136068.09|
2018/05/09T05:23:09|       29153.83|        134585014.54|        142746.44|
2018/05/09T05:23:10|       29399.38|        138395659.44|        146386.70|
2018/05/09T05:23:11|       29802.31|        135824852.98|        144701.70|
2018/05/09T05:23:12|       28935.24|        133594881.57|        142085.14|
2018/05/09T05:23:13|       30148.97|        133461096.41|        143491.69|
2018/05/09T05:23:14|       29759.14|        133320236.42|        142398.65|
2018/05/09T05:23:15|       29247.38|        137935362.84|        145853.42|
2018/05/09T05:23:16|       29728.88|        139158140.44|        146474.59|
2018/05/09T05:23:17|       30009.49|        143305049.34|        149561.55|
2018/05/09T05:23:18|       29385.20|        137220132.05|        144071.03|
2018/05/09T05:23:19|       29993.41|        132830128.72|        141294.00|
2018/05/09T05:23:20|       29213.17|        123482345.94|        133068.74|
2018/05/09T05:23:21|       29277.54|        127158682.23|        136163.59|
2018/05/09T05:23:22|       29241.82|        124840631.73|        134057.30|
2018/05/09T05:23:23|       29462.87|        126211993.94|        135090.41|
2018/05/09T05:23:24|       28925.98|        123321637.27|        132614.88|
2018/05/09T05:23:25|       29467.11|        129721613.47|        137728.42|
2018/05/09T05:23:26|       29689.96|        140310579.84|        145301.35|
2018/05/09T05:23:27|       29297.13|        133084374.98|        139462.04|
2018/05/09T05:23:28|       29399.02|        129250403.52|        136596.91|
2018/05/09T05:23:29|       29579.62|        120746281.43|        130773.41|
2018/05/09T05:23:30|       29021.56|        116300803.67|        127643.27|
2018/05/09T05:23:31|       29484.34|        123908624.16|        132762.78|
2018/05/09T05:23:32|       29495.95|        126739435.38|        134558.81|
2018/05/09T05:23:33|       29159.36|        128931784.37|        137117.20|
2018/05/09T05:23:34|       29333.34|        130053378.90|        136906.21|
2018/05/09T05:23:35|       29688.46|        119662585.05|        129963.65|
2018/05/09T05:23:36|       29022.79|        113885204.09|        124950.73|
2018/05/09T05:23:37|       29657.12|        122416510.58|        131303.08|
2018/05/09T05:23:38|       29557.76|        114284174.78|        126108.34|
2018/05/09T05:23:39|       28958.63|        114833486.76|        126683.23|
2018/05/09T05:23:40|       29741.37|        118385566.36|        129102.24|
2018/05/09T05:23:41|       29859.59|        119888384.40|        129714.18|
2018/05/09T05:23:42|       29361.76|        120894186.86|        129724.82|
2018/05/09T05:23:43|       29554.67|        116735681.52|        127196.18|
2018/05/09T05:23:44|       29858.38|        116611777.31|        127814.75|
2018/05/09T05:23:45|       29317.47|        115268662.07|        127220.63|
2018/05/09T05:23:46|       29923.94|        118310263.61|        130020.37|
2018/05/09T05:23:47|       29551.92|        117113051.69|        127528.46|
2018/05/09T05:23:48|       29081.74|        118003260.32|        127618.53|
2018/05/09T05:23:49|       30393.61|        117528400.32|        128902.03|
2018/05/09T05:23:50|       29706.12|        124114094.65|        132842.91|
2018/05/09T05:23:51|       29261.36|        123497071.42|        132439.92|
2018/05/09T05:23:52|       29892.91|        123278676.59|        132596.03|
2018/05/09T05:23:53|       29820.15|        125975601.11|        134228.87|
2018/05/09T05:23:54|       29451.84|        124341668.52|        132674.15|
2018/05/09T05:23:55|       29892.43|        123503637.26|        133467.93|
2018/05/09T05:23:56|       29638.39|        124670976.10|        135443.11|
2018/05/09T05:23:57|       29605.29|        124132268.16|        135062.85|
2018/05/09T05:23:58|       29473.79|        123164620.14|        134484.25|
2018/05/09T05:23:59|       29643.05|        114594220.55|        128823.73|
2018/05/09T05:24:00|       29296.74|        118517469.17|        131705.95|
2018/05/09T05:24:01|       30012.15|        119482267.75|        133320.91|
2018/05/09T05:24:02|       29587.03|        117363760.50|        131346.01|
2018/05/09T05:24:03|       29647.87|        117217747.69|        131335.80|
2018/05/09T05:24:04|       29446.70|        117862643.16|        132115.71|
2018/05/09T05:24:05|       29912.30|        121445048.56|        135328.94|
2018/05/09T05:24:06|       29684.89|        124648521.87|        136886.26|
2018/05/09T05:24:07|       29815.54|        128150570.08|        138051.83|
2018/05/09T05:24:08|       29705.16|        140486408.64|        145990.14|
2018/05/09T05:24:09|       28944.61|        149407486.76|        151356.88|
2018/05/09T05:24:10|       30244.23|        146696309.68|        151395.17|
2018/05/09T05:24:11|       29860.91|        145953829.42|        151067.56|
2018/05/09T05:24:12|       29488.06|        143098603.25|        148452.69|
2018/05/09T05:24:13|       29577.89|        140542940.01|        147597.98|
2018/05/09T05:24:14|       30077.48|        137603886.18|        145247.27|
2018/05/09T05:24:15|       29542.96|        139283479.67|        146527.37|
2018/05/09T05:24:16|       30202.59|        139831981.56|        148091.05|
2018/05/09T05:24:17|       29892.70|        140263021.77|        148328.38|
2018/05/09T05:24:18|       29634.43|        138452896.17|        146503.75|
2018/05/09T05:24:19|       29997.39|        137116823.03|        146360.55|
2018/05/09T05:24:20|       29936.61|        136450109.62|        145191.68|
2018/05/09T05:24:21|       29887.12|        125690938.66|        137536.81|
2018/05/09T05:24:22|       30303.59|        128450906.10|        140220.62|
2018/05/09T05:24:23|       29768.88|        131487979.65|        141757.07|
2018/05/09T05:24:24|       29590.59|        130702933.10|        140831.55|
2018/05/09T05:24:25|       29836.98|        134234977.70|        143305.21|
2018/05/09T05:24:26|       29768.02|        135627722.73|        143731.59|
2018/05/09T05:24:27|       29236.75|        139333635.26|        145550.07|
2018/05/09T05:24:28|       29828.08|        145062545.27|        150531.61|
2018/05/09T05:24:29|       29792.71|        141943846.39|        149292.17|
2018/05/09T05:24:30|       29273.71|        139928828.38|        145522.80|
2018/05/09T05:24:31|       30001.70|        143879095.06|        149359.37|
2018/05/09T05:24:32|       29964.18|        140948039.26|        146905.76|
2018/05/09T05:24:33|       29783.98|        141933926.56|        147491.53|
2018/05/09T05:24:34|       29946.31|        140269756.84|        146741.45|
2018/05/09T05:24:35|       35339.36|        140179261.67|        152534.44|
2018/05/09T05:24:36|       48827.15|        141180729.85|        168517.06|
2018/05/09T05:24:37|       48073.33|        142736899.05|        169740.84|
2018/05/09T05:24:38|       48385.39|        136168938.06|        164867.75|
2018/05/09T05:24:39|       34795.25|        139100297.29|        154570.72|
2018/05/09T05:24:40|       29979.80|        139810779.23|        150798.60|
2018/05/09T05:24:41|       30260.67|        140948257.07|        150807.22|
2018/05/09T05:24:42|       29656.66|        140125724.60|        149329.64|
2018/05/09T05:24:43|       29800.42|        142609565.96|        151204.08|
2018/05/09T05:24:44|       30227.49|        138153897.22|        148513.23|
2018/05/09T05:24:45|       29536.22|        140986438.84|        149664.78|
2018/05/09T05:24:46|       29770.28|        141123540.16|        150253.41|
2018/05/09T05:24:47|       30459.91|        138508145.59|        149285.25|
2018/05/09T05:24:48|       29680.10|        137168006.01|        147406.62|
2018/05/09T05:24:49|       29575.36|        139790325.83|        149078.46|
2018/05/09T05:24:50|       30584.90|        136686418.65|        146687.66|
2018/05/09T05:24:51|       29841.88|        130624921.62|        142368.99|
2018/05/09T05:24:52|       30090.97|        127838328.71|        140294.41|
2018/05/09T05:24:53|       29908.08|        123598214.51|        136569.74|
2018/05/09T05:24:54|       29501.24|        123046930.48|        135929.96|
2018/05/09T05:24:55|       29813.95|        122107107.10|        135220.83|
2018/05/09T05:24:56|       29566.98|        127485249.28|        140945.77|
2018/05/09T05:24:57|       30230.27|        134857917.27|        147838.71|
2018/05/09T05:24:58|       32552.31|        132205257.48|        147503.63|
2018/05/09T05:24:59|       31777.07|        129377253.98|        146271.93|
2018/05/09T05:25:00|       31852.00|        132374977.11|        148916.92|
2018/05/09T05:25:01|       31425.29|        136054310.18|        150150.36|
2018/05/09T05:25:02|       32495.03|        136807265.47|        151918.26|
2018/05/09T05:25:03|       31489.96|        131494715.01|        147471.71|
2018/05/09T05:25:04|       31883.16|        128093280.43|        145249.28|
2018/05/09T05:25:05|       31329.42|        126838541.03|        142130.25|
2018/05/09T05:25:06|       31028.32|        131148004.88|        143642.41|
2018/05/09T05:25:07|       31893.81|        119335100.31|        135572.55|
2018/05/09T05:25:08|       31811.39|        122822191.80|        139960.97|
2018/05/09T05:25:09|       31550.73|        122228530.90|        139345.02|
2018/05/09T05:25:10|       31607.10|        123752390.75|        140561.08|
2018/05/09T05:25:11|       31693.63|        127502118.87|        143231.70|
2018/05/09T05:25:12|       31246.17|        124140636.72|        140316.17|
2018/05/09T05:25:13|       31278.44|        122782292.03|        139144.69|
2018/05/09T05:25:14|       31107.34|        125349451.36|        140921.90|
2018/05/09T05:25:15|       31502.10|        125250503.27|        141476.78|
2018/05/09T05:25:16|       31470.51|        126722197.60|        142297.62|
2018/05/09T05:25:17|       31766.75|        127882194.69|        143631.92|
2018/05/09T05:25:18|       33037.46|        129344853.26|        147116.35|
2018/05/09T05:25:19|       31704.28|        132392332.36|        147079.47|
2018/05/09T05:25:20|       31194.11|        131779192.42|        144100.80|
2018/05/09T05:25:21|       31006.16|        124568470.53|        136164.14|
2018/05/09T05:25:22|       31654.66|        117559755.27|        131455.54|
2018/05/09T05:25:23|       31594.97|        117608705.21|        131011.59|
2018/05/09T05:25:24|       31106.36|        122590844.18|        134354.86|
2018/05/09T05:25:25|       31906.34|        122370493.51|        136772.79|
2018/05/09T05:25:26|       31530.19|        122127962.15|        138635.63|
2018/05/09T05:25:27|       31479.61|        125124479.88|        139977.26|
2018/05/09T05:25:28|       32354.29|        130139592.60|        144468.82|
2018/05/09T05:25:29|       32205.66|        125522339.02|        141235.96|
2018/05/09T05:25:30|       30059.48|        126339727.60|        139896.30|
2018/05/09T05:25:31|       29918.72|        124695494.05|        138692.69|
2018/05/09T05:25:32|       29380.54|        124295305.57|        137827.68|
2018/05/09T05:25:33|       29224.43|        123339649.34|        136507.97|
2018/05/09T05:25:34|       28981.07|        123751163.01|        136819.50|
2018/05/09T05:25:35|       29838.93|        124495742.33|        137169.77|
2018/05/09T05:25:36|       28885.79|        120316726.90|        132482.00|
2018/05/09T05:25:37|       29563.38|        118444809.41|        131753.00|
2018/05/09T05:25:38|       29581.15|        116717353.49|        131287.93|
2018/05/09T05:25:39|       29886.26|        117926374.21|        131277.07|
2018/05/09T05:25:40|       29522.32|        119479871.50|        132787.35|
2018/05/09T05:25:41|       29612.10|        116215458.94|        130930.04|
2018/05/09T05:25:42|       29455.25|        116554002.93|        130133.31|
2018/05/09T05:25:43|       29733.02|        115198317.33|        129586.92|
2018/05/09T05:25:44|       29532.07|        113808823.38|        127223.56|
2018/05/09T05:25:45|       29387.66|        133251907.11|        141445.60|
2018/05/09T05:25:46|       29835.66|        130721433.06|        140017.53|
2018/05/09T05:25:47|       29651.51|        113524345.02|        126950.50|
2018/05/09T05:25:48|       29212.16|        116621794.83|        128633.82|
2018/05/09T05:25:49|       62483.78|        118814328.26|        162844.02|
2018/05/09T05:25:50|       30289.07|        113893290.29|        129701.68|
2018/05/09T05:25:51|       29808.56|        115106900.38|        129754.21|
2018/05/09T05:25:52|       30091.21|        117984642.42|        132442.27|
2018/05/09T05:25:53|       29733.05|        116894319.58|        129726.69|
2018/05/09T05:25:54|       29331.70|        115255110.57|        127964.88|
2018/05/09T05:25:55|       29702.01|        120077502.69|        131501.36|
2018/05/09T05:25:56|       29767.62|        117384002.75|        130121.12|
2018/05/09T05:25:57|       29165.18|        113481732.58|        127358.63|
2018/05/09T05:25:58|       29800.08|        112537329.62|        127822.40|
2018/05/09T05:25:59|       29669.95|        114431160.16|        130075.61|
2018/05/09T05:26:00|       29407.79|        115828833.66|        131924.74|
2018/05/09T05:26:01|       30233.90|        113724825.77|        132537.11|
2018/05/09T05:26:02|       29867.52|        111825689.11|        129242.68|
2018/05/09T05:26:03|       30362.17|        113495528.57|        130649.32|
2018/05/09T05:26:04|       29786.78|        115745385.13|        131818.16|
2018/05/09T05:26:05|       29656.17|        121217229.50|        137340.33|
2018/05/09T05:26:06|       30059.50|        121576380.21|        138715.10|
2018/05/09T05:26:07|       29667.95|        155561092.98|        162761.33|
2018/05/09T05:26:08|       30010.74|        155719255.81|        162959.45|
2018/05/09T05:26:09|       29690.38|        156802279.18|        161062.56|
2018/05/09T05:26:10|       29701.28|        161319656.53|        165248.08|
2018/05/09T05:26:11|       29845.50|        158418160.37|        162520.15|
2018/05/09T05:26:12|       29456.49|        166251701.02|        166929.18|
2018/05/09T05:26:13|       30247.03|        161423248.68|        164334.35|
2018/05/09T05:26:14|       29807.28|        161712094.01|        164314.22|
2018/05/09T05:26:15|       30255.83|        161562961.20|        164688.33|
2018/05/09T05:26:16|       29823.25|        160547239.12|        163833.86|
2018/05/09T05:26:17|       30330.22|        162192427.00|        165036.03|
2018/05/09T05:26:18|       30223.94|        154640738.42|        160011.41|
2018/05/09T05:26:19|       29877.69|        152150533.68|        157684.98|
2018/05/09T05:26:20|       29888.03|        150187286.59|        156136.08|
2018/05/09T05:26:21|       29249.90|        151429742.28|        156111.82|
2018/05/09T05:26:22|       30143.94|        153057920.99|        157945.80|
2018/05/09T05:26:23|       29837.02|        151407749.15|        156425.29|
2018/05/09T05:26:24|       30362.41|        148607732.55|        156640.73|
2018/05/09T05:26:25|       29737.80|        143302813.05|        154237.36|
2018/05/09T05:26:26|       30150.42|        141109015.32|        153195.05|
2018/05/09T05:26:27|       29530.58|        131280388.80|        144969.59|
2018/05/09T05:26:28|       29501.74|        130283565.43|        143873.84|
2018/05/09T05:26:29|       29960.04|        128278224.31|        142258.36|
2018/05/09T05:26:30|       30288.60|        127186602.41|        139875.48|
2018/05/09T05:26:31|       29772.25|        127828661.80|        138400.38|
2018/05/09T05:26:32|       30304.14|        127497489.28|        140372.20|
2018/05/09T05:26:33|       29913.34|        129607729.76|        142767.92|
2018/05/09T05:26:34|       30215.86|        128636000.80|        139548.75|
2018/05/09T05:26:35|       30124.24|        125263564.51|        135713.43|
2018/05/09T05:26:36|       29482.50|        123194079.36|        133474.19|
2018/05/09T05:26:37|       29488.85|        124983791.61|        134397.24|
2018/05/09T05:26:38|       29968.06|        124696338.26|        134633.12|
2018/05/09T05:26:39|       28972.95|        128624481.56|        135605.73|
2018/05/09T05:26:40|       29348.70|        124442682.68|        132695.61|
2018/05/09T05:26:41|       29628.55|        127677671.87|        134773.49|
2018/05/09T05:26:42|       29374.22|        125954473.93|        133779.37|
2018/05/09T05:26:43|       29793.46|        129934182.54|        137333.26|
2018/05/09T05:26:44|       30033.71|        127920624.49|        137841.37|
2018/05/09T05:26:45|       29699.24|        134368271.59|        143081.86|
2018/05/09T05:26:46|       29683.67|        127638292.14|        137909.64|
2018/05/09T05:26:47|       29944.06|        111539861.53|        129224.06|
2018/05/09T05:26:48|       29271.07|        116360468.06|        131965.64|
2018/05/09T05:26:49|       29759.29|        113979738.78|        130745.83|
2018/05/09T05:26:50|       30574.01|        112475080.99|        131386.48|
2018/05/09T05:26:51|       29461.35|        112015021.80|        129290.46|
2018/05/09T05:26:52|       29525.95|        109154792.31|        127023.01|
2018/05/09T05:26:53|       29819.84|        112573379.25|        129224.63|
2018/05/09T05:26:54|       29679.05|        112937850.08|        129374.45|
2018/05/09T05:26:55|       30052.76|        114625558.35|        130646.46|
2018/05/09T05:26:56|       30605.15|        113465800.35|        130089.24|
2018/05/09T05:26:57|       29402.16|        114978240.33|        129685.13|
2018/05/09T05:26:58|       29974.79|        133722498.68|        140064.31|
2018/05/09T05:26:59|       29737.03|        138370862.70|        143468.28|
2018/05/09T05:27:00|       29910.82|        144842046.79|        147898.68|
2018/05/09T05:27:01|       30173.64|        135303488.11|        141906.04|
2018/05/09T05:27:02|       30459.09|        132467530.63|        140401.04|
2018/05/09T05:27:03|       29584.56|        133801464.94|        142516.23|
2018/05/09T05:27:04|       30691.34|        133385554.51|        144309.82|
2018/05/09T05:27:05|       30303.10|        134477026.94|        144396.13|
2018/05/09T05:27:06|       29428.89|        137858365.97|        146063.77|
2018/05/09T05:27:07|       29980.53|        137273873.35|        146169.12|
2018/05/09T05:27:08|       31020.57|        133786679.85|        146145.27|
2018/05/09T05:27:09|       29383.09|        135351796.48|        144434.37|
2018/05/09T05:27:10|       30283.06|        134952153.37|        145246.53|
2018/05/09T05:27:11|       30314.72|        123134385.61|        136748.20|
2018/05/09T05:27:12|       29857.12|        114791873.99|        129277.13|
2018/05/09T05:27:13|       29946.76|        110660662.92|        125673.59|
2018/05/09T05:27:14|       30377.66|        110333155.27|        125935.62|
2018/05/09T05:27:15|       29553.09|        112343765.72|        126547.84|
2018/05/09T05:27:16|       30134.46|        110101419.53|        127059.59|
2018/05/09T05:27:17|       30489.52|        111603676.31|        127562.32|
2018/05/09T05:27:18|       29778.91|        112144532.88|        126510.38|
2018/05/09T05:27:19|       29857.56|        111989311.58|        127849.14|
2018/05/09T05:27:20|       31028.37|        114786868.29|        130827.50|
2018/05/09T05:27:21|       29167.84|        113536215.98|        128332.31|
2018/05/09T05:27:22|       30122.04|        111228526.67|        128119.90|
2018/05/09T05:27:23|       30455.66|        118153931.88|        133174.17|
2018/05/09T05:27:24|       29744.87|        118365259.77|        132293.14|
2018/05/09T05:27:25|       29929.17|        115043220.86|        130665.75|
2018/05/09T05:27:26|       30534.47|        116202617.12|        132303.91|
2018/05/09T05:27:27|       29363.42|        118100523.83|        132401.77|
2018/05/09T05:27:28|       29954.32|        115678025.45|        131855.38|
2018/05/09T05:27:29|       30095.45|        116347312.86|        131771.26|
2018/05/09T05:27:30|       29544.64|        114219612.59|        129597.76|
2018/05/09T05:27:31|       29625.69|        118989328.22|        133364.65|
2018/05/09T05:27:32|       29955.61|        136455547.54|        145806.83|
2018/05/09T05:27:33|       29108.62|        136948745.67|        145635.96|
2018/05/09T05:27:34|       29638.93|        135684472.62|        145351.20|
2018/05/09T05:27:35|       29963.18|        138150839.76|        146334.80|
2018/05/09T05:27:36|       29319.47|        125687027.11|        136999.85|
2018/05/09T05:27:37|       29402.96|        120658171.49|        133994.69|
2018/05/09T05:27:38|       29969.53|        120266280.59|        135141.22|
2018/05/09T05:27:39|       29346.93|        126032067.75|        138776.33|
2018/05/09T05:27:40|       30214.49|        123259245.27|        136730.81|
2018/05/09T05:27:41|       29819.30|        120976008.63|        135146.23|
2018/05/09T05:27:42|       29659.70|        122632190.63|        136377.44|
2018/05/09T05:27:43|       29478.59|        119497551.71|        134113.54|
2018/05/09T05:27:44|       29585.90|        123421219.51|        136083.33|
2018/05/09T05:27:45|       29202.35|        119469974.03|        132874.05|
2018/05/09T05:27:46|       29383.90|        120799914.66|        133731.96|
2018/05/09T05:27:47|       29588.53|        109621938.00|        126059.34|
2018/05/09T05:27:48|       29608.47|        108974252.01|        125419.35|
2018/05/09T05:27:49|       29493.56|        109149745.11|        126001.65|
2018/05/09T05:27:50|       29592.50|        114528104.15|        129698.08|
2018/05/09T05:27:51|       29600.40|        112580040.60|        128487.82|
2018/05/09T05:27:52|       30225.44|        114229881.13|        129235.16|
2018/05/09T05:27:53|       29700.42|        112148340.49|        127050.27|
2018/05/09T05:27:54|       29786.84|        111026066.16|        127100.13|
2018/05/09T05:27:55|       29824.69|        113019291.91|        128003.98|
2018/05/09T05:27:56|       29956.87|        114215221.50|        129216.53|
2018/05/09T05:27:57|       29781.37|        112196737.86|        126848.39|
2018/05/09T05:27:58|       29655.35|        117433117.53|        131123.98|
2018/05/09T05:27:59|       29395.37|        112199766.40|        128465.62|
2018/05/09T05:28:00|       29573.07|        116516439.38|        129876.27|
2018/05/09T05:28:01|       29449.73|        112323023.06|        127045.72|
2018/05/09T05:28:02|       29160.49|        110756474.95|        125279.73|
2018/05/09T05:28:03|       29050.21|        112276873.07|        126840.53|
2018/05/09T05:28:04|       29647.67|        109862521.21|        126362.32|
2018/05/09T05:28:05|       29749.48|        110783093.12|        126389.04|
2018/05/09T05:28:06|       29076.34|        112390195.75|        126489.69|
2018/05/09T05:28:07|       29382.59|        116042834.21|        129416.51|
2018/05/09T05:28:08|       29275.13|        120073822.78|        131855.71|
2018/05/09T05:28:09|       29030.60|        121032767.12|        133067.31|
2018/05/09T05:28:10|       29435.89|        126909044.43|        137316.01|
2018/05/09T05:28:11|       28956.89|        128286732.68|        137517.18|
2018/05/09T05:28:12|       29050.07|        124456417.89|        135107.11|
2018/05/09T05:28:13|       29461.41|        124890952.28|        136030.07|
2018/05/09T05:28:14|       29515.78|        127508907.13|        138757.97|
2018/05/09T05:28:15|       28380.02|        124201665.93|        135439.50|
2018/05/09T05:28:16|       29210.05|        127531093.74|        137973.26|
2018/05/09T05:28:17|       28874.48|        127338967.28|        137853.28|
2018/05/09T05:28:18|       29695.38|        124739593.54|        136896.00|
2018/05/09T05:28:19|       28993.53|        123141762.30|        134248.85|
2018/05/09T05:28:20|       28935.08|        120982218.97|        134617.67|
2018/05/09T05:28:21|       28754.96|        120946758.00|        133119.71|
2018/05/09T05:28:22|       29064.20|        122156702.46|        134916.02|
2018/05/09T05:28:23|       29392.32|        121625206.65|        134409.26|
2018/05/09T05:28:24|       29103.31|        123621514.42|        135376.38|
2018/05/09T05:28:25|       29485.14|        119271644.14|        130682.22|
2018/05/09T05:28:26|       29544.82|        117728373.84|        128854.94|
2018/05/09T05:28:27|       29081.21|        121240696.96|        131062.95|
2018/05/09T05:28:28|       29331.04|        120434697.75|        131014.22|
2018/05/09T05:28:29|       29167.40|        120672483.65|        130741.71|
2018/05/09T05:28:30|       29041.12|        118916767.17|        128320.11|
2018/05/09T05:28:31|       29119.82|        120312727.09|        129356.89|
2018/05/09T05:28:32|       29580.90|        118836254.83|        130037.63|
2018/05/09T05:28:33|       28887.38|        117193992.13|        132350.31|
2018/05/09T05:28:34|       29239.05|        118306245.37|        141664.98|
2018/05/09T05:28:35|       29328.47|        114713436.65|        128390.85|
2018/05/09T05:28:36|       29430.59|        108561108.80|        123582.07|
2018/05/09T05:28:37|       30097.72|        108264341.78|        124649.38|
2018/05/09T05:28:38|       29409.16|        115843323.83|        128777.46|
2018/05/09T05:28:39|       29914.29|        118075559.33|        130725.93|
2018/05/09T05:28:40|       29701.16|        118898096.97|        131201.49|
2018/05/09T05:28:41|       29747.50|        119245894.34|        131783.10|
2018/05/09T05:28:42|       29345.57|        119083075.27|        131800.10|
2018/05/09T05:28:43|       29347.01|        117353462.62|        128721.65|
2018/05/09T05:28:44|       30437.36|        118969712.76|        131601.99|
2018/05/09T05:28:45|       29475.87|        120552115.20|        131069.06|
2018/05/09T05:28:46|       29901.38|        112215407.22|        127086.14|
2018/05/09T05:28:47|       29554.89|        110604032.94|        126078.96|
2018/05/09T05:28:48|       29408.23|        109506867.24|        125342.81|
2018/05/09T05:28:49|       29380.67|        110582103.68|        126246.53|
2018/05/09T05:28:50|       29349.01|        121817182.76|        134754.94|
2018/05/09T05:28:51|       28543.09|        126546431.68|        136586.78|
2018/05/09T05:28:52|       29272.17|        126382411.40|        137310.27|
2018/05/09T05:28:53|       29258.66|        132837599.46|        142076.20|
2018/05/09T05:28:54|       28941.61|        140717576.59|        146904.06|
2018/05/09T05:28:55|       29528.77|        138979360.79|        146839.78|
2018/05/09T05:28:56|       29114.48|        141376229.90|        147359.42|
2018/05/09T05:28:57|       29381.53|        149823186.83|        152729.06|
2018/05/09T05:28:58|       29444.98|        150227858.92|        154633.81|
2018/05/09T05:28:59|       29293.04|        150715069.62|        158344.71|
2018/05/09T05:29:00|       29141.86|        148713285.85|        158174.27|
2018/05/09T05:29:01|       29599.99|        142159639.72|        152221.32|
2018/05/09T05:29:02|       29698.31|        151218308.83|        157883.29|
2018/05/09T05:29:03|       29342.58|        148458462.24|        156095.71|
2018/05/09T05:29:04|       29661.02|        142773699.90|        152588.33|
2018/05/09T05:29:05|       29862.54|        141856160.98|        152592.06|
2018/05/09T05:29:06|       29100.20|        141348893.37|        151151.33|
2018/05/09T05:29:07|       29812.77|        139493893.83|        148974.32|
2018/05/09T05:29:08|       29450.85|        139132723.71|        145387.37|
2018/05/09T05:29:09|       29447.69|        139673405.55|        146369.60|
2018/05/09T05:29:10|       29743.59|        130912702.81|        140261.42|
2018/05/09T05:29:11|       29790.46|        130235531.82|        139792.68|
2018/05/09T05:29:12|       29477.15|        128532292.58|        137787.20|
2018/05/09T05:29:13|       32766.15|        130258687.92|        144860.52|
2018/05/09T05:29:14|       37069.52|        143333148.99|        159023.19|
2018/05/09T05:29:15|       29017.88|        144984636.53|        152081.60|
2018/05/09T05:29:16|       29459.03|        151247149.94|        156859.88|
2018/05/09T05:29:17|       30277.37|        147767147.84|        154938.91|
2018/05/09T05:29:18|       29735.15|        143814961.75|        150576.67|
2018/05/09T05:29:19|       31396.48|        131163838.50|        143531.59|
2018/05/09T05:29:20|       30227.61|        123370858.71|        138294.17|
2018/05/09T05:29:21|       30704.91|        127095970.10|        146424.94|
2018/05/09T05:29:22|       30898.69|        135451359.25|        151410.73|
2018/05/09T05:29:23|       31167.90|        129443340.41|        142586.03|
2018/05/09T05:29:24|       30537.70|        127486532.41|        136354.72|
2018/05/09T05:29:25|       30947.38|        125860298.78|        135756.69|
2018/05/09T05:29:26|       30151.57|        126761979.91|        135449.31|
2018/05/09T05:29:27|       29078.54|        125784682.54|        134272.52|
2018/05/09T05:29:28|       29495.00|        122696306.67|        131966.29|
2018/05/09T05:29:29|       30053.10|        117360964.17|        129003.29|
2018/05/09T05:29:30|       29330.65|        112061678.56|        125650.93|
2018/05/09T05:29:31|       29830.28|        111219343.13|        127326.43|
2018/05/09T05:29:32|       30043.35|        122031670.77|        135969.60|
2018/05/09T05:29:33|       29523.98|        132012646.26|        142627.50|
2018/05/09T05:29:34|       29887.00|        134910438.20|        145427.92|
2018/05/09T05:29:35|       30042.71|        140188836.27|        149639.78|
2018/05/09T05:29:36|       29483.75|        138179154.99|        146900.58|
2018/05/09T05:29:37|       30753.11|        139054583.31|        148723.44|
2018/05/09T05:29:38|       29934.59|        139406951.40|        148307.97|
2018/05/09T05:29:39|       29310.33|        143831450.80|        150778.32|
2018/05/09T05:29:40|       29940.80|        144285922.87|        151343.51|
2018/05/09T05:29:41|       30001.51|        140670967.36|        147033.36|
2018/05/09T05:29:42|       29125.57|        143108287.86|        146509.43|
2018/05/09T05:29:43|       29814.78|        142824673.63|        149960.28|
2018/05/09T05:29:44|       29809.37|        152322940.68|        159601.43|
2018/05/09T05:29:45|       29188.97|        152864204.78|        159711.34|
2018/05/09T05:29:46|       29511.08|        141166060.64|        151339.55|
2018/05/09T05:29:47|       30194.91|        137248767.74|        149156.58|
2018/05/09T05:29:48|       29354.22|        135215623.38|        146606.56|
2018/05/09T05:29:49|       29935.82|        135851992.14|        147866.90|
2018/05/09T05:29:50|       30042.06|        131069245.45|        144741.50|
2018/05/09T05:29:51|       29867.79|        134020315.04|        146976.62|
2018/05/09T05:29:52|       30465.78|        130315229.02|        145663.03|
2018/05/09T05:29:53|       30067.48|        137685556.21|        155786.84|
2018/05/09T05:29:54|       29832.15|        129938128.19|        145490.92|
2018/05/09T05:29:55|       29455.49|        120855991.23|        138234.90|
2018/05/09T05:29:56|       30316.14|        106067308.95|        126010.84|
2018/05/09T05:29:57|       29222.67|         84432200.83|        103357.65|
2018/05/09T05:29:58|       29827.41|         75912581.07|         96595.72|
2018/05/09T05:29:59|       30246.08|         63096123.87|         85892.54|
2018/05/09T05:30:00|        1182.70|          1762494.42|          2603.39|
