               Date|        Records|               Bytes|          Packets|
2018/05/09T06:30:00|       27293.94|         86394056.90|        101992.59|
2018/05/09T06:30:01|       29276.89|         96049390.86|        115102.97|
2018/05/09T06:30:02|       29656.44|         99899989.78|        123181.08|
2018/05/09T06:30:03|       28685.15|        106203067.88|        128137.77|
2018/05/09T06:30:04|       29264.33|        114149963.96|        134651.16|
2018/05/09T06:30:05|       29725.36|        117938160.04|        139182.15|
2018/05/09T06:30:06|       28451.90|        113580165.96|        131433.98|
2018/05/09T06:30:07|       29031.12|        119878347.35|        134973.28|
2018/05/09T06:30:08|       29436.59|        118723660.25|        134697.35|
2018/05/09T06:30:09|       28542.28|        121826681.64|        135932.57|
2018/05/09T06:30:10|       30239.34|        121368740.70|        137318.06|
2018/05/09T06:30:11|       29213.39|        120630290.03|        136015.42|
2018/05/09T06:30:12|       28404.79|        123425479.53|        136298.35|
2018/05/09T06:30:13|       29205.68|        124913112.22|        137696.69|
2018/05/09T06:30:14|       29259.01|        129350231.05|        140527.63|
2018/05/09T06:30:15|       27974.39|        119739647.02|        131942.22|
2018/05/09T06:30:16|       29273.68|        118487756.03|        133010.23|
2018/05/09T06:30:17|       29586.45|        122887270.58|        134976.92|
2018/05/09T06:30:18|       29053.43|        123032560.30|        134251.06|
2018/05/09T06:30:19|       29158.57|        119534621.85|        132365.31|
2018/05/09T06:30:20|       28865.39|        118686507.46|        131856.13|
2018/05/09T06:30:21|       28190.72|        120285277.70|        132078.80|
2018/05/09T06:30:22|       28494.18|        120983885.76|        131452.47|
2018/05/09T06:30:23|       28615.94|        118076229.71|        128914.54|
2018/05/09T06:30:24|       28120.78|        118044004.34|        128583.68|
2018/05/09T06:30:25|       28726.39|        115826399.22|        127914.01|
2018/05/09T06:30:26|       28887.90|        133993879.79|        141250.80|
2018/05/09T06:30:27|       28169.24|        131443636.28|        139214.99|
2018/05/09T06:30:28|       28857.76|        132440016.28|        140771.71|
2018/05/09T06:30:29|       28456.31|        134633746.91|        141625.35|
2018/05/09T06:30:30|       28445.21|        131920559.70|        140399.57|
2018/05/09T06:30:31|       28692.81|        133841276.83|        142040.39|
2018/05/09T06:30:32|       29020.11|        133343612.83|        142068.88|
2018/05/09T06:30:33|       27650.67|        132792933.33|        139824.56|
2018/05/09T06:30:34|       28936.21|        136391540.06|        143372.03|
2018/05/09T06:30:35|       28804.82|        136060728.65|        143423.12|
2018/05/09T06:30:36|       28149.01|        130619175.65|        138757.06|
2018/05/09T06:30:37|       28942.46|        124849207.21|        135368.15|
2018/05/09T06:30:38|       28811.70|        128320256.45|        137839.09|
2018/05/09T06:30:39|       28639.75|        125733441.67|        135887.35|
2018/05/09T06:30:40|       28643.95|        129520717.74|        139516.16|
2018/05/09T06:30:41|       28934.16|        132745196.97|        141440.24|
2018/05/09T06:30:42|       28158.25|        126352444.07|        136263.41|
2018/05/09T06:30:43|       29018.04|        127650890.22|        138373.28|
2018/05/09T06:30:44|       28726.08|        127364163.22|        137842.31|
2018/05/09T06:30:45|       27996.79|        123347172.99|        136100.29|
2018/05/09T06:30:46|       28451.30|        123880377.80|        140919.36|
2018/05/09T06:30:47|       28933.64|        120919082.32|        139161.54|
2018/05/09T06:30:48|       27953.82|        123602901.33|        140120.03|
2018/05/09T06:30:49|       28197.93|        122696332.53|        139711.66|
2018/05/09T06:30:50|       28612.14|        125480392.70|        142115.07|
2018/05/09T06:30:51|       28032.24|        126431289.84|        142276.66|
2018/05/09T06:30:52|       28806.98|        127095059.09|        143781.28|
2018/05/09T06:30:53|       28744.51|        130937742.14|        146414.83|
2018/05/09T06:30:54|       27977.39|        136754622.57|        150008.87|
2018/05/09T06:30:55|       28989.76|        136070888.64|        151018.18|
2018/05/09T06:30:56|       29065.87|        134043554.92|        145067.61|
2018/05/09T06:30:57|       28375.18|        126945363.55|        138176.10|
2018/05/09T06:30:58|       28903.59|        126137856.60|        138180.39|
2018/05/09T06:30:59|       28717.68|        127684904.36|        139436.54|
2018/05/09T06:31:00|       28223.40|        127946525.46|        138703.11|
2018/05/09T06:31:01|       29115.41|        126413287.94|        138330.45|
2018/05/09T06:31:02|       29160.57|        126071554.04|        137988.22|
2018/05/09T06:31:03|       27845.03|        121799956.01|        133351.85|
2018/05/09T06:31:04|       28567.15|        126716691.80|        138065.19|
2018/05/09T06:31:05|       28901.99|        127134112.03|        138150.97|
2018/05/09T06:31:06|       27988.15|        122863530.54|        134412.83|
2018/05/09T06:31:07|       28888.18|        124448181.44|        136620.08|
2018/05/09T06:31:08|       28759.06|        124662813.62|        136503.40|
2018/05/09T06:31:09|       27790.66|        123410632.21|        134418.34|
2018/05/09T06:31:10|       29271.51|        119734029.17|        133175.52|
2018/05/09T06:31:11|       28740.38|        119803392.25|        133258.33|
2018/05/09T06:31:12|       28103.25|        121452489.26|        134194.05|
2018/05/09T06:31:13|       29033.06|        122107165.98|        135975.98|
2018/05/09T06:31:14|       29010.77|        122505087.81|        136029.25|
2018/05/09T06:31:15|       28032.02|        121612711.28|        134419.56|
2018/05/09T06:31:16|       28598.22|        125277400.01|        137456.41|
2018/05/09T06:31:17|       29099.51|        128924448.10|        140353.22|
2018/05/09T06:31:18|       28155.37|        131897328.36|        141676.50|
2018/05/09T06:31:19|       28385.93|        129340921.08|        140062.71|
2018/05/09T06:31:20|       28940.08|        126521098.40|        138593.30|
2018/05/09T06:31:21|       27792.07|        128812817.84|        138921.34|
2018/05/09T06:31:22|       28750.12|        128113513.29|        138978.75|
2018/05/09T06:31:23|       28775.16|        131529210.16|        141567.18|
2018/05/09T06:31:24|       28126.80|        131093056.57|        141143.35|
2018/05/09T06:31:25|       28979.86|        130287549.79|        141385.99|
2018/05/09T06:31:26|       28676.93|        130869609.73|        141353.86|
2018/05/09T06:31:27|       27784.75|        126596390.82|        137124.41|
2018/05/09T06:31:28|       28309.14|        132498813.92|        147240.72|
2018/05/09T06:31:29|       28697.01|        134918458.80|        150243.04|
2018/05/09T06:31:30|       28151.10|        132854955.45|        148251.29|
2018/05/09T06:31:31|       28441.16|        129570549.96|        145939.56|
2018/05/09T06:31:32|       28616.83|        128868489.69|        146074.50|
2018/05/09T06:31:33|       28045.10|        130872747.86|        146603.07|
2018/05/09T06:31:34|       28706.47|        127245969.92|        145303.39|
2018/05/09T06:31:35|       28585.88|        126206986.18|        143516.92|
2018/05/09T06:31:36|       27986.91|        125311847.29|        142181.10|
2018/05/09T06:31:37|       28544.07|        127427271.55|        143984.73|
2018/05/09T06:31:38|       28772.50|        125849566.48|        143110.94|
2018/05/09T06:31:39|       28134.89|        124577181.12|        141535.95|
2018/05/09T06:31:40|       28630.27|        123012574.21|        140571.91|
2018/05/09T06:31:41|       29047.00|        123817252.73|        141554.68|
2018/05/09T06:31:42|       28276.89|        122279425.65|        138926.29|
2018/05/09T06:31:43|       28776.88|        124497126.24|        141346.92|
2018/05/09T06:31:44|       29187.39|        123041716.68|        138919.19|
2018/05/09T06:31:45|       28153.40|        122052049.60|        132698.72|
2018/05/09T06:31:46|       28644.67|        124327235.94|        134684.82|
2018/05/09T06:31:47|       29236.24|        127492504.84|        137456.58|
2018/05/09T06:31:48|       28333.22|        123256665.15|        134290.10|
2018/05/09T06:31:49|       28619.16|        123653277.91|        136171.04|
2018/05/09T06:31:50|       29025.96|        123679777.11|        136778.15|
2018/05/09T06:31:51|       27789.30|        123022071.03|        135403.60|
2018/05/09T06:31:52|       28519.98|        123428227.62|        136658.96|
2018/05/09T06:31:53|       29276.45|        122916266.40|        137398.50|
2018/05/09T06:31:54|       28239.83|        121561559.30|        134524.64|
2018/05/09T06:31:55|       28492.12|        120403339.09|        132838.30|
2018/05/09T06:31:56|       28446.65|        120651589.93|        133046.26|
2018/05/09T06:31:57|       27873.44|        121709567.08|        133115.48|
2018/05/09T06:31:58|       28324.18|        121355888.02|        133307.14|
2018/05/09T06:31:59|       28826.65|        133999600.56|        142570.59|
2018/05/09T06:32:00|       28043.03|        125656067.64|        136825.07|
2018/05/09T06:32:01|       28585.82|        132685994.36|        142585.09|
2018/05/09T06:32:02|       29745.74|        132993050.03|        143852.16|
2018/05/09T06:32:03|       28025.39|        135926551.24|        143770.85|
2018/05/09T06:32:04|       29005.97|        132784554.16|        142412.98|
2018/05/09T06:32:05|       28831.40|        127296938.06|        139442.74|
2018/05/09T06:32:06|       27793.23|        124868995.22|        136997.04|
2018/05/09T06:32:07|       28718.64|        124835261.45|        137582.44|
2018/05/09T06:32:08|       29027.79|        128217828.80|        140188.64|
2018/05/09T06:32:09|       27708.68|        132453648.62|        141685.21|
2018/05/09T06:32:10|       28532.90|        133148728.93|        142293.95|
2018/05/09T06:32:11|       28817.66|        132935879.36|        142585.04|
2018/05/09T06:32:12|       28405.77|        131693833.48|        141136.91|
2018/05/09T06:32:13|       28875.80|        138046869.58|        145871.46|
2018/05/09T06:32:14|       28869.32|        135671366.11|        144406.09|
2018/05/09T06:32:15|       28045.11|        131827568.50|        140870.44|
2018/05/09T06:32:16|       28423.18|        132875208.27|        142558.82|
2018/05/09T06:32:17|       28957.61|        134097410.64|        144068.84|
2018/05/09T06:32:18|       28335.28|        133282222.48|        142628.00|
2018/05/09T06:32:19|       28640.02|        133364557.48|        142095.68|
2018/05/09T06:32:20|       28736.08|        129316194.18|        139732.56|
2018/05/09T06:32:21|       28005.24|        131394172.68|        142058.28|
2018/05/09T06:32:22|       28717.18|        132767352.46|        145101.79|
2018/05/09T06:32:23|       28771.98|        128933488.55|        142483.07|
2018/05/09T06:32:24|       27722.09|        128356494.73|        141353.47|
2018/05/09T06:32:25|       28746.58|        131542855.20|        144782.27|
2018/05/09T06:32:26|       28308.41|        130632548.48|        144198.57|
2018/05/09T06:32:27|       28228.03|        131207094.07|        143938.11|
2018/05/09T06:32:28|       29003.50|        131411192.84|        143864.10|
2018/05/09T06:32:29|       28733.55|        129017732.70|        141746.51|
2018/05/09T06:32:30|       28331.98|        129022153.22|        142495.51|
2018/05/09T06:32:31|       28627.30|        129227907.27|        142842.16|
2018/05/09T06:32:32|       29160.38|        129167761.84|        142457.36|
2018/05/09T06:32:33|       27868.68|        129881717.31|        142062.48|
2018/05/09T06:32:34|       28331.96|        126708797.57|        140234.42|
2018/05/09T06:32:35|       28428.75|        124158021.65|        138805.73|
2018/05/09T06:32:36|       28231.90|        118692002.03|        133967.65|
2018/05/09T06:32:37|       28263.38|        121458660.87|        135106.04|
2018/05/09T06:32:38|       28654.06|        121854094.84|        135660.67|
2018/05/09T06:32:39|       27772.60|        123359911.70|        136015.75|
2018/05/09T06:32:40|       28140.17|        128773239.02|        139622.00|
2018/05/09T06:32:41|       28899.22|        129594298.18|        141206.11|
2018/05/09T06:32:42|       27824.61|        128649772.63|        139449.94|
2018/05/09T06:32:43|       29155.34|        128409507.91|        140900.94|
2018/05/09T06:32:44|       29195.99|        129756252.86|        142214.14|
2018/05/09T06:32:45|       27982.15|        126725012.62|        138695.54|
2018/05/09T06:32:46|       28419.36|        126187000.91|        138417.30|
2018/05/09T06:32:47|       29145.36|        125366584.09|        138559.40|
2018/05/09T06:32:48|       28084.99|        127700090.68|        139363.16|
2018/05/09T06:32:49|       29551.91|        126531948.40|        140470.62|
2018/05/09T06:32:50|       29535.81|        124429066.47|        138522.98|
2018/05/09T06:32:51|       28635.64|        123257202.37|        136775.94|
2018/05/09T06:32:52|       29032.36|        124024635.25|        137569.51|
2018/05/09T06:32:53|       28945.12|        123909712.69|        137505.05|
2018/05/09T06:32:54|       28592.45|        125112376.92|        137933.98|
2018/05/09T06:32:55|       29186.86|        124957577.08|        138140.38|
2018/05/09T06:32:56|       29945.98|        126246393.99|        139669.22|
2018/05/09T06:32:57|       28483.39|        126257580.47|        138384.23|
2018/05/09T06:32:58|       29355.40|        124733090.69|        137646.31|
2018/05/09T06:32:59|       29595.08|        120751552.53|        135620.63|
2018/05/09T06:33:00|       28614.17|        116144029.84|        132396.25|
2018/05/09T06:33:01|       29259.04|        113830743.75|        130464.91|
2018/05/09T06:33:02|       29518.39|        115187239.86|        131824.79|
2018/05/09T06:33:03|       28768.82|        116322042.06|        132079.85|
2018/05/09T06:33:04|       29395.43|        115319182.89|        131712.35|
2018/05/09T06:33:05|       29381.60|        113491549.82|        129497.92|
2018/05/09T06:33:06|       29007.48|        113175819.62|        129246.77|
2018/05/09T06:33:07|       29245.94|        110832169.43|        127719.88|
2018/05/09T06:33:08|       29752.36|        110024357.71|        127871.05|
2018/05/09T06:33:09|       29182.80|        109554435.44|        128156.86|
2018/05/09T06:33:10|       29672.02|        111088809.90|        127790.65|
2018/05/09T06:33:11|       29582.36|        109202391.51|        125999.85|
2018/05/09T06:33:12|       28728.14|        108608125.23|        124455.31|
2018/05/09T06:33:13|       29417.60|        109381150.66|        126094.75|
2018/05/09T06:33:14|       29923.94|        112527297.70|        129004.32|
2018/05/09T06:33:15|       28586.40|        120677738.56|        132724.65|
2018/05/09T06:33:16|       29150.58|        121088586.24|        133078.99|
2018/05/09T06:33:17|       29457.75|        117954756.54|        131139.80|
2018/05/09T06:33:18|       28516.46|        119390573.20|        131469.41|
2018/05/09T06:33:19|       30053.38|        123018799.09|        135149.84|
2018/05/09T06:33:20|       29495.17|        119125939.95|        131423.65|
2018/05/09T06:33:21|       28128.62|        118233064.11|        129281.14|
2018/05/09T06:33:22|       29855.03|        120916477.37|        132811.70|
2018/05/09T06:33:23|       29203.92|        119831856.24|        132656.12|
2018/05/09T06:33:24|       28697.46|        118753059.31|        130921.68|
2018/05/09T06:33:25|       29872.98|        130055685.47|        140035.84|
2018/05/09T06:33:26|       29983.79|        119068120.57|        133453.87|
2018/05/09T06:33:27|       28746.59|        117678725.63|        130521.39|
2018/05/09T06:33:28|       29744.42|        117757521.40|        131085.65|
2018/05/09T06:33:29|       29624.67|        117845995.23|        131264.98|
2018/05/09T06:33:30|       29141.56|        117751390.08|        131320.05|
2018/05/09T06:33:31|       29588.04|        118292351.93|        132319.15|
2018/05/09T06:33:32|       29894.26|        122359746.36|        135475.19|
2018/05/09T06:33:33|       28893.31|        123259134.02|        134937.11|
2018/05/09T06:33:34|       29806.75|        123870447.36|        136019.11|
2018/05/09T06:33:35|       30269.31|        122153396.21|        135340.79|
2018/05/09T06:33:36|       29603.42|        124039839.65|        136252.36|
2018/05/09T06:33:37|       30496.81|        121938717.77|        134719.87|
2018/05/09T06:33:38|       29291.55|        117975676.03|        131902.06|
2018/05/09T06:33:39|       28124.09|        118420645.63|        133227.02|
2018/05/09T06:33:40|       29569.41|        119645414.35|        135434.98|
2018/05/09T06:33:41|       28439.72|        120461390.46|        134352.77|
2018/05/09T06:33:42|       28008.50|        120399605.51|        133917.47|
2018/05/09T06:33:43|       29214.81|        126359106.97|        139280.61|
2018/05/09T06:33:44|       29044.36|        124185449.27|        137655.78|
2018/05/09T06:33:45|       29080.79|        121095536.41|        135549.72|
2018/05/09T06:33:46|       28851.56|        122624476.93|        137032.29|
2018/05/09T06:33:47|       29636.67|        119023744.16|        135099.78|
2018/05/09T06:33:48|       28277.32|        119116074.86|        134137.03|
2018/05/09T06:33:49|       28971.89|        119287148.67|        134268.56|
2018/05/09T06:33:50|       28888.49|        123880268.21|        135123.76|
2018/05/09T06:33:51|       28142.01|        125499050.27|        135277.54|
2018/05/09T06:33:52|       29281.73|        126414405.98|        136586.85|
2018/05/09T06:33:53|       29661.44|        125566808.26|        137175.31|
2018/05/09T06:33:54|       28162.16|        125203025.82|        134906.80|
2018/05/09T06:33:55|       29145.96|        124414184.95|        135224.34|
2018/05/09T06:33:56|       29248.41|        123573832.09|        134893.05|
2018/05/09T06:33:57|       28187.49|        122782546.61|        134223.12|
2018/05/09T06:33:58|       29505.03|        121493635.25|        134039.45|
2018/05/09T06:33:59|       29396.72|        120496879.42|        132589.53|
2018/05/09T06:34:00|       28647.53|        126288265.37|        136752.44|
2018/05/09T06:34:01|       29289.48|        122688413.07|        134103.99|
2018/05/09T06:34:02|       29309.73|        124094352.58|        135454.86|
2018/05/09T06:34:03|       28549.60|        124619612.84|        134688.11|
2018/05/09T06:34:04|       29193.08|        124221908.05|        135116.50|
2018/05/09T06:34:05|       29579.60|        125568882.47|        136219.25|
2018/05/09T06:34:06|       28848.60|        116538558.29|        129430.56|
2018/05/09T06:34:07|       29437.98|        115441158.75|        128996.38|
2018/05/09T06:34:08|       29558.84|        114381363.34|        128085.55|
2018/05/09T06:34:09|       28492.03|        116391059.91|        128497.98|
2018/05/09T06:34:10|       29479.52|        116001868.64|        127193.17|
2018/05/09T06:34:11|       29439.11|        117828333.13|        129314.38|
2018/05/09T06:34:12|       28562.01|        116153252.02|        126551.91|
2018/05/09T06:34:13|       28978.59|        116014287.70|        127133.12|
2018/05/09T06:34:14|       29539.33|        118923632.51|        130703.44|
2018/05/09T06:34:15|       28621.56|        118009169.90|        129306.89|
2018/05/09T06:34:16|       29180.60|        115557424.21|        127653.22|
2018/05/09T06:34:17|       29602.87|        116841737.51|        128352.98|
2018/05/09T06:34:18|       28681.03|        118867998.81|        128195.89|
2018/05/09T06:34:19|       29814.07|        115549378.56|        127395.39|
2018/05/09T06:34:20|       29054.51|        116272398.22|        127005.25|
2018/05/09T06:34:21|       28544.35|        117688121.38|        127282.41|
2018/05/09T06:34:22|       30222.77|        120864841.58|        131458.85|
2018/05/09T06:34:23|       29370.12|        124609538.60|        133522.21|
2018/05/09T06:34:24|       28628.97|        134881965.45|        140174.57|
2018/05/09T06:34:25|       29405.42|        124958218.04|        134122.15|
2018/05/09T06:34:26|       29369.59|        124695307.37|        134136.48|
2018/05/09T06:34:27|       28615.34|        122086563.18|        131338.97|
2018/05/09T06:34:28|       29388.84|        124197946.34|        136428.41|
2018/05/09T06:34:29|       29434.68|        127651039.08|        136192.66|
2018/05/09T06:34:30|       28827.16|        128126750.05|        135578.93|
2018/05/09T06:34:31|       29409.81|        130188241.00|        137932.65|
2018/05/09T06:34:32|       29365.09|        129248076.56|        137374.84|
2018/05/09T06:34:33|       29002.06|        127108530.28|        136287.62|
2018/05/09T06:34:34|       29491.28|        125158370.94|        135494.95|
2018/05/09T06:34:35|       29642.31|        124910421.89|        134284.95|
2018/05/09T06:34:36|       28903.98|        122090796.41|        131660.31|
2018/05/09T06:34:37|       29746.38|        131175397.03|        138588.13|
2018/05/09T06:34:38|       29498.50|        132189066.20|        138763.20|
2018/05/09T06:34:39|       28715.57|        133567195.00|        139875.59|
2018/05/09T06:34:40|       29018.30|        134698851.44|        141805.16|
2018/05/09T06:34:41|       30271.00|        134226503.09|        143452.13|
2018/05/09T06:34:42|       29711.39|        138831919.02|        146102.17|
2018/05/09T06:34:43|       29832.38|        141225915.25|        148362.31|
2018/05/09T06:34:44|       29348.11|        137976174.38|        145755.05|
2018/05/09T06:34:45|       28272.47|        139887330.86|        146312.10|
2018/05/09T06:34:46|       29087.96|        141518822.57|        147889.52|
2018/05/09T06:34:47|       28477.20|        134565244.06|        141915.92|
2018/05/09T06:34:48|       27872.34|        132496219.62|        140779.64|
2018/05/09T06:34:49|       29067.64|        132708784.79|        142278.90|
2018/05/09T06:34:50|       28909.21|        141829541.64|        147778.43|
2018/05/09T06:34:51|       27903.36|        139279217.77|        144217.26|
2018/05/09T06:34:52|       28335.36|        135005110.74|        141895.47|
2018/05/09T06:34:53|       28674.50|        134011852.98|        141648.97|
2018/05/09T06:34:54|       28382.65|        134905967.52|        141553.67|
2018/05/09T06:34:55|       29930.60|        135988305.88|        143585.29|
2018/05/09T06:34:56|       29401.01|        135462551.40|        144018.01|
2018/05/09T06:34:57|       28416.85|        135727301.31|        142334.40|
2018/05/09T06:34:58|       29242.82|        136394009.70|        143929.30|
2018/05/09T06:34:59|       29455.53|        134172271.75|        143199.86|
2018/05/09T06:35:00|       28499.17|        134315983.36|        140491.47|
2018/05/09T06:35:01|       29279.51|        137286736.19|        143778.43|
2018/05/09T06:35:02|       29392.86|        138723379.46|        144325.43|
2018/05/09T06:35:03|       28161.01|        138499537.56|        142147.52|
2018/05/09T06:35:04|       29482.21|        130785486.53|        138596.63|
2018/05/09T06:35:05|       29557.55|        127258321.22|        135974.79|
2018/05/09T06:35:06|       28656.76|        124921369.65|        133151.33|
2018/05/09T06:35:07|       28926.52|        128684021.35|        135812.41|
2018/05/09T06:35:08|       29288.41|        130693567.02|        137142.54|
2018/05/09T06:35:09|       28213.15|        131555909.30|        136790.35|
2018/05/09T06:35:10|       29267.47|        131925087.81|        138278.19|
2018/05/09T06:35:11|       29982.72|        131035953.15|        138515.82|
2018/05/09T06:35:12|       28398.30|        125806857.83|        133762.80|
2018/05/09T06:35:13|       29313.83|        154128307.34|        158421.80|
2018/05/09T06:35:14|       29616.15|        161659579.69|        163927.18|
2018/05/09T06:35:15|       29237.88|        164101128.24|        164868.21|
2018/05/09T06:35:16|       29448.18|        162370316.05|        164043.62|
2018/05/09T06:35:17|       29585.10|        157723987.90|        160586.16|
2018/05/09T06:35:18|       28600.15|        157899038.77|        157693.55|
2018/05/09T06:35:19|       30882.02|        163207552.26|        161414.07|
2018/05/09T06:35:20|       29690.92|        165568528.18|        162517.47|
2018/05/09T06:35:21|       28384.04|        168989936.22|        163839.64|
2018/05/09T06:35:22|       29829.33|        165809558.60|        163541.31|
2018/05/09T06:35:23|       29259.74|        158462170.05|        158241.07|
2018/05/09T06:35:24|       28744.05|        143169088.27|        147334.29|
2018/05/09T06:35:25|       29433.60|        142685634.82|        147943.95|
2018/05/09T06:35:26|       29703.61|        143735406.95|        148830.55|
2018/05/09T06:35:27|       28219.00|        140465113.94|        145094.56|
2018/05/09T06:35:28|       29025.04|        145525661.77|        148865.23|
2018/05/09T06:35:29|       29568.58|        136886540.36|        142729.86|
2018/05/09T06:35:30|       28909.74|        139327266.33|        143230.24|
2018/05/09T06:35:31|       29964.64|        136085854.41|        141701.94|
2018/05/09T06:35:32|       29565.27|        133932828.14|        140154.91|
2018/05/09T06:35:33|       28302.69|        132235811.35|        138218.16|
2018/05/09T06:35:34|       29118.99|        135145485.92|        141174.54|
2018/05/09T06:35:35|       30513.14|        139512887.78|        146047.56|
2018/05/09T06:35:36|       28923.84|        134174696.07|        140436.14|
2018/05/09T06:35:37|       29467.21|        132772812.20|        139382.98|
2018/05/09T06:35:38|       29730.40|        131889274.42|        138636.72|
2018/05/09T06:35:39|       29752.93|        132511151.81|        138788.59|
2018/05/09T06:35:40|       29665.96|        130362995.81|        137423.26|
2018/05/09T06:35:41|       29487.95|        131019839.71|        137709.55|
2018/05/09T06:35:42|       28943.03|        133648477.49|        138959.38|
2018/05/09T06:35:43|       29268.08|        136758242.92|        141008.07|
2018/05/09T06:35:44|       29715.15|        135200487.40|        139834.91|
2018/05/09T06:35:45|       28801.96|        135866134.23|        140259.98|
2018/05/09T06:35:46|       29735.05|        134933494.43|        141544.49|
2018/05/09T06:35:47|       30570.25|        138962611.64|        145257.90|
2018/05/09T06:35:48|       29528.02|        135650782.12|        141665.98|
2018/05/09T06:35:49|       30230.20|        137157911.06|        143552.99|
2018/05/09T06:35:50|       30569.62|        135931564.94|        143064.64|
2018/05/09T06:35:51|       28559.55|        135312825.00|        140542.23|
2018/05/09T06:35:52|       28854.86|        140196435.50|        144249.95|
2018/05/09T06:35:53|       28248.35|        136967392.93|        141806.29|
2018/05/09T06:35:54|       27993.42|        135619983.07|        140798.72|
2018/05/09T06:35:55|       29196.29|        136444698.84|        142923.92|
2018/05/09T06:35:56|       29428.97|        130780328.47|        138833.25|
2018/05/09T06:35:57|       27853.00|        131403487.64|        138843.94|
2018/05/09T06:35:58|       29324.26|        128804184.76|        138942.35|
2018/05/09T06:35:59|       29517.83|        130595545.18|        140156.31|
2018/05/09T06:36:00|       28420.34|        131416316.61|        139459.07|
2018/05/09T06:36:01|       29730.87|        133173899.50|        142780.51|
2018/05/09T06:36:02|       29466.49|        133182692.78|        142942.23|
2018/05/09T06:36:03|       28337.34|        135176661.47|        143542.43|
2018/05/09T06:36:04|       29303.53|        137989326.72|        146987.25|
2018/05/09T06:36:05|       29563.42|        136457168.04|        146238.06|
2018/05/09T06:36:06|       28683.58|        137169654.50|        144624.68|
2018/05/09T06:36:07|       29231.61|        136860553.54|        142783.01|
2018/05/09T06:36:08|       29755.70|        143349556.96|        147959.80|
2018/05/09T06:36:09|       28671.55|        153272638.18|        153377.66|
2018/05/09T06:36:10|       29219.61|        154876734.45|        155410.01|
2018/05/09T06:36:11|       29921.25|        155761981.86|        156272.49|
2018/05/09T06:36:12|       29036.10|        160978914.37|        160537.29|
2018/05/09T06:36:13|       29806.56|        161636882.60|        160496.40|
2018/05/09T06:36:14|       30500.76|        161334461.97|        161321.44|
2018/05/09T06:36:15|       29209.17|        161802871.23|        159363.98|
2018/05/09T06:36:16|       29713.36|        161072684.56|        159401.36|
2018/05/09T06:36:17|       30177.77|        158398547.49|        157556.32|
2018/05/09T06:36:18|       29414.82|        159819135.61|        158352.79|
2018/05/09T06:36:19|       30858.40|        157959083.28|        158124.65|
2018/05/09T06:36:20|       30441.75|        144679951.78|        148434.92|
2018/05/09T06:36:21|       29376.03|        140174226.05|        144492.42|
2018/05/09T06:36:22|       30176.06|        143027170.68|        147351.12|
2018/05/09T06:36:23|       30335.64|        142819264.69|        147336.78|
2018/05/09T06:36:24|       29165.14|        142830108.78|        146069.95|
2018/05/09T06:36:25|       29963.90|        146326197.58|        149583.55|
2018/05/09T06:36:26|       30618.58|        141081371.88|        146658.66|
2018/05/09T06:36:27|       28992.87|        139109850.88|        143544.35|
2018/05/09T06:36:28|       29780.11|        138454844.59|        143793.73|
2018/05/09T06:36:29|       29492.82|        138358771.28|        142828.95|
2018/05/09T06:36:30|       29084.93|        137794298.02|        142610.26|
2018/05/09T06:36:31|       29637.65|        137706262.05|        143508.03|
2018/05/09T06:36:32|       30176.46|        140702929.15|        148324.58|
2018/05/09T06:36:33|       29092.52|        171199965.73|        168316.55|
2018/05/09T06:36:34|       29522.88|        173285100.04|        169816.72|
2018/05/09T06:36:35|       29971.86|        173763959.72|        170183.06|
2018/05/09T06:36:36|       28934.55|        170684186.96|        167272.65|
2018/05/09T06:36:37|       29720.97|        171776308.60|        168269.52|
2018/05/09T06:36:38|       29862.55|        170108958.63|        166981.26|
2018/05/09T06:36:39|       28823.18|        170312381.92|        167486.70|
2018/05/09T06:36:40|       29780.45|        172913156.68|        169935.57|
2018/05/09T06:36:41|       29620.55|        168712636.69|        165948.50|
2018/05/09T06:36:42|       29172.12|        170669364.08|        166252.47|
2018/05/09T06:36:43|       29943.37|        155103548.15|        155556.83|
2018/05/09T06:36:44|       30279.93|        143765997.27|        147654.15|
2018/05/09T06:36:45|       29188.39|        142891671.92|        146286.85|
2018/05/09T06:36:46|       29659.43|        141943309.06|        145988.65|
2018/05/09T06:36:47|       29971.74|        147531122.65|        149820.92|
2018/05/09T06:36:48|       28627.87|        148716810.64|        149664.18|
2018/05/09T06:36:49|       29512.85|        149215828.93|        151057.14|
2018/05/09T06:36:50|       30113.55|        147151565.66|        150934.79|
2018/05/09T06:36:51|       28992.49|        145337220.30|        147901.47|
2018/05/09T06:36:52|       30294.04|        142760808.65|        147680.72|
2018/05/09T06:36:53|       31268.31|        141639072.75|        147028.05|
2018/05/09T06:36:54|       30051.26|        143121669.43|        146187.59|
2018/05/09T06:36:55|       29838.45|        141854745.89|        145303.67|
2018/05/09T06:36:56|       29790.84|        138077226.41|        142487.62|
2018/05/09T06:36:57|       28608.12|        138931498.84|        141695.28|
2018/05/09T06:36:58|       30061.95|        138276192.23|        142357.53|
2018/05/09T06:36:59|       29164.77|        136229392.71|        141206.51|
2018/05/09T06:37:00|       27608.86|        137994897.20|        140918.48|
2018/05/09T06:37:01|       28899.61|        137157706.79|        141500.13|
2018/05/09T06:37:02|       29337.12|        138060739.31|        142785.74|
2018/05/09T06:37:03|       27822.50|        139931206.45|        142973.05|
2018/05/09T06:37:04|       29392.57|        145930360.69|        148927.78|
2018/05/09T06:37:05|       29360.36|        148846933.34|        151876.81|
2018/05/09T06:37:06|       28898.55|        150076795.95|        151854.02|
2018/05/09T06:37:07|       29258.00|        146100950.28|        149299.84|
2018/05/09T06:37:08|       29620.44|        146082513.09|        149722.81|
2018/05/09T06:37:09|       28546.33|        139977570.19|        144545.45|
2018/05/09T06:37:10|       29008.71|        143728803.61|        147395.44|
2018/05/09T06:37:11|       29675.19|        141554120.85|        146723.96|
2018/05/09T06:37:12|       28767.24|        143208511.68|        146973.59|
2018/05/09T06:37:13|       29483.53|        137143789.82|        143938.75|
2018/05/09T06:37:14|       29490.94|        140942752.32|        147048.57|
2018/05/09T06:37:15|       28733.09|        140629220.17|        145672.84|
2018/05/09T06:37:16|       29694.57|        141599067.84|        146799.93|
2018/05/09T06:37:17|       29616.83|        142266699.83|        147067.15|
2018/05/09T06:37:18|       28808.02|        142376601.60|        146666.25|
2018/05/09T06:37:19|       29691.82|        145233070.69|        150684.50|
2018/05/09T06:37:20|       30185.36|        151160708.42|        158552.47|
2018/05/09T06:37:21|       28645.33|        148226152.99|        154378.96|
2018/05/09T06:37:22|       29624.13|        149650223.06|        156476.53|
2018/05/09T06:37:23|       29996.68|        146353913.07|        154422.46|
2018/05/09T06:37:24|       29191.59|        145646333.85|        153130.06|
2018/05/09T06:37:25|       29969.88|        146356369.72|        154846.20|
2018/05/09T06:37:26|       29583.01|        148390452.82|        156161.05|
2018/05/09T06:37:27|       29370.51|        148124598.69|        155515.14|
2018/05/09T06:37:28|       29788.00|        145008997.27|        153042.03|
2018/05/09T06:37:29|       30378.82|        145748949.76|        153148.85|
2018/05/09T06:37:30|       29167.56|        140014081.48|        147759.47|
2018/05/09T06:37:31|       29681.92|        135961193.51|        145655.66|
2018/05/09T06:37:32|       29728.98|        134996283.35|        146034.64|
2018/05/09T06:37:33|       29131.72|        138810983.77|        147231.16|
2018/05/09T06:37:34|       30174.12|        141348123.30|        149981.77|
2018/05/09T06:37:35|       30721.41|        141166061.22|        150474.90|
2018/05/09T06:37:36|       29188.65|        139207690.64|        147528.36|
2018/05/09T06:37:37|       30172.63|        144823656.47|        152671.66|
2018/05/09T06:37:38|       29832.84|        143500986.91|        151467.01|
2018/05/09T06:37:39|       29010.03|        147546737.43|        153219.99|
2018/05/09T06:37:40|       31307.78|        152857379.29|        159004.77|
2018/05/09T06:37:41|       36894.78|        152151102.43|        163998.03|
2018/05/09T06:37:42|       35516.63|        148141014.45|        159958.49|
2018/05/09T06:37:43|       36294.11|        149782921.28|        161545.78|
2018/05/09T06:37:44|       36983.01|        147736863.84|        160713.75|
2018/05/09T06:37:45|       35786.14|        147555866.77|        159729.52|
2018/05/09T06:37:46|       35915.75|        149349796.33|        161192.73|
2018/05/09T06:37:47|       36496.96|        150653746.94|        162893.71|
2018/05/09T06:37:48|       35604.78|        152838859.10|        163635.37|
2018/05/09T06:37:49|       36256.12|        148607240.38|        161852.40|
2018/05/09T06:37:50|       36913.05|        148758354.32|        162844.84|
2018/05/09T06:37:51|       35269.11|        152501384.58|        163851.00|
2018/05/09T06:37:52|       30278.23|        152091698.21|        158392.85|
2018/05/09T06:37:53|       30819.01|        157895579.72|        163664.58|
2018/05/09T06:37:54|       29489.61|        157333805.31|        159293.12|
2018/05/09T06:37:55|       30780.20|        154685624.58|        156712.77|
2018/05/09T06:37:56|       30246.35|        152482365.90|        154759.85|
2018/05/09T06:37:57|       29643.93|        153336038.30|        154726.57|
2018/05/09T06:37:58|       30589.65|        153937615.43|        156015.31|
2018/05/09T06:37:59|       33246.11|        152400125.75|        157966.09|
2018/05/09T06:38:00|       31164.89|        156772428.52|        158957.67|
2018/05/09T06:38:01|       31031.88|        155613831.17|        157731.68|
2018/05/09T06:38:02|       30521.88|        151605721.99|        154905.25|
2018/05/09T06:38:03|       29851.88|        152546189.53|        155071.64|
2018/05/09T06:38:04|       30127.32|        144878664.80|        150259.79|
2018/05/09T06:38:05|       30036.33|        142792110.03|        148305.06|
2018/05/09T06:38:06|       28557.54|        143862859.44|        147975.45|
2018/05/09T06:38:07|       29615.08|        144780912.38|        149764.00|
2018/05/09T06:38:08|       30027.52|        149299786.81|        153412.76|
2018/05/09T06:38:09|       29623.64|        138369645.60|        145495.33|
2018/05/09T06:38:10|       29781.43|        140186111.73|        148525.24|
2018/05/09T06:38:11|       30554.82|        141899864.19|        150061.01|
2018/05/09T06:38:12|       28980.72|        143549940.38|        149782.09|
2018/05/09T06:38:13|       29725.06|        147086180.50|        152853.04|
2018/05/09T06:38:14|       30009.71|        148632400.34|        154357.74|
2018/05/09T06:38:15|       29316.72|        142406638.81|        149383.05|
2018/05/09T06:38:16|       29858.26|        141153897.61|        149006.56|
2018/05/09T06:38:17|       30548.68|        140992952.09|        149283.21|
2018/05/09T06:38:18|       29154.74|        142294343.88|        149054.21|
2018/05/09T06:38:19|       30328.19|        142279222.43|        152834.32|
2018/05/09T06:38:20|       30289.22|        142313615.81|        149965.02|
2018/05/09T06:38:21|       29711.79|        138553100.13|        145905.27|
2018/05/09T06:38:22|       30345.62|        141888653.65|        149206.72|
2018/05/09T06:38:23|       30513.00|        140925598.68|        149150.93|
2018/05/09T06:38:24|       31087.49|        137895441.14|        147352.68|
2018/05/09T06:38:25|       30074.41|        138073107.03|        146324.19|
2018/05/09T06:38:26|       30492.87|        139277917.32|        147090.84|
2018/05/09T06:38:27|       29553.80|        135194134.86|        143843.02|
2018/05/09T06:38:28|       29828.36|        134626284.50|        143647.61|
2018/05/09T06:38:29|       29970.92|        135812544.60|        144537.48|
2018/05/09T06:38:30|       29335.75|        136232945.97|        144142.90|
2018/05/09T06:38:31|       29692.48|        141841970.51|        148403.33|
2018/05/09T06:38:32|       29952.90|        140740895.97|        147048.09|
2018/05/09T06:38:33|       29544.65|        139368570.69|        145784.81|
2018/05/09T06:38:34|       30354.41|        135966281.28|        143729.39|
2018/05/09T06:38:35|       29804.45|        133973368.05|        141692.42|
2018/05/09T06:38:36|       29361.74|        130755454.20|        139038.70|
2018/05/09T06:38:37|       29777.63|        131525704.32|        139769.35|
2018/05/09T06:38:38|       30047.09|        133513241.40|        141406.84|
2018/05/09T06:38:39|       29445.58|        130088064.93|        138488.27|
2018/05/09T06:38:40|       30391.90|        130214029.78|        139081.50|
2018/05/09T06:38:41|       30393.01|        132389044.44|        140235.17|
2018/05/09T06:38:42|       29555.83|        132265332.98|        138967.98|
2018/05/09T06:38:43|       30826.58|        134281802.68|        141510.29|
2018/05/09T06:38:44|       30587.01|        136750701.63|        143320.15|
2018/05/09T06:38:45|       29517.43|        139187389.08|        144417.69|
2018/05/09T06:38:46|       31101.58|        139779113.43|        145694.58|
2018/05/09T06:38:47|       31291.78|        145194277.15|        149682.14|
2018/05/09T06:38:48|       30803.41|        141091205.70|        146138.81|
2018/05/09T06:38:49|       30588.90|        140792369.94|        146129.43|
2018/05/09T06:38:50|       30660.24|        143682876.80|        148474.00|
2018/05/09T06:38:51|       29108.16|        145719772.65|        148627.28|
2018/05/09T06:38:52|       30687.20|        155337261.88|        156580.64|
2018/05/09T06:38:53|       29948.26|        143251724.52|        146629.63|
2018/05/09T06:38:54|       29562.38|        144147088.39|        146979.18|
2018/05/09T06:38:55|       30471.64|        141092349.21|        145756.18|
2018/05/09T06:38:56|       30358.02|        136559194.20|        142337.71|
2018/05/09T06:38:57|       29283.54|        133791488.24|        139270.61|
2018/05/09T06:38:58|       30578.39|        140290445.78|        144978.31|
2018/05/09T06:38:59|       30112.27|        135436689.61|        141356.19|
2018/05/09T06:39:00|       29713.42|        137472804.56|        142375.58|
2018/05/09T06:39:01|       30461.84|        136340728.97|        142311.56|
2018/05/09T06:39:02|       30080.17|        138372093.42|        143498.54|
2018/05/09T06:39:03|       29315.84|        136192462.44|        141928.51|
2018/05/09T06:39:04|       30297.34|        130203735.32|        138825.09|
2018/05/09T06:39:05|       31448.80|        130535950.41|        139402.92|
2018/05/09T06:39:06|       30062.45|        131767282.40|        138753.87|
2018/05/09T06:39:07|       30782.77|        130196242.28|        138458.75|
2018/05/09T06:39:08|       30449.06|        132017748.57|        139376.46|
2018/05/09T06:39:09|       28964.29|        127789469.59|        135174.16|
2018/05/09T06:39:10|       30455.70|        127721025.02|        136616.32|
2018/05/09T06:39:11|       29329.08|        129713772.23|        137342.19|
2018/05/09T06:39:12|       29010.67|        129169365.38|        136579.11|
2018/05/09T06:39:13|       29432.96|        133391703.15|        140084.54|
2018/05/09T06:39:14|       29590.71|        130641590.62|        137992.85|
2018/05/09T06:39:15|       28932.27|        127084447.69|        134460.43|
2018/05/09T06:39:16|       29839.43|        130172399.88|        137766.89|
2018/05/09T06:39:17|       30403.67|        128948408.71|        137216.68|
2018/05/09T06:39:18|       29271.90|        127450438.45|        135191.19|
2018/05/09T06:39:19|       29892.22|        129179552.22|        137258.95|
2018/05/09T06:39:20|       30306.77|        127806504.77|        136560.76|
2018/05/09T06:39:21|       28545.63|        129371707.94|        135431.29|
2018/05/09T06:39:22|       30147.83|        127863531.56|        135414.42|
2018/05/09T06:39:23|       29895.95|        124950044.38|        133520.53|
2018/05/09T06:39:24|       29343.05|        128812450.19|        135490.59|
2018/05/09T06:39:25|       30614.01|        130298477.92|        137879.20|
2018/05/09T06:39:26|       30238.61|        132330064.89|        138614.76|
2018/05/09T06:39:27|       29274.70|        132736841.15|        138815.18|
2018/05/09T06:39:28|       30431.10|        134784373.18|        141401.01|
2018/05/09T06:39:29|       30206.78|        134813450.09|        141079.21|
2018/05/09T06:39:30|       29056.46|        136970492.13|        141391.86|
2018/05/09T06:39:31|       30464.02|        137228908.48|        143418.43|
2018/05/09T06:39:32|       30281.27|        132729492.42|        139974.40|
2018/05/09T06:39:33|       29908.41|        131003798.50|        138639.60|
2018/05/09T06:39:34|       29935.39|        129989487.84|        138207.93|
2018/05/09T06:39:35|       30518.85|        132009478.44|        140357.79|
2018/05/09T06:39:36|       29500.98|        134685615.34|        141588.43|
2018/05/09T06:39:37|       30990.86|        134090182.04|        142945.70|
2018/05/09T06:39:38|       30927.82|        138239431.85|        145795.45|
2018/05/09T06:39:39|       29368.15|        135487697.55|        143096.77|
2018/05/09T06:39:40|       30349.50|        142790486.34|        148946.16|
2018/05/09T06:39:41|       30635.41|        142882325.14|        149711.84|
2018/05/09T06:39:42|       29327.15|        145154515.96|        149914.61|
2018/05/09T06:39:43|       30456.12|        145181880.29|        150795.65|
2018/05/09T06:39:44|       30085.87|        144973594.81|        150063.82|
2018/05/09T06:39:45|       29608.71|        147621275.78|        151672.92|
2018/05/09T06:39:46|       30603.58|        150593912.88|        154416.59|
2018/05/09T06:39:47|       30516.99|        144368886.26|        149311.85|
2018/05/09T06:39:48|       29599.78|        146910706.05|        149774.55|
2018/05/09T06:39:49|       30623.61|        145845080.83|        150335.89|
2018/05/09T06:39:50|       30244.50|        146744980.03|        150288.30|
2018/05/09T06:39:51|       29739.62|        143511971.96|        147289.41|
2018/05/09T06:39:52|       29812.13|        144028345.32|        147935.95|
2018/05/09T06:39:53|       30472.94|        146031608.52|        149915.95|
2018/05/09T06:39:54|       29280.00|        145862881.04|        148547.20|
2018/05/09T06:39:55|       30301.69|        145937897.07|        149531.86|
2018/05/09T06:39:56|       30154.83|        144703254.01|        149785.22|
2018/05/09T06:39:57|       29847.32|        143057722.78|        148409.58|
2018/05/09T06:39:58|       30184.42|        147904064.30|        152095.71|
2018/05/09T06:39:59|       30942.83|        144997197.22|        150289.98|
2018/05/09T06:40:00|       29961.53|        146068812.69|        150135.53|
2018/05/09T06:40:01|       30582.61|        146090877.60|        150607.27|
2018/05/09T06:40:02|       30304.81|        143724883.95|        149167.07|
2018/05/09T06:40:03|       30040.00|        138239546.20|        144881.95|
2018/05/09T06:40:04|       30186.65|        137834243.49|        144732.76|
2018/05/09T06:40:05|       30908.67|        141182312.45|        147703.83|
2018/05/09T06:40:06|       29745.23|        138384063.31|        144653.57|
2018/05/09T06:40:07|       30634.85|        138317423.12|        146226.17|
2018/05/09T06:40:08|       30250.85|        137973699.82|        145299.67|
2018/05/09T06:40:09|       29860.41|        139918231.64|        147029.81|
2018/05/09T06:40:10|       30330.25|        139055279.80|        147122.07|
2018/05/09T06:40:11|       31818.27|        138192627.28|        146998.62|
2018/05/09T06:40:12|       30346.58|        137945386.20|        144645.99|
2018/05/09T06:40:13|       31191.95|        142413260.79|        149384.61|
2018/05/09T06:40:14|       29839.75|        139011522.47|        145592.03|
2018/05/09T06:40:15|       29494.62|        138846529.34|        144941.58|
2018/05/09T06:40:16|       30700.10|        137881369.85|        145475.09|
2018/05/09T06:40:17|       30131.30|        141909380.85|        147709.90|
2018/05/09T06:40:18|       28848.04|        141797019.15|        146411.53|
2018/05/09T06:40:19|       29959.92|        139159007.66|        146979.36|
2018/05/09T06:40:20|       29382.56|        139761469.19|        147411.26|
2018/05/09T06:40:21|       29358.32|        136544099.68|        143917.75|
2018/05/09T06:40:22|       29321.10|        135072643.34|        142655.44|
2018/05/09T06:40:23|       30431.27|        136038385.31|        144647.71|
2018/05/09T06:40:24|       28802.06|        131619911.62|        139772.75|
2018/05/09T06:40:25|       29707.77|        133176770.38|        141748.99|
2018/05/09T06:40:26|       30306.50|        134042549.03|        142833.34|
2018/05/09T06:40:27|       29101.30|        132056231.58|        140576.57|
2018/05/09T06:40:28|       29334.20|        126700512.28|        136754.00|
2018/05/09T06:40:29|       29834.77|        130436844.18|        140106.35|
2018/05/09T06:40:30|       28828.38|        129391729.22|        138592.46|
2018/05/09T06:40:31|       29489.13|        130591179.57|        140204.02|
2018/05/09T06:40:32|       29989.13|        134794523.36|        144049.28|
2018/05/09T06:40:33|       29268.24|        130836270.47|        140954.17|
2018/05/09T06:40:34|       29943.56|        135273271.14|        144502.15|
2018/05/09T06:40:35|       29648.43|        138026288.11|        146537.81|
2018/05/09T06:40:36|       29619.63|        136098405.11|        145535.14|
2018/05/09T06:40:37|       29503.71|        137670665.65|        145727.34|
2018/05/09T06:40:38|       30038.81|        137785107.45|        145865.45|
2018/05/09T06:40:39|       28868.67|        139802329.68|        149623.95|
2018/05/09T06:40:40|       30285.26|        142710875.66|        150526.98|
2018/05/09T06:40:41|       29743.89|        158477176.86|        160848.87|
2018/05/09T06:40:42|       29753.54|        141177369.27|        148134.39|
2018/05/09T06:40:43|       30156.09|        137888370.84|        146232.08|
2018/05/09T06:40:44|       30524.68|        146097239.06|        152990.02|
2018/05/09T06:40:45|       29473.06|        144304814.71|        151156.39|
2018/05/09T06:40:46|       30234.59|        143236558.37|        151898.69|
2018/05/09T06:40:47|       30028.65|        145478733.02|        153561.50|
2018/05/09T06:40:48|       29192.64|        142176766.62|        149819.87|
2018/05/09T06:40:49|       30351.41|        144504357.24|        152027.86|
2018/05/09T06:40:50|       30424.34|        143116142.67|        151376.05|
2018/05/09T06:40:51|       29235.87|        145074275.70|        151862.58|
2018/05/09T06:40:52|       30345.82|        146260418.10|        153881.96|
2018/05/09T06:40:53|       30255.42|        148706997.34|        155057.14|
2018/05/09T06:40:54|       29275.92|        140521465.13|        147857.10|
2018/05/09T06:40:55|       29958.55|        132821903.05|        142784.73|
2018/05/09T06:40:56|       30192.51|        136218337.65|        145502.04|
2018/05/09T06:40:57|       29126.35|        138133217.60|        146510.91|
2018/05/09T06:40:58|       30213.56|        138379493.71|        147167.81|
2018/05/09T06:40:59|       30043.66|        139151686.47|        154308.01|
2018/05/09T06:41:00|       29431.10|        143781367.48|        159197.42|
2018/05/09T06:41:01|       30357.29|        142175181.38|        159044.93|
2018/05/09T06:41:02|       30277.87|        144259826.14|        161085.15|
2018/05/09T06:41:03|       29557.91|        140406899.97|        157732.84|
2018/05/09T06:41:04|       30509.44|        143564391.12|        161036.47|
2018/05/09T06:41:05|       30232.43|        141252920.18|        159051.27|
2018/05/09T06:41:06|       29523.32|        140076417.73|        157115.06|
2018/05/09T06:41:07|       29972.99|        137899519.78|        156236.00|
2018/05/09T06:41:08|       30443.73|        140370273.23|        158771.89|
2018/05/09T06:41:09|       29232.71|        138014787.95|        155436.07|
2018/05/09T06:41:10|       30351.02|        138681198.24|        156513.65|
2018/05/09T06:41:11|       29776.47|        138088058.22|        153905.80|
2018/05/09T06:41:12|       29164.17|        136325461.48|        144655.54|
2018/05/09T06:41:13|       30237.22|        136759075.86|        145737.16|
2018/05/09T06:41:14|       29566.32|        142461958.12|        149447.06|
2018/05/09T06:41:15|       29415.58|        147505507.98|        152727.79|
2018/05/09T06:41:16|       30264.40|        141879647.69|        150024.82|
2018/05/09T06:41:17|       32120.61|        139219613.83|        150244.68|
2018/05/09T06:41:18|       30102.46|        138380198.54|        147136.63|
2018/05/09T06:41:19|       30763.89|        135547588.16|        145412.27|
2018/05/09T06:41:20|       29747.19|        143328091.45|        152380.00|
2018/05/09T06:41:21|       29251.05|        151204022.78|        157440.76|
2018/05/09T06:41:22|       29337.81|        149033962.82|        155923.34|
2018/05/09T06:41:23|       28977.14|        148799759.87|        156299.68|
2018/05/09T06:41:24|       28538.20|        150507094.49|        159236.14|
2018/05/09T06:41:25|       29024.06|        147191507.31|        155554.85|
2018/05/09T06:41:26|       29716.47|        147813796.60|        160672.45|
2018/05/09T06:41:27|       28567.29|        148844951.70|        154599.54|
2018/05/09T06:41:28|       29155.11|        146545263.57|        153687.72|
2018/05/09T06:41:29|       29993.21|        148057678.04|        157740.95|
2018/05/09T06:41:30|       28657.85|        145396315.14|        152683.45|
2018/05/09T06:41:31|       29189.09|        139776234.51|        148851.11|
2018/05/09T06:41:32|       29803.56|        139458819.68|        149316.58|
2018/05/09T06:41:33|       28744.56|        137627209.19|        146716.64|
2018/05/09T06:41:34|       29576.07|        136686271.37|        146486.96|
2018/05/09T06:41:35|       29749.03|        138215235.94|        147913.78|
2018/05/09T06:41:36|       28769.07|        143973823.87|        151201.80|
2018/05/09T06:41:37|       29596.67|        152201009.49|        157711.95|
2018/05/09T06:41:38|       30149.43|        155381128.43|        160224.46|
2018/05/09T06:41:39|       29288.85|        145265091.52|        151831.09|
2018/05/09T06:41:40|       29439.18|        143468033.59|        150715.28|
2018/05/09T06:41:41|       30113.82|        145245328.71|        152782.00|
2018/05/09T06:41:42|       29860.65|        144939623.31|        151718.14|
2018/05/09T06:41:43|       29815.50|        146867174.09|        152635.55|
2018/05/09T06:41:44|       30405.95|        150619864.56|        155221.32|
2018/05/09T06:41:45|       29530.86|        141078788.64|        147657.99|
2018/05/09T06:41:46|       29999.73|        142189419.44|        148949.14|
2018/05/09T06:41:47|       30021.76|        143615674.79|        150340.63|
2018/05/09T06:41:48|       29597.85|        158541200.48|        161940.07|
2018/05/09T06:41:49|       29647.82|        161837445.58|        164344.39|
2018/05/09T06:41:50|       30026.20|        153729462.03|        159116.84|
2018/05/09T06:41:51|       29194.53|        154907067.05|        159226.18|
2018/05/09T06:41:52|       29904.93|        161551854.30|        164419.19|
2018/05/09T06:41:53|       30025.91|        157498282.41|        162326.73|
2018/05/09T06:41:54|       29635.37|        159109061.46|        163473.40|
2018/05/09T06:41:55|       30483.50|        158812661.46|        164693.14|
2018/05/09T06:41:56|       29848.33|        161806973.75|        166216.16|
2018/05/09T06:41:57|       29263.60|        161582456.33|        165104.12|
2018/05/09T06:41:58|       30231.97|        145815120.05|        153851.50|
2018/05/09T06:41:59|       30324.04|        139098822.06|        148297.24|
2018/05/09T06:42:00|       29493.42|        142051536.70|        149651.19|
2018/05/09T06:42:01|       30191.12|        142841680.39|        150357.03|
2018/05/09T06:42:02|       30251.46|        138993147.91|        147913.57|
2018/05/09T06:42:03|       29206.21|        136489952.36|        145179.62|
2018/05/09T06:42:04|       29954.61|        137476547.98|        146662.60|
2018/05/09T06:42:05|       30160.84|        138748599.05|        148311.01|
2018/05/09T06:42:06|       29894.48|        140124909.28|        149739.52|
2018/05/09T06:42:07|       30069.48|        139236360.36|        148875.32|
2018/05/09T06:42:08|       30580.32|        138219280.91|        149493.39|
2018/05/09T06:42:09|       29634.56|        136686614.33|        147630.07|
2018/05/09T06:42:10|       29731.93|        135916888.96|        147093.29|
2018/05/09T06:42:11|       29835.71|        136396032.53|        148404.21|
2018/05/09T06:42:12|       28913.19|        128811577.81|        142130.39|
2018/05/09T06:42:13|       30135.77|        126498417.23|        141670.18|
2018/05/09T06:42:14|       29420.39|        126904145.98|        140701.33|
2018/05/09T06:42:15|       29540.85|        128268621.92|        141969.81|
2018/05/09T06:42:16|       30195.38|        129737241.38|        143570.10|
2018/05/09T06:42:17|       30829.71|        133378391.51|        145931.87|
2018/05/09T06:42:18|       29819.59|        129851621.78|        141967.20|
2018/05/09T06:42:19|       30009.84|        128396390.43|        140841.29|
2018/05/09T06:42:20|       30371.80|        129447618.69|        141947.42|
2018/05/09T06:42:21|       29680.78|        131088131.12|        142032.43|
2018/05/09T06:42:22|       29698.12|        134985855.73|        146030.87|
2018/05/09T06:42:23|       30544.62|        132800031.66|        145224.80|
2018/05/09T06:42:24|       29649.35|        135685771.69|        146707.20|
2018/05/09T06:42:25|       30249.09|        141994962.08|        150802.16|
2018/05/09T06:42:26|       29615.92|        137970113.50|        147206.20|
2018/05/09T06:42:27|       28598.71|        141602827.40|        148741.20|
2018/05/09T06:42:28|       29660.10|        138931125.20|        147768.05|
2018/05/09T06:42:29|       29058.55|        136511848.30|        144597.59|
2018/05/09T06:42:30|       28503.94|        136948365.74|        144356.21|
2018/05/09T06:42:31|       28956.48|        135871881.06|        143956.61|
2018/05/09T06:42:32|       29295.89|        137481017.17|        144854.17|
2018/05/09T06:42:33|       28401.23|        137815513.52|        144159.85|
2018/05/09T06:42:34|       29880.91|        137768763.52|        145381.40|
2018/05/09T06:42:35|       30765.60|        137859877.74|        146530.60|
2018/05/09T06:42:36|       28546.86|        134424778.44|        141862.01|
2018/05/09T06:42:37|       29612.44|        135629061.12|        143735.16|
2018/05/09T06:42:38|       30654.18|        131881744.91|        141828.34|
2018/05/09T06:42:39|       29149.09|        143747179.09|        148381.20|
2018/05/09T06:42:40|       29518.30|        149776756.40|        152575.22|
2018/05/09T06:42:41|       29979.76|        150750504.96|        153814.37|
2018/05/09T06:42:42|       29280.28|        148010444.17|        150997.96|
2018/05/09T06:42:43|       29603.78|        132691105.73|        141040.18|
2018/05/09T06:42:44|       29634.16|        131411154.77|        140316.91|
2018/05/09T06:42:45|       29453.27|        134695803.95|        142989.83|
2018/05/09T06:42:46|       29914.39|        133604387.90|        142914.07|
2018/05/09T06:42:47|       30369.75|        133034599.50|        142687.80|
2018/05/09T06:42:48|       29155.42|        129345457.27|        138805.64|
2018/05/09T06:42:49|       30016.89|        129121104.00|        139998.78|
2018/05/09T06:42:50|       30135.50|        125903896.92|        137690.87|
2018/05/09T06:42:51|       29228.12|        124865761.36|        135287.26|
2018/05/09T06:42:52|       29853.91|        134962949.48|        143068.73|
2018/05/09T06:42:53|       29825.43|        126148124.04|        136552.68|
2018/05/09T06:42:54|       30634.91|        123278326.08|        134868.34|
2018/05/09T06:42:55|       30550.93|        127487635.61|        137539.71|
2018/05/09T06:42:56|       29640.02|        126638970.62|        136449.60|
2018/05/09T06:42:57|       28890.41|        126505688.85|        135473.43|
2018/05/09T06:42:58|       29471.71|        121197163.96|        132212.28|
2018/05/09T06:42:59|       29832.52|        125489538.74|        135796.94|
2018/05/09T06:43:00|       29314.40|        128847294.57|        137705.88|
2018/05/09T06:43:01|       30121.81|        135224109.48|        143433.74|
2018/05/09T06:43:02|       29874.73|        142676453.01|        150911.65|
2018/05/09T06:43:03|       29305.74|        142256269.83|        150515.92|
2018/05/09T06:43:04|       29592.11|        143072350.17|        151936.43|
2018/05/09T06:43:05|       29802.84|        139215033.25|        148697.16|
2018/05/09T06:43:06|       29644.64|        141428622.73|        150271.14|
2018/05/09T06:43:07|       29805.45|        142592904.46|        151370.79|
2018/05/09T06:43:08|       30024.17|        141455162.49|        150920.75|
2018/05/09T06:43:09|       29206.96|        142003397.86|        149797.91|
2018/05/09T06:43:10|       30026.73|        136672143.35|        146854.01|
2018/05/09T06:43:11|       29855.08|        140600385.32|        149468.79|
2018/05/09T06:43:12|       29171.54|        138632802.31|        147375.22|
2018/05/09T06:43:13|       29843.49|        136814349.95|        147252.43|
2018/05/09T06:43:14|       29672.60|        136453445.36|        146521.22|
2018/05/09T06:43:15|       29855.04|        137018666.67|        146925.51|
2018/05/09T06:43:16|       29710.80|        127615469.17|        137272.34|
2018/05/09T06:43:17|       29756.59|        131656286.15|        141941.43|
2018/05/09T06:43:18|       29140.33|        129526117.52|        140127.23|
2018/05/09T06:43:19|       29582.92|        132044718.86|        142225.00|
2018/05/09T06:43:20|       30178.08|        130131561.97|        141481.69|
2018/05/09T06:43:21|       29179.59|        132399567.35|        141857.30|
2018/05/09T06:43:22|       29572.58|        132158493.62|        142606.49|
2018/05/09T06:43:23|       29795.46|        130570944.64|        141025.11|
2018/05/09T06:43:24|       29153.47|        135097018.08|        143514.74|
2018/05/09T06:43:25|       29160.87|        136815714.56|        144507.53|
2018/05/09T06:43:26|       30304.13|        134552314.90|        143497.56|
2018/05/09T06:43:27|       28908.08|        133005558.16|        140359.43|
2018/05/09T06:43:28|       29110.43|        131194208.38|        139400.52|
2018/05/09T06:43:29|       29803.54|        132504634.31|        142029.97|
2018/05/09T06:43:30|       29375.27|        136991617.17|        143088.06|
2018/05/09T06:43:31|       29475.66|        142941581.13|        146666.66|
2018/05/09T06:43:32|       29625.24|        154644744.72|        155288.57|
2018/05/09T06:43:33|       28659.88|        150826704.46|        151763.33|
2018/05/09T06:43:34|       29697.95|        151172216.58|        153352.53|
2018/05/09T06:43:35|       29485.01|        158384438.83|        158422.26|
2018/05/09T06:43:36|       28322.95|        155452082.47|        155033.69|
2018/05/09T06:43:37|       29324.15|        155120207.59|        156237.72|
2018/05/09T06:43:38|       29143.17|        158510012.69|        157905.48|
2018/05/09T06:43:39|       30067.88|        156314649.88|        157214.35|
2018/05/09T06:43:40|       29539.61|        147843194.79|        150409.51|
2018/05/09T06:43:41|       29431.14|        136051368.89|        141322.00|
2018/05/09T06:43:42|       28987.47|        137846121.76|        142107.49|
2018/05/09T06:43:43|       29618.45|        185721649.46|        177337.42|
2018/05/09T06:43:44|       30147.14|        207472937.49|        193997.39|
2018/05/09T06:43:45|       29851.77|        211925734.72|        197238.75|
2018/05/09T06:43:46|       29768.03|        210928136.76|        196344.27|
2018/05/09T06:43:47|       29939.66|        212350727.21|        196907.28|
2018/05/09T06:43:48|       29213.70|        212976350.18|        196663.20|
2018/05/09T06:43:49|       30386.01|        211343964.06|        196984.31|
2018/05/09T06:43:50|       30397.35|        210538295.63|        197411.68|
2018/05/09T06:43:51|       30041.34|        212566566.48|        198132.24|
2018/05/09T06:43:52|       31078.98|        214063217.66|        201456.64|
2018/05/09T06:43:53|       31362.19|        180887238.19|        176403.63|
2018/05/09T06:43:54|       30057.88|        150424707.95|        154016.63|
2018/05/09T06:43:55|       30718.80|        155698197.06|        158378.12|
2018/05/09T06:43:56|       30522.62|        153215481.36|        156218.51|
2018/05/09T06:43:57|       29514.82|        154285742.20|        156181.33|
2018/05/09T06:43:58|       30250.50|        153282815.04|        156788.23|
2018/05/09T06:43:59|       30288.24|        153286974.67|        156573.84|
2018/05/09T06:44:00|       29514.71|        154162825.81|        156604.51|
2018/05/09T06:44:01|       29927.95|        156240518.63|        158156.36|
2018/05/09T06:44:02|       29991.48|        160334185.01|        161119.64|
2018/05/09T06:44:03|       29053.27|        157579519.72|        158216.37|
2018/05/09T06:44:04|       29589.37|        159135256.53|        159633.65|
2018/05/09T06:44:05|       29764.18|        157875695.45|        159616.06|
2018/05/09T06:44:06|       29175.05|        155230557.09|        157576.03|
2018/05/09T06:44:07|       30664.28|        149396684.71|        154869.23|
2018/05/09T06:44:08|       29644.93|        144020758.73|        150481.61|
2018/05/09T06:44:09|       30295.76|        143478838.56|        151000.39|
2018/05/09T06:44:10|       29654.33|        147819079.71|        153591.69|
2018/05/09T06:44:11|       29974.79|        142027511.43|        149512.96|
2018/05/09T06:44:12|       29065.46|        140884961.85|        147656.59|
2018/05/09T06:44:13|       29631.02|        139317925.55|        146928.32|
2018/05/09T06:44:14|       29946.32|        137506681.14|        146793.38|
2018/05/09T06:44:15|       29222.15|        138364792.63|        146522.22|
2018/05/09T06:44:16|       29373.20|        140759491.27|        148128.58|
2018/05/09T06:44:17|       30037.65|        139655722.01|        147920.94|
2018/05/09T06:44:18|       30150.36|        134789180.04|        143720.75|
2018/05/09T06:44:19|       29850.42|        128963435.30|        137597.01|
2018/05/09T06:44:20|       29817.65|        131187485.12|        138946.51|
2018/05/09T06:44:21|       28527.20|        130942931.49|        137240.17|
2018/05/09T06:44:22|       29240.62|        129510628.99|        136871.24|
2018/05/09T06:44:23|       30257.09|        128968007.39|        137724.50|
2018/05/09T06:44:24|       28717.77|        128700558.86|        136861.65|
2018/05/09T06:44:25|       29481.07|        130609124.59|        139010.67|
2018/05/09T06:44:26|       29701.50|        127726574.28|        137481.23|
2018/05/09T06:44:27|       29274.29|        130523545.64|        138952.96|
2018/05/09T06:44:28|       30212.20|        130848254.05|        140233.11|
2018/05/09T06:44:29|       29912.02|        133839748.01|        142327.80|
2018/05/09T06:44:30|       28996.53|        130680067.80|        139273.78|
2018/05/09T06:44:31|       30190.17|        130805809.42|        140689.03|
2018/05/09T06:44:32|       29907.66|        136617059.75|        144391.95|
2018/05/09T06:44:33|       28964.81|        140720062.35|        146428.25|
2018/05/09T06:44:34|       29902.73|        144425244.80|        151066.25|
2018/05/09T06:44:35|       30398.39|        144601891.04|        151404.36|
2018/05/09T06:44:36|       29645.25|        151082580.77|        155849.41|
2018/05/09T06:44:37|       30657.09|        159608603.78|        163808.81|
2018/05/09T06:44:38|       29883.60|        146603301.23|        153608.89|
2018/05/09T06:44:39|       32604.34|        146162675.60|        155999.73|
2018/05/09T06:44:40|       29960.80|        146489419.34|        153072.33|
2018/05/09T06:44:41|       29470.79|        140312463.76|        147336.25|
2018/05/09T06:44:42|       28497.36|        140292649.40|        149286.74|
2018/05/09T06:44:43|       29691.25|        136690144.48|        144657.80|
2018/05/09T06:44:44|       29453.97|        141965958.09|        148614.71|
2018/05/09T06:44:45|       29628.21|        148597386.60|        152561.52|
2018/05/09T06:44:46|       30463.65|        148860950.81|        153259.89|
2018/05/09T06:44:47|       30676.55|        147431946.96|        153245.06|
2018/05/09T06:44:48|       29642.52|        144241367.89|        151906.63|
2018/05/09T06:44:49|       29774.02|        137167229.10|        148019.94|
2018/05/09T06:44:50|       30058.35|        135454554.99|        145797.25|
2018/05/09T06:44:51|       29015.24|        133932690.62|        143856.29|
2018/05/09T06:44:52|       30441.74|        134197286.01|        146063.36|
2018/05/09T06:44:53|       30152.60|        134514867.85|        145775.09|
2018/05/09T06:44:54|       29183.62|        124658085.09|        136076.46|
2018/05/09T06:44:55|       30392.92|        116689215.34|        131207.34|
2018/05/09T06:44:56|       31802.77|         99677857.09|        119373.85|
2018/05/09T06:44:57|       29987.77|        101276266.97|        117247.29|
2018/05/09T06:44:58|       30233.59|         91595773.43|        110193.73|
2018/05/09T06:44:59|       29706.45|         98509205.63|        110997.11|
2018/05/09T06:45:00|        1094.58|          2027838.78|          2681.30|
